,Unnamed: 0,Term,Fq-0,Fq-1,Fq-2,Fq-3,Fq-4,Tfidf-0,Tfidf-1,Tfidf-2,Tfidf-3,Tfidf-4,Prob-0,Prob-1,Prob-2,Prob-3,Prob-4
394,news,news,0,0,0,1,1,0.0,0.0,0.0,0.05908505784691547,0.07616615132946414,1.0353996913181618e-05,1.4295288565335794e-05,1.2776983567164281e-05,0.0017640950391069055,0.009443542920053005
257,great,great,2,0,2,0,3,0.07677614197952387,0.0,0.08073934583838685,0.0,0.1896743579203416,0.00362023338675499,0.0002990791399497539,0.008033470250666142,0.0002404899278189987,0.008822094649076462
23,ally,ally,0,0,0,0,1,0.0,0.0,0.0,0.0,0.09440598135580047,1.0085712347063238e-05,1.391953082929831e-05,0.0020241041202098127,0.0005232194671407342,0.007761881221085788
252,government,government,3,2,0,0,2,0.1151642129692858,0.10505020200114608,0.0,0.0,0.12644957194689446,0.006886010523885489,0.0047153253108263024,1.3410061001195572e-05,0.0012752612819895148,0.0073532252572476855
93,carry,carry,1,0,0,0,1,0.04624565475761944,0.0,0.0,0.0,0.07616615132946414,0.0034155210014432673,0.00013783175381831825,0.00020154792582616207,0.0002501147973816842,0.007277538068592548
505,save,save,0,0,0,0,2,0.0,0.0,0.0,0.0,0.18881196271160092,1.0291052603861315e-05,1.4265912795963233e-05,0.0009598630131222307,0.00022131339937914166,0.006543288007378578
25,america,america,2,1,4,0,1,0.0645865110319611,0.04418577083663745,0.13584096611926771,0.0,0.05318668314769561,0.005196316633373499,0.0021789660677313805,0.013544251210987568,0.00017650432710070163,0.00600284431129694
464,race,race,0,0,0,0,1,0.0,0.0,0.0,0.0,0.09440598135580047,9.96064682112774e-06,1.3849629795004148e-05,1.2552710359159391e-05,1.2007673831249123e-05,0.0059966761618852615
633,war,war,0,0,0,0,1,0.0,0.0,0.0,0.0,0.09440598135580047,1.0038931577582844e-05,1.3852562005922666e-05,1.257085932593327e-05,1.2063675058016088e-05,0.0059946547262370595
87,call,call,0,0,0,1,1,0.0,0.0,0.0,0.05908505784691547,0.07616615132946414,1.0051701792690436e-05,1.4179051504470406e-05,1.2779883945768233e-05,0.0017648909706622364,0.005993291269987822
