,text,doc_id,events
26,I believe that a .308 AR-10 is the best all around rifle that this is available today.,26,[]
2,"Yes, Hitler's Jewish Solders was the topic of a well documented book that was written by a Texan and was big news in the Dallas area while I was living there.",2,[]
