,Unnamed: 0,Term,Fq-0,Fq-1,Fq-2,Fq-3,Fq-4,Tfidf-0,Tfidf-1,Tfidf-2,Tfidf-3,Tfidf-4,Prob-0,Prob-1,Prob-2,Prob-3,Prob-4
132,crimea,crimea,2,0,0,0,0,0.11464059413871715,0.0,0.0,0.0,0.0,0.019837938249111176,0.0034174660686403517,1.2683150998782367e-05,0.0041268691420555115,1.7970263797906227e-05
647,white,white,2,1,9,5,0,0.06458651103196109,0.04418577083663742,0.3056421737683524,0.20629493519199896,0.0,0.01600273698568344,0.004982694052159786,0.0147430170327425,0.015415829606354238,0.0004462783690541983
501,russian,russian,3,0,0,0,1,0.13873696427285828,0.0,0.0,0.0,0.07616615132946405,0.015401031821966171,0.0017706878716126086,0.00033021956915035844,0.0018203399376943707,0.0013718761038035154
620,ukrainian,ukrainian,2,0,0,0,0,0.11464059413871715,0.0,0.0,0.0,0.0,0.011096428148448469,0.0014982549473643305,1.2720121048914736e-05,0.0023085656575858593,1.7966855011763982e-05
363,men,men,3,0,0,0,0,0.17196089120807576,0.0,0.0,0.0,0.0,0.010979384183883669,5.556810720008798e-05,1.2712092939182185e-05,1.887948383227922e-05,1.7955806470126845e-05
390,nazi,nazi,2,0,0,0,0,0.11464059413871715,0.0,0.0,0.0,0.0,0.010959753766655922,6.729199958499521e-05,1.2588338904606646e-05,1.7690446838969365e-05,1.7841577573562972e-05
18,air,air,1,0,0,0,0,0.057320297069358574,0.0,0.0,0.0,0.0,0.010034898295998572,0.00027411850169301033,0.0009110066457651557,0.0009886417537927628,0.0029543878044933076
466,range,range,2,0,0,0,0,0.11464059413871715,0.0,0.0,0.0,0.0,0.009206353686749935,2.633067379065324e-05,0.003138673258945346,4.439161421032623e-05,0.000640524725895375
267,handgun,handgun,2,0,1,1,0,0.07677614197952386,0.0,0.04036967291919343,0.04904593538461855,0.0,0.007124408148229122,0.0001364074560115114,0.0024106537457555532,0.00696044322103262,0.0008579656714573503
252,government,government,3,2,0,0,2,0.11516421296928578,0.10505020200114602,0.0,0.0,0.12644957194689427,0.0068863225169479856,0.004715876188129187,1.3408794984570704e-05,0.0012755002826452255,0.0073534040711820126
