,topic_lda,bag_words,sa_score,events,rank
11159,1.0,"['obama', 'homosexual', 'druggie', 'african', 'muslim', 'respect', 'trump', 'white', 'american', 'man', 'command', 'respect']",1,[],0.014021736000000002
2542,1.0,"['wutz', 'dis', 'brn', 'lady', 'wontz', 'ta', 'ax', 'yu', 'sumpin', 'utopia', 'nyc', 'true', 'brave', 'muslim', 'woman', 'youtube']",1,[],0.013089547
4672,1.0,"['muslim', 'rent', 'muslim', 'extremist', 'moderate', 'non-violent', 'muslim', 'peace']",1,[],0.013089547
2050,1.0,"['good', 'goose', 'good', 'gander', 'jew']",1,[],0.012789425
4266,1.0,"['poster', 'communist', 'jew', 'henry', 'kissinger']",1,[],0.012789425
4345,1.0,"['trash', 'white_folks', 'watch', 'jewish_controlled', 'tv', 'solution', 'jew', 'america']",1,[],0.012789425
10713,1.0,"['liberal', 'remake', 'hollywood', 'jew', 'remake', 'combination', 'american', 'sniper', 'selma', 'potential', 'money', 'maker']",1,[],0.012789425
6794,1.0,"['nationalist', 'men', 'communist', 'scum', 'washington', 'dc', 'god_bless', 'dixie', 'freedom']",1,[],0.011600982
1045,1.0,"['flag', 'youtube', 'today', 'confederate', 'government', 'flag', 'south_carolina', 'accent', 'felt']",1,[],0.008749347
11215,1.0,"['state', 'territory', 'support', 'law', 'confederacy', 'union', 'confederacy', 'nation', 'nation', 'union', 'army', 'cause', 'ruckus', 'free', 'state', 'leaf', 'texas', 'south_carolina', 'vermont', 'maine', 'hate', 'government', 'raise', 'hand', 'sea', 'hand', 'stretch', 'sea', 'shin', 'sea', 'god', 'bless_dixie']",1,[],0.008749347
938,1.0,"['church', 'kek', 'music', 'video', 'sound', 'social', 'justice']",1,[],0.006588482
12875,1.0,"['charlotte', 'iserbyt', 'dumbing', 'america', 'excerpt', 'save', 'pull', 'youtube', 'video', 'save', 'savevid.com', 'save', 'website']",1,[],0.006588482
