,topic_lda,bag_words,sa_score,events
1,4.0,['today'],0,[]
7,4.0,"['abu', 'dhabi', 'murderer', 'security', 'video']",0,[]
37,4.0,"['difference', 'play', 'language', 'rule']",0,[]
43,4.0,"['nice', 'image', 'thule', 'society', 'thread', 'picture', 'year', 'thread', 'nice', 'mixture', 'celtic', 'germanic', 'symbolism', 'picture', 'picture', 'discussion']",0,[]
52,4.0,"['trump', 'hire', 'goon', 'silence', 'protester', 'crowd', 'point', 'overlook', 'real', 'movement', 'white', 'folk', 'cow', 'tow', 'anti-whites']",0,[]
53,4.0,"['government', 'person']",0,[]
54,4.0,"['black', 'african', 'terrorist', 'race', 'war', 'america', 'normal', 'average', 'american', 'odds', 'race', 'war', 'communist', 'mexican', 'illegals', 'free', 'place', 'year', 'survivor', 'future', 'america']",0,[]
59,4.0,"['colonial', 'patriot', 'freedom', 'government', 'descendant', 'patriot', 'federal', 'mafia', 'word', 'butcher', 'attack', 'confederate', 'patriot', 'case', 'federal', 'mafia', 'butcher', 'deed', 'treachery', 'limit', 'honor', 'blood', 'murder', 'white', 'child', 'blood', 'murder', 'white', 'woman', 'fear', 'time', 'result', 'rape', 'south', 'breed', 'fear', 'bread', 'contempt', 'people', 'side', 'issue', 'rape', 'south', 'side', 'man', 'honor', 'federal', 'mafia', 'tyrant', 'honor', 'man', 'honor', 'side', 'man', 'mountain']",0,[]
75,4.0,"['tom', 'metzger', 'aryan', 'nation']",0,[]
86,4.0,"['arm', 'ban', 'arm', 'society', 'society', 'federal', 'government', 'ban', 'secession', 'freedom']",0,[]
87,4.0,"['demexit', 'pledge', 'leave', 'party']",0,[]
88,4.0,"['sort', 'tribute', 'cd', 'landser', 'english', 'landser', 'great', 'occupation', 'government', 'subject', 'germany', 'sort', 'treatment', 'dixie', 'washington', 'government', 'landser', 'prison', 'song', 'sake', 'child', 'free', 'federal', 'beast', 'deo', 'vindice']",0,[]
94,4.0,"['ukrainian', 'future', 'time', 'russian', 'crimea', 'union', 'army', 'dixie', 'year', 'normal', 'human', 'dixie', 'yankee', 'damn', 'hell']",0,[]
