,topic_lda,bag_words,sa_score,events,rank
1110,1.0,"['jew', 'racist', 'white_man', 'call', 'jew', 'return', 'call', 'white_man', 'white_man', 'call', 'hater', 'racist', 'nazi', 'redneck', 'hick', 'white_man']",0,[],0.015651494
2015,1.0,"['glad', 'canada', 'good', 'black', 'folk', 'kind', 'racist']",0,[],0.015651494
487,1.0,"['yea', 'arrest', 'savage', 'crime', 'check', 'wealth', 'bank', 'reason', 'defect', 'university', 'white_man', 'racist']",0,[],0.015651494
964,1.0,"['african', 'kind', 'african', 'african', 'community', 'liberal', 'system', 'racist', 'african', 'african', 'competition', 'win', 'asian', 'white_folks', 'fish', 'water', 'african', 'natural', 'homeland', 'society']",0,[],0.015651494
730,1.0,"['san', 'jacinto', 'day', 'day', 'texan', 'independence', 'federal_government', 'mexico', 'city', 'substitute', 'mlk', 'day', 'work', 'university', 'university', 'policy', 'white', 'employee', 'mlk', 'holiday', 'work', 'anti-white', 'anti-white']",0,[],0.013798051499999998
1745,1.0,"['jewish_communists', 'total', 'control', 'soviet_union', 'russia', 'join', 'communist', 'communist', 'set', 'concentration', 'camp', 'communist', 'murder', 'white', 'communist', 'fellow', 'communist', 'world_wide', 'communist', 'revolution', 'communist', 'enemy', 'camp', 'soviet_union', 'communist', 'murder', 'communist', 'white', 'jew', 'enemy', 'murder', 'fellow', 'communist', 'white', 'white', 'jew', 'trust', 'control', 'mass_medium', 'influence', 'government', 'federal_government', 'policy', 'anti-white', 'policy', 'white_folks', 'deal', 'money', 'shed', 'blood', 'jew', 'homeland', 'america', 'people', 'homeland', 'safe', 'jewish_mass', 'murder']",0,[],0.013798051499999998
1279,1.0,"['problem', 'african', 'mexican', 'good', 'white', 'work', 'force', 'stoner', 'clean', 'toilet', 'mop', 'floor', 'automation', 'improvement', 'america', 'job', 'system', 'work', 'system', 'sabotage', 'remove', 'fall', 'place']",0,[],0.013798051499999998
540,1.0,"['african', 'comedian', 'call', 'obama', 'lord', 'savior', 'brag', 'great', 'kill', 'white_folks', 'movie', 'jamie', 'foxx', 'joke', 'kill', 'white', 'people', 'movie', 'newsbusters.org']",0,[],0.013798051499999998
1725,1.0,"['white', 'privilege']",0,[],0.013798051499999998
645,1.0,"['marxist', 'south_africa', 'join', 'song', 'end', 'crowd', 'wish', 'america', 'black_african', 'kill', 'white']",0,[],0.013798051499999998
1369,1.0,"['trump', 'step', 'white', 'homeland', 'stop_white', 'genocide']",0,[],0.013798051499999998
1275,1.0,"['perfect', 'job', 'white', 'teenager', 'white', 'teenager', 'job', 'cash', 'white', 'teenager', 'place', 'security', 'work', 'surround', 'mexican', 'criminal']",0,[],0.013798051499999998
1688,1.0,"['mass_medium', 'attack', 'beck', 'mideast', 'israel', 'nation', 'stab', 'bandit', 'hebrew', 'desert', 'stab', 'bandit', 'point', 'russian', 'revolution', 'revolution', 'jew', 'control', 'soviet_union', 'jewish_communists', 'murder', 'white', 'communist', 'million', 'white', 'overlook', 'point', 'beck', 'caliphate', 'come', 'mass_medium', 'response']",0,[],0.013798051499999998
408,1.0,"['leader', 'lead', 'white_man', 'build', 'community', 'build', 'unity', 'fight', 'white', 'nationalist', 'win', 'survival', 'extinction']",0,[],0.013798051499999998
1683,1.0,"['sinead', 'interview', 'james', 'lancia', 'author', 'downtown', 'white', 'police']",0,[],0.013798051499999998
934,1.0,"['christian', 'kill', 'christian', 'america', 'count', 'pope', 'christian', 'enemy', 'christian', 'america', 'zionist', 'christian', 'support', 'program', 'white_genocide', 'lutheran', 'social', 'service', 'import', 'primitive', 'black_african', 'muslim', 'america', 'christian', 'preacher', 'desert', 'rescue', 'mexican', 'christian', 'church', 'invite', 'mexican', 'white', 'community', 'indian', 'leave', 'reservation', 'town', 'christian', 'donation', 'land', 'white_children', 'christian', 'child', 'white', 'orphan', 'christian', 'hire', 'poor', 'non-whites', 'hire', 'white_man', 'christian', 'kill', 'christian', 'america']",0,[],0.013798051499999998
976,1.0,"['nuke', 'washington', 'vice', 'marshal', 'n', 'korean', 'army', 'washington', 'dc', 'rouge', 'government', 'consent', 'citizen', 'arm', 'terrorist', 'drug', 'cartel', 'murder', 'innocent', 'civilian', 'drone', 'strike', 'drug', 'cartel', 'genocide', 'white', 'citizen', 'worse', 'washington', 'washington', 'drone', 'wedding', 'family', 'gathering', 'iacontentstory']",0,[],0.013798051499999998
1021,1.0,"['obommy', 'commie', 'plan', 'white', 'american']",0,[],0.013798051499999998
1037,1.0,"['acorn', 'cooky', 'serve', 'white', 'house', 'ican-lawmaker/']",0,[],0.013798051499999998
1255,1.0,"['child', 'rape', 'culture', 'child', 'year', 'age', 'sex', 'child', 'jew', 'child', 'year', 'sex', 'child', 'count', 'sex', 'sex', 'child', 'age', 'culture', 'child', 'adult', 'order', 'child', 'sex', 'child', 'center', 'child', 'sex', 'ring', 'child', 'rape', 'crime', 'white', 'society', 'jew', 'blackmail', 'rich']",0,[],0.013798051499999998
1074,1.0,"['jewish_communists', 'force', 'black', 'kind', 'advantage', 'white', 'family', 'primitive', 'central_african', 'savage', 'neighborhood', 'living']",0,[],0.013798051499999998
415,1.0,"['loony', 'leftist', 'pink', 'rabbit', 'white_man', 'murder', 'savage', 'indian', 'indian', 'die', 'disease', 'indian', 'innocent', 'stake', 'wagon', 'wheel', 'skin', 'burning', 'make', 'full', 'arrow', 'hack', 'stab', 'beating', 'rap', 'torture', 'white_children', 'cause', 'death', 'indian', 'pick', 'great', 'white', 'father', 'god', 'high', 'jesus', 'christ', 'holy', 'spirit', 'oden', 'tyr', 'god', 'justice', 'father', 'mother', 'nature', 'tiamat', 'lady', 'life', 'earth', 'spirit', 'evolution', 'god', 'science', 'loony', 'leftist', 'pink', 'rabbit', 'fault', 'white_man', 'fault', 'savage']",0,['evolution'],0.013798051499999998
648,1.0,"['marxist', 'south_africa', 'primitive', 'black', 'savage', 'white', 'culture', 'white', 'history', 'join']",0,[],0.013798051499999998
1910,1.0,"['lever', 'action', 'rifle', 'scope', 'game', 'good', 'white', 'tail', 'deer', 'power', 'cartridge', 'velocity', 'small', 'bullet', 'yard', 'eyesight', 'scope', 'hit', 'white', 'tail', 'yard', 'rifle', 'carbine', 'heavy', 'brush', 'find', 'white', 'tail', 'deer', 'shot', 'deer', 'yard', 'yard', 'brush', 'power', 'cartridge', 'bit', 'ak', 'drive', 'heavy', 'bullet', 'moose', 'elk', 'large', 'bear', 'mule', 'deer', 'open', 'country', 'texas', 'folk', 'mule', 'deer', 'rifle', 'people', 'hunt', 'mule', 'deer', 'lever', 'action', 'rifle', 'yard', 'cartridge']",0,[],0.013798051499999998
1844,1.0,"['situation', 'ukraine', 'wrong', 'nazi', 'strut', 'ant', 'ant', 'hill', 'ukraine', 'jew', 'harm', 'nazi', 'patriot', 'opposition', 'investigation', 'nazi', 'patriot', 'puppet', 'kill', 'kill', 'white', 'neighbor']",0,[],0.013798051499999998
111,1.0,"['mexican', 'mexico', 'serve', 'purpose', 'boon', 'economy', 'national', 'spirit', 'culture', 'feed', 'common', 'tax', 'collection', 'task', 'job', 'white', 'teenager', 'white', 'teenager', 'job', 'white', 'family', 'income', 'teenager', 'mom', 'dad', 'income', 'time', 'mom', 'dad', 'tax', 'bill', 'social', 'service', 'alien', 'invader', 'benefit', 'presence', 'alien', 'invader', 'negative', 'wish', 'tax', 'pay', 'citizen', 'wish', 'union_government', 'world', 'government', 'strike', 'root', 'jurisdiction', 'dissolve', 'union', 'union_government', 'jurisdiction', 'night', 'major', 'obstacle', 'law', 'force', 'land', 'nation']",0,[],0.013798051499999998
120,1.0,"['comparison', 'white', 'supremacist', 'supremacist', 'run', 'naacp', 'real']",0,[],0.013798051499999998
1984,1.0,"['today', 'cell', 'phone', 'time', 'electricity', 'cell', 'phone', 'communication', 'number', 'white', 'child', 'call', 'call', 'white', 'child', 'time', 'general', 'emergency', 'find', 'white', 'child', 'hiding', 'unknown', 'location', 'message', 'white_folks', 'leave', 'large', 'city', 'liberal_race', 'traitor', 'road', 'impassible', 'white_families', 'move', 'foot', 'food', 'water', 'line', 'good', 'electricity', 'charge', 'phone', 'child', 'battery', 'run']",0,[],0.013798051499999998
163,1.0,"['marvel', 'penny', 'marvel', 'product', 'marvel', 'anti-white', 'irony', 'anti-white', 'stance', 'purchase', 'marvel', 'movie', 'fan', 'base', 'marvel', 'white', 'marvel', 'cost', 'dollar', 'gross', 'sale', 'anti-white', 'stance', 'jew', 'shekel', 'add', 'anti-white', 'character', 'anti-white', 'propaganda', 'product', 'market', 'white_folks', 'hate']",0,[],0.013798051499999998
1943,1.0,"['white', 'people', 'turkey', 'tourist', 'station', 'usaf', 'base', 'tourist', 'turkey', 'coup']",0,[],0.013798051499999998
1816,1.0,"['freedom', 'speech', 'white_folks', 'word', 'white_folks', 'shoulder', 'statement', 'true', 'true', 'feeling', 'non-whites', 'folk', 'white_folks', 'simple', 'truth', 'non-whites', 'white', 'crime', 'evil', 'deed', 'white_folks', 'achievement', 'place', 'modern', 'world', 'white_man']",0,[],0.013798051499999998
1893,1.0,"['perfect', 'pistol', 'magic', 'niggro', 'act', 'high', 'capacity', 'handgun', 'buy', 'pistol', 'amp', 'w', 'caliber', 'case', 'caliber', 'question', 'answer', 'glad', 'year', 'handgun', 'caliber', 'shadow', 'doubt', 'man', 'stopper', 'acp', 'fire', 'pistol', 'fire', 'revolver', 'want', 'high', 'capacity', 'pistol', 'set', 'acp', 'semi_auto', 'machine', 'pistol', 'cool', 'hold', 'round', 'acp', 'gold', 'standard', 'auto', 'load', 'pistol', 'high', 'capacity', 'advantage', 'attack', 'pack', 'thug', 'thug', 'day', 'want', 'acp', 'carry', 'gun', 're-think', 'situation', 'research', 'modern', 'pistol', 'cartridge', 'amp', 'w', 'pistol', 'cartridge', 'equal', 'amp', 'w', 'magnum', 'revolver', 'cartridge', 'performance', 'problem', 'high', 'capacity', 'pistol', 'total', 'faith', 'ballistics', 'pick', 'pistol', 'fire', 'read', 'manufacturer', 'talk', 'guy', 'feature', 'model', 'person', 'month', 'research', 'design', 'amp', 'w', 'p', 'caliber', 'full', 'size', 'track', 'put', 'round', 'ammo', 'brand', 'pistol', 'hundred', 'round', 'brand', 'problem', 'pistol', 'shoot', 'function', 'magic', 'niggro', 'take', 'stage', 'dilemma', 'level', 'high', 'capacity', 'pistol', 'steal', 'fitting', 'explanation', 'high', 'capacity', 'pistol', 'dilemma', 'amp', 'w', 'p', 'start', 'scratch', 'research', 'pistol', 'market', 're-researched', 'pistol', 'design', 'market', 'talk', 'owner', 'read', 'brochure', 'model', 'pistol', 'amp', 'w', 'p', 'full', 'size', 'pistol', 'pistol', 'pistol', 'market', 'extra', 'mag', 'fit', 'pistol', 'amp', 'w', 'p', 'cost', 'police', 'sight', 'white', 'dot', 'rear', 'sight', 'front', 'sight', 'night', 'sight', 'glow', 'dark', 'tritium', 'color', 'midway', 'usa', 'mag', 'hold', 'round', 'spring', 'magazine', 'hand', 'grip', 'backstraps', 'small', 'medium', 'large', 'size', 'safety', 'hate', 'safety', 'pull', 'safety', 'keep', 'empty', 'polymer', 'frame', 'stainless', 'steel', 'slide', 'barrel', 'magazine', 'safety', 'magazine', 'mag', 'pistol', 'fire', 'chamber', 'lock', 'discharge', 'pistol', 'drop', 'chamber', 'drop', 'pistol', 'good', 'safety', 'plan', 'safety', 'trigger', 'chance', 'accidental', 'trigger', 'pull', 'finger', 'finger', 'touch', 'fire', 'load', 'chamber', 'witness', 'hole', 'top', 'slide', 'texas', 'dixie', 'great', 'gun', 'import', 'union', 'north', 'bang', 'pull', 'moment', 'yankee', 'smith', 'wesson', 'pull', 'bone', 'head', 'stunt', 'bad', 'decision', 'produce', 'product', 'good', 'sense', 'p', 'pistol', 'real', 'winner', 'screw', 'design', 'check', 'mind', 'buy', 'good_luck', 'good', 'shoot']",0,[],0.013798051499999998
233,1.0,"['worse', 'friend', 'sue', 'university', 'refuse', 'child', 'anti-white', 'quota', 'system', 'system', 'place', 'university', 'care', 'parent', 'sue', 'discrimination', 'white', 'male', 'taxpayer', 'pay', 'money', 'anti-white', 'university']",0,[],0.013798051499999998
493,1.0,"['white', 'privilege']",0,[],0.013798051499999998
338,1.0,"['race_mixer', 'cheat', 'african', 'boy', 'friend', 'attempt', 'beat', 'white', 'gillingham', 'thug', 'franklin', 'white', 'jail', 'beating', 'girlfriend', 'litisha', 'henry', 'fight', 'man', 'rochester']",0,[],0.013798051499999998
1834,1.0,"['jewish_communists', 'government', 'people', 'people', 'government', 'communist', 'run', 'kiev', 'government', 'run', 'cash', 'plan', 'sell', 'ukrainian', 'people', 'state', 'run', 'business', 'sell', 'price', 'jew', 'profit', 'people', 'fire', 'sale', 'ukraine', 'put', 'state', 'firm', 'sale', 'sputnik', 'international']",0,[],0.010799196
1553,1.0,"['jew', 'anetta', 'kahane', 'jew', 'invasion', 'stop_white', 'genocide', 'v=hsewgvpi6o0']",0,[],0.010799196
1557,1.0,"['germany', 'turn', 'jew']",0,[],0.010799196
1542,1.0,"['rashida', 'jones', 'media_mafia', 'pop', 'star', 'act', 'whore', 'rashida', 'jones', 'call', 'pop', 'star', 'jew', 'slutty', 'pop', 'star', 'child', 'teen', 'pop', 'porn', 'industry', 'form', 'life']",0,[],0.010799196
1466,1.0,"['confession', 'jew', 'confession', 'jew', 'youtube']",0,[],0.010799196
1070,1.0,"['jewish_communists', 'order', 'stalin', 'murder', 'capture', 'polish', 'officer', 'jew', 'jew', 'blame', 'crime', 'innocent', 'party', 'hitler', 'polish', 'people', 'german', 'liberator', 'massacre', 'photo', 'show', 'excavation', 'murder', 'victim', 'ww_ii', 'jew', 'accusation', 'german', 'atrocity', 'document', 'evidence', 'jewish_communists']",0,['ww_ii'],0.010799196
2006,1.0,"['race_traitor', 'time', 'worse', 'jew', 'african', 'gee', 'niggros', 'jewos', 'arrest', 'crime', 'non-jew', 'jew', 'police', 'law', 'nation', 'criminal', 'jew', 'jew', 'system', 'concept', 'wrong', 'nation', 'collection', 'people', 'jew']",0,[],0.010799196
1562,1.0,"['jew', 'support', 'invasion', 'white_nation', 'jew', 'support', 'invasion', 'israel']",0,[],0.010799196
2001,1.0,"['similarity', 'jew', 'african', 'cousin', 'african', 'israeli', 'citizen']",0,[],0.010799196
1785,1.0,"['economy', 'jew']",0,[],0.010799196
1565,1.0,"['jew', 'loony_leftists', 'fight', 'war', 'year', 'excuse', 'separation', 'church', 'state', 'general', 'george', 'washington', 'order', 'army', 'beseechch', 'almighty', 'god', 'struggle', 'liberty', 'give', 'official', 'day', 'give', 'god', 'prayer', 'jew', 'demand', 'separation', 'synagogue', 'state', 'president', 'light', 'candle', 'menorah']",0,['war'],0.010799196
1511,1.0,"['dollar', 'counterfeit', 'israeli', 'israeli', 'jew', 'arrest', 'part', 'counterfeit', 'denomination', 'dollar', 'bill', 'dollar', 'worth', 'produce', 'printing', 'plate', 'supply', 'reserve', 'work', 'dollar', 'bill', 'print', 'fact', 'jew', 'u.s', 'charge', 'spread', 'fake', 'bill', 'bloomberg']",0,[],0.010799196
1573,1.0,"['sarah', 'silverman', 'anti-white', 'anti-christian', 'jew']",0,[],0.010799196
1583,1.0,"['jew', 'rule', 'america']",0,[],0.010799196
1998,1.0,"['fight', 'nationalist', 'fight', 'jew', 'race_traitors', 'support', 'white_folks', 'support']",0,[],0.010799196
1593,1.0,"['fate', 'jew', 'post', 'immigration', 'invasion', 'great', 'master', 'lie', 'jew', 'immigration', 'crisis', 'youtube']",0,[],0.010799196
1609,1.0,"['jew', 'facebook', 'isreli', 'doctor', 'treat', 'jew', 'facebook']",0,[],0.010799196
1652,1.0,"['jew', 'kill', 'arab', 'history', 'hebrew', 'hebrew', 'arab']",0,[],0.010799196
1655,1.0,"['america', 'jew', 'open', 'border']",0,[],0.010799196
1513,1.0,"['israel', 'jew', 'world_wide', 'count', 'black_african', 'jew', 'black_african', 'africa', 'light', 'skin', 'jew', 'claim', 'population', 'total', 'jew', 'white_nations', 'race', 'social', 'construct', 'black_african', 'jew', 'inferior', 'stupid', 'trouble', 'maker', 'communist', 'utopia', 'israel', 'homeland', 'jew', 'statement', 'leader', 'public', 'truth']",0,[],0.010799196
1754,1.0,"['jew', 'swindle', 'jew']",0,[],0.010799196
1752,1.0,"['jew', 'flood', 'america', 'muslim', 'jew', 'muslim', 'white_folks', 'jewish_controlled', 'federal_government', 'stop', 'federal_agent', 'american', 'middle', 'white_folks', 'blame']",0,[],0.010799196
1257,1.0,"['break', 'robot', 'author', 'robert', 'anton', 'wilson', 'illuminatus', 'trilogy', 'book', 'call', 'break', 'robot', 'concept', 'free', 'break', 'moral', 'law', 'robot', 'limit', 'moral', 'law', 'taboo', 'evil', 'child', 'rape', 'murder', 'cannibalism', 'bestiality', 'homosexuality', 'black', 'magic', 'law', 'god', 'man', 'goal', 'free', 'jew', 'globalists', 'race_traitors', 'program', 'reward', 'control', 'measure']",0,[],0.010799196
1716,1.0,"['nro', 'salon', 'fight', 'pedophobia', 'jew', 'muslim', 'pedophile', 'child', 'fair', 'game', 'segregation', 'white_nations', 'safety', 'peace', 'jew', 'jew', 'muslim', 'muslim', 'place']",0,[],0.010799196
1487,1.0,"['catholic', 'priest', 'radio', 'genesis', 'ch', 'ch', 'men', 'tell', 'catholic', 'church', 'jew', 'jewish_leaders', 'genesis', 'moses', 'catholic', 'church', 'moses', 'story', 'moses', 'middle', 'tale', 'hebrew', 'oral', 'tradition', 'house', 'david', 'tent', 'david', 'state', 'holy', 'text', 'hebrew', 'hebrew', 'atheist', 'moses', 'phony', 'holy', 'catholic', 'church', 'jew', 'jew', 'lie']",0,[],0.010799196
305,1.0,"['black_african', 'marxist', 'read', 'stop', 'lie', 'jew']",0,[],0.010799196
1876,1.0,"['trump', 'hold', 'press', 'conference', 'church', 'individual', 'medium', 'show', 'sermon', 'admittance', 'watch', 'jew', 'exorcism', 'church', 'expose', 'truth', 'blood', 'suck', 'vampire', 'expose', 'daylight', 'trump', 'jr', 'put', 'holy', 'water', 'squirt', 'gun', 'watch', 'jew', 'smoke', 'sizzle', 'bet', 'jew', 'sound', 'fry', 'bacon', 'sizzle', 'song']",0,[],0.010799196
1721,1.0,"['work', 'jew', 'jewed']",0,[],0.010799196
1479,1.0,"['poll', 'jew', 'christian', 'muslim']",0,[],0.010799196
1730,1.0,"['jewish_communist', 'radical', 'feminist', 'propaganda', 'men', 'jew', 'woman', 'aryan']",0,[],0.010799196
1792,1.0,"['jew', 'murder', 'violence', 'trump', 'excuse', 'call', 'bloodshed', 'reason', 'reason', 'white_genocide']",0,[],0.010799196
52,1.0,"['trump', 'hire', 'goon', 'silence', 'protester', 'crowd', 'point', 'overlook', 'movement', 'white_folks', 'cow', 'tow', 'anti-whites']",0,[],0.010055436999999999
1080,1.0,"['international_jewish', 'banker', 'want', 'ww_ii', 'genocide', 'white_folks', 'hitler', 'want', 'ww_ii', 'give', 'silver', 'platter', 'smart', 'give', 'enemy', 'putin', 'banker', 'ww_iii', 'hope', 'putin', 'hitler']",0,"['ww_ii', 'ww_ii', 'ww_iii']",0.010055436999999999
416,1.0,"['history', 'reeducation', 'department', 'lead', 'pilgrim', 'red', 'brother', 'fed', 'pilgrim', 'white_folks', 'feed', 'truth', 'participant', 'thanksgiving', 'butcher', 'asian', 'savage', 'brother', 'thee', 'lord', 'deliverance', 'savage', 'land', 'thee', 'deliverance', 'beast', 'government', 'destruction', 'swift', 'amen', 'thanksgiving', 'proclamation', 'june']",0,['thanksgiving'],0.010055436999999999
412,1.0,"['white_folks', 'america', 'year', 'asian', 'savage', 'set', 'foot', 'savage', 'call', 'people', 'people', 'truth', 'matter', 'part', 'asian', 'history', 'asian', 'language', 'case', 'language', 'good', 'asian', 'asian', 'group', 'simple', 'sign', 'language', 'history', 'savage', 'mean', 'fed', 'murder', 'great', 'number', 'reply']",0,[],0.010055436999999999
308,1.0,"['blind', 'black', 'display', 'criminal', 'behavior', 'poor', 'underclass', 'folk', 'white_folks', 'white_children', 'bed', 'poor', 'white_folks', 'fed', 'black', 'criminal', 'black', 'blood_thirsty', 'primitive', 'savage']",0,[],0.010055436999999999
1059,1.0,"['photo', 'leader', 'genocide', 'child', 'notice', 'illuminati', 'symbol', 'black', 'crapper']",0,[],0.008668535
713,1.0,"['black', 'angel', 'sniper', 'austin', 'psych', 'fest']",0,[],0.008668535
1272,1.0,"['wild', 'african', 'savage', 'black', 'ghetto', 'ghetto', 'arm', 'police', 'area', 'cease', 'patrol', 'delay', 'response', 'time', 'day', 'chalk', 'outline']",0,[],0.008668535
668,1.0,"['marxist', 'love', 'obama', 'fairy', 'princess', 'american', 'politics', 'black', 'south_africa', 'government', 'black', 'south_africa', 'marxist', 'dream']",0,[],0.008668535
509,1.0,"['shootout', 'black', 'brown', 'black', 'shoot', 'brown', 'gas', 'station', 'brown', 'shoot', 'mlk', 'blvd', 'houston', 'texas']",0,[],0.008668535
271,1.0,"['obama', 'black', 'queen', 'communism']",0,[],0.008668535
2053,1.0,"['year', 'set', 'savage', 'orleans', 'storm', 'savage', 'wild', 'wind', 'rain', 'child', 'war']",0,[],0.0076085418
1427,1.0,"['year', 'core', 'danger', 'year', 'proponent', 'nuclear_power', 'future', 'generation', 'right', 'future']",0,[],0.0076085418
1425,1.0,"['palisade', 'plant', 'lake', 'michigan', 'year', 'step', 'fix', 'problem', 'palisade', 'plant', 'shut-down', 'leak', 'rt', 'usa', 'water', 'release', 'lake', 'michigan', 'palisade', 'plant', 'shutdown', 'sunday', 'politics']",0,[],0.0076085418
1134,1.0,"['year', 'marriage', 'wife', 'married', 'divorce', 'tv', 'treat', 'single']",0,[],0.0076085418
577,1.0,"['ramzpaul', 'lenny', 'henry', 'help', 'bbc', 'diversity', 'year', 'day', 'year']",0,[],0.0076085418
160,1.0,"['trump', 'pipeline', 'men', 'employ', 'pipe', 'welder', 'year', 'industry', 'general', 'increase', 'weld', 'job', 'refinery', 'pipe', 'weld', 'job', 'oil', 'rig']",0,[],0.0076085418
410,1.0,"['odds', 'current', 'society', 'end', 'year']",0,[],0.0076085418
437,1.0,"['song', 'conversation', 'reenactor', 'reenactment', 'battle', 'northern', 'zog', 'zionist', 'government', 'aggression', 'nag', 'year', 'hell', 'put', 'blue', 'zog', 'uniform', 'gallant', 'confederate', 'battle', 'work', 'group', 'set', 'poker', 'table', 'loser', 'blue', 'uniform', 'put', 'zog', 'uniform', 'world', 'today', 'living', 'free', 'men', 'nation', 'alien', 'criminal', 'scum', 'lee', 'sword']",0,[],0.0076085418
441,1.0,"['tale', 'read', 'h.p', 'lovecraft', 'shot', 'story', 'great', 'glow', 'orb', 'polaris', 'tale', 'deep', 'race', 'memory', 'reincarnation', 'inevitable', 'passage', 'great', 'gulf', 'time', 'work', 'deed', 'great', 'men', 'race', 'debt', 'eternity', 'tale', 'eighteen', 'year', 'age']",0,[],0.0076085418
1330,1.0,"['birthday', 'general', 'robert', 'e', 'lee', 'year', 'today', 'rebel', 'yell']",0,[],0.0076085418
875,1.0,"['whistleblower', 'government', 'war', 'top', 'bunker', 'hollow', 'point', 'ammo', 'domestic', 'food', 'grab', 'plan', 'bunker', 'ready', 'war', 'matter', 'kill', 'year', 'ballot', 'chance', 'texas']",0,[],0.0076085418
277,1.0,"['brain', 'dead', 'hippie', 'employ', 'bos', 'work', 'screw', 'touch', 'bragging', 'drug', 'year', 'fry', 'brain', 'time', 'anti-white', 'leftist']",0,[],0.0076085418
280,1.0,"['man', 'entire', 'life', 'druggie', 'girl', 'life', 'constant', 'influx', 'bourbon', 'pot', 'cigarette', 'high', 'drug', 'cash', 'drain', 'nuisance', 'die', 'stop', 'drinking', 'smoking', 'pot', 'day', 'die', 'burden', 'neck', 'drug', 'year', 'life', 'hold', 'life', 'real', 'world', 'life']",0,[],0.0076085418
94,1.0,"['ukrainian', 'future', 'time', 'russian', 'crimea', 'union', 'army', 'dixie', 'year', 'normal', 'human', 'dixie', 'yankee', 'damn', 'hell']",0,[],0.0076085418
777,1.0,"['time', 'jumper', 'lisa', 'jane']",0,[],0.006777766
701,1.0,"['mestizo', 'murder', 'border', 'patrol', 'agent', 'gustavo', 'tijerina', 'left', 'ismael', 'hernandez', 'arrest', 'murder', 'off-duty', 'border', 'patrol', 'agent', 'javier', 'vega', 'jr', 'sunday', 'time', 'read', 'sheriff', 'larry', 'spence', 'claim', 'arm', 'immigrant', 'spot', 'ranch', 'mail', 'mailonline', 'twitter', 'dailymail', 'facebook']",0,[],0.006777766
373,1.0,"['mixed-race', 'individual', 'police', 'torture', 'day', 'ex-boyfriend', 'kill', 'month', 'search', 'time', 'remains', 'bad', 'judgment', 'put', 'friend', 'family', 'hell']",0,[],0.006777766
1814,1.0,"['canadian', 'time', 'odds', 'kill', 'leftist', 'stay', 'canada']",0,[],0.006777766
175,1.0,"['observation', 'custom', 'load', 'clean', 'rifle', 'range', 'fire', 'load', 'clean', 'barrel', 'accuracy', 'change', 'day', 'range', 'lane', 'shooter', 'ammo', 'accuracy', 'eventhough', 'idea', 'cleaning', 'carbon', 'force', 'gas', 'hole', 'barrel', 'feed', 'gas', 'gas', 'system', 'change', 'volume', 'gas', 'escape', 'gas', 'system', 'change', 'volume', 'gas', 'push', 'bullet', 'change', 'accuracy', 'load', 'cleaning', 'knock', 'pin', 'gas', 'line', 'gas', 'block', 'press', 'gas', 'hole', 'shove', 'piece', 'wire', 'gas', 'hole', 'clean', 'debris', 'want', 'clean', 'gas', 'hole', 'bendy', 'straw', 'find', 'caliber', 'ar', 'funnel', 'fit', 'bendy', 'straw', 'tray', 'cleaning', 'fluid', 'soak', 'bolt', 'snap', 'cap', 'cover', 'optic', 'fluid', 'splash', 'chamber', 'snap', 'cap', 'remove', 'upper', 'place', 'upper', 'empty', 'cleaning', 'fluid', 'tray', 'lean', 'stable', 'fall', 'rafter', 'safety', 'upper', 'hold', 'upper', 'straight', 'lean', 'moment', 'place', 'bendy', 'straw', 'bent', 'fall', 'hand', 'hold', 'bendy', 'straw', 'funnel', 'hand', 'cleaning', 'fluid', 'funnel', 'fill', 'full', 'snap', 'cap', 'bolt', 'block', 'flow', 'fluid', 'travel', 'gas', 'hole', 'barrel', 'debris', 'fluid', 'land', 'tray', 'save', 'fluid', 'soak', 'set', 'wet', 'run', 'fluid', 'good', 'clean', 'manner', 'clean', 'gas', 'system', 'soak', 'run', 'fluid', 'time', 'period', 'time', 'carbon', 'layer', 'soak', 'wash', 'cleaning', 'gas', 'hole', 'gas', 'system', 'condition', 'drain', 'fluid', 'barrel', 'level', 'gas', 'hole', 'mention', 'gunk', 'wash', 'settle', 'bottom', 'tray', 'strain', 'fluid', 'coffee', 'filter', 'fluid', 'storage', 'wipe', 'tray', 'clean', 'gunk', 'settle', 'bottom', 'clean', 'fluid', 'usage', 'good_luck', 'good', 'shoot']",0,[],0.006777766
1441,1.0,"['set', 'entire', 'month', 'invention', 'guess', 'time', 'great', 'african', 'invention', 'theft', 'murder']",0,[],0.006777766
79,1.0,"['trump', 'cnn', 'reporter', 'time', 'trump', 'tomorrow', 'medium', 'rant', 'rave', 'call', 'murder']",0,[],0.006777766
440,1.0,"['h.p', 'lovecraft', 'archive', 'necronomicon', 'al', 'azif', 'abdul', 'alhazred', 'lovecraft', 'creation', 'necronomicon', 'al', 'azif', 'story', 'original', 'arabic', 'title', 'manuscript', 'al', 'azif', 'reference', 'sound', 'insect', 'howl', 'demon', 'alhazred', 'damascus', 'necronomicon', 'a.d', 'set', 'monster', 'broad', 'daylight', 'al', 'azif', 'greek', 'theodorus', 'philetas', 'constantinople', 'give', 'necronomicon', 'olaus', 'wormius', 'latin', 'translation', 'wormius', 'translation', 'pope', 'gregory', 'ix', 'ban', 'greek', 'latin', 'version', 'volume', 'wormius', 'original', 'arabic', 'text', 'time', 'dr', 'john', 'dee', 'translation', 'english', 'fragment', 'version', 'present', 'century', 'latin', 'translation', 'british', 'museum', 'century', 'edition', 'biblioth', 'nationale', 'paris', 'widener', 'library', 'harvard', 'university', 'buenos', 'aire', 'miskatonic', 'university', 'arkham', 'copy', 'lock', 'key', 'appearance', 'necronomicon', 'lovecraft', 'hound', 'september', 'abdul', 'alhazred', 'book', 'author', 'mention', 'city', 'january', 'tale', 'necronomicon', 'dead', 'lie', 'aeon', 'death', 'die', 'quote', 'necronomicon', 'dunwich', 'horror']",0,[],0.006777766
2034,1.0,"['negro', 'time', 'sell', 'negro', 'return', 'home', 'central_africa', 'negro', 'negro', 'time', 'stop', 'negro', 'return', 'fit', 'central_africa']",0,[],0.006777766
1902,1.0,"['suspect', 'person', 'soldier', 'vietnam', 'combat', 'veteran', 'special', 'force', 'problem', 'm-16', 'men', 'field', 'state', 'marine', 'problem', 'clean', 'active', 'duty', 'marine', 'leave', 'month', 'afghanistan', 'clean', 'm-16', 'time', 'month', 'firearm', 'training', 'marine', 'corp', 'marine', 'corp', 'active', 'duty', 'war', 'zone', 'troop', 'sleep', 'hour', 'day', 'marine', 'attitude', 'ai', 'gon', 'na', 'time', 'marine', 'corp', 'soldier', 'sort', 'contraband', 'war', 'zone', 'mp3', 'player', 'dvd', 'player', 'laptop', 'video', 'game', 'machine', 'time', 'waster', 'hour', 'sleep', 'day', 'play', 'contraband', 'sack', 'time', 'duty', 'hour', 'time', 'war', 'zone', 'real', 'soldier', 'waste', 'time', 'junk', 'guess', 'standard', 'soldier', 'level', 'central_african', 'savage', 'professional', 'soldier', 'duty', 'professional', 'soldier', 'horse', 'whip', 'general', 'washington', 'order', 'stroke', 'discipline', 'shot', 'hang', 'professional', 'soldier', 'man', 'army', 'integration', 'marine', 'train', 'good', 'soldier', 'good', 'soldier', 'experience', 'vietnam', 'marine', 'order', 'kill', 'train', 'real', 'training', 'range', 'trip', 'soldier', 'soldier', 'firearm', 'soldier', 'firearm', 'child', 'family', 'personal', 'experience', 'range', 'trip', 'soldier', 'training', 'military', 'yankee', 'unfortunate', 'boy', 'raise', 'mother', 'soldier', 'clean', 'barrel', 'expert', 'marksman', 'feel', 'expert', 'marksman', 'badge', 'hand', 'give', 'young', 'boy', 'limited', 'intelligence', 'sense', 'ability', 'son', 'dixie', 'firearm', 'secret', 'soldier', 'shoot', 'attitude', 'proof', 'shoot', 'condition', 'target', 'shoot', 'doubt', 'stress', 'p.s', 'ar-10', 'military', 'trial', 'beat', 'm-14', 'rifle', 'ar-10', 'ar-15']",0,[],0.006777766
1314,1.0,"['draft', 'declaration', 'independence', 'word', 'document', 'debate', 'result', 'word', 'document', 'word', 'chosen', 'meaning', 'document', 'begin', 'choice', 'chance', 'word', 'hap', 'hazard', 'manner', 'word', 'condition', 'party', 'alliance', 'king', 'land', 'individual', 'land', 'sole', 'property', 'king', 'king', 'heed', 'law', 'core', 'pact', 'king', 'subject', 'loyalty', 'king', 'presence', 'king', 'loyalty', 'subject', 'king', 'england', 'english', 'queen', 'scottish', 'queen', 'law', 'tyrant', 'title', 'president', 'found', 'father', 'true', 'bound', 'arrangement', 'band', 'limited', 'agreement', 'limit', 'agreement', 'king', 'head', 'way', 'point', 'colony', 'band', 'english', 'government', 'crown', 'state', 'independent_nations', 'join', 'american', 'union', 'band', 'bond', 'colonial', 'ancestor', 'band', 'union', 'party', 'true', 'state', 'band', 'american', 'union', 'form', 'dissolve', 'union', 'union', 'cease', 'ancestor', 'dissolve', 'union', 'time', 'american', 'declaration', 'independence', 'deo_vindice']",0,[],0.006777766
174,1.0,"['mention', 'clean', 'gunk', 'mag', 'soak', 'swish', 'drain', 'time', 'rinse', 'carbon', 'grit', 'mag', 'drain', 'soak', 'wipe', 'leave', 'coat', 'lube', 'mag', 'feed', 'smooth', 'mag', 'drip', 'wet', 'lube', 'cartridge', 'lube', 'residue', 'mag', 'powder', 'primer', 'ammo', 'function', 'plastic', 'part', 'carbon', 'fiber', 'part', 'damage', 'solution', 'plastic', 'soak']",0,[],0.006777766
1599,1.0,"['netanyahu', 'wife', 'spending', 'fund', 'latest', 'charter', 'flight', 'thatcher', 'funeral', 'time', 'israeli', 'citizen', 'force', 'increase', 'tax', 'government', 'social', 'subsidy', 'decrease', 'rule', 'heckle', 'shekel', 'netanyahu', 'fly', 'turbulence', 'bed', 'plane', 'world', 'news', 'guardian.co.uk']",0,[],0.006777766
71,1.0,"['bother', 'point', 'jewish_media', 'mafia', 'lie', 'address', 'item', 'item', 'point', 'national', 'socialist', 'globalists', 'world', 'order', 'communist', 'world', 'government', 'nazi', 'nazi', 'time', 'good', 'work', 'fight', 'jewish_communist', 'lie', 'truth']",0,[],0.006777766
173,1.0,"['cleaning', 'fluid', 'ingredient', 'add', 'oil', 'lubrication', 'full', 'add', 'clp', 'kroil', 'addition', 'dextron', 'ii', 'atf', 'fluid', 'dad', 'atf', 'fluid', 'oil', 'job', 'fowl', 'glide', 'formulation', 'atf', 'fluid', 'safe', 'handle', 'fluid', 'left', 'car', 'mix', 'time', 'ingredient', 'reaction', 'ingredient', 'add', 'time', 'set', 'safe', 'location', 'night', 'add', 'ingredient', 'stuff', 'month', 'safe']",0,[],0.006777766
889,1.0,"['fixin', 'ta', 'dallas', 'ta', 'swing', 'ifin', ""y'all"", 'find', 'time', 'kradmelder', 'place', 'hit', 'real', 'food', 'food', 'high', 'price', 'spice', 'buy', 'cook', 'experiment', 'corn', 'bread', 'wheat', 'bread', 'biscuit', 'type', 'cookie', 'good', 'dough', 'left', 'home']",0,[],0.006777766
916,1.0,"['salado', 'creek', 'mexican', 'army', 'republic', 'brig', 'gen', 'rafael', 'squez', 'raid', 'san', 'antonio', 'march', 'texan', 'volunteer', 'gather', 'city', 'launch', 'raid', 'mexico', 'release', 'repatriation', 'texan', 'santa', 'fe', 'expedition', 'prisoner', 'gesture', 'peace', 'good', 'mexican', 'government', 'cause', 'president', 'sam', 'houston', 'sanction', 'plan', 'incursion', 'diplomat', 'vision', 'peace', 'month', 'mexican', 'army', 'carry', 'scale', 'version', 'squez', 'raid', 'fall', 'brig', 'gen', 'adri', 'n', 'woll', 'french', 'soldier', 'fortune', 'serve', 'mexican', 'army', 'cross', 'rio', 'grande', 'regular', 'infantry', 'irregular', 'cavalry', 'piece', 'artillery', 'september', 'san', 'antonio', 'response', 'volunteer', 'gonzales', 'seguin', 'colorado', 'river', 'settlement', 'march', 'capt', 'mathew', 'caldwell', 'east', 'bank', 'salado', 'creek', 'mile', 'san', 'antonio', 'capt', 'john', 'c', 'hay', 'fourteen', 'man', 'ranger', 'company', 'city', 'woll', 'approach', 'caldwell', 'wish', 'precipitate', 'fight', 'attack', 'mexican', 'san', 'antonio', 'dispatch', 'hay', 'men', 'town', 'sunrise', 'september', 'draw', 'woll', 'lure', 'open', 'prairie', 'caldwell', 'reason', 'texan', 'give', 'account', 'fine', 'defensive', 'position', 'bed', 'salado', 'creek', 'horse', 'texan', 'camp', 'fit', 'duty', 'men', 'bexar', 'decoy', 'hay', 'henry', 'e', 'mcculloch', 'william', 'bigfoot', 'wallace', 'robert', 'gillespie', 'texan', 'mile', 'city', 'ten', 'morning', 'dismount', 'ambush', 'hay', 'mcculloch', 'remount', 'men', 'venture', 'mile', 'alamo', 'taunt', 'mexican', 'cavalry', 'fight', 'hay', 'hop', 'forty', 'fifty', 'mexican', 'cavalryman', 'chase', 'salado', 'woll', 'preparation', 'move', 'caldwell', 'hay', 'mcculloch', 'appearance', 'woll', 'force', 'cavalry', 'saddle', 'ready', 'give', 'chase', 'woll', 'person', 'drive', 'texian', 'wolf', 'bush', 'force', 'number', 'mexican', 'resident', 'bexar', 'mexican', 'texan', 'attack', 'caldwell', 'position', 'hay', 'mcculloch', 'dozen', 'companion', 'approach', 'texan', 'hiding', 'ambush', 'hay', 'order', 'mount', 'fall', 'ranger', 'fell', 'mesquite-covered', 'prairie', 'caldwell', 'position', 'comrade', 'cottonwood', 'cedar', 'oak', 'creek', 'bottom', 'mile', 'texan', 'advantage', 'lead', 'mile', 'reach', 'mexican', 'cavalry', 'difficulty', 'horse', 'capture', 'woll', 'eleventh', 'begin', 'gain', 'jade', 'mount', 'ranger', 'mexican', 'gain', 'ground', 'texan', 'blanket', 'hat', 'raincoat', 'attempt', 'horse', 'load', 'mcculloch', 'command', 'rear', 'guard', 'ten', 'men', 'press', 'heel', 'ranger', 'race', 'reverend', 'z', 'n', 'morrell', 'earnest', 'mexican', 'desperate', 'effort', 'cut', 'hay', 'passing', 'flank', 'mcculloch', 'mexican', 'courier', 'mile', 'urge', 'hay', 'timber', 'timber', 'reach', 'mcculloch', 'man', 'creed', 'taylor', 'target', 'mexican', 'mile', 'range', 'yard', 'shot', 'fire', 'run', 'ball', 'man', 'horse', 'men', 'camp', 'slaughter', 'beef', 'morning', 'cooking', 'hay', 'men', 'dash', 'mexican', 'cavalry', 'texan', 'ruse', 'desire', 'effect', 'join', 'terrain', 'texan', 'man', 'post', 'ready', 'action', 'cross', 'salado', 'mile', 'bennet', 'position', 'yard', 'east', 'a.m', 'woll', 'entire', 'command', 'estimate', 'men', 'form', 'fire', 'recall', 'n', 'b', 'burkett', 'account', 'distance', 'pay', 'deal', 'attention', 'caldwell', 'call', 'side', 'fear', 'men', 'settlement', 'vow', 'hold', 'position', 'paint', 'invite', 'texan', 'join', 'sport', 'opportunity', 'neighbor', 'whip', 'ground', 'prisoner', 'hurra', 'texas', 'day', 'caldwell', 'men', 'circle', 'position', 'make', 'fight', 'force', 'number', 'day', 'skirmish', 'artillery', 'small', 'arm', 'fire', 'mexican', 'left', 'wing', 'attack', 'leave', 'clear', 'field', 'fire', 'open', 'center', 'play', 'cannon', 'whip', 'fifteen', 'minute', 'burkett', 'shoot', 'twenty', 'step', 'line', 'slain', 'vicente', 'c', 'rdova', 'leader', 'rebellion', 'thomas', 'jefferson', 'green', 'woll', 'persuasion', 'men', 'charge', 'texians', 'purpose', 'texian', 'rifle', 'steady', 'nerve', 'night', 'fire', 'cease', 'woll', 'field', 'day', 'fight', 'mexican', 'sixty', 'men', 'kill', 'wound', 'texan', 'kill', 'twelve', 'wound', 'texas', 'volunteer', 'eager', 'counterattack', 'free', 'prisoner', 'woll', 'line', 'texan', 'arm', 'success', 'salado', 'tragedy', 'response', 'woll', 'invasion', 'capt', 'nicholas', 'dawson', 'raise', 'man', 'company', 'march', 'la', 'grange', 'caldwell', 'line', 'eighteenth', 'intercept', 'column', 'irregular', 'mexican', 'cavalry', 'support', 'battery', 'field', 'piece', 'spirit', 'resistance', 'command', 'cut', 'artillery', 'fire', 'dawson', 'men', 'begin', 'surrender', 'texan', 'mexican', 'fire', 'escape', 'fifteen', 'march', 'perote', 'prison', 'mexico', 'men', 'return', 'texas', 'dawson', 'massacre', 'texan', 'rain', 'fell', 'day', 'advance', 'midnight', 'texan', 'mexican', 'camp', 'sport', 'woll', 'steal', 'trick', 'george', 'washington', 'book', 'burning', 'camp', 'fire', 'city', 'cover', 'darkness', 'mexican', 'begin', 'retreat', 'texan', 'halt', 'night', 'cross', 'medina', 'river', 'san', 'antonio', 'contact', 'retreat', 'mexican', 'woll', 'cross', 'hondo', 'river', 'hay', 'company', 'mile', 'advance', 'caldwell', 'main', 'army', 'press', 'p.m', 'ranger', 'woll', 'rear', 'guard', 'position', 'support', 'battery', 'command', 'road', 'north', 'knowledge', 'artillery', 'presence', 'hay', 'charge', 'mexican', 'rear', 'guard', 'drive', 'woll', 'main', 'force', 'overrun', 'gun', 'fire', 'dozen', 'round', 'boldness', 'charge', 'mexican', 'army', 'surprise', 'doubt', 'save', 'hay', 'command', 'casualty', 'hay', 'horse', 'shot', 'men', 'wound', 'woll', 'ranger', 'support', 'infantry', 'artillery', 'rally', 'recapture', 'battery', 'texan', 'fell', 'yard', 'dry', 'creek', 'bed', 'caldwell', 'main', 'body', 'join', 'begin', 'position', 'anticipation', 'mexican', 'attack', 'texan', 'officer', 'heat', 'difference', 'opinion', 'practicability', 'attack', 'caldwell', 'council', 'war', 'time', 'situation', 'mcculloch', 'front', 'call', 'volunteer', 'advance', 'judge', 'john', 'hemphill', 'urge', 'importance', 'attack', 'john', 'holland', 'jenkins', 'lethargy', 'fall', 'command', 'retard', 'progress', 'night', 'approach', 'texan', 'rank', 'water', 'madness', 'delay', 'harmony', 'leader', 'morning', 'woll', 'hustle', 'troop', 'hondo', 'force', 'march', 'rio', 'grande', 'point', 'pursuit', 'texan', 'abandon', 'fall', 'river', 'san', 'antonio', 'rio', 'grande', 'experience', 'flow', 'command', 'harassment', 'retreat', 'mexican', 'arrival', 'squad', 'company', 'volunteer', 'army', 'bennet', 'woll', 'army', 'reach', 'mexican', 'soil', 'caldwell', 'volunteer', 'return', 'hondo', 'showdown', 'fight', 'woll', 'command', 'mile', 'road', 'san', 'antonio', 'vanguard', 'edward', 'burleson', 'reinforcement', 'green', 'spoke', 'army', 'general', 'burleson', 'tactician', 'sense', 'term', 'rule', 'win', 'battle', 'minutia', 'drill', 'rule', 'salado', 'creek', 'battle', 'handbook', 'online|', 'texas', 'state', 'association', 'tsha']",0,[],0.006777766
97,1.0,"['time', 'white_man', 'slave', 'work', 'support', 'savage', 'savage', 'home', 'build', 'food', 'drive', 'car', 'build', 'white_man', 'benefit', 'labor']",0,[],0.006777766
1291,1.0,"['government', 'fix', 'fix', 'advantage', 'independent', 'state', 'share', 'government', 'like', 'inclination', 'give', 'compromise', 'king', 'george', 'england', 'england', 'desire', 'advantage', 'share', 'government', 'tyrant', 'free', 'tyrant', 'child', 'federal_beast', 'time', 'secession', 'freedom']",0,[],0.006777766
136,1.0,"['turn', 'bullet', 'time']",0,[],0.006777766
971,1.0,"['shot', 'rifle', 'start', 'lr', 'rifle', 'cartridge', 'bullet', 'small', 'powder', 'case', 'make', 'recoil', 'light', 'place', 'practice', 'permanent', 'bad', 'habit', 'practice', 'bad', 'habit', 'shooter', 'rifle', 'range', 'gun', 'safety', 'operation', 'care', 'clean', 'shoot', 'open', 'sight', 'success', 'shoot', 'scope', 'rifle', 'fine', 'quality', 'instruction', 'trigger', 'time', 'shot', 'airsoft', 'bb', 'gun', 'air', 'rifle', 'start', 'rifle', 'shot', 'give', 'start', 'family', 'member', 'friend', 'teach', 'local', 'gun', 'store', 'gun', 'range', 'info', 'local', 'firearm', 'instructor', 'start', 'master', 'basic', 'shoot', 'sport']",0,[],0.006777766
1012,1.0,"['cyprus', 'secession', 'cyprus', 'settle', 'greek', 'turk', 'time', 'turkish', 'invasion', 'cyprus', 'land', 'divide', 'people', 'cyprus', 'divide', 'separate', 'government', 'greek', 'turk', 'fication-talks', 'island', 'haiti', 'dominican', 'republic', 'divide', 'czechoslovakia', 'divide', 'soviet_union', 'divide', 'break', 'republic', 'secession', 'division', 'government', 'usefulness', 'government', 'suit', 'secession', 'normal', 'natural', 'secession', 'mean', 'liberty']",0,[],0.006777766
1058,1.0,"['folk', 'fruit', 'vegetable', 'give', 'diarrhea', 'folk', 'parallel', 'mexican', 'food', 'pepper', 'primitive', 'mexican', 'farm', 'worker', 'pepper', 'left', 'turn', 'red', 'jalape', 'pepper', 'mexican', 'pick', 'green', 'left', 'turn', 'red', 'mexican', 'care', 'fruit', 'vegetable', 'hire', 'mexican', 'wage', 'pay', 'work', 'wage', 'human', 'employee', 'slave', 'system', 'lot', 'slave', 'system', 'benefit', 'pay', 'price', 'time']",0,[],0.006777766
1109,1.0,"['time', 'gas', 'lampshade', 'soap', 'innocent_white', 'child', 'family', 'murder', 'pay', 'crime']",0,[],0.006777766
106,1.0,"['people', 'history', 'nordic', 'people', 'today', 'nordic', 'people', 'posse', 'history']",0,[],0.006672676999999999
1345,1.0,"['attitude', 'yankee', 'southerner', 'comment', 'yankee', 'case', 'southerner', 'separate', 'people', 'yankee', 'left', 'union', 'peace', 'deo_vindice']",0,[],0.006672676999999999
400,1.0,"['copper', 'jacket', 'hollow', 'point', 'cj', 'hp', 'bullet', 'work', 'bad', 'brand', 'cj', 'hp', 'bullet', 'people', 'problem', 'factory', 'load', 'run', 'pistol', 'test', 'fire', 'pistol', 'feed', 'pistol', 'feed', 'jamming', 'good']",0,[],0.006672676999999999
567,1.0,"['socialist', 'government', 'greece', 'slap', 'greek', 'people', 'european', 'union', 'european', 'union', 'immigration', 'policy', 'policy', 'agriculture', 'ections-lepen/']",0,[],0.006672676999999999
781,1.0,"['individual', 'place', 'loyalty', 'control', 'federal_government', 'child', 'future', 'answer', 'question', 'ron', 'paul', 'sick', 'people', 'medical', 'marijuana', 'put', 'prison', 'government', 'drinking', 'raw', 'milk', 'american', 'manufacturer', 'rope', 'product', 'hemp', 'american', 'gold', 'silver', 'tender', 'mandate', 'constitution', 'germany', 'repatriate', 'gold', 'fed', 'york', 'trust', 'u.s', 'dollar', 'supremacy', 'begin', 'wane', 'leader', 'audit', 'gold', 'american', 'type', 'light', 'bulb', 'buy', 'tsa', 'permit', 'abuse', 'right', 'american', 'travel', 'air', 'mandatory', 'sentence', 'life', 'crime', 'victim', 'drug', 'law', 'government', 'commode', 'home', 'suicide', 'aipac', 'drug', 'war', 'failure', 'people', 'right', 'notice', 'authority', 'drug', 'prison', 'make', 'entire', 'society', 'prison', 'problem', 'sacrifice', 'border', 'dispute', 'strife', 'root', 'border', 'world-the', 'mexico', 'congress', 'give', 'prerogative', 'executive', 'branch', 'change', 'party', 'power', 'change', 'policy', 'view', 'party', 'bank', 'large', 'corporation', 'bank', 'central', 'bank', 'bail', 'middle', 'class', 'job', 'home', 'government', 'official', 'money', 'air', 'wealth', 'flaw', 'principle', 'government', 'bureaucrat', 'politician', 'principle', 'liberty', 'people', 'war', 'wealth', 'liberty', 'concern', 'executive', 'order', 'president', 'authority', 'kill', 'list', 'american', 'citizen', 'target', 'assassination', 'patriotism', 'thought', 'blind', 'loyalty', 'government', 'politician', 'run', 'loyalty', 'principle', 'liberty', 'support', 'people', 'real', 'patriotism', 'willingness', 'challenge', 'government', 'wrong', 'people', 'care', 'people', 'government', 'give', 'government', 'safe', 'initiate', 'violence', 'people', 'member', 'free', 'market', 'liberty', 'member', 'liberty', 'free', 'market', 'liberty', 'personal', 'liberty', 'individual', 'seek', 'influence', 'positive', 'seek', 'power', 'force', 'command', 'religion', 'support', 'social', 'gospel', 'war', 'authoritarian', 'violence', 'threat', 'violence', 'aggression', 'force', 'redistribution', 'wealth', 'teaching', 'world', 'great', 'religion', 'government', 'reserve', 'information', 'deal', 'policy', 'democracy', 'high', 'esteem', 'minority', 'right', 'relative', 'dictate', 'majority', 'congress', 'credibility', 'disconnect', 'politician', 'explanation', 'deception', 'unhappiness', 'fear', 'future', 'loss', 'confidence', 'leader', 'distrust', 'anger', 'frustration']",0,[],0.006672676999999999
1303,1.0,"['government', 'government', 'hold', 'american', 'law', 'government', 'people', 'rule', 'regulation', 'washington_government', 'anti-white', 'anti-american', 'anti-european', 'government', 'white_nation', 'anti-american', 'government', 'wash', 'd.c', 'devil', 'carnate', 'child', 'federal_beast', 'deo', 'vindice']",0,[],0.006672676999999999
1312,1.0,"['independence', 'inevitable', 'scotland', 'seek', 'independence', 'government', 'london', 'northern', 'ireland', 'seek', 'ireland', 'western', 'germany', 'join', 'people', 'win', 'separate', 'people', 'military', 'occupation', 'washington', 'd.c', 'devin', 'carnate', 'independent', 'today', 'tomorrow', 'deo', 'vindice']",0,[],0.006672676999999999
1324,1.0,"['nation', 'nation', 'beast', 'hurry', 'portion', 'nation', 'separate', 'nation', 'people', 'murder', 'woman', 'child', 'property', 'loot', 'rap', 'innocent', 'person', 'law', 'citizen', 'vote', 'separate', 'federal_beast', 'justification', 'action', 'child', 'federal_beast']",0,[],0.006672676999999999
2086,1.0,"['berlin', 'wall', 'rumor', 'spread', 'berlin', 'gate', 'open', 'open', 'crowd', 'people', 'present', 'gate', 'hey', 'gate', 'open', 'gate', 'open', 'border', 'cross', 'guard', 'citizen', 'demand', 'hey', 'full', 'auto', 'full', 'auto', 'rifle', 'god']",0,[],0.006672676999999999
1840,1.0,"['ukraine', 'default', 'russian', 'debt', 'default', 'ukraine', 'fall', 'default', 'russia', 'call', 'debt', 'obligation']",0,[],0.0063007823
250,1.0,"['call', 'mexican', 'mexico', 'mexican', 'alien', 'invader', 'creature', 'call', 'mexican', 'mexican', 'afro-mexacanos', 'mexican', 'call', 'indios', 'indian', 'afro-mexacanos', 'mixture', 'black_slaves', 'indian', 'race_traitors', 'central_africa']",0,[],0.0063007823
923,1.0,"['mention', 'book', 'read', 'call', 'sniper', 'bible', 'good', 'info', 's.w.a.t', 'officer', 'read', 'canadian', 'book', 'rifleman', 'war', 'info', 'basic', 'info', 'shot', 'author', 'marksman', 'stuff', 'look', 'equipment', 'plan', 'advice', 'rifle', 'pistol', 'caliber', 'rifle', 'caliber', 'specific', 'goal', 'save', 'money', 'space', 'buying', 'bunch', 'equipment', 'load', 'type', 'cartridge', 'book', 'reading', 'article', 'product', 'review', 'equipment', 'price', 'powder', 'primer', 'bullet', 'shoot', 'usa', 'begin', 'segment', 'spin', 'show', 'sight', 'shoot', 'usa', 'segment', 'safety', 'method', 'safety', 'reloaders', 'area', 'supply', 'ready', 'save', 'brass', 'step']",0,[],0.0063007823
1159,1.0,"['military', 'jade', 'helm', 'training', 'extraction', 'civilian', 'target', 'federal_government', 'federal_military', 'call', 'kidnapping', 'extraction', 'schedule', 'dead', 'night', 'town', 'federal_military', 'shot', 'crime', 'fault', 'shoot', 'criminal', 'act', 'texas', 'texas', 'jury', 'return', 'verdict', 'need', 'shoot', 'case', 'texas', 'union', 'secession', 'freedom']",0,[],0.0063007823
2007,1.0,"['magnum', 'great', 'caliber', 'hunt', 'folk', 'deer', 'colorado', 'light', 'load', 'call', 'cowboy', 'load', 'middle', 'special', 'load', 'area', 'man', 'stop', 'compare', 'round', 'bullet', 'type', 'bullet', 'weight', 'velocity', 'round', 'gold', 'standard', 'stop', 'stop', 'acp', 'find', 'cartridge', 'caricaturist']",0,[],0.0063007823
594,1.0,"['propaganda', 'version', 'thanksgiving', 'reality', 'hollywood', 'media_mafia', 'school', 'system', 'bombard', 'tale', 'savage', 'indian', 'save', 'poor', 'stupid', 'white_man', 'begin', 'tradition', 'thanksgiving', 'white_man', 'god', 'spar', 'butcher', 'primitive', 'blood_thirsty', 'savage', 'neighbor']",0,['thanksgiving'],0.006256380600000001
969,1.0,"['latest', 'estimate', 'american', 'job', 'million', 'white_woman', 'intention', 'work', 'job', 'white_man', 'work', 'job', 'white_man', 'work', 'stupid', 'job', 'teenager', 'work', 'real', 'job']",0,[],0.006256380600000001
1460,1.0,"['african', 'murder', 'work', 'white_man', 'medium', 'protester', 'tax_dollars', 'entire', 'life', 'murder', 'work', 'white_man', 'work', 'job', 'christmas', 'money', 'kid', 'african', 'living', 'white_man', 'tax_dollars']",0,[],0.006256380600000001
