,topic_lda,bag_words,sa_score,events,rank,text,doc_id
35,3.0,"['rifle', 'ammo', 'buy', 'rifle', 'price']",0,[],0.0110739478841424,"If you can get the rifle cheaply, and the ammo cheaply, then ok. If not then buy a better rifle if the price is the same, or even close to the same.",35
96,3.0,"['ally', 'france', 'bombing', 'campaign', 'kill', 'french', 'ally', 'save', 'french', 'survivor', 'rap', 'french', 'child', 'buy', 'ally', 'federal', 'african', 'ally', 'turkish', 'troop', 'rape', 'pillage', 'asian', 'russian', 'rape', 'gang', 'save']",0,[],0.00707885529845953,"When the allies were """"liberating"""" France, one bombing campaign is said to have killed 40,000 French (the ones the allies were there to save). The French survivors were then raped, especially French children, buy the allies US federal Africans. The allies' Turkish troops were also allowed to rape and pillage, and then the Asians of the Russian rape gangs as well. Does anyone else need saving?",96
27,3.0,['jew'],0,[],0.006323066540062428,What is a Jew?,27
