,Unnamed: 0,Term,Fq-0,Fq-1,Fq-2,Fq-3,Fq-4,Tfidf-0,Tfidf-1,Tfidf-2,Tfidf-3,Tfidf-4,Prob-0,Prob-1,Prob-2,Prob-3,Prob-4
58,french,french,2,3,1,1,6,0.14924787458108785,0.17187677582883246,0.1407466252922465,0.05645881538238329,0.23538183012007524,0.017679814249277115,0.025868965312838558,0.007887877523899078,0.005676025524735451,0.04862851276993752
86,kidnapper,kidnapper,0,1,1,2,5,0.0,0.06773787239155693,0.16640776912902427,0.13350494899528376,0.2319141765238146,6.465332262450829e-05,0.007438778411597013,0.02222203463315964,0.0130059402436018,0.04171925038099289
74,hostage,hostage,0,1,0,1,7,0.0,0.08052227044051759,0.0,0.07935089506506023,0.3859577742024773,0.008144402876496315,0.0075000105425715455,0.00011089783947682007,0.0057027474977076045,0.03914880007505417
54,force,force,0,0,0,0,4,0.0,0.0,0.0,0.0,0.32931680081278625,5.9051726566394784e-05,4.7895209718262784e-05,8.735672599868849e-05,4.0330425690626726e-05,0.02577010355889797
167,south,south,1,0,0,0,3,0.12634930902576666,0.0,0.0,0.0,0.1992680410114227,0.008328124880790709,4.709226413979195e-05,8.626088674645871e-05,3.964719144278206e-05,0.018868610262870792
88,korean,korean,1,0,0,0,3,0.12634930902576666,0.0,0.0,0.0,0.1992680410114227,0.008328299969434738,4.829424869967625e-05,8.564863674109802e-05,3.979633402195759e-05,0.018862653523683548
49,faso,faso,1,0,0,1,3,0.1048813400915112,0.0,0.0,0.07935089506506023,0.16541047465820455,0.008326270617544651,0.00677039148285985,9.91375054582022e-05,0.005666876677423716,0.018860122188925743
18,burkina,burkina,1,0,0,1,3,0.1048813400915112,0.0,0.0,0.07935089506506023,0.16541047465820455,0.00837439764291048,0.0067494334653019905,9.324864367954433e-05,0.005675013177096844,0.01885467767715454
146,raid,raid,0,0,0,0,3,0.0,0.0,0.0,0.0,0.2469876006095897,0.008061205968260765,5.7214485423173755e-05,9.828565089264885e-05,4.674009687732905e-05,0.012007022276520727
187,woman,woman,1,0,0,1,1,0.1048813400915112,0.0,0.0,0.07935089506506023,0.05513682488606818,0.008337593637406826,4.835129948332906e-05,8.729526598472148e-05,0.0056493934243917465,0.011968757025897505
