,text,doc_id
8706,Pink AK 47 Fun!!  Girls love guns!,8706
4880,Kirsten Joy Weiss - Scorpion .22 LR Target Pistol,4880
10641,"JERRY MICULEK is one of the greatest revolver shooters alive, here is what he had to say on the .500 S&amp;W, which he says is one of his favorite pistols to shoot.",10641
486,Welcome to the wonderful world of firearms! Just remember that the most important issue is always SAFETY!,486
5255,Dude Perfect - Tailgating Trick Shots,5255
5327,Dude Perfect - Lacrosse Trick Shots,5327
12421,"Sheriff Richard Mack knew the Judge who was shot Sheriff Richard Mack has a few kind words for the Judge he knew, and the Congress Woman he knew of.",12421
