,Unnamed: 0,Term,Fq-0,Fq-1,Fq-2,Fq-3,Fq-4,Tfidf-0,Tfidf-1,Tfidf-2,Tfidf-3,Tfidf-4,Prob-0,Prob-1,Prob-2,Prob-3,Prob-4
1412,bullet,bullet,189,1,3,4,5,0.14760789149200276,0.0024367857911485324,0.008109847755021061,0.003713906700749224,0.003784051804872768,0.015020533999999999,1.1000785e-06,2.3075861e-05,8.402372000000001e-06,0.0
9000,rifle,rifle,319,0,11,3,13,0.2945601982454148,0.0,0.03515764201795436,0.0032932739641629914,0.011632311654407977,0.014208644,1.9882345e-06,3.4265875e-05,7.3428814e-06,0.0
4540,gun,gun,206,5,20,16,43,0.16088479178493414,0.012183928955742662,0.05406565170014041,0.014855626802996897,0.032542845521905804,0.011925643,1.9508845e-05,0.0008052758,0.0001396593,0.00041266464
8041,pistol,pistol,129,1,6,0,2,0.11911681998012072,0.002881064370164121,0.01917689564615692,0.0,0.0017895864083704578,0.010450965999999999,0.0,0.00014070998,4.8065403e-06,0.0
9606,shoot,shoot,265,12,13,15,16,0.20696344574275516,0.029241429493782386,0.03514267360509127,0.01392715012780959,0.012108965775592857,0.009801444,3.7590227e-05,0.0005348355599999999,3.6163856e-05,3.43022e-05
3827,fire,fire,181,8,26,17,32,0.14135993841297614,0.01949428632918826,0.07028534721018254,0.0157841034781842,0.024217931551185717,0.009365648,3.6894679999999996e-05,0.0023423557,6.901634e-05,0.00020950315
330,ammo,ammo,220,1,8,2,9,0.17181870967323068,0.0024367857911485324,0.02162626068005616,0.001856953350374612,0.006811293248770982,0.008506782,0.0,4.91179e-06,0.0,0.0
3828,firearm,firearm,142,2,4,6,26,0.11090116715272162,0.004873571582297065,0.01081313034002808,0.005570860051123836,0.01967706938533839,0.008067856,4.778512e-05,0.00011917303,3.1613612999999997e-06,2.8549259000000002e-05
6217,load,load,163,0,2,2,2,0.15051195082759442,0.0,0.006392298548718972,0.002195515976108661,0.0017895864083704578,0.0077199317,4.2397673e-06,4.7103178e-05,3.7238002999999996e-06,3.0769486000000002e-06
9627,shot,shot,186,7,19,16,21,0.14526490908736775,0.017057500538039727,0.05136236911513339,0.014855626802996897,0.015893017580465626,0.0068484159999999995,8.441427e-05,0.0006669823,0.00011333028999999998,1.7839127e-05
