,x,y,id,label
0,0.15649512,6.6257486,0,0
1,-6.2210197,14.475295,1,2
2,8.0410795,-5.584619,2,3
3,6.2134414,1.1641043,4,0
4,3.5215924,0.2707632,5,0
5,-1.8713143,4.5186024,6,0
6,1.6964054,1.3739892,7,4
7,-12.241942,-10.003814,8,3
8,5.121999,-9.348036,9,3
9,-1.8121415,6.799706,10,0
10,3.2897935,11.23066,11,4
11,0.11376287,6.5715246,12,0
12,-11.951666,-1.3067445,13,1
13,-0.93165106,-2.9564366,14,1
14,9.437923,9.347883,15,0
15,-10.067098,2.47123,16,4
16,15.683288,0.67945254,17,1
17,-8.658129,-4.9009466,18,1
18,1.0742551,2.5486617,19,4
19,7.0565615,-8.468847,20,3
20,-2.8803198,17.226376,21,0
21,-6.878972,-2.0831234,22,1
22,9.529054,9.457278,23,0
23,-12.241284,-10.002205,24,3
24,9.623031,9.499649,25,0
25,-2.8736873,17.632977,26,0
26,7.0903473,-8.513239,28,3
27,-12.9309025,11.050064,29,0
28,13.18397,-3.5232878,31,1
29,-1.7355632,13.046939,32,2
30,9.421197,0.68050414,33,4
31,-12.305964,10.467762,35,0
32,-10.505513,-5.193067,36,1
33,14.82104,-3.2799242,37,1
34,3.1124153,10.529459,39,4
35,-7.9535933,-0.34933737,40,1
36,-3.585186,20.750957,41,0
37,-2.0226202,-5.751067,42,0
38,-10.32991,7.7701335,43,2
39,4.479432,11.240061,45,4
40,8.562383,7.791921,46,0
41,-12.601225,15.345556,47,0
42,-13.749302,1.7835971,49,2
43,-4.757816,19.298475,50,0
44,-10.18919,7.6378045,51,2
45,8.540618,7.2556896,52,0
46,-7.137737,5.595891,53,2
47,-4.1628556,1.7314904,54,2
48,-6.553337,3.246703,55,2
49,5.3166623,-7.0166087,56,3
50,2.4068153,-1.2392725,57,0
51,-0.18312263,-7.5238366,58,0
52,-10.374156,-2.0518844,60,1
53,8.253877,7.8209243,61,0
54,-6.333479,8.044067,62,2
55,-8.884471,-1.8014985,63,1
56,-8.647913,-4.8797035,64,1
57,-7.380322,-16.37447,65,3
58,0.24552795,1.1794364,66,4
59,-12.558527,15.371244,69,0
60,3.193985,3.7502048,70,4
61,-4.4085684,19.755201,71,0
62,0.22623126,3.539513,72,4
63,3.602545,-9.5530815,73,3
64,2.4668074,-5.975744,74,3
65,9.966425,-5.36326,75,3
66,7.1425066,-8.54714,76,3
67,7.6555576,4.0705795,77,0
68,0.4306511,1.6791766,78,4
69,7.7448483,12.443754,79,4
70,14.549183,-3.495202,80,1
71,-3.9936883,-2.5768292,81,1
72,1.0518796,2.5858643,82,4
73,-16.241344,6.2413335,83,2
74,9.203203,0.9639429,84,4
75,-1.1041589,6.2497973,85,0
76,5.6875577,-11.777149,86,3
77,-13.419214,3.4010537,87,2
78,-6.974282,-2.935552,88,1
79,15.5085745,-6.188087,89,1
80,15.718506,-6.5455036,90,1
81,3.3332348,-10.710353,91,3
82,18.230707,0.63304317,92,1
83,5.4123535,2.624255,93,0
84,3.2953014,-6.6302395,94,3
85,9.791369,0.08971475,95,4
86,11.332427,7.255893,96,4
87,-7.755472,-8.165716,97,1
88,4.4504614,10.349832,98,4
89,-9.465576,-7.7653832,99,1
90,-2.243413,12.96207,100,2
91,8.507216,4.404666,101,0
92,-3.7660432,20.539385,102,0
93,-10.170755,7.622484,103,2
94,18.069384,0.8174064,105,1
95,-9.866844,11.735749,106,2
96,6.109732,-8.424008,107,3
97,19.166925,-4.2150097,108,1
98,7.755327,4.1058707,109,0
99,6.193164,2.0818307,110,0
100,6.8450274,-10.832871,111,3
101,-2.9564202,17.289648,112,0
102,-14.370004,7.122712,113,2
103,-2.0439892,-9.407744,114,3
104,-11.840118,15.569299,115,0
105,-11.416997,15.346274,116,0
106,-8.979044,-1.8550496,117,1
107,-7.326231,17.332615,118,2
108,4.6764846,-5.21062,119,3
109,-7.0627847,-16.701103,120,3
110,9.067143,5.2996755,121,0
111,14.933889,-3.362705,123,1
112,1.7543772,5.214407,125,4
113,-10.424646,2.1113963,126,4
114,17.87977,0.9982491,129,1
115,5.508116,2.5791764,130,0
116,0.26283094,3.72224,131,4
117,-6.9452233,-16.82287,132,3
118,-9.787692,2.7520964,133,4
119,-10.257878,-14.623951,134,3
120,-5.230526,-2.6328142,135,1
121,18.093313,0.7907475,137,1
122,2.9617724,8.390967,138,4
123,-6.507072,-17.274597,139,3
124,-7.18297,9.150043,141,2
125,-7.519232,-8.725674,142,1
126,6.1436763,-5.241347,143,3
127,5.549906,-11.742294,144,3
128,-10.50319,-6.167004,145,1
129,1.4111727,19.637423,146,0
130,-0.13614814,7.3391304,147,0
131,-11.935079,-1.2852234,148,1
132,-0.32029316,7.2611017,149,0
133,-9.43216,-5.7252026,150,1
134,9.442895,4.015668,151,0
135,-9.727088,-8.021469,152,1
136,-4.3905134,-2.083918,153,1
137,1.9787042,-2.5397243,154,0
138,4.2556877,-6.84847,155,3
139,0.11793618,3.6244807,157,4
140,7.223678,-10.4595175,158,3
141,4.0820074,-3.3386183,159,4
142,-4.6375394,-2.040893,160,1
143,1.0015,2.663313,161,4
144,-4.218106,19.997812,162,0
145,13.521609,2.1690967,163,1
146,4.7912517,-12.10903,164,3
147,-4.303993,-14.573908,166,3
148,-16.791857,-12.225118,167,3
149,-3.642089,-14.3227005,168,3
150,-4.17359,20.054064,169,0
151,2.24963,-2.8714352,170,0
152,-4.072237,-2.443479,171,1
153,6.0228076,-11.655228,172,3
154,-4.959237,1.4204677,173,2
155,4.1593328,-6.6508794,174,3
156,-4.2071843,-14.165997,175,3
157,11.913326,-13.465759,176,1
158,-8.614207,-4.842664,177,1
159,9.722825,0.16066532,178,4
160,15.256158,-7.0005765,179,1
161,7.393293,-5.978144,180,3
162,-12.675198,-15.07764,181,3
163,-10.625661,-5.8674736,183,1
164,-10.380184,-14.349587,184,3
165,-4.2308483,-14.4586,185,3
166,-7.6494007,16.988733,186,2
167,4.4060035,-8.758007,187,3
168,-10.056364,-15.067062,188,3
169,5.884621,0.36727932,189,0
170,4.4147186,11.157893,190,4
171,3.6459174,6.728815,191,4
172,-1.3833455,6.3862615,192,0
173,12.452398,-12.8648205,193,1
174,14.725008,-3.3481867,194,1
175,-8.483797,-4.745418,195,1
176,4.8603053,11.706826,196,4
177,-6.484393,-1.004452,197,1
178,18.231018,0.71602696,198,1
179,2.9722536,8.31448,199,4
180,-7.8920264,4.294921,200,2
181,5.062912,0.3694372,201,0
182,-7.371041,-5.66303,203,1
183,5.817815,0.42569244,204,0
184,6.025988,0.4510989,205,0
185,5.421967,-11.866356,206,3
186,8.056162,7.798873,207,0
187,-17.01456,-8.09615,208,2
188,-10.055248,-15.066006,209,3
189,9.120184,5.2598004,210,0
190,-4.30995,-13.586235,211,3
191,3.3787282,6.7664537,212,4
192,9.356522,4.0899577,213,0
193,15.584979,3.9928854,214,1
194,-3.4545434,-3.827636,215,1
195,-3.5991538,20.736307,216,0
196,15.525015,3.933992,217,1
197,-9.814124,2.7261558,218,4
198,-10.689649,8.116735,219,2
199,10.149641,-6.734409,220,3
200,6.2729917,-11.43916,221,3
201,-13.095378,3.461724,222,2
202,15.439343,-7.3570476,223,1
203,2.9112217,3.0042386,224,4
204,-16.225964,6.260066,225,2
205,3.29023,11.224483,226,4
206,18.288494,0.5710634,227,1
207,-3.1447647,12.771603,228,2
208,-13.292514,7.5725555,231,2
209,-12.713406,15.216076,234,0
210,13.472621,2.2304897,235,1
211,-6.511963,-6.577004,236,1
212,7.143973,-8.550527,237,3
213,-6.3595924,5.9364657,238,2
214,-4.2595387,-13.614286,239,3
215,2.4009297,11.22475,240,4
216,-15.39468,-4.3814673,241,4
217,10.102586,-5.320868,242,3
218,10.922152,-7.5053725,243,3
219,-12.940821,-9.250553,244,3
220,-10.389721,-14.367753,245,3
221,-2.229889,4.754612,246,0
222,-2.676132,-5.162319,247,0
223,3.0086572,3.1091442,248,4
224,5.466852,-11.839183,249,3
225,-3.6129682,-14.305064,250,3
226,3.6888294,-9.472224,251,3
227,-1.2719944,-16.708735,252,3
228,1.17077,4.5801134,253,4
229,4.407744,-6.9223285,254,3
230,2.214197,6.328847,255,4
231,-4.249741,-14.549889,256,3
232,-3.6768408,20.648865,257,0
233,-7.6248703,-5.7314963,259,1
234,-8.775206,-7.0058937,260,1
235,-0.432865,-16.052797,261,3
236,3.4781365,6.7865176,263,4
237,-16.790257,-12.222745,264,3
238,13.321885,-3.4983547,265,1
239,7.902628,4.085091,266,0
240,-3.4628553,-14.240842,267,3
241,12.377807,-12.947851,268,1
242,-12.438719,15.467629,269,0
243,4.130767,-4.3740506,270,3
244,9.983962,-5.4726524,271,3
245,10.15504,-5.391431,272,3
246,6.087215,1.4292209,273,0
247,-5.644583,12.314325,274,2
248,-6.175968,10.961699,275,2
249,-10.612327,8.0546,276,2
250,-10.567973,-6.052074,277,1
251,-2.1494298,-9.310571,279,3
252,13.467522,2.244924,280,1
253,-2.1286824,4.7714515,281,0
254,4.5180016,-0.28271464,282,0
255,-4.249641,-13.832209,283,3
256,8.256946,-5.397579,284,3
257,-4.6558414,19.422722,285,0
258,0.7832799,3.666515,286,4
259,3.7786975,-6.9212503,287,3
260,8.585533,7.2410107,288,0
261,-3.1805005,1.7819879,289,2
262,7.8137403,4.0957055,290,0
263,6.1135197,0.17223701,291,0
264,-6.1744184,10.962274,292,2
265,-15.789225,9.501821,293,4
266,15.6746,0.68280005,294,1
267,5.177207,-5.0558686,295,3
268,2.7411034,2.6945047,296,4
269,-12.9236355,-9.265652,297,3
270,9.722706,-5.955576,298,3
271,17.915148,0.9740848,299,1
272,2.3590174,11.275793,300,4
273,7.795251,12.397237,301,4
274,-0.72441375,6.3916354,302,0
275,8.863948,5.2449384,303,0
276,-3.315093,9.769951,304,2
277,-7.090932,-10.067634,305,1
278,-9.040329,-5.670736,306,1
279,7.4434767,12.678724,307,4
280,15.413838,3.8238254,308,1
281,3.0105848,3.3643787,309,4
282,4.1587367,-3.9398663,310,4
283,4.1461506,-4.4415255,311,3
284,-9.940337,11.790251,312,2
285,-5.822808,12.562841,314,2
286,-10.587059,8.027789,315,2
287,4.641885,11.421732,321,4
288,2.9588788,10.653538,322,4
289,0.35255563,1.0343704,323,4
290,5.2385855,-12.100482,324,3
291,5.8148885,1.8485228,325,0
292,-14.34309,4.0413404,326,2
293,-17.07459,-8.02237,327,2
294,0.13873437,3.4335787,328,4
295,1.5062941,1.2274839,329,4
296,12.493671,5.5037785,330,4
297,12.541218,5.438041,331,4
298,4.4133883,10.368349,332,4
299,-10.114302,7.5819163,334,2
300,-13.125842,3.3741508,336,2
301,-7.795063,-2.451664,338,1
302,13.470952,2.2647347,339,1
303,-13.733615,1.8020059,340,2
304,3.2679942,6.673529,341,4
305,14.833427,-3.264875,342,1
306,-13.408081,3.4253452,343,2
307,-6.2587,10.873937,344,2
308,18.220118,0.6623217,345,1
309,3.1560762,-10.971744,346,3
310,5.887296,-8.573071,347,3
311,-0.11205583,7.23115,348,0
312,3.9252546,8.755825,349,4
313,4.381236,-4.841737,350,3
314,-14.818418,-5.0943274,351,4
315,4.190767,10.347782,352,4
316,-3.2822995,2.014213,353,2
317,-7.6553016,16.98555,354,2
318,4.956834,-8.912748,355,3
319,4.9888096,-12.097441,356,3
320,-10.33109,7.771461,357,2
321,2.777461,2.7455485,358,4
322,4.4601955,10.371774,359,4
323,2.633568,2.524645,360,4
324,-4.452127,1.4575139,361,2
325,-4.3235693,1.516428,362,2
326,-6.794941,5.7545843,363,2
327,5.099636,12.038099,364,4
328,3.7812073,6.6318965,365,4
329,-7.776925,16.865637,366,2
330,-7.495863,-3.6673958,367,1
331,-0.19787955,-18.859186,368,3
332,5.716751,-5.0765743,369,3
333,-8.867401,-6.0851116,370,1
334,-15.503332,9.788692,371,4
335,-9.632489,2.9071715,372,4
336,2.0010216,5.545121,373,4
337,11.305956,6.9197855,374,4
338,15.326436,-7.5914793,375,1
339,-6.2970214,8.039047,376,2
340,-7.4700537,17.159704,377,2
341,12.328602,5.4158826,378,4
342,3.4382288,-6.762205,379,3
343,-11.641426,-4.1628213,380,1
344,-7.3458304,-10.063325,381,1
345,6.9052486,-10.716493,382,3
346,-12.663276,-15.0921755,383,3
347,-0.14815666,1.2247392,384,4
348,7.761984,12.430716,385,4
349,-6.927126,-2.1795168,386,1
350,-3.3075533,1.751308,387,2
351,-7.2815804,9.820767,388,2
352,-15.851577,9.435754,389,4
353,-3.3162022,9.774043,390,2
354,7.344666,-10.345473,391,3
355,3.0495002,6.1755085,392,4
356,5.970522,0.38210532,393,0
357,-4.2405963,1.4038838,395,2
358,-2.132826,-9.31937,396,3
359,-6.558697,3.5846477,397,2
360,-7.6417623,-5.701944,398,1
361,10.0592375,10.575748,399,0
362,4.592004,11.35893,400,4
363,3.9784172,-5.9804063,401,3
364,-7.294371,8.532011,402,2
365,2.9707313,10.6253605,403,4
366,2.3653512,5.3293686,404,4
367,-8.070601,-0.9718693,406,1
368,3.9920413,-9.366233,407,3
369,-10.231598,-14.679713,408,3
370,-6.8293567,10.369896,409,2
371,-10.403887,-2.0785213,410,1
372,-7.545679,-8.695327,411,1
373,-8.23866,-1.2582711,412,1
374,-7.6175795,-6.1547694,413,1
375,8.683907,4.3897734,414,0
376,-7.3739195,9.28072,415,2
377,-6.863907,12.765917,416,2
378,-7.506675,-0.7902004,417,1
379,4.1492653,-3.8308418,418,4
380,-0.41740084,-16.039078,419,3
381,4.5443196,-4.980766,420,3
382,-6.872946,-16.896574,421,3
383,13.624095,3.0249026,422,1
384,15.51118,3.920383,423,1
385,2.9767797,4.833846,424,4
386,-16.277113,6.2095485,425,2
387,-3.2825243,12.867155,426,2
388,-4.2216973,19.985506,427,0
389,5.9977064,1.6008501,428,0
390,-9.87896,11.747196,429,2
391,-10.614392,-2.2313159,430,1
392,-0.6833344,1.404531,431,4
393,8.876763,4.3496914,432,0
394,-7.9797163,-0.76609313,433,1
395,-3.7880585,-14.3291855,434,3
396,6.3726096,-11.334724,435,3
397,1.3984884,19.650288,436,0
398,11.345148,7.2220097,437,4
399,-3.921923,-3.1543825,438,1
400,-10.74612,-5.6797533,439,1
401,3.8681545,10.316972,440,4
402,-7.027401,12.9422655,442,2
403,-13.737353,2.2447705,444,2
404,1.1374584,4.6109977,445,4
405,7.4834104,-10.211425,447,3
406,5.372319,-7.0667567,448,3
407,-2.3799517,12.937938,449,2
408,-9.843778,-5.621215,450,1
409,5.599812,-5.245142,451,3
410,-7.4006906,-5.6988964,452,1
411,-3.159604,9.971552,453,2
412,-8.156265,-7.6388273,454,1
413,10.354386,-6.9946804,455,3
414,6.09354,-8.444707,456,3
415,19.16772,-4.213237,457,1
416,-9.810212,-1.9305125,458,1
417,1.2906791,4.69902,459,4
418,-6.601872,-6.521604,460,1
419,-4.462347,1.4586062,461,2
420,-13.75567,1.842559,462,2
421,3.4868276,6.608768,463,4
422,-2.1357615,4.71817,464,0
423,-6.373753,8.077127,465,2
424,12.37316,-12.955635,466,1
425,-13.71444,-8.420424,467,3
426,-3.0854754,-4.464394,468,0
427,6.087011,-6.9644203,469,3
428,3.403353,6.852927,470,4
429,-6.6747794,13.144546,471,2
430,-15.466571,9.823679,472,4
431,3.3446963,6.5899453,473,4
432,15.655315,0.69529194,474,1
433,2.4453893,5.024667,475,4
434,2.4110203,5.0770216,476,4
435,-9.544494,-5.7127085,477,1
436,-10.5555725,-5.8238893,478,1
437,-5.2744393,-2.029932,479,1
438,-9.972255,-1.9953319,480,1
439,-16.575111,-8.530048,481,2
440,13.482085,2.3114982,482,1
441,15.616469,0.6473089,483,1
442,-7.287125,17.371777,484,2
443,-7.7323,13.16848,485,2
444,-1.3382798,6.3528523,486,0
445,-9.544777,-5.738183,487,1
446,0.5196357,3.583224,488,4
447,2.879815,10.736471,490,4
448,7.331356,-10.228376,491,3
449,2.2279794,6.424479,492,4
450,-1.7571594,-9.67468,493,3
451,5.212879,12.17302,494,4
452,-6.529047,-17.25018,495,3
453,5.792157,-8.637273,497,3
454,10.300468,-6.9553924,498,3
455,-14.034935,7.406077,499,2
456,2.2545774,-4.145314,500,0
457,-7.0459332,-16.720003,501,3
458,-6.634656,-1.1150327,502,1
459,19.171299,-4.2100706,503,1
460,7.328669,-10.283134,504,3
461,-0.95898384,6.2845874,505,0
462,-3.0986376,2.6042705,506,2
463,-0.5520063,-16.168564,507,3
464,9.129594,1.0761063,508,4
465,-7.705386,-5.7223434,509,1
466,13.267532,-3.5028515,510,1
467,2.3411303,2.1370034,511,4
468,-12.287299,-9.950643,512,3
469,3.0283408,8.483,513,4
470,4.577781,-5.353171,514,3
471,-10.837848,-4.8410187,516,1
472,-10.248791,2.2930875,517,4
473,-6.559778,-17.219917,519,3
474,4.1995945,-4.7175465,520,3
475,0.08776526,3.6893873,521,4
476,4.252058,-9.152986,522,3
477,-6.4630303,10.706768,523,2
478,7.5774465,12.566016,524,4
479,8.072009,-5.570282,525,3
480,4.537573,-6.9515166,526,3
481,-0.8809999,-11.763314,528,3
482,5.6661644,-8.721765,529,3
483,-6.637504,-17.139889,530,3
484,-14.799659,-5.1151276,531,4
485,-0.9854316,-16.527706,532,3
486,13.52323,-3.454487,533,1
487,15.617856,-6.391112,534,1
488,10.900471,-7.483587,535,3
489,-1.9778899,-16.674719,536,3
490,3.6514695,-6.9165726,537,3
491,-0.7233313,-11.612272,538,3
492,-1.5377295,-16.787941,539,3
493,-10.954281,-5.702526,540,1
494,2.6879065,2.603939,541,4
495,7.420868,-10.3372965,542,3
496,4.1219883,-4.5618234,543,3
497,-7.6403265,-5.779885,544,1
498,7.0838766,-8.487371,545,3
499,13.621354,3.0268989,546,1
500,2.1637223,-2.9001453,547,0
501,11.336185,7.1022816,548,4
502,-0.830201,-16.428175,549,3
503,-13.610072,3.2994137,550,2
504,-1.6854692,-9.758796,551,3
505,-7.309424,-2.887694,552,1
506,3.1175427,-11.057463,553,3
507,-12.861947,-9.322816,554,3
508,-13.309988,-8.884001,555,3
509,-5.696527,-3.2242365,556,1
510,5.121592,12.066097,557,4
511,2.4803548,-0.9032862,558,0
512,13.635411,3.07649,560,1
513,-10.614177,8.054293,561,2
514,10.42347,-7.0647464,562,3
515,5.9056034,-11.691937,563,3
516,-7.3679085,17.286144,564,2
517,5.6643953,2.4410625,565,0
518,3.0811431,8.464718,566,4
519,-4.403054,-13.67222,567,3
520,-3.4518123,-14.218008,569,3
521,-6.735428,-17.041994,570,3
522,-12.65328,-15.100348,571,3
523,-4.3099604,-14.585818,572,3
524,-13.368574,7.527438,573,2
525,8.24501,-5.413385,574,3
526,-8.791729,-1.814653,575,1
527,-1.6971401,6.7180414,576,0
528,-7.2914634,9.062516,577,2
529,-6.9224105,-2.9643958,578,1
530,4.024928,6.4517074,579,4
531,-4.0179954,20.238636,580,0
532,1.4229277,19.624994,581,0
533,3.4730856,6.8300257,583,4
534,6.2618175,1.441793,584,0
535,-5.9534326,14.833254,585,2
536,10.267286,-6.877792,586,3
537,3.5312195,4.1214857,587,4
538,13.603097,2.9538474,588,1
539,-14.872786,-5.01274,589,4
540,-5.142125,-2.8158202,590,1
541,9.480983,3.9795384,591,0
542,-7.4711266,-2.7799108,592,1
543,-13.513876,3.608844,593,2
544,5.4392247,-11.967779,594,3
545,6.194651,2.1143076,595,0
546,9.791848,10.036385,596,0
547,6.268699,-7.213783,597,3
548,15.494245,-6.8012657,598,1
549,-14.888702,-5.0282755,599,4
550,3.5089047,4.096224,601,4
551,-11.257634,-2.727363,602,1
552,-5.0106544,11.7965,603,2
553,-14.396641,4.1376567,604,2
554,17.89685,0.9796348,605,1
555,-14.389491,4.1266236,606,2
556,-13.197215,3.6667817,607,2
557,-7.5946307,-1.4953185,608,1
558,13.469445,2.3347797,609,1
559,4.2870784,0.32739994,610,0
560,3.5849304,6.768239,611,4
561,-2.7260456,10.641144,612,2
562,4.913781,0.1908472,614,0
563,12.17353,-13.174418,615,1
564,2.3255033,8.213174,616,4
565,-0.12366942,7.407778,617,0
566,-6.704101,-1.2417302,618,1
567,-7.684549,-5.70425,619,1
568,5.0807047,0.45115733,620,0
569,7.6455016,4.0113654,621,0
570,7.6198716,3.9869158,622,0
571,-11.647448,-4.1726747,623,1
572,10.450546,-7.0946317,624,3
573,-10.70577,-2.2670267,625,1
574,12.420779,-12.900368,627,1
575,-4.5297685,-2.1208606,628,1
576,4.2178087,-0.5664994,629,0
577,13.163359,-3.5180826,630,1
578,2.4935393,-3.0395303,632,0
579,-4.8823075,1.4273326,633,2
580,-4.365172,-13.687353,634,3
581,-3.0495658,13.124676,635,2
582,-1.4128171,-16.803986,636,3
583,9.68928,-5.9067454,640,3
584,-12.938866,-9.251902,641,3
585,4.793067,11.605031,642,4
586,-9.966721,11.832326,643,2
587,5.4197283,-8.845845,644,3
588,-16.80607,-12.238891,645,3
589,-4.968028,1.420336,646,2
590,-3.5826676,1.4253247,648,2
591,14.16114,-3.247891,649,1
592,9.7240505,-5.847258,650,3
593,-12.850872,-9.337307,651,3
594,-7.241612,-10.855753,652,1
595,-9.828958,11.700891,653,2
596,-6.2032437,7.9551506,654,2
597,6.967669,-8.458467,655,3
598,-3.840232,-14.321945,657,3
599,10.397333,-7.0231295,658,3
600,6.8238196,-10.859231,659,3
601,6.2460775,-7.3321214,660,3
602,-13.655943,2.8495295,661,2
603,2.5471034,-1.029196,662,0
604,-10.067738,-15.038194,663,3
605,-16.822727,-12.255493,664,3
606,6.0704775,-6.9495516,665,3
607,-12.659792,-15.087519,666,3
608,-13.73971,1.8286699,667,2
609,-10.366854,-14.385829,668,3
610,4.6935964,-9.258279,669,3
611,9.79384,0.078479566,670,4
612,-3.1509874,12.95427,671,2
613,-1.441017,6.4004436,673,0
614,-12.71812,6.174237,674,4
615,-13.06069,-1.2403605,675,1
616,-10.340348,-14.430742,676,3
617,7.7564163,4.048174,677,0
618,15.368903,3.7778797,678,1
619,0.26308775,6.8405514,679,0
620,-8.305762,-7.470582,680,1
621,-0.18912968,7.3582354,681,0
622,-7.2736897,-9.991202,682,1
623,-9.6757145,2.8626783,683,4
624,-7.106945,13.1712475,684,2
625,9.754082,0.16204034,686,4
626,-6.5347676,8.135098,687,2
627,15.369663,-7.618268,688,1
628,-5.3547044,11.705042,689,2
629,-6.211705,10.92516,690,2
630,9.416591,9.311442,691,0
631,15.391257,-7.37753,692,1
632,11.890539,5.391865,693,4
633,-4.8033943,19.248693,694,0
634,6.005286,1.5642544,695,0
635,-2.9337883,17.772226,696,0
636,4.2587523,-12.968483,697,3
637,-4.18668,-14.63073,698,3
638,14.148041,-3.2680113,699,1
639,8.267376,7.875491,700,0
640,-7.447609,17.184858,701,2
641,-14.1838045,7.3021173,702,2
642,-15.097595,-4.7313995,703,4
643,5.9951115,-11.618553,704,3
644,-10.684963,8.112193,705,2
645,-8.3866825,-7.372254,706,1
646,-13.809638,1.9160217,707,2
647,-4.9729366,1.429482,708,2
648,-11.224539,-4.4661007,709,1
649,3.8782525,8.790907,710,4
650,9.11211,1.0866854,711,4
651,9.389459,0.7448181,712,4
652,0.25547078,6.836283,713,0
653,-7.4187803,4.4167137,714,2
654,10.835702,-7.4259343,715,3
655,-12.629164,-15.132631,716,3
656,-6.331242,5.9659405,718,2
657,10.055957,-5.3222604,719,3
658,-8.36063,-1.8652984,720,1
659,5.143072,-7.0763135,721,3
660,-11.917189,-1.232867,722,1
661,17.857944,1.0186464,723,1
662,-1.6471133,-9.800957,724,3
663,-0.40579715,-16.022396,725,3
664,-4.9776034,1.3575357,726,2
665,0.31677276,1.2132692,727,4
666,-12.683922,6.1551857,728,4
667,11.862988,-13.5190735,729,1
668,15.532118,3.9415858,730,1
669,0.75929725,2.8503194,731,4
670,-13.280641,-8.918786,732,3
671,-6.448559,-17.333666,733,3
672,-1.4132018,-16.7956,734,3
673,5.9489994,1.1904216,735,0
674,-1.3729908,-16.78485,736,3
675,-5.347102,11.907957,737,2
676,-5.731033,6.278075,738,2
677,-13.667016,-8.478305,739,3
678,-3.3361645,1.8906772,740,2
679,10.237409,-6.864435,741,3
680,-10.25522,2.2843313,742,4
681,-13.336334,-8.854552,743,3
682,-7.4216638,-16.331821,744,3
683,-10.5795965,-2.2066314,745,1
684,-0.9461773,-11.826828,746,3
685,2.3838372,2.183988,747,4
686,-3.8660913,20.422846,748,0
687,-1.0684034,-11.933908,749,3
688,-6.941326,12.807617,750,2
689,4.241759,-12.9966345,751,3
690,3.9304087,6.4941916,752,4
691,12.3939085,5.7907376,753,4
692,5.927929,0.9984864,754,0
693,4.1203656,-3.374395,755,4
694,-0.5583822,-3.2201986,756,1
695,1.0742958,4.097787,758,4
696,9.865165,10.255486,759,0
697,4.067968,10.32432,760,4
698,-1.7490051,-9.751761,761,3
699,-2.3932009,16.714134,762,0
700,-6.984062,8.3318815,763,2
701,12.684595,-3.5704372,764,1
702,-0.6965169,-11.584236,766,3
703,2.4519796,8.7892,767,4
704,-14.903884,-5.004359,768,4
705,6.2215257,1.1213124,769,0
706,9.481903,9.387155,770,0
707,-13.200885,3.3745828,771,2
708,-5.5089273,11.752904,772,2
709,-3.0829575,13.0708065,773,2
710,4.1480646,-7.005246,774,3
711,12.583597,-3.5977366,775,1
712,-13.229056,-8.972041,776,3
713,13.399955,-3.4838717,777,1
714,-0.49984032,-3.275185,778,1
715,-15.682108,9.60855,779,4
716,-11.023103,-5.6460357,780,1
717,-6.9332995,13.332487,781,2
718,-9.925039,11.789824,782,2
719,2.3715644,11.270993,783,4
720,-13.719291,1.9123298,784,2
721,-0.3381576,1.4818519,785,4
722,0.11578364,3.6935663,787,4
723,9.106752,5.244635,789,0
724,2.2389011,6.70059,790,4
725,19.17132,-4.209725,791,1
726,4.265066,-8.485519,792,3
727,-1.3740743,-5.6748567,793,0
728,2.3338094,11.311497,794,4
729,-14.892536,12.625397,795,0
730,-10.512291,-6.1954746,796,1
731,-5.192486,11.880431,797,2
732,2.3910518,-5.818626,798,3
733,-10.782328,8.180977,799,2
734,-7.5494857,-3.1219723,800,1
735,5.397013,-5.0256443,801,3
736,-0.49391165,-16.110928,802,3
737,5.1754565,12.132282,803,4
738,-10.866251,-4.7840705,804,1
739,8.622762,4.749424,805,0
740,-1.3942654,-16.801678,807,3
741,13.621181,3.038214,808,1
742,0.9808632,2.6597505,809,4
743,14.875428,-3.3595865,810,1
744,-8.882719,-6.1972346,811,1
745,-2.0256848,-16.580273,812,3
746,7.9046893,-5.7170787,813,3
747,12.567781,-3.6226296,814,1
748,1.0560555,2.6479876,815,4
749,-0.021497624,7.2124424,816,0
750,7.798988,7.8278003,818,0
751,4.3132052,-11.645663,819,3
752,-3.3297963,9.767965,820,2
753,2.3008397,-5.1162467,821,3
754,-11.710256,15.504198,822,0
755,-15.900387,9.386975,823,4
756,2.3140924,8.288607,824,4
757,2.2472973,6.6831656,825,4
758,9.390473,4.0520844,826,0
759,5.186677,-7.0424137,827,3
760,4.0727262,-3.3236816,828,4
761,2.5389636,-2.986645,829,0
762,-14.888518,12.631788,830,0
763,4.345895,-6.848526,831,3
764,-4.7245746,19.335533,832,0
765,-2.2703636,4.78934,833,0
766,7.4774895,12.632675,834,4
767,-3.6745288,13.06608,835,2
768,4.9031997,-7.0515885,836,3
769,4.4321175,-0.5968327,837,0
770,13.454082,2.4258401,838,1
771,10.464622,-7.0995274,839,3
772,-10.940619,-5.658187,840,1
773,-5.2602744,-2.3593795,841,1
774,8.690595,4.460203,842,0
775,12.064165,5.332773,843,4
776,-0.52445716,6.503513,844,0
777,-9.891609,-1.9677098,845,1
778,2.277908,-4.7976656,846,3
779,-16.726027,-8.3389435,847,2
780,-12.377092,15.477256,848,0
781,-9.158255,-1.8251711,849,1
782,-4.459789,19.689146,850,0
783,-3.5785472,20.75268,851,0
784,-0.6056598,-16.212246,852,3
785,-11.388735,15.306268,853,0
786,-13.047572,11.156886,854,0
787,4.8404737,-12.032646,855,3
788,-0.19613282,-18.862972,856,3
789,-0.9020623,-2.9613974,857,1
790,0.738683,2.8340764,859,4
791,9.254208,0.8806546,860,4
792,-13.623866,3.6744146,861,2
793,11.775377,5.345757,862,4
794,2.333886,8.3046465,863,4
795,3.652858,6.648207,864,4
796,4.5608974,11.320186,865,4
797,-7.135767,4.329924,866,2
798,-7.6437335,4.5445843,867,2
799,-16.785566,-8.304688,869,2
800,-16.898659,-8.1751175,870,2
801,-9.714287,2.8230178,871,4
802,-1.7621723,12.997801,872,2
803,3.0985715,10.51393,873,4
804,-12.194309,-10.048905,874,3
805,-7.330458,-1.4637926,875,1
806,7.344121,-10.22272,876,3
807,-5.6355605,11.560042,877,2
808,1.4584402,19.590242,878,0
809,4.050672,10.348874,879,4
810,12.449575,5.7062936,880,4
811,0.009632328,3.633487,881,4
812,3.0575013,4.41766,882,4
813,2.2912412,-5.2584186,883,3
814,-3.4055634,12.86028,884,2
815,-13.118761,-1.2980644,885,1
816,5.6528864,2.4378777,886,0
817,11.941261,5.306261,887,4
818,-7.795556,16.847292,888,2
819,-1.7281379,-9.722547,890,3
820,15.410243,-6.1663775,891,1
821,-15.846363,9.44329,892,4
822,-7.2094245,9.935297,893,2
823,-1.0517617,-11.923706,894,3
824,-12.759795,6.196866,895,4
825,-4.245111,-13.584818,896,3
826,-7.3148074,3.5037744,897,2
827,2.5814009,-5.9249105,898,3
828,1.9530755,-0.56792474,899,0
829,-15.60435,9.686887,900,4
830,9.472511,0.62889475,901,4
831,10.054843,-5.3692575,902,3
832,-5.3080826,-2.8520756,903,1
833,-10.17906,-14.771649,904,3
834,-2.6213691,17.006384,905,0
835,2.3505673,-5.449349,906,3
836,-10.7669,8.160862,907,2
837,-3.0136447,2.7873213,908,2
838,3.1532338,10.683902,909,4
839,9.966198,10.436484,911,0
840,2.4539711,8.868829,912,4
841,-10.37443,2.165056,913,4
842,-14.814617,-5.09126,914,4
843,-15.552921,9.740761,915,4
844,7.081198,-8.496401,917,3
845,11.83591,5.345096,918,4
846,11.963862,5.33872,919,4
847,-2.6393983,17.055685,920,0
848,-11.889745,-1.1828191,921,1
849,3.6726017,-6.880034,922,3
850,2.317299,4.780352,923,4
851,4.367005,10.370308,924,4
852,3.77532,8.866399,925,4
853,1.2330519,4.0630774,926,4
854,-10.792791,8.116333,927,2
855,13.927821,-3.3085544,928,1
856,-3.9289618,20.352947,929,0
857,-4.307334,19.885277,930,0
858,-1.6880728,-9.759994,931,3
859,-7.768138,13.247798,932,2
860,-6.943053,12.958855,933,2
861,-7.315258,17.342564,934,2
862,-7.3830514,-16.371487,935,3
863,3.3217518,9.237787,936,4
864,-5.0035634,1.3326073,937,2
865,18.327143,0.53172195,938,1
866,-13.198784,-8.99532,939,3
867,-2.377113,-5.3863487,940,0
868,-9.515528,-5.780012,941,1
869,-2.2741506,4.818484,942,0
870,-7.196887,9.937363,943,2
871,-0.06684396,3.3423755,944,4
872,-13.280852,3.7958648,945,2
873,10.067727,-5.3152843,946,3
874,-0.54289836,-3.2359176,947,1
875,-7.8404613,-0.47319108,948,1
876,-10.05799,-15.064227,949,3
877,-8.600587,-4.8259606,950,1
878,4.473275,-9.215123,951,3
879,-4.0127487,-2.3144202,953,1
880,2.4659207,5.82503,954,4
881,10.865202,-7.4470844,955,3
882,3.4072738,-10.374073,956,3
883,9.938661,10.374948,957,0
884,-12.2579,-9.986538,958,3
885,2.5210168,8.25428,959,4
886,7.038729,-5.576325,960,3
887,-6.385491,-17.397541,961,3
888,-0.82307684,-16.389149,962,3
889,-9.88591,-1.94537,963,1
890,6.2383866,-8.324718,964,3
891,-0.1975361,-18.859436,965,3
892,-3.6242633,20.700722,966,0
893,0.35106802,3.217009,967,4
894,2.313256,-1.0439286,968,0
895,-2.9541957,17.235075,970,0
896,2.4215188,5.294255,971,4
897,-12.703506,15.230106,972,0
898,-10.287317,7.737489,974,2
899,-6.966175,8.411552,975,2
900,4.246017,10.362064,976,4
901,-4.2739425,-14.498693,977,3
902,-7.373855,9.062359,978,2
903,-2.067048,-9.3913765,979,3
904,-13.254955,-8.938193,980,3
905,6.127308,1.9374796,982,0
906,-2.9574792,1.8194846,983,2
907,-6.8389115,13.514678,985,2
908,8.120187,4.185878,986,0
909,2.35245,7.6778283,987,4
910,9.252513,9.103157,988,0
911,-2.9741738,17.907555,989,0
912,8.943301,4.5236382,991,0
913,-2.1930335,4.746072,992,0
914,9.086426,5.3541956,993,0
915,-14.265956,7.2186294,994,2
916,-9.021936,-1.8235168,995,1
917,9.887106,-0.010925618,996,4
918,3.2622318,6.3631415,997,4
919,0.14316252,1.5272655,998,4
920,-11.459055,15.3744545,999,0
921,4.1070313,0.44030777,1000,0
922,-12.076314,-1.1919981,1001,1
923,-7.108008,-2.3648741,1002,1
924,3.2007613,0.9073502,1003,0
925,-1.8676482,-6.4289656,1004,0
926,2.6096606,8.802828,1005,4
927,-1.8911136,-6.516669,1006,0
928,-0.23417471,-7.5727773,1007,0
929,6.1972957,1.0078758,1008,0
930,-7.4456754,-9.040852,1009,1
931,-15.284791,-4.504193,1011,4
932,8.563458,4.468001,1014,0
933,-11.703773,-4.1054244,1015,1
934,-7.651478,-6.1356196,1017,1
935,-7.2678113,13.133237,1018,2
936,3.4340503,4.1104856,1019,4
937,-0.78404045,-11.672729,1020,3
938,-1.7289168,-5.8737917,1021,0
939,5.6923747,2.2373188,1023,0
940,-6.5024285,-6.581438,1024,1
941,-3.965196,-14.335015,1025,3
942,2.5251076,2.3753197,1026,4
943,11.367526,7.4008503,1027,4
944,5.6650786,-5.274292,1028,3
945,-0.4666627,3.201402,1030,4
946,0.3772668,1.3642911,1031,4
947,9.343882,9.231518,1032,0
948,3.532387,4.1726556,1033,4
949,-6.4477005,8.137748,1034,2
950,-0.70225835,-16.308128,1035,3
951,-7.387781,-9.199512,1036,1
952,-13.946692,7.4520726,1037,2
953,-2.6286922,-5.1632195,1038,0
954,-1.3208117,-16.748373,1040,3
955,-3.5883582,-3.603715,1041,1
956,6.176532,2.0116036,1042,0
957,6.125669,1.6932051,1044,0
958,-13.678351,2.6483703,1045,2
959,-6.7318316,10.469269,1047,2
960,1.2609719,4.6700363,1048,4
961,0.33141118,1.2889482,1049,4
962,-1.8966961,-5.894651,1050,0
963,-6.594264,3.7459042,1051,2
964,-7.579575,-6.182286,1052,1
965,4.4517155,-5.466613,1053,3
966,7.6860642,3.9564428,1054,0
967,0.93626267,2.591528,1055,4
968,-2.8587682,13.02835,1056,2
969,11.994948,-13.3819275,1057,1
970,5.019394,-5.361073,1058,3
971,-3.5564334,-3.655572,1059,1
972,-7.228654,9.984556,1061,2
973,4.314297,-9.224153,1062,3
974,7.4330387,12.623196,1063,4
975,3.5716777,-9.526801,1064,3
976,-10.492809,-6.268491,1065,1
977,-15.488884,9.801298,1066,4
978,2.0991092,5.5590076,1067,4
979,4.8131504,-0.85639614,1068,0
980,-4.6429324,-2.8871107,1071,1
981,2.4218078,5.1329827,1072,4
982,8.543507,7.57993,1073,0
983,3.4609272,-6.752959,1074,3
984,-1.4754825,6.415045,1076,0
985,9.898909,10.3097105,1077,0
986,4.799076,0.33825013,1079,0
987,4.2224116,-0.5124801,1080,0
988,-3.9679036,-3.0577002,1081,1
989,12.963345,-3.5408032,1082,1
990,8.588582,7.1257515,1083,0
991,4.4724283,-0.19664825,1085,0
992,-5.0765595,-2.123083,1086,1
993,9.669046,-5.8570967,1088,3
994,-7.179364,9.013674,1089,2
995,-0.51305366,3.2030065,1090,4
996,-1.3231976,6.340229,1091,0
997,-7.4021573,-9.09906,1092,1
998,-1.7129773,13.036712,1094,2
999,-15.394173,-4.380025,1095,4
1000,-1.4741795,-16.812923,1096,3
1001,-1.3238982,6.317991,1097,0
1002,-5.531173,11.874812,1098,2
1003,-4.0808907,-2.6200066,1099,1
1004,3.5975742,6.446432,1100,4
1005,7.5831113,12.573836,1101,4
1006,2.0126832,-1.8364226,1102,0
1007,14.277439,-3.30397,1103,1
1008,1.958235,-1.8618705,1104,0
1009,12.434158,5.5031476,1105,4
1010,-1.94766,-5.800016,1106,0
1011,2.5590143,-2.2456565,1107,0
1012,11.943956,-13.433063,1108,1
1013,-9.418911,-7.7177734,1109,1
1014,-8.104988,-7.7087913,1110,1
1015,-1.0302789,-11.961311,1111,3
1016,-7.2117896,-10.989046,1112,1
1017,3.1520035,8.519758,1114,4
1018,-10.996993,-5.660326,1116,1
1019,1.2004665,4.6808643,1117,4
1020,2.2554853,-5.481672,1119,3
1021,-7.1844053,-1.3849835,1120,1
1022,3.7711961,-9.478497,1121,3
1023,-2.1897836,4.742871,1124,0
1024,-12.292175,10.4500885,1125,0
1025,2.4909337,-5.8102508,1126,3
1026,-14.769419,-5.12279,1127,4
1027,-3.6712184,1.4108074,1128,2
1028,-5.4058056,11.74208,1129,2
1029,-2.7572644,10.594532,1130,2
1030,-0.5203094,-16.141634,1131,3
1031,-2.6809895,12.848901,1132,2
1032,11.907664,-13.471219,1133,1
1033,3.1502697,-10.860395,1134,3
1034,-0.65637136,3.1411839,1135,4
1035,6.3248143,-5.283398,1136,3
1036,-13.737052,2.398136,1139,2
1037,-10.519355,-6.1665196,1140,1
1038,9.949925,-0.07518539,1141,4
1039,3.236227,6.9451303,1142,4
1040,9.144408,1.048683,1143,4
1041,-14.900482,12.613774,1144,0
1042,-12.8751135,10.994238,1145,0
1043,2.2492778,-2.3857555,1146,0
1044,-8.151219,-1.0869483,1147,1
1045,4.833434,-0.90308946,1148,0
1046,-4.754687,19.303303,1149,0
1047,10.086077,10.619716,1150,0
1048,8.651159,4.381333,1151,0
1049,-4.036976,-2.726447,1152,1
1050,3.4853933,-9.547323,1154,3
1051,-13.719919,3.718119,1155,2
1052,-15.4922,-4.273353,1156,4
1053,-12.317366,-1.143866,1157,1
1054,3.4659474,0.52394545,1158,0
1055,3.1574352,3.6923676,1159,4
1056,11.789085,5.9061995,1160,4
1057,-15.507674,-4.256373,1161,4
1058,12.101545,-13.263622,1163,1
1059,-8.105341,-0.94802415,1166,1
1060,-13.052682,11.1650095,1167,0
1061,2.3526914,2.1549985,1168,4
1062,3.512566,6.775548,1169,4
1063,4.7065687,-0.8307602,1170,0
1064,-14.862979,-5.0298424,1171,4
1065,-1.0806991,6.227509,1172,0
1066,-4.3814635,19.790613,1174,0
1067,12.01107,-13.341421,1175,1
1068,-5.988495,14.799194,1176,2
1069,0.0051616607,2.2432222,1177,4
1070,-11.17996,-2.6744444,1178,1
1071,6.652994,-11.046851,1180,3
1072,2.383024,-0.9540255,1181,0
1073,3.9749956,6.4510517,1183,4
1074,-5.1406603,-2.1847281,1184,1
1075,7.371294,-10.404276,1185,3
1076,6.8352423,-5.4640827,1186,3
1077,5.0819707,-5.0070534,1187,3
1078,2.285618,2.062654,1188,4
1079,2.50373,-5.4583087,1189,3
1080,-6.5296364,-6.566302,1191,1
1081,15.3673,-7.2847853,1192,1
1082,6.039207,-6.9996886,1193,3
1083,-6.5432963,-6.5490656,1194,1
1084,15.376744,-7.4831066,1195,1
1085,7.695327,4.0085135,1196,0
1086,-0.23233294,-7.5814743,1197,0
1087,17.841295,1.0412171,1198,1
1088,6.129934,-7.0927515,1201,3
1089,3.2160437,-0.70305157,1202,0
1090,4.427251,-0.26860964,1203,0
1091,5.7837896,-5.150678,1204,3
1092,-7.9515724,-0.1978693,1205,1
1093,-11.236435,-4.4491744,1206,1
1094,-6.5434384,-17.237883,1208,3
1095,-2.7165117,10.650263,1209,2
1096,0.09089264,3.296373,1210,4
1097,-9.545774,-7.8403225,1211,1
1098,-7.1333795,5.600707,1212,2
1099,7.2429633,7.7029095,1213,0
1100,4.235659,10.365852,1214,4
1101,0.35919183,3.8860028,1215,4
1102,5.1497207,-7.0897183,1216,3
1103,-7.384328,4.6054664,1217,2
1104,-2.0741916,-16.60213,1218,3
1105,5.0157366,-9.362741,1219,3
1106,-6.5167537,3.354735,1220,2
1107,3.677,4.10877,1221,4
1108,3.3948438,0.39428988,1222,0
1109,-7.555132,-3.3507214,1223,1
1110,-7.9674063,-0.7672923,1224,1
1111,2.5435898,-2.9714496,1225,0
1112,-8.190959,-7.592228,1226,1
1113,-3.0160105,17.998934,1227,0
1114,-6.6821904,5.817471,1228,2
1115,3.2411973,-10.686228,1229,3
1116,-11.472406,15.3729515,1230,0
1117,-7.2000675,-2.9088163,1231,1
1118,3.301156,-10.700777,1232,3
1119,4.8980227,-7.0543885,1233,3
1120,4.5104218,-4.9001293,1234,3
1121,-2.8628492,17.534122,1236,0
1122,5.892565,0.6236074,1237,0
1123,4.3790936,-6.8203664,1238,3
1124,3.5379133,-9.707922,1239,3
1125,-7.340764,8.485396,1240,2
1126,-7.7069597,-2.5473838,1241,1
1127,3.3074872,11.255596,1242,4
1128,-3.024906,12.818651,1243,2
1129,-12.727017,6.1536565,1244,4
1130,3.3934095,-10.534449,1246,3
1131,8.455751,7.750062,1247,0
1132,5.071638,-9.414648,1249,3
1133,1.8692966,-2.0087912,1252,0
1134,-7.8224173,-8.057441,1253,1
1135,4.6936083,-12.489257,1254,3
1136,-13.713936,2.5139332,1255,2
1137,-3.3291886,9.769607,1256,2
1138,6.0375996,2.1771426,1258,0
1139,4.2447305,-4.5890536,1259,3
1140,-6.790988,3.6642866,1260,2
1141,-14.266842,7.2180834,1261,2
1142,-14.280056,4.112333,1262,2
1143,2.2307696,5.8258476,1263,4
1144,-15.433041,-4.336855,1264,4
1145,3.652426,0.1487205,1265,0
1146,-5.4612083,11.732047,1266,2
1147,-13.417329,7.565023,1267,2
1148,-10.077421,2.4588795,1268,4
1149,0.6456212,1.3917027,1269,4
1150,0.018594913,2.7894497,1272,4
1151,-1.159911,6.242757,1273,0
1152,9.35516,9.230984,1274,0
1153,5.97566,-8.492931,1275,3
1154,2.4750519,-5.915368,1277,3
1155,-12.005311,-1.3806682,1278,1
1156,6.7618647,-5.3982577,1279,3
1157,-12.7475395,-9.446979,1280,3
1158,1.9642015,5.435884,1281,4
1159,-8.352556,-1.9322956,1282,1
1160,7.9147964,-5.699464,1283,3
1161,-2.9538066,2.9615364,1286,2
1162,2.2711258,-3.1411996,1287,0
1163,18.295288,0.5884756,1289,1
1164,3.6398818,4.1473446,1290,4
1165,-7.7723756,13.202972,1291,2
1166,-0.68916523,1.422362,1292,4
1167,5.246396,-11.982249,1293,3
1168,3.1673024,-10.870343,1294,3
1169,3.26355,11.13088,1295,4
1170,-7.1366777,8.434679,1296,2
1171,-0.18431693,-18.829653,1298,3
1172,-7.1272845,3.5297885,1299,2
1173,-7.484269,-9.528097,1300,1
1174,-15.678669,9.613161,1301,4
1175,-15.797827,9.49254,1302,4
1176,0.043469988,1.1643224,1303,4
1177,2.0295248,-2.3678443,1304,0
1178,8.652471,8.102797,1306,0
1179,-6.3060613,14.342937,1307,2
1180,3.137564,-11.196756,1309,3
1181,5.5856156,-5.095497,1310,3
1182,5.199703,-12.15716,1313,3
1183,4.5023403,-12.7497635,1315,3
1184,-6.8368044,13.334702,1316,2
1185,-9.808001,11.680081,1319,2
1186,-7.367795,5.2517,1320,2
1187,-14.291867,7.1956396,1321,2
1188,-2.5423052,-5.180014,1322,0
1189,-7.2537484,3.5104203,1323,2
1190,1.2107322,1.2292982,1324,4
1191,0.0014617011,2.606586,1325,4
1192,-0.029729677,1.203975,1327,4
1193,7.8412175,4.1565833,1328,0
1194,7.054502,-8.470042,1330,3
1195,-3.5958219,-14.345089,1332,3
1196,5.5539184,-11.777034,1334,3
1197,-7.500495,-11.38761,1336,1
1198,-3.0362096,1.7672127,1337,2
1199,-2.7304668,10.634824,1339,2
1200,1.3383968,1.2009373,1340,4
1201,7.1185417,-5.6846366,1342,3
1202,5.053575,-7.1041226,1343,3
1203,-6.698234,3.213535,1344,2
1204,6.3098197,-5.298117,1345,3
1205,0.31328666,1.5655073,1346,4
1206,7.3759828,-10.274516,1347,3
1207,9.8254385,0.05789688,1348,4
1208,-5.911508,12.720924,1349,2
1209,5.782546,-11.782093,1350,3
1210,-6.256109,14.433862,1351,2
1211,4.9551225,-9.244681,1352,3
1212,1.220327,4.5286465,1354,4
1213,-4.0324426,1.511049,1355,2
1214,-6.647,10.552007,1356,2
1215,7.3468585,-5.90093,1357,3
1216,5.972996,-5.2477674,1358,3
1217,0.00605835,2.4717119,1359,4
1218,-7.0067053,3.9920487,1360,2
1219,-7.108546,13.057595,1361,2
1220,-0.26244435,7.222804,1362,0
1221,0.0068374868,3.0259428,1363,4
1222,10.040174,-5.336293,1365,3
1223,-16.245956,6.2396617,1366,2
1224,5.5960083,-5.299809,1367,3
1225,-0.4567972,-16.07883,1368,3
1226,-8.685419,-1.7840104,1369,1
1227,1.9685737,-2.258459,1370,0
1228,-12.794764,10.916502,1371,0
1229,-16.252905,6.2327914,1372,2
1230,-14.388238,4.1414886,1373,2
1231,1.0786653,4.5085,1374,4
1232,-9.704749,2.8322413,1375,4
1233,4.6889334,-5.0800457,1376,3
1234,-7.5581684,-8.754176,1377,1
1235,-2.0165603,4.601899,1378,0
1236,-7.432715,-11.261107,1379,1
1237,2.6555836,-5.623733,1380,3
1238,9.212643,0.8720502,1381,4
1239,-16.775366,-8.32124,1382,2
1240,-6.4429774,5.9071937,1383,2
1241,-7.0786643,-16.68664,1384,3
1242,-2.316197,-5.2807636,1386,0
1243,3.447409,-9.985583,1387,3
1244,-3.107372,1.7007911,1389,2
1245,-3.0854325,1.7275249,1391,2
1246,-9.688582,-7.9789276,1392,1
1247,-3.111025,1.721299,1393,2
1248,-7.2405257,-10.162563,1394,1
1249,3.3079598,6.810255,1395,4
1250,-3.0727882,1.708153,1396,2
1251,-8.446597,-1.885506,1397,1
1252,3.3750286,-10.268263,1398,3
1253,-8.165101,-7.637275,1399,1
1254,-8.873431,-1.8127578,1400,1
1255,-11.155665,-2.6360462,1401,1
1256,-2.290497,13.027175,1402,2
1257,15.527251,-6.199202,1403,1
1258,10.891773,-7.475535,1404,3
1259,-6.617437,-17.16252,1405,3
1260,-4.548763,-2.0625756,1406,1
1261,-6.15231,7.894324,1407,2
1262,-10.344816,-5.553794,1408,1
1263,-7.3959546,-9.142852,1409,1
1264,-13.508023,3.2693028,1410,2
1265,-3.0598187,-4.5299745,1411,0
1266,5.1899195,-9.010395,1412,3
1267,-6.2189875,6.033581,1413,2
1268,-0.86924195,-2.9826007,1414,1
1269,6.03776,1.4047732,1415,0
1270,-7.20875,-10.063417,1416,1
1271,-0.53089446,-16.1367,1417,3
1272,-4.5191345,-2.9686108,1418,1
1273,-8.189342,-1.1301624,1419,1
1274,-3.6128657,13.007761,1420,2
1275,-7.2886977,-10.034705,1421,1
1276,-7.1961102,9.95419,1422,2
1277,-6.8407426,8.386821,1423,2
1278,7.2726297,7.7144732,1424,0
1279,-7.364494,-2.9990604,1425,1
1280,-13.125925,-1.3001391,1426,1
1281,-7.3001924,-10.996117,1427,1
1282,-13.517115,3.7624724,1428,2
1283,-6.344012,5.9507456,1429,2
1284,-12.714065,6.1445885,1430,4
1285,9.21666,9.021993,1432,0
1286,-1.7733803,-9.680409,1433,3
1287,-7.194084,9.84053,1434,2
1288,7.3759413,-10.363785,1437,3
1289,-6.7258124,-17.049685,1438,3
1290,-10.1405,-2.03673,1439,1
1291,-9.433043,-7.7221036,1440,1
1292,-7.8837395,-7.99035,1441,1
1293,-7.776454,-8.132067,1442,1
1294,3.4654958,-9.842885,1443,3
1295,2.203978,-1.6992669,1444,0
1296,2.2119486,6.082488,1446,4
1297,-8.857173,-6.1235867,1448,1
1298,-12.710791,-9.487433,1449,3
1299,-0.19449387,3.2445931,1450,4
1300,-2.0517704,12.9852295,1451,2
1301,5.1660357,-8.960786,1452,3
1302,-7.929738,-0.61305934,1453,1
1303,15.290888,-7.546942,1455,1
1304,-7.5632586,-3.2797954,1456,1
1305,-12.853339,10.976338,1458,0
1306,-0.45510772,-16.072004,1459,3
1307,3.1355305,-11.249339,1460,3
1308,-2.935722,2.9898133,1461,2
1309,3.2913415,4.137541,1463,4
1310,-10.819376,-2.38327,1466,1
1311,-11.843552,15.600834,1467,0
1312,-9.744543,-1.9020581,1468,1
1313,-6.7683387,-1.1727797,1469,1
1314,14.755227,-3.313542,1470,1
1315,-6.5855875,3.165152,1471,2
1316,-13.200254,-8.9989395,1472,3
1317,-7.8950887,-0.5372247,1473,1
1318,-6.7734914,3.8362527,1476,2
1319,-2.3693848,-5.434012,1478,0
1320,-14.0688505,3.8928254,1479,2
1321,-7.5314603,3.9079614,1480,2
1322,-7.75032,4.1429567,1481,2
1323,-1.3547881,-5.756358,1482,0
1324,-6.6857905,-1.1561642,1483,1
1325,9.551143,9.468815,1484,0
1326,9.582593,9.461017,1485,0
1327,6.010839,0.34465986,1486,0
1328,9.265562,0.9036029,1488,4
1329,-0.66789335,-11.560725,1489,3
1330,-0.94805175,-2.9199417,1490,1
1331,7.6311326,7.8381,1491,0
1332,3.2009153,-11.169556,1493,3
1333,-12.510744,10.65497,1494,0
1334,-6.904552,5.5640364,1495,2
1335,-12.7355795,6.1704497,1496,4
1336,-7.5520988,4.658629,1497,2
1337,-12.729341,6.172001,1498,4
1338,4.148816,-4.6464844,1499,3
1339,-6.426299,12.910387,1500,2
1340,4.9477158,-9.295831,1501,3
1341,-13.163599,-9.025954,1503,3
1342,-0.23223543,-7.596312,1504,0
1343,-14.079293,7.364552,1505,2
1344,4.1415906,0.5347274,1506,0
1345,-7.4849906,-11.38159,1507,1
1346,-10.612168,-2.2315514,1508,1
1347,-6.800939,-2.1838322,1509,1
1348,-12.8371525,10.961291,1510,0
1349,-1.1836345,6.316479,1512,0
1350,-8.121735,-7.703614,1513,1
1351,-7.749224,4.13191,1514,2
1352,6.2425556,-7.200595,1516,3
1353,-7.978429,-0.22959916,1517,1
1354,-0.35584995,6.726681,1518,0
1355,-7.3012066,4.731697,1519,2
1356,-6.276681,14.474255,1521,2
1357,5.2803,-11.819139,1522,3
1358,-2.1331806,-9.325984,1523,3
1359,4.2552114,-12.981856,1524,3
1360,-6.7090945,5.759755,1525,2
1361,3.2992384,0.33616284,1527,0
1362,9.241371,9.078375,1528,0
1363,3.5944607,0.13694425,1530,0
1364,-6.640306,3.5304668,1531,2
1365,-8.646901,-4.8913517,1532,1
1366,-13.343407,7.5385613,1533,2
1367,11.982677,-13.390702,1535,1
1368,-15.493226,-4.2721257,1536,4
1369,-6.5140424,-0.9865998,1538,1
1370,-6.059997,6.1148987,1539,2
1371,-2.0773263,-16.626812,1540,3
1372,-3.6641192,13.041254,1541,2
1373,-10.667352,-5.027218,1542,1
1374,3.3161833,-10.658661,1544,3
1375,-3.1248674,12.797859,1545,2
1376,-11.008902,-2.5368164,1546,1
1377,-14.812833,-5.073418,1548,4
1378,-3.6719618,13.050354,1549,2
1379,-7.1892514,-2.9013498,1550,1
1380,14.062485,-3.2860727,1551,1
1381,2.8675196,4.7814054,1552,4
1382,-0.460053,-3.3167663,1553,1
1383,-1.7768999,6.7812743,1554,0
1384,7.3745747,7.7623234,1555,0
1385,-3.1416578,12.878741,1557,2
1386,-13.119234,11.227022,1558,0
1387,15.31261,-6.9035378,1559,1
1388,-6.205964,6.033861,1560,2
1389,-13.301336,3.7964153,1561,2
1390,15.379346,-7.292313,1563,1
1391,-1.0738063,-11.948372,1564,3
1392,-2.4922078,-5.356209,1565,0
1393,4.308446,-8.536057,1566,3
1394,-13.099734,11.209369,1567,0
1395,-1.9106685,-6.5040245,1568,0
1396,-7.0881977,3.3571668,1569,2
1397,0.3265155,3.821132,1570,4
1398,4.3732953,-5.295196,1571,3
1399,-5.362788,11.742187,1573,2
1400,-4.9022155,-2.0301394,1574,1
1401,-7.751016,16.892675,1575,2
1402,-16.27231,6.212888,1576,2
1403,-6.947178,10.253509,1577,2
1404,-2.3823953,16.674803,1579,0
1405,-7.2279096,-10.043931,1580,1
1406,-5.6062894,-3.13634,1581,1
1407,4.203032,-13.030795,1582,3
1408,-2.9212773,12.799809,1583,2
1409,-7.3185077,-11.026284,1584,1
1410,15.147755,-7.118613,1585,1
1411,-3.197974,-4.291991,1588,0
1412,-4.1658955,-3.117735,1589,1
1413,-7.261976,5.4467764,1590,2
1414,11.984167,5.8346996,1592,4
1415,4.532475,-9.12024,1593,3
1416,-14.362264,4.1112585,1594,2
1417,-1.4299746,-5.246314,1595,0
1418,-5.609984,-3.1455863,1596,1
1419,5.9725823,0.34706032,1597,0
1420,15.499211,-6.1293173,1598,1
1421,5.1695786,-11.72983,1599,3
1422,9.925974,-5.511035,1600,3
1423,-0.61813754,1.4537156,1601,4
1424,15.547113,-6.2731605,1602,1
1425,-8.700969,-5.1305943,1603,1
1426,-3.096582,2.4882157,1604,2
1427,-7.559099,-8.648052,1605,1
1428,4.5045223,-11.772169,1606,3
1429,-1.2801183,-5.7132034,1607,0
1430,-10.598581,-2.248514,1608,1
1431,18.127556,0.75479484,1609,1
1432,-1.2893846,-5.731534,1610,0
1433,-13.872287,3.900397,1611,2
1434,10.090285,-5.3427334,1612,3
1435,-1.7573602,6.7700953,1613,0
1436,-1.7430215,6.7339125,1614,0
1437,-13.667632,7.510953,1615,2
1438,-3.1406403,-4.3817353,1616,0
1439,2.2522953,-3.1514783,1617,0
1440,-12.816533,10.937289,1618,0
1441,-0.75382054,-3.075414,1619,1
1442,7.3135247,7.7358975,1620,0
1443,4.12172,-3.5886402,1621,4
1444,0.2924355,0.8544179,1622,4
1445,-13.074605,11.185364,1623,0
1446,-5.78574,6.249755,1624,2
1447,0.009793056,6.6250324,1625,0
1448,-7.1810966,9.139976,1626,2
1449,2.4360785,-5.3503222,1627,3
1450,-7.265743,9.710583,1628,2
1451,-7.0260544,10.162414,1629,2
1452,-6.1926227,7.9360003,1631,2
1453,-0.91848457,-11.794348,1632,3
1454,-1.0112661,6.1031795,1633,0
1455,-7.1095133,10.06989,1634,2
1456,-6.993779,-2.910036,1635,1
1457,-2.7234755,17.268497,1636,0
1458,7.4037952,-10.362639,1637,3
1459,-13.119719,3.5032868,1638,2
1460,-4.322636,-3.056049,1639,1
1461,-7.249029,5.526824,1642,2
1462,4.4399233,-12.788653,1643,3
1463,-1.4924845,-5.7847233,1644,0
1464,-16.528944,-8.576866,1645,2
1465,-2.9467862,2.9775138,1646,2
1466,-5.1951656,-2.2481363,1647,1
1467,-5.772471,6.261375,1648,2
1468,6.106651,0.1687209,1649,0
1469,-6.855917,-2.109507,1650,1
1470,-16.683044,-8.4195175,1652,2
1471,-6.7338386,13.424932,1653,2
1472,-7.385478,-5.6986294,1654,1
1473,-7.2777276,4.429234,1655,2
1474,12.336164,5.795196,1656,4
1475,-16.263762,6.221367,1658,2
1476,-12.419727,10.571779,1659,0
1477,-7.4853945,-6.1181936,1660,1
1478,-6.4545717,3.266587,1661,2
1479,-0.4420259,-3.3185577,1662,1
1480,9.868736,0.002860483,1663,4
1481,-2.9001372,12.856097,1664,2
1482,-5.446448,11.640202,1665,2
1483,-3.0901344,10.076689,1667,2
1484,-6.223811,14.423491,1669,2
1485,2.366527,8.267514,1670,4
1486,6.0985484,-11.569525,1671,3
1487,15.338155,-6.845046,1672,1
1488,-2.7918947,17.31534,1673,0
1489,-2.231624,4.76052,1674,0
1490,-1.6431696,13.112689,1675,2
1491,-2.2536387,13.008193,1676,2
1492,3.839646,6.511735,1677,4
1493,-2.7996476,12.906535,1678,2
1494,-3.5824215,1.4658526,1679,2
1495,-7.037141,-9.995718,1680,1
1496,1.4212075,19.627693,1682,0
1497,2.4304473,8.877045,1683,4
1498,-13.823778,7.5111217,1684,2
1499,2.3923182,-1.2751886,1685,0
1500,-14.022771,7.412549,1686,2
1501,-6.5903625,5.8486123,1690,2
1502,-7.1930647,8.384457,1691,2
1503,-7.3349447,-11.107838,1692,1
1504,15.422716,-7.347559,1693,1
1505,-6.494249,5.809373,1694,2
1506,-10.383308,-14.379571,1695,3
1507,-8.779028,-6.135993,1696,1
1508,-1.6737015,13.08242,1697,2
1509,-9.374285,-7.6679068,1698,1
1510,3.1540527,0.77756745,1699,0
1511,-4.018385,-2.9094024,1700,1
1512,-16.910767,-8.186262,1701,2
1513,14.174599,-3.3415272,1702,1
1514,-6.6595716,5.748236,1703,2
1515,-6.6237316,3.6949353,1704,2
1516,10.114447,10.676264,1706,0
1517,9.4318495,4.024072,1708,0
1518,13.768162,-3.3543386,1709,1
1519,8.540323,4.35355,1710,0
1520,-16.49094,-8.615669,1711,2
1521,-5.7640324,12.458362,1712,2
1522,2.3699071,-1.4881788,1713,0
1523,-2.9494073,17.838938,1714,0
1524,-8.160708,-1.2132802,1715,1
1525,-6.147487,7.8967366,1716,2
1526,-4.4144554,1.4775846,1717,2
1527,-5.7281737,6.2776976,1718,2
1528,15.417066,-7.070897,1721,1
1529,7.541147,12.589165,1722,4
1530,10.083084,10.61523,1723,0
1531,12.37217,5.4743905,1724,4
1532,-1.7693045,-9.668636,1725,3
1533,8.570428,7.1686697,1726,0
1534,15.416011,-7.260835,1727,1
1535,3.2164366,0.84322894,1728,0
1536,-12.230539,10.393944,1729,0
1537,-7.83174,13.214456,1730,2
1538,-7.2346735,5.5024285,1731,2
1539,-10.953666,-4.7126055,1732,1
1540,-5.307145,11.77089,1734,2
1541,2.4284441,8.867559,1735,4
1542,15.608168,4.017436,1737,1
1543,-10.022748,-2.011999,1738,1
1544,-7.0859303,-16.678114,1739,3
1545,9.128202,1.0691553,1741,4
1546,-8.926447,-6.474616,1742,1
1547,-13.619516,3.7500246,1743,2
1548,9.455604,0.6581504,1744,4
1549,2.7140908,-6.043792,1745,3
1550,5.139943,12.089507,1746,4
1551,-12.379017,-1.165075,1747,1
1552,-11.999888,-1.2012914,1748,1
1553,15.690889,-6.494778,1749,1
1554,-13.06656,11.178432,1753,0
1555,-2.5596583,16.988842,1754,0
1556,-1.2920945,-5.28672,1755,0
1557,12.013206,-13.3604555,1756,1
1558,2.4311547,-5.8940496,1757,3
1559,0.09779497,7.1172104,1758,0
1560,-14.894025,-5.0290375,1759,4
1561,-1.91289,4.4528594,1760,0
1562,-7.956166,-0.22487944,1761,1
1563,-4.9960685,-2.57648,1763,1
1564,-6.2891793,5.983663,1764,2
1565,15.3117485,-7.6564703,1766,1
1566,4.1500726,-4.2132735,1767,3
1567,-14.927363,-4.9482465,1768,4
1568,-5.0098825,11.814719,1770,2
1569,-10.11732,2.4209104,1771,4
1570,-13.740775,-8.387502,1772,3
1571,-7.4364877,4.641102,1773,2
1572,-4.248485,1.658354,1774,2
1573,13.673989,-3.3824868,1776,1
1574,-3.549663,1.7376782,1777,2
1575,1.5538645,1.2473605,1779,4
1576,12.170152,5.8097625,1780,4
1577,-0.24309762,7.344853,1781,0
1578,-7.1101446,9.115296,1782,2
1579,-12.473396,10.620951,1783,0
1580,-10.100662,2.4404044,1784,4
1581,-1.6781266,-9.757743,1785,3
1582,-13.634869,3.377871,1786,2
1583,15.261334,-7.499559,1787,1
1584,1.3861712,19.661694,1788,0
1585,-2.3579502,12.993746,1789,2
1586,4.9784884,0.25765365,1790,0
1587,-2.5496376,16.907618,1791,0
1588,-7.2756343,8.427883,1792,2
1589,-6.766748,8.212685,1793,2
1590,11.788875,5.55215,1794,4
1591,-11.017381,-4.6369586,1795,1
1592,-5.4233966,-2.9352117,1796,1
1593,18.23218,0.63898313,1797,1
1594,-3.582043,13.0028925,1798,2
1595,-4.8615026,1.3683336,1799,2
1596,-2.669323,-5.1166444,1800,0
1597,2.249122,5.8062572,1801,4
1598,-0.9755451,-2.8937912,1802,1
1599,-8.597106,-4.826154,1803,1
1600,-6.7366433,13.514834,1804,2
1601,4.836254,-12.506527,1805,3
1602,-7.1095552,-10.26623,1806,1
1603,11.393909,6.8503227,1807,4
1604,-5.9262705,14.874641,1808,2
1605,1.9301445,-2.1231618,1810,0
1606,0.38475883,1.0459129,1812,4
1607,18.062454,0.821695,1814,1
1608,5.223075,12.17672,1815,4
1609,19.143702,-4.237029,1816,1
1610,-7.209445,8.391486,1817,2
1611,-6.000751,6.1609116,1818,2
1612,1.9678262,-0.58953613,1819,0
1613,6.192987,0.09645335,1820,0
1614,-2.672796,17.059717,1821,0
1615,-7.0253286,4.136644,1823,2
1616,2.645439,-5.823731,1824,3
1617,-13.797378,3.6538112,1826,2
1618,-3.4817786,2.046863,1827,2
1619,1.876872,-0.47185463,1828,0
1620,-0.73442733,-16.326529,1829,3
1621,-3.2941542,9.804827,1831,2
1622,4.2522206,-4.932199,1832,3
1623,-7.8196826,4.2921596,1833,2
1624,-4.374452,1.5963396,1835,2
1625,-12.267205,-1.1590881,1836,1
1626,2.2312915,-3.2999046,1837,0
1627,-6.694034,-1.1806195,1839,1
1628,-7.5504227,4.6376314,1840,2
1629,6.239282,1.156093,1841,0
1630,8.922048,8.502059,1842,0
1631,9.082162,5.2963595,1843,0
1632,6.0508666,0.2154505,1845,0
1633,2.3684273,-3.0088472,1846,0
1634,5.8107305,-5.265572,1847,3
1635,-8.14395,-1.3468854,1848,1
1636,0.63625246,3.7124608,1849,4
1637,-4.4009476,-13.653906,1850,3
1638,4.807602,-5.429816,1851,3
1639,0.73563397,3.960358,1852,4
1640,-7.3438516,-9.241494,1853,1
1641,-6.504757,3.203069,1854,2
1642,-7.3381295,9.112531,1855,2
1643,-6.419427,-17.362818,1856,3
1644,-16.247177,6.2365727,1857,2
1645,-1.7937496,-9.64327,1858,3
1646,-10.421101,2.1192741,1859,4
1647,4.419341,-4.852423,1860,3
1648,-14.204112,7.2705092,1861,2
1649,-1.0220858,-16.5446,1862,3
1650,-10.497451,7.936953,1863,2
1651,12.366241,5.6321244,1864,4
1652,18.17347,0.62923944,1865,1
1653,-1.2878547,-5.2515388,1866,0
1654,4.3514695,0.23811248,1867,0
1655,-7.5804324,-3.4913986,1868,1
1656,-0.46027386,1.5375453,1869,4
1657,4.2388306,-4.931627,1870,3
1658,-12.997006,-1.2846123,1871,1
1659,17.992584,0.8763509,1872,1
1660,-13.775356,-8.350615,1873,3
1661,3.84393,-6.978613,1874,3
1662,4.276238,-5.6563597,1875,3
1663,-4.0609975,-2.3520124,1876,1
1664,3.5362916,-0.87487537,1877,0
1665,3.3883238,4.680944,1878,4
1666,-2.4744856,16.755928,1879,0
1667,-2.7647185,-4.980629,1880,0
1668,2.030716,-1.7852209,1881,0
1669,-16.79569,-8.303997,1882,2
1670,2.3428135,11.301702,1883,4
1671,2.5022378,8.390561,1885,4
1672,-7.1560774,4.8810153,1886,2
1673,7.783071,4.1462603,1887,0
1674,-2.966239,2.8950691,1889,2
1675,2.4591014,-5.6922574,1890,3
1676,-0.12357468,1.627626,1891,4
1677,3.331136,4.6139617,1892,4
1678,3.5668566,4.0835476,1893,4
1679,14.917335,-3.3168821,1894,1
1680,9.259459,0.9068767,1895,4
1681,4.7723618,-0.87451106,1896,0
1682,-4.9549527,1.404772,1897,2
1683,-4.282378,-3.1372392,1898,1
1684,-7.3881354,-16.367168,1899,3
1685,-4.1022363,-2.7712681,1901,1
1686,3.138835,3.787166,1902,4
1687,-1.893376,4.424529,1903,0
1688,-4.0508733,-2.8266652,1904,1
1689,-9.822843,2.7175164,1905,4
1690,5.7034726,2.4127026,1906,0
1691,5.763513,2.0176105,1907,0
1692,1.8564451,-1.845949,1908,0
1693,11.376407,7.375847,1909,4
1694,3.2494721,9.369946,1910,4
1695,4.962302,11.854719,1911,4
1696,1.4272518,19.620836,1912,0
1697,4.0503163,0.24850772,1913,0
1698,-3.0989141,-4.4521074,1914,0
1699,6.1940312,1.8859198,1915,0
1700,4.585249,-0.62626004,1916,0
1701,7.2905397,7.700427,1917,0
1702,8.604724,6.964349,1918,0
1703,9.126232,5.1927524,1919,0
1704,-3.9693084,-2.4790556,1920,1
1705,-0.23850633,-7.553233,1921,0
1706,4.47922,-5.2888813,1922,3
1707,7.3497195,7.764039,1923,0
1708,-10.270864,2.269591,1924,4
1709,3.7300913,-0.8044674,1925,0
1710,8.986882,4.3073044,1926,0
1711,8.243633,7.7472277,1927,0
1712,4.015879,0.58827794,1928,0
1713,4.2064166,0.43233073,1929,0
1714,4.060457,-3.2519157,1930,4
1715,-7.512525,-3.6867816,1931,1
1716,-8.130551,-1.174954,1932,1
1717,-10.850413,-2.4253728,1933,1
1718,-3.0772166,2.567195,1934,2
1719,-2.7699556,10.596533,1935,2
1720,-9.614554,-5.7192254,1936,1
1721,19.156466,-4.224915,1937,1
1722,-7.5243316,-3.1585038,1938,1
1723,-7.427351,-9.745964,1939,1
1724,2.0050333,-2.2114213,1940,0
1725,-0.7752044,-3.0571992,1942,1
1726,3.2231672,-10.758881,1943,3
1727,-7.448472,17.1819,1944,2
1728,0.74187773,2.8705616,1945,4
1729,-6.252652,10.887362,1946,2
1730,-10.526026,-5.958878,1947,1
1731,2.5542142,-3.0260947,1948,0
1732,-11.382266,-4.3452373,1949,1
1733,2.81253,-1.6949052,1950,0
1734,-6.5189924,-17.262766,1951,3
1735,4.0951033,-3.3931968,1953,4
1736,6.080072,-5.251763,1954,3
1737,3.9220235,8.688401,1955,4
1738,8.251353,7.919019,1956,0
1739,-12.262945,-1.145498,1957,1
1740,-8.194346,-1.3890346,1958,1
1741,-10.684251,-2.289474,1960,1
1742,3.9690142,0.69932634,1961,0
1743,9.871416,0.0083321165,1962,4
1744,-7.1427474,9.168363,1964,2
1745,-9.616779,-7.912797,1965,1
1746,7.1675115,-5.595409,1966,3
1747,8.052909,-5.578687,1967,3
1748,-6.2292566,7.955823,1968,2
1749,3.2262578,3.852377,1969,4
1750,-7.1903386,-2.8686962,1972,1
1751,-4.8830323,-2.803279,1973,1
1752,-8.130796,-1.2266545,1974,1
1753,-14.8284,12.688269,1977,0
1754,11.897562,-13.478261,1978,1
1755,-1.6562865,13.077513,1979,2
1756,-14.368164,3.9976127,1981,2
1757,-16.83747,-12.27016,1982,3
1758,9.356181,4.0949464,1985,0
1759,-10.055125,2.4852023,1986,4
1760,-7.3844624,8.642111,1987,2
1761,-6.633932,3.655818,1988,2
1762,-5.980672,14.809299,1989,2
1763,-7.07659,8.687726,1990,2
1764,10.218736,-6.833521,1991,3
1765,4.298904,-8.4602375,1992,3
1766,-7.6632304,13.172387,1993,2
1767,5.4623666,-8.814613,1994,3
1768,-7.2737527,-16.484707,1995,3
1769,-1.9240962,-9.530106,1996,3
1770,-3.1381571,9.997175,1997,2
1771,6.2326317,-7.216045,1998,3
1772,-14.875897,-5.020972,1999,4
1773,-1.9318432,4.4704895,2000,0
1774,6.139673,-11.551572,2001,3
1775,-1.3610567,-16.762087,2002,3
1776,8.296956,-5.36188,2003,3
1777,5.028238,-5.113455,2004,3
1778,6.136379,-7.20105,2005,3
1779,4.3054852,10.36859,2007,4
1780,3.0974035,4.7576256,2008,4
1781,-16.853731,-12.28642,2009,3
1782,4.8653474,-9.29549,2011,3
1783,-13.385247,-8.80427,2013,3
1784,-0.672983,3.1835515,2014,4
1785,17.887838,0.9966443,2015,1
1786,-11.953764,15.574467,2016,0
1787,-7.713344,4.0960803,2017,2
1788,0.3648627,0.8817686,2018,4
1789,-11.572535,-4.2124043,2019,1
1790,6.1954265,-11.52099,2020,3
1791,2.9189003,-5.727107,2021,3
1792,-8.545016,-4.770123,2022,1
1793,1.8979031,-1.9421219,2023,0
1794,-6.611688,-1.0266197,2024,1
1795,-9.690495,-7.98174,2025,1
1796,3.4899147,-9.861192,2026,3
1797,-0.42869592,-3.329601,2027,1
1798,-12.715006,6.177157,2029,4
1799,1.510704,1.1873022,2030,4
1800,4.3206553,-12.917797,2032,3
1801,-7.2522683,5.5156627,2033,2
1802,4.2671065,-12.967238,2034,3
1803,0.3781648,0.95472956,2035,4
1804,-2.9028294,17.691633,2036,0
1805,3.04633,-11.188918,2038,3
1806,-1.330722,-5.3912544,2039,0
1807,-7.83518,4.1683044,2040,2
1808,-0.58876044,1.442314,2041,4
1809,-6.1448927,7.892229,2042,2
1810,2.8840997,10.706192,2043,4
1811,6.0051465,-11.660161,2044,3
1812,2.2482395,-3.9298375,2045,0
1813,6.005305,1.2265458,2046,0
1814,-7.853416,-8.019149,2047,1
1815,-2.402003,16.845,2048,0
1816,-9.74288,-8.040628,2049,1
1817,-9.763963,2.774645,2050,4
1818,-13.69645,2.6234455,2051,2
1819,12.346804,5.5996456,2052,4
1820,-7.606443,3.9877508,2053,2
1821,-7.1305428,-16.632475,2054,3
1822,4.736467,-12.224581,2055,3
1823,2.249792,-3.3559883,2056,0
1824,-7.212436,-10.787177,2057,1
1825,0.096994944,6.605428,2060,0
1826,-5.0860186,11.8407345,2061,2
1827,5.014676,-7.0261993,2062,3
1828,5.825532,-8.610903,2063,3
1829,-7.910557,-0.31181845,2064,1
1830,5.6036415,-7.0625916,2065,3
1831,1.3924869,1.1582458,2066,4
1832,-7.9440384,-0.28070393,2067,1
1833,-11.214581,-2.7009711,2068,1
1834,-5.1890655,-2.1581376,2069,1
1835,4.5105743,-11.715271,2070,3
1836,6.1210785,-6.912861,2071,3
1837,4.7440825,-5.360002,2072,3
1838,-12.113071,-1.1781102,2074,1
1839,3.0975091,-11.171029,2075,3
1840,14.350438,-3.313122,2076,1
1841,5.5654807,2.5240161,2077,0
1842,-1.6685405,-9.788661,2078,3
1843,-7.7353425,13.187429,2081,2
1844,-4.2271094,-2.4158854,2082,1
1845,14.366026,-3.4734638,2083,1
1846,-7.1026554,9.183746,2084,2
1847,3.5306427,-9.571551,2085,3
1848,2.084344,-0.69764215,2086,0
1849,9.841349,-5.640895,2087,3
1850,-14.956211,-4.915021,2088,4
1851,-7.1152334,-9.985904,2089,1
1852,-3.9740682,-2.739821,2090,1
1853,-2.2413778,-5.578798,2091,0
1854,13.624117,-3.4413,2092,1
1855,7.4842973,7.795638,2093,0
1856,-11.494567,15.3844185,2095,0
1857,2.2398636,-3.9043562,2096,0
1858,-12.712006,10.844762,2097,0
1859,1.9469982,-0.56404054,2098,0
1860,4.0588317,0.66325957,2099,0
1861,3.1228275,3.6189444,2100,4
1862,10.533321,-7.159134,2101,3
1863,2.3577704,-2.9369917,2102,0
1864,2.8923223,4.6949124,2103,4
1865,3.2751594,6.3100805,2104,4
1866,2.986007,4.724928,2105,4
1867,2.36234,8.241931,2106,4
1868,3.235427,1.0683999,2107,0
1869,3.3421268,0.54573274,2108,0
1870,-3.7085211,20.604324,2109,0
1871,4.504255,-0.31685033,2110,0
1872,-7.853214,13.167606,2111,2
1873,6.9756145,-5.547852,2113,3
1874,-7.3834996,-11.160288,2114,1
1875,-6.860214,12.8478155,2115,2
1876,-7.489512,-3.6697452,2116,1
1877,-4.4022207,1.5351466,2117,2
1878,-7.2002273,3.405791,2118,2
1879,-6.0140905,14.750275,2119,2
1880,12.236093,5.7677245,2120,4
1881,5.8810987,1.4404548,2121,0
1882,4.857163,-12.0705595,2123,3
1883,15.503335,-6.1831226,2124,1
1884,12.608005,-3.5934758,2125,1
1885,0.38512957,0.9519623,2126,4
1886,2.2536988,-3.781014,2127,0
1887,2.5135818,-5.743132,2128,3
1888,-8.603688,-4.8593535,2129,1
1889,-7.124205,-9.99419,2130,1
1890,3.8054492,-6.005654,2131,3
1891,15.641709,-6.595673,2133,1
1892,-7.5450525,-3.6250563,2134,1
1893,12.462955,-12.853355,2135,1
1894,3.7555013,-0.81875473,2136,0
1895,4.677535,-12.084251,2137,3
1896,-4.230616,-13.583674,2138,3
1897,5.8757463,1.667001,2139,0
1898,10.125163,10.67907,2141,0
1899,4.3072944,0.44700322,2143,0
1900,-2.749706,-5.05674,2144,0
1901,5.089524,-9.375053,2145,3
1902,-3.640161,-3.5234416,2146,1
1903,4.5307174,-0.57320184,2147,0
1904,1.4093056,19.638956,2148,0
1905,-5.2214947,-2.328528,2149,1
1906,-7.2064943,-10.29989,2150,1
1907,-6.670807,10.530212,2151,2
1908,-5.049314,11.793962,2152,2
1909,-7.4687486,4.974952,2154,2
1910,-7.424943,-11.340677,2155,1
1911,-11.876612,-1.2468024,2156,1
1912,15.627367,0.7192792,2157,1
1913,12.079833,5.377988,2158,4
1914,4.410956,-0.45252842,2160,0
1915,3.926284,0.44228238,2161,0
1916,-3.8026814,-3.161465,2162,1
1917,3.3723724,-0.3365046,2163,0
1918,-7.4836674,13.191749,2166,2
1919,-7.5852265,-3.4914403,2167,1
1920,4.9186587,-12.522128,2168,3
1921,-7.3018274,-11.039654,2169,1
1922,-12.323551,-9.914326,2170,3
1923,-13.31962,-8.873074,2171,3
1924,2.2603624,-3.0522213,2172,0
1925,4.486955,-6.9004073,2173,3
1926,2.0429595,-2.8048496,2174,0
1927,-1.0403368,-11.920137,2175,3
1928,4.259836,-8.388006,2176,3
1929,-9.61467,-7.8997726,2177,1
1930,8.561784,4.321226,2179,0
1931,3.1939285,4.7324505,2180,4
1932,-15.497125,-4.2685604,2181,4
1933,0.27585495,6.7986917,2182,0
1934,-7.493381,13.139985,2183,2
1935,-3.0504496,2.664785,2185,2
1936,-1.8640327,-6.3498626,2187,0
1937,-2.7853785,-5.0422306,2189,0
1938,10.069734,10.59883,2190,0
1939,14.578416,-3.3428643,2191,1
1940,-7.390306,-9.156485,2193,1
1941,8.47577,7.7714,2194,0
1942,3.4241703,4.072121,2195,4
1943,15.393192,3.8019252,2196,1
1944,-16.714529,-8.38296,2197,2
1945,15.668769,0.68098956,2199,1
1946,-13.23798,3.76649,2200,2
1947,8.007003,-5.6191063,2202,3
1948,3.48661,-9.467881,2203,3
1949,-0.48932314,3.2272422,2204,4
1950,3.0699444,4.7998047,2205,4
1951,2.4628963,-1.3316845,2206,0
1952,2.9948282,-1.2243311,2207,0
1953,-1.2012513,6.3674173,2208,0
1954,8.283613,7.912523,2209,0
1955,7.61692,12.536516,2210,4
1956,-5.67627,6.3246727,2211,2
1957,9.935866,10.398348,2212,0
1958,-12.420768,10.572826,2213,0
1959,-0.25522453,-7.5944767,2214,0
1960,14.728759,-3.3362978,2215,1
1961,2.5726154,-5.8733263,2216,3
1962,-12.266734,10.429863,2217,0
1963,-1.8609662,-6.433051,2218,0
1964,7.623478,-5.846989,2219,3
1965,-2.93601,17.835482,2220,0
1966,9.681559,0.22873777,2221,4
1967,2.2244444,6.1890774,2222,4
1968,4.938709,-12.001482,2223,3
1969,6.2047257,-11.519152,2224,3
1970,11.41995,7.4587235,2225,4
1971,-12.552466,15.373158,2226,0
1972,-3.3090005,2.1608868,2228,2
1973,-1.8393388,-6.4842496,2229,0
1974,0.2206694,6.8983235,2230,0
1975,3.890583,8.761264,2232,4
1976,-3.1181295,-4.42983,2233,0
1977,5.2551575,12.2127905,2235,4
1978,2.3307347,11.320296,2236,4
1979,3.048048,8.429089,2237,4
1980,-13.270873,-8.92371,2238,3
1981,2.2954893,8.163666,2240,4
1982,-10.364486,2.1740456,2241,4
1983,2.468758,8.121431,2242,4
1984,-6.553701,-1.1074136,2243,1
1985,3.4381733,9.960343,2244,4
1986,3.6680994,4.1164355,2245,4
1987,2.3524537,7.0517864,2246,4
1988,4.075164,-5.843364,2248,3
1989,0.9957579,3.906801,2249,4
1990,3.4808624,4.4140167,2250,4
1991,4.135564,0.64663965,2251,0
1992,-10.294208,2.245999,2252,4
1993,-6.881624,8.277814,2253,2
1994,-10.565609,-6.0059004,2254,1
1995,-5.5218,-2.0610354,2255,1
1996,2.755983,-1.4288259,2256,0
1997,-7.429806,-11.241245,2257,1
1998,-7.7472906,-8.178941,2258,1
1999,-7.429989,-2.9116604,2260,1
2000,2.2993639,-5.5334306,2261,3
2001,-7.9499507,-2.2610765,2262,1
2002,-7.4269733,-9.781682,2263,1
2003,15.402943,-7.3531885,2264,1
2004,-7.275167,-10.836748,2265,1
2005,-4.368451,-2.8885295,2266,1
2006,-8.592651,-1.8257895,2267,1
2007,-6.405971,-1.0764353,2268,1
2008,7.578906,3.9766104,2269,0
2009,-7.386969,-9.133991,2270,1
2010,4.4743495,-9.174435,2271,3
2011,4.3484197,-5.5518446,2272,3
2012,-0.6316283,3.1555288,2273,4
2013,-7.678373,-8.337108,2274,1
2014,15.535318,3.9467924,2277,1
2015,-7.2531667,-10.810467,2278,1
2016,4.9122415,-12.445008,2279,3
2017,-0.5129289,1.4926494,2280,4
2018,-3.6246428,1.3945091,2281,2
2019,-11.697963,-4.113654,2282,1
2020,6.605235,-5.3651366,2284,3
2021,1.9541885,5.436084,2285,4
2022,14.467881,-3.4269934,2286,1
2023,2.7755656,2.7820044,2287,4
2024,4.14483,0.6410152,2288,0
2025,-2.3164988,-5.4227705,2289,0
2026,-5.7134266,-3.249321,2290,1
2027,-3.076266,13.107297,2291,2
2028,1.323519,4.675753,2292,4
2029,-7.674985,-2.5662966,2294,1
2030,0.43876094,3.8594148,2295,4
2031,-1.9642801,4.520123,2296,0
2032,-13.10414,11.215865,2297,0
2033,-0.31347227,1.3655564,2298,4
2034,-5.0318623,-2.7656775,2299,1
2035,4.9917746,-7.040551,2300,3
2036,-5.3040576,-2.7815413,2301,1
2037,-7.782687,13.193693,2302,2
2038,11.329039,7.3600254,2303,4
2039,-13.905972,3.7856052,2304,2
2040,-7.0979333,-10.239272,2305,1
2041,-11.889452,15.539939,2306,0
2042,11.444297,7.4891715,2307,4
2043,-0.50914556,6.5556297,2310,0
2044,1.2885585,4.5905485,2311,4
2045,14.548253,-3.394505,2312,1
2046,3.4003296,0.552849,2314,0
2047,-2.455484,16.843142,2315,0
2048,-0.8281995,-16.41325,2316,3
2049,4.5162086,-0.544311,2317,0
2050,2.6685193,4.7885895,2318,4
2051,-3.5734901,20.75973,2319,0
2052,4.996769,-12.35348,2320,3
2053,-9.389881,-1.8519927,2322,1
2054,10.021804,-5.4253526,2323,3
2055,-7.523783,-3.1371794,2325,1
2056,-4.2339406,-13.559162,2326,3
2057,-11.096105,-4.576864,2327,1
2058,0.11330436,1.5288131,2328,4
2059,11.873871,5.724546,2329,4
2060,-6.3361735,8.031265,2330,2
2061,-13.135022,11.243067,2331,0
2062,-7.2377906,13.233786,2332,2
2063,-7.2731524,3.3788586,2333,2
2064,11.346257,6.989521,2334,4
2065,15.391634,-6.99241,2335,1
2066,6.8712916,-5.480943,2336,3
2067,10.326544,-6.987322,2337,3
2068,-8.594435,-4.8331246,2338,1
2069,-9.717321,2.8231897,2339,4
2070,-0.20177256,1.3228546,2340,4
2071,3.5945017,4.054101,2341,4
2072,2.4584975,8.789437,2342,4
2073,-3.7209046,1.4878309,2343,2
2074,4.1597643,-3.9256892,2344,4
2075,-13.968169,3.8313098,2345,2
2076,3.3259017,-0.34281892,2346,0
2077,-13.154195,-1.3303084,2347,1
2078,-1.8062019,6.81297,2349,0
2079,-7.0766892,-1.0777408,2350,1
2080,-1.7983596,-9.646541,2352,3
2081,-7.0541716,-3.0074143,2355,1
2082,-7.418362,-3.0141804,2356,1
2083,-13.580177,-8.568823,2358,3
2084,14.53177,-3.3171139,2359,1
2085,8.170612,7.844123,2361,0
2086,-8.327247,-1.7069992,2362,1
2087,-0.2959198,7.2874928,2363,0
2088,9.229887,0.94097465,2364,4
2089,9.5045595,0.5826073,2365,4
2090,3.884749,6.524196,2366,4
2091,4.612784,-0.15964846,2367,0
2092,9.677825,9.713826,2368,0
2093,4.0403776,0.6282314,2369,0
2094,3.3786986,0.45398062,2370,0
2095,-2.4409738,16.75473,2371,0
2096,13.452657,-3.476592,2372,1
2097,-7.7136908,16.926874,2374,2
2098,-8.224618,-7.57793,2375,1
2099,-16.969896,-8.115391,2376,2
