,topic_lda,bag_words,sa_score,events
60,4.0,"['immigration', 'moral', 'save', 'europe', 'west']",1,[]
74,4.0,"['custom', 'people', 'free', 'men', 'rally', 'leader', 'present', 'leader', 'rally']",1,[]
176,4.0,"['sound', 'great', 'work', 'vacation', 'time', 'hope']",1,[]
197,4.0,['glad'],1,[]
537,4.0,"['white', 'great', 'grand', 'mother', 'african', 'home', 'invader']",1,['great_grand_mother']
737,4.0,"['texas', 'secession', 'movement', 'gain', 'traction']",1,[]
756,4.0,"['waco', 'april', 'karl', 'lang', 'seventeen', 'child', 'federal_agent', 'justice']",1,[]
830,4.0,['carry'],1,[]
842,4.0,"['euless', 'trinity', 'h', 'black', 'pearland', 'h', 'white', 'state', 'championship', 'football', 'game', 'pearland']",1,[]
843,4.0,"['gene', 'autry', 'texas', 'christmas']",1,[]
919,4.0,"['gene', 'autry', 'texas', 'christmas']",1,[]
1009,4.0,"['great', 'white', 'land', 'australia', 'display', 'great', 'white', 'pride']",1,[]
1127,4.0,"['bird', 'hand', 'pacifier']",1,[]
1231,4.0,"['loony_leftists', 'free', 'election', 'free', 'speech', 'defense']",1,[]
1866,4.0,"['wipe', 'evil', 'isralie', 'empire', 'jew', 'planet', 'ancient', 'prophecy', 'god', 'promise', 'praise', 'lord', 'pas', 'popcorn', 'show']",1,[]
1955,4.0,"['washington_government', 're-educational', 'system', 'call', 'lie', 'lincoln', 'great', 'emancipator', 'truth']",1,[]
1979,4.0,"['rescue', 'jessica', 'buchanan']",1,[]
2023,4.0,"['good', 'black', 'person', 'positive', 'role', 'model', 'central_africa', 'people']",1,[]
2038,4.0,"['simple', 'jewish_leaders', 'world_wide', 'genocide', 'white_children', 'reason', 'mulatto', 'central_african', 'cousin', 'white']",1,[]
2050,4.0,"['good', 'goose', 'good', 'gander', 'jew']",1,[]
