,x,y,id,label
0,0.523939,-24.691317,0,1
1,-19.293106,8.264991,1,4
2,-14.608651,7.1471696,2,3
3,0.8413803,-24.590155,3,1
4,4.2687163,-18.063473,4,2
5,1.0150453,-24.791044,5,1
6,-7.1037893,-11.226582,6,1
7,-19.365026,9.05881,7,4
8,0.8687574,-2.5853786,8,1
9,-7.8565354,-12.951817,9,1
10,16.471241,5.792112,10,0
11,-7.688217,-12.646217,11,1
12,0.61876667,-24.240353,12,1
13,17.557293,4.945295,13,0
14,3.227702,-9.218036,14,2
15,-11.5111885,8.227254,15,3
16,-19.363358,9.277608,16,4
17,-13.836557,27.2001,17,4
18,3.412648,-8.763898,18,2
19,-12.326696,9.331872,19,3
20,-14.351,7.2267675,20,3
21,-11.80765,7.807725,21,3
22,0.38882172,-2.102477,22,1
23,0.76142126,-2.4754658,23,1
24,17.07842,5.8195987,24,0
25,0.61401886,-2.3278775,25,1
26,-11.695062,8.413913,26,3
27,-12.522402,9.526705,27,3
28,14.601122,4.288637,28,0
29,4.816163,-18.221125,29,2
30,4.8110547,-18.304243,31,2
31,16.858702,5.4805107,32,0
32,17.37857,5.1471515,33,0
33,-7.6905503,-12.68397,34,1
34,-12.256824,7.2767973,35,3
35,-15.458458,5.7270074,36,3
36,4.9043584,-18.016888,37,2
37,-19.556797,8.615533,38,4
38,13.541096,3.5280192,39,0
39,3.5866344,-7.902986,40,2
40,22.076183,0.6215579,41,0
41,-7.434479,-11.581338,42,1
42,13.607078,3.5899034,43,0
43,-14.026453,27.39075,44,4
44,3.6739807,-6.3468466,45,2
45,-7.5464334,-12.302425,46,1
46,-15.463337,6.129947,47,3
47,21.785429,0.33254242,48,0
48,3.4808326,-8.330732,49,2
49,3.4613156,-6.528745,50,2
50,3.5710225,-7.200883,51,2
51,3.688699,-7.3835874,52,2
52,-19.26128,8.367034,53,4
53,-13.513088,26.871845,54,4
54,-14.142911,27.506176,55,4
55,3.602968,-7.5872464,56,2
56,-12.933702,7.429278,57,3
57,-12.406466,7.441266,58,3
58,-7.880915,-12.93802,59,1
59,-19.279804,9.435901,60,4
60,13.826677,3.80025,61,0
61,-7.180898,-11.294018,62,1
62,-14.085283,7.1063933,63,3
63,3.1440065,-9.421257,64,2
64,-6.943917,-11.099267,65,1
65,-7.2694607,-11.688522,66,1
66,21.971474,0.5071472,68,0
67,3.537008,-6.455159,69,2
68,4.594245,-18.194475,70,2
69,21.880108,0.49086335,71,0
70,-12.794841,7.299173,72,3
71,-15.278491,6.515694,73,3
72,14.853005,4.5202603,74,0
73,16.52538,5.6432676,75,0
74,-14.950997,6.9381557,76,3
75,-13.797624,27.160494,77,4
76,0.9599531,-24.858484,78,1
77,-14.903961,6.9125257,79,3
78,-11.694315,7.695905,80,3
79,4.6191797,-17.733665,81,2
80,-12.240375,9.256791,82,3
81,3.1731036,-9.051294,83,2
82,17.447962,5.045668,84,0
83,0.48675343,-24.580458,85,1
84,-7.398089,-12.194346,86,1
85,-11.894608,7.707563,87,3
86,-13.391538,26.750263,88,4
87,-19.37785,9.290795,89,4
88,-19.63341,8.829175,90,4
89,4.580871,-17.961496,91,2
90,3.017366,-9.333596,92,2
91,21.70853,0.2544456,93,0
92,13.76568,3.7230725,94,0
93,0.702077,-2.4165514,95,1
94,-13.443532,26.801554,96,4
95,-15.336433,5.6371,97,3
96,-15.603189,5.7285748,98,3
97,14.709501,4.4035826,99,0
