,Unnamed: 0,Term,Fq-0,Fq-1,Fq-2,Fq-3,Fq-4,Tfidf-0,Tfidf-1,Tfidf-2,Tfidf-3,Tfidf-4,Prob-0,Prob-1,Prob-2,Prob-3,Prob-4
7343,obama,obama,4,115,28,33,6,0.003080611513855657,0.18470566129844795,0.03039407553898438,0.021667825359365823,0.02276499644860988,4.4749618e-06,0.014385923,0.0003246012,8.14085e-05,3.966531e-05
5496,jew,jew,4,184,32,269,25,0.003080611513855657,0.2955290580775167,0.03473608633026787,0.17662560671725475,0.09485415186920784,4.873603e-06,0.013818436000000002,0.00031424724,0.00828575,0.0018140733
7024,muslim,muslim,1,75,6,40,2,0.0007701528784639142,0.12046021389029216,0.006513016186925225,0.02626403073862524,0.007588332149536627,1.0385796e-06,0.013574458999999999,1.8251010000000003e-05,1.607997e-05,1.08065815e-05
2144,communist,communist,9,128,32,55,8,0.006931375906175228,0.2055854317060986,0.03473608633026787,0.036113042265609706,0.030353328598146507,2.680662e-06,0.012429881,0.0005060298999999999,0.00078920193,0.00034166072
11299,war,war,7,92,37,37,18,0.0053910701492474,0.14776452903875836,0.040163599819372224,0.024294228433228347,0.06829498934582964,4.0371274e-06,0.010203199,0.0009110544300000001,0.00075237046,0.001415065
4351,government,government,36,149,344,72,20,0.02772550362470091,0.2393142915953804,0.3734129280503796,0.04727525532952543,0.07588332149536628,0.00012531056000000002,0.009320251,0.016617458,0.0006087933,0.0014996087
5361,isi,isi,0,42,5,5,1,0.0,0.07975671626636167,0.006417066197958049,0.003881566213821959,0.0044859243402548795,0.0,0.007917816999999999,2.2387583e-06,5.7171343e-05,0.0
9631,slave,slave,1,31,10,24,1,0.0007701528784639142,0.049790221741320764,0.010855026978208707,0.015758418443175146,0.0037941660747683134,0.0,0.007702785500000001,0.00020356560000000002,0.00034653858,3.7144421999999996e-05
607,attack,attack,7,90,27,154,6,0.0053910701492474,0.1445522566683506,0.029308572841163512,0.10111651834370718,0.02276499644860988,2.3021898000000002e-05,0.0068997527,0.0008359285000000001,0.00479163,0.0007702921
11164,video,video,61,63,35,28,6,0.04697932558629876,0.1011865796678454,0.03799259442373048,0.01838482151703767,0.02276499644860988,0.0025898585999999998,0.006883368000000001,0.0011703449000000001,0.000101509395,2.291744e-06
