,topic_lda,bag_words,sa_score,events,rank
13154,2.0,"['tea_party', 'leader', 'columbia', 'sc', 'advantage', 'nation', 'south_carolina', 'member', 'union', 'commiefornia', 'south_carolina', 'benefit', 'iron', 'heel', 'government']",1,[],0.016870204
11511,2.0,"['luton', 'great', 'brittan', 'government', 'nation', 'anti-white']",1,[],0.016870204
9502,2.0,"['opportunity', 'hyper', 'hard_working', 'white_kid', 'white_child', 'born', 'poor', 'parent', 'non-working', 'niggro', 'chance', 'hand', 'grant', 'creature', 'wealth', 'natural', 'wealth', 'niggro', 'anti-white_washington', 'government', 'talmudic', 'pharisee', 'court', 'system']",1,[],0.016870204
8860,2.0,"['egyptian', 'citizen', 'democracy', 'israeli', 'embassy', 'government', 'egyptian', 'israeli', 'time', 'egyptian', 'freedom', 'stand', 'israeli', 'government', 'stand', 'freedom']",1,[],0.016870204
12574,2.0,"['australian', 'pm', 'assange', 'blame', 'leak', 'document', 'american', 'wash', 'government', 'military', 'government']",1,[],0.016870204
10080,2.0,"['confederate_heroes', 'day', 'january', 'confederate_heroes', 'day', 'day', 'honor', 'gallant', 'fell', 'liberty', 'government', 'evil', 'description', 'date', 'january', 'chosen', 'date', 'confederate_heroes', 'day', 'birthday', 'confederacy', 'uncle', 'robert', 'general', 'robert_e', 'lee', 'god_bless', 'confederate_heroes', 'liberty', 'deo', 'vindice']",1,[],0.016870204
1578,2.0,"['ramzpaul', 'tell', 'tim', 'wise', 'white_nation', 'white_privilege', 'discrimination', 'privilege', 'discrimination', 'state', 'israel']",1,[],0.010611546000000001
2041,2.0,"['free', 'nation', 'texas', 'member', 'state', 'confederacy', 'gathering', 'patriot']",1,[],0.010611546000000001
10125,2.0,"['texas', 'governor', 'rick', 'perry', 'joke', 'texas', 'leave', 'state']",1,[],0.010611546000000001
726,2.0,"['crimea', 'vote', 'let', 'free', 'state', 'texas']",1,[],0.010611546000000001
919,2.0,"['gene', 'autry', 'texas', 'christmas']",1,[],0.007988023
1022,2.0,"['general', 'sam', 'houston', 'lead', 'tyranny', 'victory', 'houston', 'mason', 'mason', 'special', 'lead', 'freedom', 'special', 'statue', 'display', 'mason', 'path', 'statue', 'arch', 'triumph', 'reflection', 'pond', 'obelisk', 'flower', 'garden', 'oak', 'tree', 'form', 'straight', 'line', 'photo', 'herman', 'park', 'texas', 'straight', 'path', 'federal_tyranny', 'liberty', 'child', 'beast', 'freedom']",1,[],0.007988023
10094,2.0,"['national', 'anthem', 'god_bless', 'texas']",1,[],0.007988023
11943,2.0,"['god_bless', 'texas']",1,[],0.007988023
848,2.0,"['texas', 'american', 'dream', 'summit', 'friday', 'july', 'pm', 'saturday', 'july', 'pm', 'austin', 'tx', 'texas', 'american', 'dream', 'summit', 'eventbrite']",1,[],0.007988023
10563,2.0,"['dallas', 'texas', 'fair', 'park', 'north_texas', 'irish_festival']",1,[],0.007988023
480,2.0,"['ground', 'man', 'god_bless', 'god_bless', 'texas']",1,[],0.007988023
13135,2.0,"['uk', 'guy', 'girl', 'visit', 'texas', 'uk', 'subject', 'citizen', 'citizen', 'right', 'subject', 'priviliges', 'grant', 'master', 'shot', 'machine_gun', 'supressed', 'pistol']",1,[],0.007988023
10795,2.0,"['top', 'reason', 'trump', 'american', 'lie', 'fda', 'epa', 'cdc', 'usda']",1,[],0.006402954000000001
4,2.0,"['leader', 'neocon', 'movement', 'turn', 'office', 'president', 'dictatorship', 'rule', 'trump', 'drone', 'anti-white', 'white_genocide', 'jew', 'george', 'soros']",1,[],0.006402954000000001
4904,2.0,"['donald', 'trump']",1,[],0.006402954000000001
4226,2.0,"['information', 'trump', 'russia', 'american', 'love', 'trump', 'american', 'trade', 'hillary', 'putin']",1,[],0.006402954000000001
4048,2.0,"['hitler', 'putin', 'white_nationalist', 'putin', 'action', 'mideast', 'america', 'trump', 'political_movement', 'gain', 'gain']",1,[],0.006402954000000001
3221,2.0,"['carson', 'supporter', 'trump']",1,[],0.006402954000000001
11158,2.0,"['indian', 'free', 'home', 'white_man', 'supply', 'drink', 'free', 'beer', 'white_man', 'pay', 'white_man', 'pipeline', 'indian', 'burning', 'gasoline', 'ice', 'chest', 'beer', 'petroleum', 'product', 'cry', 'tribe', 'hippy', 'free', 'money', 'oil', 'company', 'pipe', 'line', 'gong', 'land', 'land', 'indian', 'free', 'land', 'free', 'home', 'free', 'food', 'free', 'medical', 'free', 'education', 'free', 'indian', 'asian', 'give', 'free', 'tip']",1,[],0.006188946
2500,2.0,"['citizen', 'love']",1,[],0.0059656915
4117,2.0,"['jamie', 'radio', 'show', 'tonight', 'play', 'play', 'ron_paul', 'interview', 'merry_christmas', 'santa', 'victory']",1,[],0.0058806953000000006
784,2.0,"['ron_paul', 'farewell', 'address', 'union', 'love', 'union', 'farewell', 'god', 'bless_texas']",1,[],0.0058806953000000006
4468,2.0,"['invasion', 'nation', 'strip', 'citizenship', 'nation', 'nation', 'nation']",1,[],0.0056686415
