,Unnamed: 0,Term,Fq-0,Fq-1,Fq-2,Fq-3,Fq-4,Tfidf-0,Tfidf-1,Tfidf-2,Tfidf-3,Tfidf-4,Prob-0,Prob-1,Prob-2,Prob-3,Prob-4
3779,rifle,rifle,54,4,2,8,14,0.22375428810325004,0.015324124203348903,0.010277704983046922,0.033529394346708034,0.06835803525436054,0.017520953,0.0009963422,0.0016833867,0.0024339173,0.003569621
2359,jew,jew,42,69,59,21,10,0.1740311129691945,0.2643411425077686,0.3031922969998842,0.08801466016010863,0.048827168038828965,0.009079341999999999,0.010799196,0.011659138999999999,0.0038325544,0.0034135606
1653,firearm,firearm,21,1,2,4,5,0.08701555648459725,0.003831031050837226,0.010277704983046922,0.016764697173354017,0.024413584019414483,0.008958091999999999,0.00031972327,0.00019545651999999998,0.0018651028,0.00041298178
4447,target,target,23,4,4,4,2,0.09530275234027316,0.015324124203348903,0.020555409966093844,0.016764697173354017,0.009765433607765793,0.008131299,0.0016970232999999999,0.0006599342,0.001089669,0.00031932286
149,ammo,ammo,24,5,1,5,10,0.09944635026811112,0.019155155254186127,0.005138852491523461,0.02095587146669253,0.048827168038828965,0.007326084,0.0012726443,0.00048740124,0.0006129877,0.0024096873000000003
4261,state,state,26,16,20,6,19,0.10773354612378706,0.061296496813395614,0.10277704983046923,0.025147045760031038,0.09277161927377504,0.0063965824,0.0032418309999999997,0.002812512,0.0005408562999999999,0.0041474327
1976,handgun,handgun,12,3,0,1,10,0.05878878183323503,0.013588531788455543,0.0,0.004955315715294784,0.05772941332950829,0.006036514000000001,0.0016770333,0.00023983099999999997,0.0012998512,0.0016750655999999999
1873,good,good,36,16,8,16,42,0.14916952540216669,0.061296496813395614,0.04111081993218769,0.06705878869341607,0.20507410576308166,0.005816511,0.0036216078000000005,0.0021655038,0.0039315443,0.009944521
1944,gun,gun,30,5,5,13,10,0.12430793783513892,0.019155155254186127,0.025694262457617304,0.054485265813400574,0.048827168038828965,0.0057235826,0.0006048826,0.0017562525,0.002361953,0.0017896281
1652,fire,fire,30,12,5,4,9,0.12430793783513892,0.04597237261004671,0.025694262457617304,0.016764697173354017,0.04394445123494607,0.0054379630000000005,0.0032655903999999998,0.0014981378,0.00084779825,0.0020620701999999997
