,topic_lda,bag_words,sa_score,events,rank
35,3.0,"['rifle', 'ammo', 'buy', 'rifle', 'price']",0,[],0.0110739478841424
96,3.0,"['ally', 'france', 'bombing', 'campaign', 'kill', 'french', 'ally', 'save', 'french', 'survivor', 'rap', 'french', 'child', 'buy', 'ally', 'federal', 'african', 'ally', 'turkish', 'troop', 'rape', 'pillage', 'asian', 'russian', 'rape', 'gang', 'save']",0,[],0.00707885529845953
27,3.0,['jew'],0,[],0.006323066540062428
