,topic_lda,bag_words,sa_score,rank
20,1.0,"['troop', 'find', 'south', 'korean', 'hostage', 'information', 'kidnapper', 'hold', 'french', 'arm', 'force', 'minister', 'florence']",0,0.025868965312838558
21,1.0,"['m', 'kidnapper', 'identity', 'main', 'militant', 'group', 'french', 'tourist', 'link', 'al-qaeda', 'state', 'group']",0,0.025868965312838558
3,1.0,"['image', 'copyrightafp']",0,0.024439193308353424
4,1.0,['image'],0,0.024439193308353424
24,1.0,"['view', 'image', 'twitter']",0,0.024439193308353424
23,1.0,"['skip', 'twitter', 'post', 'marinenationale']",0,0.015539493411779404
