,Term,Fq-0,Fq-1,Fq-2,Fq-3,Fq-4,Tfidf-0,Tfidf-1,Tfidf-2,Tfidf-3,Tfidf-4,Prob-0,Prob-1,Prob-2,Prob-3,Prob-4
act,act,0,0,0,0,1,0.0,0.0,0.0,0.0,0.08232920020319656,5.664517811965197e-05,0.0002136388939106837,8.316358434967697e-05,3.846077743219212e-05,0.004672106821089983
active,active,0,0,0,1,0,0.0,0.0,0.0,0.11848516376511369,0.0,5.70047450310085e-05,4.6510700485669076e-05,8.397081546718255e-05,0.005637416150420904,3.589782863855362e-05
ad,ad,0,0,0,0,1,0.0,0.0,0.0,0.0,0.08232920020319656,5.816616248921491e-05,4.833285856875591e-05,8.589402568759397e-05,3.984513023169711e-05,0.0051675820723176
afp,afp,0,0,0,1,0,0.0,0.0,0.0,0.11848516376511369,0.0,5.702034832211211e-05,4.6409102651523426e-05,8.363323286175728e-05,0.005638088099658489,3.6023211578140035e-05
africa,africa,0,0,0,1,0,0.0,0.0,0.0,0.11848516376511369,0.0,5.653626794810407e-05,4.607531082001515e-05,0.0002546283940318972,0.005264909937977791,3.547842425177805e-05
african,african,0,0,0,0,1,0.0,0.0,0.0,0.0,0.08232920020319656,5.708820026484318e-05,4.6498105803038925e-05,8.348772098543122e-05,3.8854363083373755e-05,0.005195803940296173
alain,alain,0,1,0,1,0,0.0,0.09700422613277382,0.0,0.09559308408243673,0.0,5.672670158674009e-05,0.006785798817873001,0.000987993786111474,0.004459031391888857,3.559768811101094e-05
american,american,0,0,0,1,0,0.0,0.0,0.0,0.11848516376511369,0.0,5.694807259715162e-05,4.648365211323835e-05,8.347482798853889e-05,0.005641331430524588,3.5655823012348264e-05
arm,arm,0,0,0,0,1,0.0,0.0,0.0,0.0,0.08232920020319656,5.676934597431682e-05,4.621534390025772e-05,8.321578934555873e-05,3.8435988244600594e-05,0.005202319007366896
attack,attack,0,1,0,0,0,0.0,0.1202342379636806,0.0,0.0,0.0,5.690247053280473e-05,0.006775100249797106,8.348190749529749e-05,3.8857328036101535e-05,3.5621560527943075e-05
authority,authority,1,0,0,0,0,0.1566067118267339,0.0,0.0,0.0,0.0,0.00831681489944458,4.6425790060311556e-05,8.292385609820485e-05,3.8608584873145446e-05,3.542649210430682e-05
barkhane,barkhane,0,0,0,1,0,0.0,0.0,0.0,0.11848516376511369,0.0,5.6665601732674986e-05,4.626482041203417e-05,0.0004996617208234966,0.0049265725538134575,3.545319123077206e-05
base,base,0,0,0,1,0,0.0,0.0,0.0,0.11848516376511369,0.0,5.660521492245607e-05,4.6085508074611425e-05,0.00023158590192906559,0.005304692778736353,3.5414261219557375e-05
benin,benin,3,1,0,0,0,0.3790479270772999,0.09700422613277382,0.0,0.0,0.0,0.0195295512676239,0.006593560799956322,0.011847945861518383,4.655627708416432e-05,4.2032301280414686e-05
bertoncello,bertoncello,0,1,0,1,0,0.0,0.09700422613277382,0.0,0.09559308408243673,0.0,5.7555429521016777e-05,0.0067768641747534275,0.0007416383596137166,0.004682511556893587,3.579107215045951e-05
bfmtv,bfmtv,0,0,0,0,1,0.0,0.0,0.0,0.0,0.08232920020319656,5.673600753652863e-05,4.6331759222084656e-05,8.312552381539717e-05,3.8509075238835067e-05,0.005201627034693956
border,border,0,0,0,1,1,0.0,0.0,0.0,0.09559308408243673,0.0664226803371409,5.807337583974004e-05,0.0002590808435343206,8.548967161914334e-05,0.005643101409077644,0.004578486084938049
bow,bow,1,0,0,0,0,0.1566067118267339,0.0,0.0,0.0,0.0,0.008311228826642036,4.6446693886537105e-05,8.345715468749404e-05,3.86219508072827e-05,3.566180748748593e-05
burkina,burkina,1,0,0,1,3,0.1048813400915112,0.0,0.0,0.07935089506506023,0.16541047465820455,0.00837439764291048,0.0067494334653019905,9.324864367954433e-05,0.005675013177096844,0.01885467767715454
captive,captive,0,0,0,1,0,0.0,0.0,0.0,0.11848516376511369,0.0,5.777132901130244e-05,4.6848672354826704e-05,8.468519808957353e-05,0.0056291427463293076,3.5934033803641796e-05
citizen,citizen,2,1,0,0,0,0.25269861805153326,0.09700422613277382,0.0,0.0,0.0,0.01915467344224453,0.006777998525649309,8.438086661044508e-05,3.936687789973803e-05,3.680029112729244e-05
citizenship,citizenship,1,0,0,0,0,0.1566067118267339,0.0,0.0,0.0,0.0,0.008316759020090103,4.6246823330875486e-05,8.302577771246433e-05,3.856810144498013e-05,3.5562228731578216e-05
coalition,coalition,0,0,0,1,0,0.0,0.0,0.0,0.11848516376511369,0.0,5.667430377798155e-05,4.6187407860998064e-05,0.0003665547410491854,0.005094756372272968,3.54681396856904e-05
commander,commander,1,0,0,0,1,0.12634930902576663,0.0,0.0,0.0,0.0664226803371409,0.007076938170939684,0.0006938545266166329,8.403899119002745e-05,3.8740956370020285e-05,0.00468415068462491
commando,commando,0,0,1,1,0,0.0,0.0,0.23830475178689425,0.09559308408243673,0.0,5.719964610761963e-05,4.629898467101157e-05,0.012053792364895344,0.004697365220636129,0.0003375530941411853
conduct,conduct,0,0,0,1,0,0.0,0.0,0.0,0.11848516376511369,0.0,5.7255914725828916e-05,4.676885509979911e-05,8.437257929472253e-05,0.005635230801999569,3.5655823012348264e-05
copyrightafp,copyrightafp,0,1,0,0,0,0.0,0.1202342379636806,0.0,0.0,0.0,6.0247206420172006e-05,0.006680652033537626,8.978947880677879e-05,4.1670853534014896e-05,3.8707054045517e-05
country,country,0,0,0,0,1,0.0,0.0,0.0,0.0,0.08232920020319656,5.6838089221855626e-05,4.633971184375696e-05,8.342834917129949e-05,3.862784433295019e-05,0.0051994347013533115
cover,cover,0,0,0,0,1,0.0,0.0,0.0,0.0,0.08232920020319656,5.694448555004783e-05,4.651775452657603e-05,8.325349335791543e-05,3.8505000702571124e-05,0.0051993257366120815
cédric,cédric,0,1,0,1,0,0.0,0.09700422613277382,0.0,0.09559308408243673,0.0,5.6861405028030276e-05,0.0067852456122636795,0.0008070378680713475,0.004619595594704151,3.547395681380294e-05
day,day,0,0,0,1,0,0.0,0.0,0.0,0.11848516376511369,0.0,5.742800931329839e-05,4.70425293315202e-05,8.39891581563279e-05,0.0056319269351661205,3.593286965042353e-05
de,de,0,1,0,1,0,0.0,0.09700422613277382,0.0,0.09559308408243673,0.0,5.8273373724659905e-05,0.006781056988984346,0.005198678933084011,0.024050146341323853,3.62126920663286e-05
dead,dead,0,1,0,0,0,0.0,0.1202342379636806,0.0,0.0,0.0,0.0008463030098937452,0.005101118236780167,8.304011134896427e-05,3.856758848996833e-05,3.546908556018025e-05
desert,desert,0,0,0,1,0,0.0,0.0,0.0,0.11848516376511369,0.0,5.6387652875855565e-05,4.60782102891244e-05,0.00039892259519547224,0.0050544124096632,3.5328986996319145e-05
deuil,deuil,0,0,0,1,0,0.0,0.0,0.0,0.11848516376511369,0.0,5.642433825414628e-05,4.596927101374604e-05,0.0005759724299423397,0.004845079965889454,3.524882049532607e-05
deux,deux,0,0,0,1,0,0.0,0.0,0.0,0.11848516376511369,0.0,5.639270966639742e-05,4.60907795059029e-05,0.0011860901722684503,0.004292656201869249,3.53167561115697e-05
die,die,0,0,1,0,0,0.0,0.0,0.29537259742687433,0.0,0.0,5.674185013049282e-05,4.612543125404045e-05,0.01009459514170885,3.8517158827744424e-05,0.00031469258829019964
douleur,douleur,0,0,0,1,0,0.0,0.0,0.0,0.11848516376511369,0.0,5.632176180370152e-05,4.599689782480709e-05,0.0007904297090135515,0.004629697650671005,3.528928573359735e-05
edge,edge,0,0,0,1,0,0.0,0.0,0.0,0.11848516376511369,0.0,5.6375931308139116e-05,4.603854540619068e-05,0.00023492571199312806,0.005300839431583881,3.532979462761432e-05
effort,effort,0,1,0,1,0,0.0,0.09700422613277382,0.0,0.09559308408243673,0.0,5.778973354608752e-05,0.006776764057576656,0.0006286838906817138,0.004792417865246534,3.6070821806788445e-05
email,email,0,0,0,1,0,0.0,0.0,0.0,0.11848516376511369,0.0,5.668089579558e-05,4.6212964662117884e-05,8.338785846717656e-05,0.0056453486904501915,3.554683644324541e-05
emmanuel,emmanuel,0,0,0,0,1,0.0,0.0,0.0,0.0,0.08232920020319656,5.6624547141836956e-05,4.620388426701538e-05,8.29142882139422e-05,3.8412683352362365e-05,0.005204095505177975
emotion,emotion,1,0,0,0,0,0.1566067118267339,0.0,0.0,0.0,0.0,0.008318591862916946,4.6082343033049256e-05,8.292915299534798e-05,3.859014032059349e-05,3.5548495361581445e-05
en,en,0,0,0,1,0,0.0,0.0,0.0,0.11848516376511369,0.0,5.652591789839789e-05,4.6141136408550665e-05,0.001962347188964486,0.010999019257724285,3.5363435017643496e-05
escape,escape,0,0,1,0,1,0.0,0.0,0.23830475178689425,0.0,0.0664226803371409,5.865177809027955e-05,4.744840043713339e-05,0.009849785827100277,3.9690166886430234e-05,0.006206577178090811
est,est,0,0,0,1,0,0.0,0.0,0.0,0.11848516376511369,0.0,5.653395055560395e-05,4.595506834448315e-05,0.0009735125349834561,0.004465742502361536,3.5318978916620836e-05
express,express,0,0,0,1,0,0.0,0.0,0.0,0.11848516376511369,0.0,5.7279507018392906e-05,4.666727181756869e-05,8.404989057453349e-05,0.005636198446154594,3.573009598767385e-05
facebook,facebook,0,0,0,1,0,0.0,0.0,0.0,0.11848516376511369,0.0,5.696860534953885e-05,4.6357392420759425e-05,8.298509055748582e-05,0.005645375698804855,3.5424767702352256e-05
familles,familles,0,0,0,1,0,0.0,0.0,0.0,0.11848516376511369,0.0,5.643036638502963e-05,4.6201064833439887e-05,0.0007973515312187374,0.004621578846126795,3.5283665056340396e-05
faso,faso,1,0,0,1,3,0.1048813400915112,0.0,0.0,0.07935089506506023,0.16541047465820455,0.008326270617544651,0.00677039148285985,9.913750545820221e-05,0.005666876677423716,0.018860122188925743
fight,fight,0,1,0,1,0,0.0,0.09700422613277382,0.0,0.09559308408243673,0.0,5.765662353951484e-05,0.0067778402008116245,0.00032828032271936536,0.005157666280865669,3.5879656934412196e-05
find,find,0,0,0,0,1,0.0,0.0,0.0,0.0,0.08232920020319656,5.702981070498936e-05,4.624100256478414e-05,8.373075979761779e-05,3.8577665691263974e-05,0.005198532249778509
fire,fire,0,0,1,0,0,0.0,0.0,0.29537259742687433,0.0,0.0,5.678456000168808e-05,4.627779344446026e-05,0.009801238775253296,3.852126974379644e-05,0.0003768757451325655
florence,florence,0,0,0,0,1,0.0,0.0,0.0,0.0,0.08232920020319656,5.682687333319336e-05,4.6293331251945347e-05,8.339064515894279e-05,3.8681151636410505e-05,0.00519950408488512
force,force,0,0,0,0,4,0.0,0.0,0.0,0.0,0.32931680081278625,5.905172656639479e-05,4.789520971826278e-05,8.735672599868849e-05,4.0330425690626726e-05,0.025770103558897972
france,france,0,1,0,2,1,0.0,0.08052227044051759,0.0,0.15870179013012045,0.055136824886068185,5.911776679567993e-05,0.006794126238673925,0.0003805664018727839,0.012424459680914879,0.005194268189370632
françois,françois,0,1,0,0,0,0.0,0.1202342379636806,0.0,0.0,0.0,5.712997153750621e-05,0.006764305755496025,8.498024544678628e-05,3.895034024026245e-05,3.5925877455156296e-05
free,free,0,0,0,0,1,0.0,0.0,0.0,0.0,0.08232920020319656,5.764045999967493e-05,4.7312390961451456e-05,8.447225263807923e-05,3.917848880519159e-05,0.005183883477002382
french,french,2,3,1,1,6,0.14924787458108785,0.17187677582883246,0.1407466252922465,0.05645881538238329,0.23538183012007524,0.017679814249277115,0.025868965312838554,0.007887877523899078,0.005676025524735451,0.048628512769937515
frenchman,frenchman,0,1,0,1,0,0.0,0.09700422613277382,0.0,0.09559308408243673,0.0,0.0004796576395165175,0.005675324704498053,8.525176963303238e-05,0.005630221683532,3.6328983696876094e-05
front,front,0,0,0,0,1,0.0,0.0,0.0,0.0,0.08232920020319656,5.839838195242919e-05,4.758484283229336e-05,8.504081051796675e-05,3.9502188883489e-05,0.00517530320212245
frères,frères,0,0,0,1,0,0.0,0.0,0.0,0.11848516376511369,0.0,5.637662980007008e-05,4.603705383487977e-05,0.0006313513149507344,0.004785791039466858,3.5280601878184825e-05
gen,gen,0,0,0,1,0,0.0,0.0,0.0,0.11848516376511369,0.0,5.757684266427532e-05,4.677447577705607e-05,8.400517981499434e-05,0.005632778163999319,3.592724897316657e-05
general,general,0,1,1,0,0,0.0,0.09700422613277382,0.23830475178689425,0.0,0.0,5.781950312666595e-05,0.006777475122362375,0.009592100977897644,3.9006099541438743e-05,0.0004292772791814059
give,give,1,0,0,0,0,0.1566067118267339,0.0,0.0,0.0,0.0,0.008315232582390308,4.642162821255624e-05,8.312853606184945e-05,3.859834760078229e-05,3.5490604204824194e-05
government,government,1,0,0,0,0,0.1566067118267339,0.0,0.0,0.0,0.0,0.008316751569509506,4.6137221943354234e-05,8.32665100460872e-05,3.848679261864163e-05,3.561938865459524e-05
gratitude,gratitude,0,0,0,1,0,0.0,0.0,0.0,0.11848516376511369,0.0,5.707214222638868e-05,4.6444656618405133e-05,8.376709592994303e-05,0.005640107672661543,3.564273356460035e-05
ground,ground,0,0,0,0,1,0.0,0.0,0.0,0.0,0.08232920020319656,5.677676381310448e-05,4.633440767065622e-05,8.335303573403507e-05,3.857262709061615e-05,0.005200322717428207
group,group,0,1,0,0,1,0.0,0.09700422613277382,0.0,0.0,0.0664226803371409,5.799135396955535e-05,0.016543306410312653,8.51546719786711e-05,3.9893799112178385e-05,0.004519002046436071
guard,guard,0,0,0,0,1,0.0,0.0,0.0,0.0,0.08232920020319656,5.710213736165315e-05,4.6530618419637904e-05,8.385773980990052e-05,3.8603906432399526e-05,0.0051960814744234085
guide,guide,0,1,0,0,0,0.0,0.1202342379636806,0.0,0.0,0.0,0.0007145903655327857,0.00528540275990963,8.315454033436254e-05,3.8504411350004375e-05,3.544595529092476e-05
hand,hand,1,1,0,1,1,0.08822948971145035,0.06773787239155692,0.0,0.06675247449764188,0.04638283530476292,0.006620096508413553,0.009212496690452099,8.701466140337288e-05,0.005632901564240456,0.004474157467484474
head,head,0,0,0,0,1,0.0,0.0,0.0,0.0,0.08232920020319656,5.692966442438774e-05,4.652227653423324e-05,8.329979027621448e-05,3.869985812343657e-05,0.005197952501475811
hold,hold,0,0,0,0,2,0.0,0.0,0.0,0.0,0.16465840040639312,5.894701462239027e-05,4.736349364975467e-05,8.58163257362321e-05,3.9638041926082224e-05,0.011950326152145863
hostage,hostage,0,1,0,1,7,0.0,0.08052227044051759,0.0,0.07935089506506023,0.38595777420247734,0.008144402876496315,0.007500010542571545,0.00011089783947682008,0.005702747497707605,0.03914880007505417
identity,identity,0,1,0,0,0,0.0,0.1202342379636806,0.0,0.0,0.0,5.6923963711597025e-05,0.006775901652872562,8.357917977264151e-05,3.8639784179395065e-05,3.567997191566974e-05
image,image,0,4,0,0,0,0.0,0.4809369518547224,0.0,0.0,0.0,0.008111884817481041,0.024439193308353424,0.00011524096771609038,5.8876281400443986e-05,4.611548865796067e-05
impossible,impossible,0,1,0,0,0,0.0,0.1202342379636806,0.0,0.0,0.0,5.72328208363615e-05,0.006774024572223425,8.374297613045201e-05,3.8701517041772604e-05,3.5563552955864e-05
info,info,0,0,0,0,1,0.0,0.0,0.0,0.0,0.08232920020319656,5.810794391436502e-05,4.8007066652644426e-05,8.632343087811023e-05,3.956545333494432e-05,0.005170091520994902
information,information,0,0,0,0,1,0.0,0.0,0.0,0.0,0.08232920020319656,5.686395161319524e-05,4.653630094253458e-05,8.33734666230157e-05,3.8566668081330135e-05,0.005198814906179905
inmemoriam,inmemoriam,0,0,0,1,0,0.0,0.0,0.0,0.11848516376511369,0.0,5.638614675262943e-05,4.602129411068745e-05,0.0011640939628705382,0.004310702905058861,3.5267919884063303e-05
insurgent,insurgent,0,0,0,1,0,0.0,0.0,0.0,0.11848516376511369,0.0,5.6687869800953194e-05,4.624461871571839e-05,0.0003339107788633555,0.005139967426657677,3.5509430745150894e-05
islamist,islamist,0,0,0,1,0,0.0,0.0,0.0,0.11848516376511369,0.0,5.733448779210448e-05,4.686493775807321e-05,8.392077870666981e-05,0.005635736044496298,3.565983570297249e-05
jihadist,jihadist,0,0,0,1,0,0.0,0.0,0.0,0.11848516376511369,0.0,5.6566255807410926e-05,4.6045090130064636e-05,0.00029248467762954533,0.005204167682677507,3.5446260881144553e-05
journey,journey,0,0,0,0,1,0.0,0.0,0.0,0.0,0.08232920020319656,5.682882328983396e-05,4.6437748096650466e-05,8.341991633642465e-05,3.860284050460905e-05,0.005199129693210125
katiba,katiba,0,0,0,0,1,0.0,0.0,0.0,0.0,0.08232920020319656,5.6801676691975445e-05,0.00016012415289878845,8.304676157422364e-05,3.845553146675229e-05,0.004799697548151016
kidnapper,kidnapper,0,1,1,2,5,0.0,0.06773787239155692,0.16640776912902427,0.13350494899528376,0.2319141765238146,6.465332262450829e-05,0.0074387784115970135,0.022222034633159637,0.013005940243601799,0.04171925038099289
kill,kill,0,1,1,0,1,0.0,0.08052227044051759,0.19781447093222654,0.0,0.055136824886068185,5.868064909009263e-05,0.0067937374114990234,0.00889691524207592,3.976814332418144e-05,0.006639231462031603
korean,korean,1,0,0,0,3,0.12634930902576663,0.0,0.0,0.0,0.1992680410114227,0.008328299969434738,4.8294248699676245e-05,8.564863674109802e-05,3.979633402195759e-05,0.018862653523683548
la,la,0,0,0,1,0,0.0,0.0,0.0,0.11848516376511369,0.0,5.6798697187332436e-05,4.62041498394683e-05,0.0026097046211361885,0.010569868609309196,3.5513221519067883e-05
lassimouillas,lassimouillas,0,1,0,1,0,0.0,0.09700422613277382,0.0,0.09559308408243673,0.0,0.0012627958785742521,0.004593461286276579,8.44638780108653e-05,0.00564301572740078,3.621483119786717e-05
launch,launch,1,0,0,0,0,0.1566067118267339,0.0,0.0,0.0,0.0,0.006804955191910267,0.00044225528836250305,8.324436203110963e-05,3.85487983294297e-05,3.55695556208957e-05
laurent,laurent,0,1,0,1,0,0.0,0.09700422613277382,0.0,0.09559308408243673,0.0,0.0006131452391855419,0.0054535954259335995,8.387837442569435e-05,0.0056381928734481335,3.61985330528114e-05
le,le,0,0,0,1,0,0.0,0.0,0.0,0.11848516376511369,0.0,5.650274033541791e-05,4.603560591931455e-05,0.0007720656576566398,0.004646074026823044,3.526247382978909e-05
lecointre,lecointre,0,1,0,1,0,0.0,0.09700422613277382,0.0,0.09559308408243673,0.0,5.8233708841726184e-05,0.0067822434939444065,8.614102989668027e-05,0.005633742548525333,3.66561216651462e-05
leurs,leurs,0,0,0,1,0,0.0,0.0,0.0,0.11848516376511369,0.0,5.677974331774749e-05,4.629174145520665e-05,0.002067581983283162,0.010924565605819225,3.5391843994148076e-05
life,life,1,0,0,0,0,0.1566067118267339,0.0,0.0,0.0,0.0,0.008321900852024555,4.613757482729852e-05,8.295493898913264e-05,3.8486497942358255e-05,3.529928289935924e-05
line,line,0,0,0,0,1,0.0,0.0,0.0,0.0,0.08232920020319656,5.835328920511529e-05,4.76923341921065e-05,8.59381107147783e-05,3.951100734411739e-05,0.005172192119061947
link,link,0,1,0,0,0,0.0,0.1202342379636806,0.0,0.0,0.0,5.675776264979504e-05,0.006779760587960482,8.329899719683453e-05,3.868373096338473e-05,3.544619175954722e-05
local,local,0,1,0,0,0,0.0,0.1202342379636806,0.0,0.0,0.0,0.0008241314208135009,0.005132406949996948,8.308288670377806e-05,3.848833148367703e-05,3.538948294590227e-05
macina,macina,0,0,0,0,1,0.0,0.0,0.0,0.0,0.08232920020319656,5.6774544646032155e-05,0.0003176762838847935,8.326119132107124e-05,3.862931771436706e-05,0.004463085904717445
macron,macron,1,0,0,0,1,0.12634930902576663,0.0,0.0,0.0,0.0664226803371409,0.00831834226846695,4.67760837636888e-05,8.365629037143663e-05,3.9051956264302135e-05,0.0052065253257751465
main,main,0,1,0,0,0,0.0,0.1202342379636806,0.0,0.0,0.0,5.685636278940365e-05,0.0067791203036904335,8.307496318593621e-05,3.86405190511141e-05,3.558916796464473e-05
mali,mali,1,0,0,0,2,0.12634930902576663,0.0,0.0,0.0,0.1328453606742818,0.006659002974629402,0.0005055800429545343,8.480739779770374e-05,3.919160371879116e-05,0.005203075706958771
malian,malian,0,0,0,0,1,0.0,0.0,0.0,0.0,0.08232920020319656,5.6963715906022117e-05,0.0002035805518971756,8.325166709255427e-05,3.854379610856995e-05,0.00469248928129673
marine,marine,1,0,0,1,0,0.12634930902576663,0.0,0.0,0.09559308408243673,0.0,0.008205415681004524,4.9232538003707305e-05,0.0019137432100251317,0.011090043932199478,3.745689173229039e-05
marinenationale,marinenationale,0,0,0,1,2,0.0,0.0,0.0,0.09559308408243673,0.1328453606742818,7.338726572925225e-05,5.705026342184283e-05,9.961183241102844e-05,0.005658379290252924,0.011807147413492203
medium,medium,1,1,0,0,0,0.12634930902576663,0.09700422613277382,0.0,0.0,0.0,0.008316981606185436,0.006782703101634979,8.43629240989685e-05,3.926684075850062e-05,3.603156073950231e-05
messenger,messenger,0,0,0,1,0,0.0,0.0,0.0,0.11848516376511369,0.0,5.682270057150163e-05,4.6483382902806625e-05,8.368517592316493e-05,0.005641646217554808,3.5604036384029314e-05
militant,militant,1,1,0,1,1,0.08822948971145035,0.06773787239155692,0.0,0.06675247449764188,0.04638283530476292,0.0071578361093997955,0.00866658054292202,8.642384636914358e-05,0.005650711245834827,0.0045277937315404415
military,military,1,1,0,0,1,0.1048813400915112,0.08052227044051759,0.0,0.0,0.055136824886068185,0.008306006900966167,0.006795668508857489,8.747878018766642e-05,4.0194652683567256e-05,0.005200473591685295
minister,minister,0,0,0,0,1,0.0,0.0,0.0,0.0,0.08232920020319656,5.6728647905401886e-05,4.625820292858407e-05,8.327755494974554e-05,3.846407707897015e-05,0.005201892461627722
minute,minute,1,0,0,0,0,0.1566067118267339,0.0,0.0,0.0,0.0,0.008089303970336914,5.275471994536929e-05,9.788099850993603e-05,4.36675145465415e-05,4.047522452310659e-05
miss,miss,1,0,0,0,0,0.1566067118267339,0.0,0.0,0.0,0.0,0.00831667985767126,4.6336263039847836e-05,8.302838978124782e-05,3.8538797525689006e-05,3.55265692633111e-05
month,month,1,0,0,1,0,0.12634930902576663,0.0,0.0,0.09559308408243673,0.0,0.006998169235885143,0.00037392237572930753,8.457059448119253e-05,0.005637910682708025,3.632558946264908e-05
mort,mort,0,0,0,1,0,0.0,0.0,0.0,0.11848516376511369,0.0,5.649907689075917e-05,4.6022523747524247e-05,0.001125832786783576,0.004340285900980234,3.529497189447284e-05
mt,mt,0,0,0,1,0,0.0,0.0,0.0,0.11848516376511369,0.0,5.6384749768767506e-05,4.5979180868016556e-05,0.000744813762139529,0.0046729957684874535,3.525389911374077e-05
music,music,0,1,0,0,0,0.0,0.1202342379636806,0.0,0.0,0.0,0.0008135510724969208,0.005148886702954769,8.283303759526461e-05,3.832146467175335e-05,3.542750346241519e-05
name,name,0,1,0,0,0,0.0,0.1202342379636806,0.0,0.0,0.0,5.663248521159403e-05,0.006781548261642456,8.311569399666041e-05,3.8523510738741606e-05,3.5557550290832296e-05
national,national,0,1,0,0,0,0.0,0.1202342379636806,0.0,0.0,0.0,0.0005396084161475301,0.005555316805839539,8.302759670186788e-05,3.845817263936624e-05,3.5485663829604164e-05
nationale,nationale,1,0,0,1,0,0.12634930902576663,0.0,0.0,0.09559308408243673,0.0,0.008204453624784946,5.07916665810626e-05,0.0012406219029799104,0.004295582417398691,3.740209649549797e-05
neighbour,neighbour,1,0,0,0,0,0.1566067118267339,0.0,0.0,0.0,0.0,0.0074661909602582455,0.00021444376034196466,8.352053555427119e-05,3.839865530608222e-05,3.5450724681140855e-05
news,news,0,0,0,0,1,0.0,0.0,0.0,0.0,0.08232920020319656,5.664096534019336e-05,4.6201505028875545e-05,8.280492329504341e-05,3.858756463159807e-05,0.005203219596296549
north,north,0,0,0,0,1,0.0,0.0,0.0,0.0,0.08232920020319656,5.684855204890482e-05,4.632875425159e-05,8.316167804878205e-05,3.8435075111920014e-05,0.005201518069952726
official,official,1,0,0,1,0,0.12634930902576663,0.0,0.0,0.09559308408243673,0.0,0.008316010236740112,4.7439982154173777e-05,8.510141196893528e-05,0.005641949828714132,3.6255365557735786e-05
open,open,0,0,1,0,1,0.0,0.0,0.23830475178689425,0.0,0.0664226803371409,5.7802189985523e-05,4.701526268036105e-05,0.01004167553037405,3.908981307176873e-05,0.006132183130830526
operation,operation,2,0,1,2,0,0.2097626801830224,0.0,0.19781447093222654,0.15870179013012045,0.0,0.017963832244277,0.00030524999601766467,0.011307507753372192,0.01236612256616354,0.0003477323625702411
opération,opération,0,0,0,1,0,0.0,0.0,0.0,0.11848516376511369,0.0,5.6378619774477556e-05,4.5978831622051075e-05,0.0006584929651580751,0.004758416675031185,3.525077045196667e-05
outlet,outlet,0,0,0,0,1,0.0,0.0,0.0,0.0,0.08232920020319656,5.6918099289759994e-05,4.628812166629359e-05,8.314399747177958e-05,3.851616565953009e-05,0.005200955085456371
paris,paris,0,0,0,0,1,0.0,0.0,0.0,0.0,0.08232920020319656,5.672004772350192e-05,4.611153417499736e-05,8.295581210404634e-05,3.836585892713629e-05,0.005204356275498867
park,park,0,1,0,1,0,0.0,0.09700422613277382,0.0,0.09559308408243673,0.0,0.00036565031041391194,0.005883707664906979,8.55189427966252e-05,0.0056329043582081795,3.6175446439301595e-05
part,part,0,0,0,1,0,0.0,0.0,0.0,0.11848516376511369,0.0,5.6563556427136064e-05,4.610010000760667e-05,0.0004021641507279128,0.0050488985143601894,3.536761869327165e-05
patrick,patrick,0,1,0,1,0,0.0,0.09700422613277382,0.0,0.09559308408243673,0.0,0.0009309497545473278,0.004999787546694279,8.47603369038552e-05,0.005637940019369125,3.650262806331739e-05
pendjari,pendjari,0,1,0,0,0,0.0,0.1202342379636806,0.0,0.0,0.0,0.0013786153867840767,0.004454060923308134,8.336026803590357e-05,3.84669765480794e-05,3.5439330531517044e-05
people,people,0,0,1,0,0,0.0,0.0,0.29537259742687433,0.0,0.0,6.071347524994053e-05,4.866610834142193e-05,0.012047694995999336,4.126022759010084e-05,3.728674346348271e-05
photo,photo,0,1,0,0,0,0.0,0.1202342379636806,0.0,0.0,0.0,5.675332431565039e-05,0.006781548261642456,8.339692431036383e-05,3.853747693938203e-05,3.534920688252896e-05
picque,picque,0,1,0,1,0,0.0,0.09700422613277382,0.0,0.09559308408243673,0.0,0.0007006239029578865,0.005320292431861162,8.453834016108885e-05,0.005638133734464645,3.6101693694945425e-05
pierrepont,pierrepont,0,1,0,1,0,0.0,0.09700422613277382,0.0,0.09559308408243673,0.0,5.716670784750022e-05,0.006782440934330225,0.0012747901491820812,0.004229945596307516,3.5704208130482584e-05
place,place,0,0,0,0,1,0.0,0.0,0.0,0.0,0.08232920020319656,5.677064473275095e-05,4.649766196962446e-05,8.345452806679532e-05,3.8603244320256636e-05,0.005198953673243523
planning,planning,0,0,0,0,1,0.0,0.0,0.0,0.0,0.08232920020319656,5.665333446813747e-05,0.00017349714471492916,8.301239722641185e-05,3.84735430998262e-05,0.004766430705785751
pm,pm,0,1,0,0,0,0.0,0.1202342379636806,0.0,0.0,0.0,6.733430927852169e-05,0.0065220934338867664,0.00010140093218069524,4.8494919610675424e-05,4.17129194829613e-05
post,post,0,0,0,1,1,0.0,0.0,0.0,0.09559308408243673,0.0664226803371409,6.0837857745354995e-05,4.8274909204337746e-05,8.993808296509087e-05,0.005642786622047424,0.005169152282178402
president,president,0,0,0,0,1,0.0,0.0,0.0,0.0,0.08232920020319656,5.666452125296928e-05,4.6473189286189154e-05,8.35214086691849e-05,3.869974534609355e-05,0.005198728293180466
privacy,privacy,0,0,0,0,1,0.0,0.0,0.0,0.0,0.08232920020319656,5.908299135626294e-05,4.800496026291512e-05,8.526689634891227e-05,4.008165342384018e-05,0.005165687762200832
quarter,quarter,0,0,1,0,0,0.0,0.0,0.29537259742687433,0.0,0.0,5.692819831892848e-05,4.631929914467037e-05,0.009399153292179108,3.8774407585151494e-05,0.0004696245305240154
quote,quote,1,0,0,1,0,0.12634930902576663,0.0,0.0,0.09559308408243673,0.0,0.00832677073776722,4.718577110907063e-05,8.445308048976585e-05,0.005641409195959568,3.584111254895106e-05
raid,raid,0,0,0,0,3,0.0,0.0,0.0,0.0,0.24698760060958969,0.008061205968260765,5.7214485423173755e-05,9.828565089264885e-05,4.674009687732905e-05,0.012007022276520729
reaction,reaction,0,0,1,0,0,0.0,0.0,0.29537259742687433,0.0,0.0,6.577714520972222e-05,5.3649095207219943e-05,0.01186085119843483,4.393560811877251e-05,3.978153472417034e-05
region,region,0,0,0,1,0,0.0,0.0,0.0,0.11848516376511369,0.0,5.7049066526815295e-05,4.650812843465246e-05,0.0012888031778857112,0.011490845121443272,3.562499477993697e-05
release,release,0,0,0,1,0,0.0,0.0,0.0,0.11848516376511369,0.0,5.698946915799752e-05,4.6691580791957676e-05,8.32835867186077e-05,0.005641226191073656,3.5566332371672615e-05
remote,remote,0,1,0,0,0,0.0,0.1202342379636806,0.0,0.0,0.0,0.0010470413835719228,0.004843730945140123,8.298509055748582e-05,3.852575537166558e-05,3.536680742399767e-05
report,report,1,0,1,0,1,0.1048813400915112,0.0,0.19781447093222654,0.0,0.055136824886068185,0.008381013758480549,5.1303366490174085e-05,0.01188355777412653,4.5966684410814196e-05,0.005246049724519253
reporter,reporter,0,1,0,0,0,0.0,0.1202342379636806,0.0,0.0,0.0,5.700343899661675e-05,0.006773349363356829,8.355247700819746e-05,3.8887912523932755e-05,3.568956890376285e-05
rescue,rescue,2,2,0,0,0,0.25269861805153326,0.19400845226554764,0.0,0.0,0.0,0.017562266439199448,0.016907943412661552,8.709635585546494e-05,3.997271051048301e-05,3.619584094849415e-05
sacrifice,sacrifice,1,0,0,0,0,0.1566067118267339,0.0,0.0,0.0,0.0,0.008315090090036392,4.6222394303185865e-05,8.31614452181384e-05,3.8553207559743896e-05,3.568371539586224e-05
safari,safari,0,1,0,0,0,0.0,0.1202342379636806,0.0,0.0,0.0,0.0011941359844058752,0.004664289299398661,8.307796815643087e-05,3.848671622108668e-05,3.5610115446615964e-05
sahara,sahara,0,0,0,1,1,0.0,0.0,0.0,0.09559308408243673,0.0664226803371409,5.844562838319689e-05,4.819514288101345e-05,0.00047816828009672463,0.004975955933332443,0.005174089223146439
sahel,sahel,0,0,0,1,0,0.0,0.0,0.0,0.11848516376511369,0.0,5.691581827704795e-05,4.658847683458589e-05,0.0008192803361453116,0.011902935802936554,3.5633693187264726e-05
saturday,saturday,0,0,0,0,1,0.0,0.0,0.0,0.0,0.08232920020319656,5.6790842791087925e-05,4.650812843465246e-05,8.31338475109078e-05,3.863469828502275e-05,0.005199573468416929
save,save,1,0,0,0,0,0.1566067118267339,0.0,0.0,0.0,0.0,0.008314808830618858,4.6352088247658685e-05,8.326754323206842e-05,3.858653508359566e-05,3.5533008485799655e-05
share,share,0,0,0,1,0,0.0,0.0,0.0,0.11848516376511369,0.0,6.0184898757142946e-05,4.7729692596476525e-05,8.79218932823278e-05,0.03548545762896538,3.898742943420075e-05
shelter,shelter,0,0,1,0,1,0.0,0.0,0.23830475178689425,0.0,0.0664226803371409,5.785965913673863e-05,4.707331754616462e-05,0.009726203046739101,3.88807529816404e-05,0.006271951831877232
skip,skip,0,0,0,1,0,0.0,0.0,0.0,0.11848516376511369,0.0,5.902616248931736e-05,4.701494617620483e-05,8.564251038478687e-05,0.005617339164018631,3.616664980654605e-05
snatch,snatch,1,0,0,0,0,0.1566067118267339,0.0,0.0,0.0,0.0,0.006956594064831734,0.000383093545679003,8.287618402391672e-05,3.8584879803238437e-05,3.562822166713886e-05
social,social,0,1,0,0,0,0.0,0.1202342379636806,0.0,0.0,0.0,5.676869841408916e-05,0.006779767107218504,8.327691466547549e-05,3.8595662772422656e-05,3.552924681571312e-05
soldier,soldier,1,1,1,0,1,0.08822948971145035,0.06773787239155692,0.16640776912902427,0.0,0.04638283530476292,0.008330170065164566,0.006803787313401699,0.009636147879064083,4.039208943140693e-05,0.006312423385679722
solemnity,solemnity,1,0,0,0,0,0.1566067118267339,0.0,0.0,0.0,0.0,0.008311962708830833,4.6430217480519786e-05,8.377516496693715e-05,3.866455517709255e-05,3.5435477911960334e-05
south,south,1,0,0,0,3,0.12634930902576663,0.0,0.0,0.0,0.1992680410114227,0.00832812488079071,4.709226413979195e-05,8.626088674645871e-05,3.964719144278206e-05,0.01886861026287079
spare,spare,0,1,0,0,0,0.0,0.1202342379636806,0.0,0.0,0.0,5.7184537581633776e-05,0.006768106482923031,8.461721881758422e-05,3.8820249756099656e-05,3.575337541406043e-05
special,special,0,0,0,0,2,0.0,0.0,0.0,0.0,0.16465840040639312,5.7649587688501924e-05,4.7413028369192034e-05,8.491810876876116e-05,3.915652268915437e-05,0.011961973272264004
spot,spot,0,0,0,0,1,0.0,0.0,0.0,0.0,0.08232920020319656,5.706773299607448e-05,4.649788388633169e-05,8.39982894831337e-05,3.860438664560206e-05,0.0051959846168756485
state,state,0,1,0,0,0,0.0,0.1202342379636806,0.0,0.0,0.0,5.6939599744509906e-05,0.0067812055349349976,8.31244105938822e-05,3.852105146506801e-05,3.540116085787304e-05
statement,statement,1,0,0,0,0,0.1566067118267339,0.0,0.0,0.0,0.0,0.00831142719835043,4.648746471502818e-05,8.346566755790263e-05,3.86324136343319e-05,3.5600405681179836e-05
stop,stop,0,0,0,0,1,0.0,0.0,0.0,0.0,0.08232920020319656,5.684020652552135e-05,4.6299250243464485e-05,8.329963020514697e-05,3.8566078728763387e-05,0.005200439132750034
support,support,0,0,0,1,0,0.0,0.0,0.0,0.11848516376511369,0.0,5.762749060522765e-05,4.6702090912731364e-05,8.439600060228258e-05,0.005633315537124872,3.5714663681574166e-05
talk,talk,0,0,1,0,0,0.0,0.0,0.29537259742687433,0.0,0.0,6.0392976592993364e-05,4.918800186715089e-05,0.012048057280480862,4.0140028431778774e-05,3.809787449426949e-05
teacher,teacher,0,1,0,0,0,0.0,0.1202342379636806,0.0,0.0,0.0,0.0009028626373037696,0.00502562103793025,8.300044282805175e-05,3.8632191717624664e-05,3.54532603523694e-05
terror,terror,0,0,0,0,1,0.0,0.0,0.0,0.0,0.08232920020319656,5.946880628471263e-05,4.817216904484667e-05,8.589746721554548e-05,3.9537506381748244e-05,0.005164739675819874
terrorist,terrorist,0,1,0,0,0,0.0,0.1202342379636806,0.0,0.0,0.0,5.696159496437758e-05,0.006779081653803587,8.320801134686917e-05,3.842173464363441e-05,3.5672284866450354e-05
tourist,tourist,1,1,0,0,0,0.12634930902576663,0.09700422613277382,0.0,0.0,0.0,0.006917907856404781,0.007949485443532467,8.382967644138262e-05,3.859146454487927e-05,3.578216637833975e-05
track,track,0,1,0,1,0,0.0,0.09700422613277382,0.0,0.09559308408243673,0.0,5.781277650385164e-05,0.006784915458410978,8.52729135658592e-05,0.005637695547193289,3.647576522780582e-05
troop,troop,0,0,0,1,2,0.0,0.0,0.0,0.09559308408243673,0.1328453606742818,5.854861228726804e-05,4.7831577830947936e-05,0.0005426211282610893,0.004902757704257965,0.011953870765864849
tuesday,tuesday,0,0,0,1,0,0.0,0.0,0.0,0.11848516376511369,0.0,5.7497276429785416e-05,4.699652345152572e-05,8.441845420747995e-05,0.0056304954923689365,3.5928482247982174e-05
twitter,twitter,0,2,0,2,2,0.0,0.16104454088103518,0.0,0.15870179013012045,0.11027364977213637,6.856460095150396e-05,0.015539493411779404,0.00010360204760218039,0.013013211078941822,0.011953791603446007
view,view,0,2,0,0,0,0.0,0.2404684759273612,0.0,0.0,0.0,6.263350223889574e-05,0.015510489232838154,8.823966345516965e-05,4.10164357163012e-05,3.9120692235883325e-05
villacoublay,villacoublay,0,0,0,0,1,0.0,0.0,0.0,0.0,0.08232920020319656,5.6542201491538435e-05,4.622005872079171e-05,8.30847056931816e-05,3.8361322367563844e-05,0.005204192362725735
west,west,0,0,0,0,1,0.0,0.0,0.0,0.0,0.08232920020319656,5.678456000168808e-05,4.626120426109992e-05,8.33291924209334e-05,3.862578159896657e-05,0.005200414452701807
woman,woman,1,0,0,1,1,0.1048813400915112,0.0,0.0,0.07935089506506023,0.055136824886068185,0.008337593637406826,4.835129948332906e-05,8.729526598472148e-05,0.0056493934243917465,0.011968757025897503
