,topic_lda,bag_words,sa_score,events,rank
8937,1.0,"['obama', 'president']",0,[],0.014021736000000002
6606,1.0,"['snowden', 'free', 'obama', 'snowden']",0,[],0.014021736000000002
3981,1.0,"['obama', 'wear', 'rainbow', 'house']",0,[],0.014021736000000002
1113,1.0,"['obama', 'homosexual', 'victory', 'dance', 'prayer', 'rug', 'oval', 'office']",0,[],0.014021736000000002
6981,1.0,"['african', 'communist', 'obama', 'give', 'secret', 'american', 'defense', 'technology', 'communist_china', 'treason', 'communist']",0,[],0.014021736000000002
10766,1.0,"['ghetto', 'rat', 'obama', 'michelle']",0,[],0.014021736000000002
12728,1.0,"['heavy', 'rain', 'croatia', 'obama', 'leftist', 'washington', 'd.c', 'demand', 'aid', 'white', 'victim', 'cope', 'repair', 'damage', 'yea']",0,[],0.014021736000000002
10774,1.0,"['trump', 'turn', 'president', 'louisiana', 'obama', 'vacation']",0,[],0.014021736000000002
3577,1.0,"['bullet_proof', 'wall', 'window', 'obama']",0,[],0.014021736000000002
8849,1.0,"['nra', 'obama', 'criminal_conspiracy', 'amendment_rights']",0,[],0.014021736000000002
3409,1.0,"['islam', 'lie', 'holy', 'book', 'command', 'lie', 'islam', 'cult', 'command', 'command', 'lie', 'murder', 'loot', 'rape', 'liar', 'peace', 'conquest', 'obama', 'sense']",0,[],0.014021736000000002
9529,1.0,"['bombshell', 'announcement', 'brother', 'michelle', 'obama']",0,[],0.014021736000000002
3355,1.0,"['timing', 'ammo', 'fly', 'washington_dc', 'obama']",0,[],0.014021736000000002
9635,1.0,"['born', 'mom', 'kenya', 'time', 'wealth', 'inheritance', 'dad', 'african', 'obama', 'dad']",0,[],0.014021736000000002
3019,1.0,"['african_female', 'help', 'white_woman', 'white_woman', 'black', 'hood', 'african', 'start', 'beating', 'white_woman', 'teach', 'kind', 'black', 'hood', 'african', 'mulatto', 'obama', 'beat', 'black', 'black', 'hood', 'african', 'white_girl', 'favor', 'kill', 'sight', 'trespass', 'black', 'hood', 'loony_leftists', 'travel', 'black', 'hood', 'education', 'real_world', 'politics']",0,[],0.014021736000000002
7911,1.0,"['congressman', 'joe', 'walsh', 'holder', 'race-card', 'play', 'obama']",0,[],0.014021736000000002
9738,1.0,"['drain', 'swamp', 'investigation', 'crooked_hillary', 'bill', 'obama', 'washington_dc', 'conviction']",0,[],0.014021736000000002
2003,1.0,"['moochie', 'life', 'house', 'poor', 'african_slaves', 'hometown', 'kenya', 'black_slaves', 'obama']",0,[],0.014021736000000002
1875,1.0,"['melt', 'michael', 'obama', 'reading', 'text', 'medium', 'praise', 'woman', 'upset', 'jewish_media', 'mogul']",0,[],0.014021736000000002
3988,1.0,"['suggestion', 'fire', 'federal_government', 'start', 'judge', 'work', 'squad', 'sentience', 'fire', 'government', 'clinton', 'crime_family', 'bush', 'crime_family', 'obama', 'crime_family', 'find', 'bath', 'house', 'homo', 'night', 'club', 'invite', 'merkel', 'trump', 'white_house', 'visit', 'hang', 'leftist', 'love', 'hang']",0,[],0.014021736000000002
8310,1.0,"['white_child', 'newscaster', 'obama', 'obama', 'mean']",0,[],0.014021736000000002
13351,1.0,"['barack_hussein', 'obama', 'jr', 'feel', 'islam']",0,[],0.014021736000000002
13151,1.0,"['rev', 'jesse', 'lee', 'peterson', 'obama', 'hate', 'white_man', 'man']",0,[],0.014021736000000002
863,1.0,"['texas', 'attorney', 'general', 'paxton', 'address', 'state', 'lawsuit', 'obama', 'administration']",0,[],0.014021736000000002
5507,1.0,"['obama', 'supporter']",0,[],0.014021736000000002
9384,1.0,"['love', 'obama', 'drone']",0,[],0.014021736000000002
4271,1.0,"['true', 'michael/michelle', 'obama', 'tie', 'obama', 'knot', 'shoot', 'hoop', 'michael', 'teleprompter', 'obama', 'real', 'question', 'obama']",0,[],0.014021736000000002
6162,1.0,"['rand_paul', 'lead', 'lawsuit', 'obama', 'nsa', 'spy', 'government', 'offer', 'security', 'enemy', 'government', 'v=f8_itoduse4']",0,[],0.014021736000000002
9375,1.0,"['evidence', 'turkey', 'coup', 'obama', 'order', 'el', 'nusra', 'rival', 'obama', 'israel', 'isis_jihadi', 'jihad', 'mossad', 'obama', 'netanyahu', 'banking_families', 'jihad']",0,[],0.014021736000000002
4424,1.0,"['obama', 'disapproval', 'rate', 'current', 'newsmax', 'poll', 'poll', 'support', 'president', 'result', 'newsmax.com', 'break', 'news', 'globe', 'u.s', 'news', 'politics', 'world', 'health', 'finance', 'video', 'science', 'technology', 'news', 'stream']",0,[],0.014021736000000002
13268,1.0,"['obama', 'deception', 'hq', 'full_length', 'version']",0,[],0.014021736000000002
8078,1.0,"['adl', 'group', 'boycott', 'lowe', 'hardware', 'chain', 'store', 'jew', 'muslim', 'sound', 'place', 'shop', 'criminal', 'mexican', 'invader', 'lowe', 'perfect', 'merry_christmas', 'lowe']",0,[],0.013089547
4623,1.0,"['muslim', 'female', 'babysitting', 'child', 'child', 'carry', 'head', 'subway', 'muslim', 'slaughter', 'communist', 'traitor', 'government', 'muslim', 'babysitter', 'watch', 'kid', 'embrace', 'multiculturalism', 'embrace', 'death']",0,[],0.013089547
11183,1.0,"['district', 'judge', 'andre', 'birotte', 'jr', 'muslim', 'america']",0,[],0.013089547
6829,1.0,"['muslim', 'path', 'god', 'jihad']",0,[],0.013089547
2737,1.0,"['african', 'burn', 'car', 'diversity', 'medium', 'blackout', 'muslim', 'immigrant', 'torch', 'car']",0,['year'],0.013089547
4631,1.0,"['muslim', 'girl']",0,[],0.013089547
2584,1.0,"['australian', 'issue', 'face', 'today', 'muslim', 'australia', 'issue', 'issue', 'issue', 'government', 'issue', 'result', 'government']",0,[],0.013089547
2558,1.0,"['government', 'import', 'muslim']",0,[],0.013089547
4385,1.0,"['northern', 'nordic', 'settle', 'settle', 'nordic', 'nordic', 'rise', 'force', 'shame', 'nordic', 'today', 'run', 'muslim', 'northern', 'nordic', 'mange', 'look', 'great', 'tragedy', 'great', 'teach', 'north_dakota', 'settle', 'scandinavian', 'race_mixing', 'young', 'blond', 'girl', 'mating', 'african', 'indian', 'asian', 'mexican', 'scandinavian', 'see', 'love', 'grandchild', 'sooner']",0,[],0.013089547
7546,1.0,"['muslim', 'men', 'whip']",0,[],0.013089547
4422,1.0,"['muslim', 'holy', 'book', 'image', 'muhammad', 'muslim', 'muhammad', 'muslim', 'law', 'muslim', 'murder', 'draw', 'muhammad', 'image', 'holy', 'muslim', 'book', 'muslim', 'lie', 'stupid', 'image', 'muhammad', 'link', 'prophet-298298']",0,[],0.013089547
6579,1.0,"['loony_leftists', 'loony_leftists', 'dopers', 'drunk', 'protest', 'dope', 'fuel', 'street', 'party', 'loony', 'leftist', 'muslim', 'muslim', 'drunk', 'dopers', 'strip', 'tie', 'beat', 'beheading', 'loony_leftists', 'stupid']",0,[],0.013089547
3375,1.0,"['london', 'independent', 'muslim', 'state', 'separate', 'nation', 'kosovo', 'peacekeeper', 'border']",0,[],0.013089547
10568,1.0,"['survivor', 'muslim', 'attack', 'weekly', 'staff', 'meeting', 'muslim', 'weekly', 'staff', 'meeting', 'muslim', 'janitor']",0,[],0.013089547
3521,1.0,"['muslim', 'law', 'michelle', 'married', 'muslim', 'law', 'wife']",0,[],0.013089547
10572,1.0,"['german', 'march', 'politician', 'give', 'europe', 'muslim', 'horde']",0,[],0.013089547
10573,1.0,"['muslim', 'african', 'burn', 'people', 'car', 'business', 'african', 'burn', 'car', 'diversity', 'medium', 'blackout', 'muslim', 'immigrant', 'torch', 'car']",0,['year'],0.013089547
1716,1.0,"['nro', 'salon', 'fight', 'pedophobia', 'jew', 'muslim', 'pedophile', 'child', 'fair', 'game', 'segregation', 'white_nations', 'safety', 'peace', 'jew', 'jew', 'muslim', 'muslim', 'place']",0,[],0.013089547
3664,1.0,"['reading', 'news_item', 'violence', 'great', 'comment', 'video', 'interpol', 'male', 'muslim', 'military', 'age', 'army', 'european', 'nation', 'man', 'army', 'arm', 'european', 'kill', 'european', 'win', 'european', 'strategy', 'scream', 'run', 'hide', 'cry', 'fate', 'strategy', 'run', 'shoot', 'stab', 'stab', 'blow', 'long_term', 'win', 'strategy', 'solution', 'europe', 'ban', 'knife', 'motor', 'vehicle', 'police', 'military', 'government', 'motor', 'vehicle', 'truck', 'knife', 'ax', 'firearm', 'explosive', 'european', 'feel', 'safe', 'know']",0,[],0.013089547
11586,1.0,"['lindsey_williams', 'mi6', 'fund', 'muslim', 'brotherhood', 'nwo', 'front', 'group']",0,[],0.013089547
1382,1.0,"['arrest', 'dubai', 'muslim', 'land', 'muslim', 'muslim']",0,[],0.013089547
1517,1.0,"['ramzpaul', 'marvel', 'turn', 'anne', 'frank', 'muslim', 'jew', 'marvel', 'burka', 'black', 'muslim', 'homosexual', 'male', 'pretend', 'girl', 'sick']",0,[],0.013089547
12074,1.0,"['muslim', 'brotherhood']",0,[],0.013089547
12184,1.0,"['egyptian', 'army', 'arrest', 'minister', 'interior', 'revolution', 'add', 'possibility', 'instigator', 'revolution', 'christian/muslim', 'coalition', 'christian', 'egypt', 'muslim']",0,[],0.013089547
9233,1.0,"['jew', 'idiot', 'racist', 'jew', 'army', 'nation', 'non-whites', 'nation', 'jew', 'non-whites', 'nazi', 'evil', 'racist', 'nazi', 'muslim', 'nazi', 'catholic', 'nazi', 'protestant', 'nazi', 'asian', 'nazi', 'arab', 'nazi', 'black_african', 'nazi', 'wow', 'racist', 'france', 'french', 'france', 'border', 'stop', 'people', 'france']",0,[],0.013089547
12686,1.0,"['muslim', 'instruction']",0,[],0.013089547
4010,1.0,"['pearl_harbor', 'day', 'treason', 'evidence', 'treason', 'harbor', 'make', 'fdr', 'act', 'act', 'good', 'people', 'fdr', 'zionist/communist', 'jew', 'people', 'aid', 'comrade', 'stalin', 'aid', 'winston', 'churchill', 'germany', 'war', 'england', 'america', 'war', 'fdr', 'goad', 'german', 'war', 'effort', 'goad', 'japanese', 'war', 'drew', 'germany', 'peal', 'harbor', 'treason', 'american', 'english', 'german_people', 'day']",0,[],0.012789425
985,1.0,"['white', 'population', 'female', 'single', 'female', 'single', 'men', 'woman', 'single', 'men', 'normal', 'white_man', 'woman', 'single', 'female', 'anti-white', 'feminist', 'situation', 'result', 'white_genocide', 'jew', 'murdered_millions', 'white_families']",0,[],0.012789425
9399,1.0,"['question', 'racism', 'charge', 'racist', 'lump', 'wet', 'mud', 'poor', 'white', 'soul', 'charge', 'racist', 'black', 'label', 'bolshevik/zionist/neocon', 'media_mafia', 'racist', 'mexican', 'racist', 'racist', 'action', 'preserve', 'kind', 'jew', 'jew', 'take', 'action', 'kind', 'jew', 'evil', 'love', 'kind', 'evil', 'jew', 'suspect', 'enclave', 'constant', 'investigation', 'fbi', 'atf', 'agent', 'jew', 'employer', 'limit', 'federal_judges', 'system', 'jew', 'employer', 'child', 'buss', 'black', 'neighborhood', 'bolshevik/zionist/neocon', 'goal', 'soil', 'flood', 'primitive', 'population', 'minority', 'homeland', 'primitive', 'benefit', 'specie', 'detriment', 'native', 'born', 'jew', 'jew', 'overpopulation', 'world', 'german', 'day', 'focus', 'hatred', 'jew', 'jew', 'cancer', 'cut', 'wrong', 'specie', 'white_humans', 'specie', 'decline', 'area', 'wetland', 'danger', 'water', 'fowl', 'wetland', 'protection', 'decline', 'area', 'white_homelands', 'protection', 'white_humans', 'builder', 'civilization', 'nation', 'inventor', 'explorer', 'artist', 'teacher', 'genocide', 'human', 'child', 'white_human', 'kind', 'extent', 'benefit']",0,[],0.012789425
10695,1.0,"['hitler', 'medium', 'business', 'run', 'daily', 'news', 'item', 'life', 'time', 'hitler', 'jew', 'hold', 'candle', 'hitler', 'dead', 'hitler', 'jew', 'darkness', 'hitler', 'shin', 'sun', 'hate', 'envy', 'hitler']",0,[],0.012789425
9410,1.0,"['heroic', 'white', 'leader', 'dr._david', 'duke', 'phd', 'zionist', 'jew', 'cnn', 'dec-13', 'join', 'freedom', 'leave', 'comment', 'personal', 'opinion']",0,[],0.012789425
10765,1.0,"['criminal', 'behavior', 'nfl', 'national', 'felon', 'league', 'white_folks', 'give', 'money', 'jew', 'african', 'stop', 'african', 'amount', 'cash', 'crime', 'closer', 'home', 'african', 'neighborhood']",0,[],0.012789425
1520,1.0,"['african', 'inferior', 'jew', 'jews_claim', 'white_nations', 'nation', 'african', 'immigrant', 'protest', 'egypt', 'border']",0,[],0.012789425
9395,1.0,"['john', 'sharpe', 'usn', 'u.s', 'navy', 'regulation', 'state', 'person', 'service', 'organization', 'supremacist', 'rabi', 'removal', 'usn', 'utmost', 'supremacist', 'organization', 'allegation', 'level', 'patriot', 'proof', 'affiliate', 'group', 'u.s', 'navy', 'paranoid', 'rhetoric', 'jew', 'eventhough', 'hebrew', 'view', 'reality', 'pervert', 'true', 'world', 'non-jew', 'mass', 'humanity', 'bent', 'singular', 'intent', 'persecution', 'official', 'victim', 'chosen', 'people', 'evidence', 'patriot', 'affiliate', 'group', 'non-jew', 'israel', 'iraqi', 'war', 'neocon', 'agenda', 'policy', 'zionist', 'state', 'israel', 'charge', 'charge', 'party', 'charge', 'military', 'tribunal', 'military', 'service', 'discharge', 'lap', 'dog', 'charge', 'fine', 'american', 'patriot', 'john', 'sharpe', 'israeli', 'attack', 'liberty', 'force', 'arm', 'israeli', 'today', 'attack', 'liberty', 'proxy', 'usn']",0,[],0.012789425
3690,1.0,"['simple', 'math', 'formula', 'exposure', 'jew', 'anti-semitism', 'jew', 'x', 'anti-semitism', 'x', 'jew', 'x', 'anti-semitism', 'x', 'jew', 'x', 'anti-semitism', 'x']",0,[],0.012789425
9265,1.0,"['reason', 'control', 'money', 'supply', 'save', 'money', 'money', 'save', 'money', 'changer', 'saving', 'steal', 'money', 'inflation', 'theft', 'money', 'manipulation', 'jewish_control', 'mass_medium', 'monopoly', 'voice', 'opinion', 'credit', 'card', 'monopoly', 'american', 'poor', 'turn', 'credit', 'card', 'grocery', 'gasoline', 'interest', 'rate', 'high', 'debt', 'jewish_controlled', 'food', 'supply', 'farmer', 'crop', 'buyer', 'sell', 'distributer', 'sell', 'grocery', 'store', 'jew', 'pay', 'farmer', 'crop', 'net', 'profit', 'work', 'risk', 'part', 'pharmaceutical', 'monopoly', 'basic', 'antibiotic', 'cost', 'high', 'price', 'drug', 'push', 'patient', 'medical_mafia', 'medical_mafia', 'keep', 'america', 'sick', 'profit', 'cure', 'cancer', 'cancer', 'preventative', 'polypharmacy', 'patient', 'drug', 'american', 'white', 'wealth', 'doctor', 'jewish_owned', 'hospital', 'jewish_owned', 'insurance', 'company', 'jewish_owned', 'pharmacy', 'jewish_owned', 'manufacturer', 'drug', 'benefit', 'drug', 'medical', 'condition', 'child', 'jewish_owned', 'corporation', 'monsanto', 'product', 'white_folks', 'jewish_control', 'justice', 'department', 'white_folks', 'justice', 'jewish_control', 'congress', 'law', 'pass', 'law', 'provision', 'jewish_control', 'american', 'entertainment', 'industry', 'influence', 'young', 'white_kids', 'degeneracy', 'drug', 'race_mixing', 'jewish_control', 'system', 'student', 'anti-white', 'indoctrination', 'jewish_control', 'counting', 'vote', 'vote', 'matter', 'count', 'vote', 'problem', 'savage', 'problem', 'open', 'border']",0,[],0.012789425
3660,1.0,"['major', 'city', 'major', 'crime', 'zone', 'full', 'niggros', 'nuke', 'major', 'city', 'washington_d.c', 'detroit', 'los', 'angle', 'jew', 'york_city']",0,[],0.012789425
3627,1.0,"['european', 'jew', 'fear', 'quake', 'fear']",0,[],0.012789425
9442,1.0,"['banner', 'today', 'great', 'job', 'question', 'word', 'banner', 'czarina', 'alexandra', 'evil', 'racist', 'bolshevik', 'jew', 'black', 'day', 'murder', 'execution', 'legality', 'czarina', 'fifty', 'white', 'russian', 'christian', 'mongrel', 'bolshevik', 'jew', 'call', 'murder', 'murder', 'victim', 'child', 'special', 'place', 'hell', 'bolshevik', 'black', 'deed', 'place', 'standard', 'hell', 'jesus', 'call', 'jew', 'time', 'child', 'devil', 'jesus', 'rabies', 'death', 'day', 'rabies', 'revel', 'rabies', 'day', 'murder', 'christ', 'banner', 'kelso', 'word']",0,[],0.012789425
10013,1.0,"['jew', 'slip', 'propaganda', 'brisco', 'county', 'jr', 'show', 'science_fiction', 'western', 'star', 'bruce', 'army', 'darkness', 'campbell', 'anti-white_propaganda', 'blood', 'boil', 'show', 'watch', 'time', 'time']",0,[],0.012789425
3534,1.0,"['america', 'safe', 'jew', 'time', 'home', 'israel', 'jew', 'safe', 'great', 'wall', 'israel', 'housing', 'limited', 'day', 'delay', 'shekel', 'pay']",0,[],0.012789425
3526,1.0,"['lying_jewish', 'medium', 'lie', 'jew', 'hate', 'trump', 'total', 'jewish_control', 'supporter', 'israel', 'hire', 'jew', 'jew', 'demand', 'total', 'control', 'trump', 'jew', 'meltdown', 'melt', 'jew', 'melt']",0,[],0.012789425
9459,1.0,"['black_horde', 'act', 'black', 'toledo', 'ohio', 'orleans', 'tmpl=stor', 'fact', 'news_item', 'happened.html', 'good', 'men', 'toledo', 'nsmcommander', 'hotmail.com', 'effort', 'toledo', 'commie_scum', 'act', 'commie_scum', 'black', 'turn', 'act', 'rampage', 'black_horde', 'government', 'police', 'white_man', 'white_man', 'die', 'matter', 'meaning', 'philistine', 'importance', 'jew', 'hire', 'mercenary', 'army', 'philistine', 'genocide', 'cry', 'infant', 'spar', 'trace', 'history', 'city', 'name', 'today', 'gaza', 'philistine', 'nation', 'white_nation', 'kindness', 'hospitality', 'justice', 'philistine', 'people', 'people', 'people', 'type', 'neighbor', 'today', 'philistine', 'philistine', 'palestine', 'blood', 'white_nation', 'land', 'curse', 'claim', 'land', 'today', 'steal', 'black', 'fashion', 'murder', 'die', 'fight', 'black_horde', 'rampage', 'government', 'think', 'handle', 'situation', 'step', 'black', 'rampage', 'idea', 'black', 'home', 'central_africa', 'rampage', 'orleans', 'call', 'time', 'law_abiding', 'citizen', 'state', 'america', 'action', 'orleans', 'battle', 'cry', 'century', 'prison', 'full', 'carbon', 'copy', 'rampage', 'black', 'prison', 'door', 'raider', 'attack', 'society', 'left', 'fore', 'father', 'time', 'building', 'prison', 'rampage', 'black_horde', 'doom', 'failure', 'criminal', 'turn', 'street', 'society', 'time', 'stop', 'entire', 'system', 'time', 'building', 'prison', 'start', 'building', 'penal_colony', 'africa', 'sender', 'orleans', 'page=971']",0,[],0.012789425
9425,1.0,"['bush', 'enemy', 'nazi', 'contact', 'white_house', 'nazi', 'political_revolution', 'white_humans', 'present', 'day', 'nazi', 'white_humans', 'bush', 'principle', 'white_humans', 'nazi', 'side', 'side', 'side', 'side', 'side', 'difference', 'enemy', 'enemy', 'plain', 'simple', 'bush', 'put', 'white_house', 'puppet', 'boy', 'ether', 'secret', 'jew', 'lap', 'dog', 'zionist/neocon/bolshevik/', 'traitor', 'america', 'fact', 'position', 'wrong', 'contact', 'white_house', 'en', 'espa', 'ol', 'bush', 'mexico', 'geography', 'official', 'language', 'state', 'america', 'english', 'safe', 'side', 'www.whitehouse.gov', 'p.s', 'think', 'life', 'casa', 'blanca', 'president']",0,[],0.012789425
4182,1.0,"['niggro', 'jew', 'liberal_race', 'traitor', 'mexican', 'criminal']",0,[],0.012789425
9391,1.0,"['frail', 'white', 'girl', 'child', 'woman', 'play', 'basketball', 'neighborhood', 'park', 'large', 'full', 'black', 'street', 'thug', 'beat', 'trespass', 'territory', 'girl', 'er', 'die', 'news', 'worthy', 'victim', 'hate_crime', 'white', 'point', 'note', 'black', 'street', 'thug', 'beat', 'white', 'girl', 'savage', 'black', 'street', 'thug', 'racist', 'incident', 'jew', 'jew', 'moral', 'murder', 'non-jew', 'harvest', 'organ', 'organ', 'transplant', 'important_point', 'note', 'jew', 'statement', 'black', 'racist', 'asian', 'racist', 'call', 'white_man', 'media_mafia', 'white_man', 'love', 'race', 'race', 'builder', 'nation', 'creator', 'civilization', 'race', 'brave', 'white_man', 'white_woman', 'white_children', 'white_man', 'fight', 'death', 'race', 'damn', 'call']",0,[],0.012789425
9496,1.0,"['lesson', 'merkel', 'damage', 'idiot', 'leftist', 'jew', 'merkel', 'iron', 'curtain', 'communist', 'east', 'germany', 'berlin', 'wall', 'fell', 'communist', 'infection', 'germany', 'merkel', 'communist', 'idiot', 'leftist', 'supporter', 'murder', 'europe', 'infection', 'body', 'nation', 'spread', 'secession', 'commiefornia']",0,[],0.012789425
10220,1.0,"['black', 'supervisor', 'black', 'department', 'time', 'employee', 'job', 'department', 'black', 'jew', 'jew', 'black', 'black', 'jew', 'way']",0,[],0.012789425
118,1.0,"['jew', 'cross', 'map', 'hebrew', 'cross', 'river', 'ur', 'hebrew', 'oral_tradition', 'brag', 'city', 'iraq', 'world', 'map', 'abraham', 'stole', 'show', 'ur', 'city', 'hebrew', 'oral_tradition', 'clam', 'true', 'trust', 'hebrew', 'oral_tradition', 'fix', 'origin', 'hebrew', 'hebrew', 'left', 'city', 'map', 'wasteland', 'desert', 'iraq', 'raid', 'caravan', 'bandit']",0,[],0.012789425
10350,1.0,"['hebrew', 'arab', 'bandit', 'city', 'ur', 'iraq', 'today', 'turk', 'arab', 'jew', 'anti-arab', 'race', 'hate', 'non-jew', 'jew', 'peace']",0,[],0.012789425
10392,1.0,"['white_folks', 'start', 'race_war', 'communist', 'la', 'razza', 'communist', 'arm', 'black_panther', 'black', 'communist', 'turn', 'mexican', 'south', 'american', 'bandit', 'fear', 'attempt', 'murder', 'white_children', 'mexican', 'attack', 'america', 'attempt', 'jewish_communist', 'revolution', 'attempt', 'communist', 'arm', 'evil', 'mexican_bandits', 'jew', 'mexican', 'reach']",0,[],0.012789425
4721,1.0,"['multiculturalism', 'run', 'jewish_communists', 'criminal', 'jew', 'police', 'force', 'force', 'white', 'professional', 'incompetent']",0,[],0.012789425
393,1.0,"['movie', 'rabbi', 'black', 'jew', 'banker', 'accountant', 'doctor', 'hollywood', 'type', 'kiss', 'foot', 'black', 'rabbi']",0,[],0.012789425
484,1.0,"['george_washington', 'year', 'plantation', 'war', 'general', 'george_washington', 'commander', 'revolutionary', 'army', 'revolution', 'group', 'steal', 'power', 'group', 'order', 'lodge', 'washington', 'mason', 'ben_franklin', 'pretend', 'plan', 'pull', 'rug', 'american', 'nation', 'american', 'nation', 'england', 'jewish_control', 'america', 'jewish_control', 'america', 'christian', 'zionist', 'race_traitors', 'turn', 'jew']",0,[],0.012789425
4431,1.0,"['ben', 'ammi', 'ben', 'israel', 'jew', 'wail', 'wail', 'wall']",0,[],0.012789425
518,1.0,"['terrorist', 'arrest', 'nyc', 'criminal', 'activity', 'drug', 'bomb', 'newspaper', 'couple', 'neo-nazis', 'reference', 'jew', 'city', 'couple', 'aaron', 'greene', 'morgan', 'gliedman', 'explosion', 'possession', 'youtube']",0,[],0.012789425
10479,1.0,"['jew', 'white', 'brown', 'slave', 'sail', 'africa', 'black_slaves', 'black_african', 'slave_owner', 'herd', 'slaughter', 'extra', 'slave', 'male', 'female', 'sex', 'jew', 'extra', 'slave', 'slaughter', 'black_african', 'slave', 'america', 'inferior', 'normal', 'african_slaves', 'descendant', 'slave', 'work', 'ancestor']",0,[],0.012789425
6244,1.0,"['anti-whites', 'protest', 'white', 'civil_right', 'segregate', 'separate', 'group', 'black', 'power', 'salute', 'anti-whites', 'black', 'power', 'brown', 'power', 'great', 'white', 'power', 'white', 'group', 'white', 'social', 'group', 'african', 'wear', 'brass', 'knuckle', 'neck', 'area', 'weapon', 'agitator', 'left', 'dress', 'palestinian', 'disguise', 'jew', 'white_genocide', 'genocide', 'hang', 'red', 'neck', 'leftist', 'today', 'term', 'red', 'neck', 'slur', 'men', 'origin', 'term', 'communist', 'wear', 'red', 'communist', 'scarf', 'neck', 'communist', 'aid', 'mass_murder', 'communist', 'mass_murderer', 'xenophobia', 'kill', 'xenophobia', 'kill', 'mix', 'people', 'kill', 'race', 'riot', 'race', 'hate_crimes', 'hate', 'discrimination', 'white', 'supremacy', 'impossible', 'brown', 'hate', 'separate']",0,[],0.012789425
4396,1.0,"['jew', 'mistake', 'america', 'european', 'nation', 'home', 'desert', 'jew', 'israel', 'invader']",0,[],0.012789425
9224,1.0,"['jew', 'safe', 'space', 'act', 'lawyer', 'employ', 'white_nations', 'dollar', 'blood', 'jew', 'safe', 'space', 'israel', 'safety', 'housing', 'roof', 'delay', 'shekel', 'pay']",0,[],0.012789425
4341,1.0,"['jew', 'leftist', 'die', 'die', 'step', 'step', 'die', 'death', 'shot', 'set', 'suspicion', 'party', 'party']",0,[],0.012789425
4325,1.0,"['time', 'black', 'elect', 'remove', 'back', 'regard', 'jew', 'mexican', 'white_man', 'single']",0,[],0.012789425
9216,1.0,"['tyson', 'fury', 'hold', 'series', 'spectator', 'event', 'charity', 'banker', 'month', 'jew', 'fair']",0,[],0.012789425
849,1.0,"['integration', 'child', 'texas_town', 'white_neighborhood', 'grade', 'school', 'white', 'taxpayer', 'white_children', 'school', 'parade', 'small', 'minority', 'white_children', 'history', 'culture', 'pride', 'federal_judge', 'government', 'jew', 'pay', 'full', 'interest', 'demand']",0,[],0.012789425
852,1.0,"['mexican', 'jew', 'insult', 'fight', 'victim']",0,[],0.012789425
9387,1.0,"['generation', 'z', 'point', 'doom', 'generation', 'white_humans', 'born', 'over-reaching', 'fashion', 'jew', 'media_mafia', 'name', 'generation', 'white_children', 'generation', 'x', 'z', 'fight', 'win', 'today']",0,[],0.012789425
1521,1.0,['jew'],0,[],0.012789425
3520,1.0,"['mel', 'brook', 'movie', 'play', 'month', 'moment', 'note', 'degradation', 'hero', 'tradition', 'hollywood', 'jew', 'hat', 'hollywood', 'movie', 'hero', 'real', 'hero', 'men', 'valor', 'great', 'deed', 'hero', 'phony', 'hollywood', 'jew']",0,[],0.012789425
9500,1.0,"['hitler', 'leader', 'people', 'leader', 'people', 'people', 'people', 'jew', 'cry', 'evil', 'compromise', 'good', 'jew', 'today', 'jew', 'palestinian']",0,[],0.012789425
2090,1.0,"['jew', 'track', 'market', 'demand', 'kill', 'folk']",0,[],0.012789425
12354,1.0,"['government', 'jew', 'christian', 'christian']",0,[],0.012789425
11609,1.0,"['bad', 'medium', 'hillary_clinton', 'god', 'commie', 'think', 'medium', 'american_citizens', 'bad', 'medium', 'dikish', 'commie', 'boot', 'licker', 'jew', 'caution', 'video', 'feature', 'hillary_clinton']",0,[],0.012789425
1876,1.0,"['trump', 'hold', 'press', 'conference', 'church', 'individual', 'medium', 'sermon', 'admittance', 'watch', 'jew', 'exorcism', 'church', 'expose', 'truth', 'blood', 'suck', 'vampire', 'expose', 'daylight', 'trump', 'jr', 'put', 'holy', 'water', 'squirt', 'gun', 'watch', 'jew', 'smoke', 'sizzle', 'bet', 'jew', 'sound', 'fry', 'bacon', 'sizzle', 'song']",0,[],0.012789425
1511,1.0,"['dollar', 'counterfeit', 'israeli', 'israeli', 'jew', 'arrest', 'part', 'counterfeit', 'denomination', 'dollar', 'bill', 'worth', 'produce', 'printing', 'plate', 'jew', 'reserve', 'work', 'dollar', 'bill', 'print', 'fact', 'jew', 'u.s', 'charge', 'spread', 'fake', 'bill', 'bloomberg']",0,[],0.012789425
8172,1.0,"['issue', 'white_folks', 'survival', 'world_wide', 'genocide', 'white_children', 'resistance', 'key', 'focus', 'focus', 'perpetrator', 'genocide', 'race_traitors', 'jew', 'criminal_alien', 'invader', 'focus', 'genocide', 'white_folks', 'civil_right', 'facet', 'genocide', 'resistance', 'civil_right', 'focus', 'civil_right', 'race_traitors', 'jew', 'criminal_alien', 'invader', 'focus', 'struggle', 'civil_right', 'white_genocide', 'man', 'ocean', 'focus', 'push', 'boat', 'focus', 'shore', 'survival', 'focus', 'survival', 'resistance', 'civil_right']",0,"['civil_rights', 'resistance', 'civil_rights']",0.012789425
1844,1.0,"['situation', 'ukraine', 'wrong', 'nazi', 'strut', 'ant', 'ant', 'hill', 'ukraine', 'jew', 'harm', 'nazi', 'patriot', 'opposition', 'investigation', 'nazi', 'patriot', 'puppet', 'kill', 'white', 'neighbor']",0,[],0.012789425
1513,1.0,"['jew', 'jew', 'world_wide', 'count', 'black_african', 'jew', 'black_african', 'jew', 'light', 'skin', 'jews_claim', 'population', 'total', 'jew', 'white_nations', 'construct', 'black_african', 'jew', 'inferior', 'stupid', 'trouble', 'maker', 'communist_utopia', 'israel', 'homeland', 'jew', 'statement', 'leader']",0,[],0.012789425
1770,1.0,"['jew', 'burning', 'israeli', 'flag', 'jerusalem']",0,[],0.012789425
1712,1.0,"['zealot', 'travel', 'africa', 'convert', 'savage', 'primitive_black', 'african', 'real', 'jew', 'abraham', 'father', 'jew', 'ashkenazi', 'pretender', 'pretend', 'convert', 'join', 'real', 'jew', 'wealth', 'power', 'ashkenazi', 'jew', 'black_african', 'jew', 'jew']",0,[],0.012789425
1709,1.0,"['jew', 'white_folks', 'gun_control', 'kill']",0,[],0.012789425
1708,1.0,"['jew', 'non-jew', 'mass_medium', 'target', 'audience', 'jew', 'mass_medium', 'target', 'audience', 'non-jew']",0,[],0.012789425
1678,1.0,"['jew', 'birth', 'child']",0,[],0.012789425
1674,1.0,"['black', 'jew', 'ethiopia', 'jew', 'black', 'ethiopian', 'jew']",0,[],0.012789425
1662,1.0,"['jew', 'white_privilege', 'white', 'people', 'kill', 'white_privilege']",0,[],0.012789425
1656,1.0,"['jew', 'good', 'trump', 'bad']",0,[],0.012789425
1652,1.0,"['jew', 'kill', 'arab', 'hebrew', 'hebrew', 'arab']",0,[],0.012789425
1557,1.0,"['germany', 'turn', 'jew']",0,[],0.012789425
1556,1.0,"['faith', 'god', 'god', 'god', 'god', 'oral_tradition', 'jew', 'atheist', 'ancient', 'text', 'religious', 'text', 'major', 'religion', 'rabbi', 'regard', 'talmud', 'rabbi', 'law', 'talmud', 'religious', 'document', 'document']",0,[],0.012789425
1533,1.0,"['hillary', 'american', 'committee', 'organization', 'jew', 'hillary']",0,[],0.012789425
1443,1.0,"['flip', 'burger', 'design', 'white', 'teenager', 'money', 'job', 'experience', 'job', 'mean', 'family', 'work', 'paycheck', 'drug', 'alcohol', 'work', 'job', 'demand', 'top', 'pay', 'white_kid', 'job', 'shift', 'notice', 'mcdonalds', 'start', 'good', 'product', 'price', 'profit', 'poor', 'product', 'price', 'profit', 'job', 'tax', 'revenue', 'damage', 'economy', 'california', 'bankrupt', 'mexican', 'bankrupt', 'jew', 'white', 'tax_payers', 'system', 'limp']",0,[],0.012789425
10312,1.0,"['gas', 'jew', 'gas', 'chamber']",0,[],0.012789425
10927,1.0,"['zionist/communist/neocon', 'jew', 'war', 'hero', 'honor', 'cemetery', 'isralie_empire', 'hero', 'full', 'blood', 'jew', 'jew', 'light', 'fact', 'honor', 'war', 'hero', 'dug', 'stink', 'corpse', 'toss', 'trash', 'dump', 'clear']",0,[],0.012789425
2167,1.0,"['watch', 'disney', 'movie', 'sky', 'high', 'thought', 'walt', 'miss', 'anti-white', 'behavior', 'child', 'teenager', 'bad', 'people', 'show', 'bad', 'good', 'people', 'show', 'good', 'wigger', 'comedy', 'relief', 'wiggers', 'respect', 'good', 'reason', 'jew', 'project', 'jewish_propaganda', 'time', 'time', 'disney', 'movie', 'child', 'watch']",0,[],0.012789425
3326,1.0,"['jew', 'nyt', 'israel', 'open', 'border']",0,[],0.012789425
2648,1.0,"['black_slaves', 'jew', 'america', 'ghana', 'government', 'ghana', 'decade', 'african', 'native', 'african', 'ghana', 'return', 'african', 'high_paying', 'job', 'house', 'act', 'african', 'night', 'home']",0,[],0.012789425
10780,1.0,"['white_woman', 'dare', 'wave', 'cheer', 'crowd', 'mass_medium', 'flip', 'brown', 'give', 'power', 'salute', 'scream', 'kill', 'whitey', 'find', 'dandy', 'medium', 'jew', 'smile']",0,[],0.012789425
3314,1.0,"['jew', 'race', 'race_mixing', 'couple', 'wait', 'mom', 'dad', 'grand', 'child', 'dem', 'jew', 'gittin', 'reel']",0,[],0.012789425
9970,1.0,"['put', 'jew', 'seal', 'door', 'wall', 'fly', 'zone', 'quarantine', 'coast', 'blockade']",0,[],0.012789425
12073,1.0,"['jew', 'israel']",0,[],0.012789425
9600,1.0,"['marvel', 'anti-white', 'read', 'comic', 'anti-white', 'jew', 'propaganda', 'read', 'eye', 'open', 'mortal', 'white_folks', 'product', 'poison']",0,[],0.012789425
8601,1.0,"['sigmund', 'freud', 'sigismund', 'schlomo', 'freud', 'jew', 'personal', 'correspondence', 'freud', 'white_folks', 'freud', 'jew', 'attribute', 'neurotic', 'behavior', 'adult', 'woman', 'root', 'men', 'woman', 'young', 'girl', 'infant', 'freud', 'theory', 'neurosis/sexual', 'deviancy', 'fit', 'law', 'state', 'child', 'age', 'jew', 'definition', 'sex', 'child', 'age', 'count', 'sex', 'jew', 'carl', 'jung', 'rational', 'idea', 'human', 'behavior', 'human', 'illness', 'freud', 'jung', 'freud', 'form', 'cabal', 'career', 'jung', 'cabal', 'match', 'signet', 'ring', 'jung', 'benefit', 'white_humans', 'freud', 'set', 'jung', 'jung', 'legacy', 'jew', 'freud']",0,[],0.012789425
9688,1.0,"['jew', 'control', 'medium', 'gi', 'jew']",0,[],0.012789425
11112,1.0,"['age', 'pagan', 'call', 'qabala', 'jew', 'relationship', 'word', 'word', 'number', 'equivalent', 'word', 'computer', 'program', 'aeon', 'english', 'qabala', 'test', 'result', 'increase', 'life', 'force', 'ar', 'increase', 'white', 'black', 'rifle', 'wipeout', 'armageddon', 'surprise', 'god', 'halo', 'david_duke', 'focus', 'hercules', 'mentor', 'speaker', 'teacher', 'wikigram', 'life', 'rune', 'adolph', 'hitler', 'victory', 'death', 'satan', 'dragon', 'knight', 'eagle', 'sight', 'man', 'atlan', 'great', 'law', 'day', 'hour', 'living', 'bob_whitaker', 'living', 'water', 'overcometh', 'antibody', 'john', 'law', 'glory', 'fox', 'gun', 'news', 'star', 'thor', 'black', 'portal', 'thread', 'email', 'cross', 'flame', 'good_luck', 'stormfront', 'king', 'king', 'architect', 'blood', 'steel', 'body', 'warrior', 'campfire', 'controversy', 'echo', 'flesh', 'morning', 'star', 'open', 'portal', 'spirit', 'kingdom', 'white', 'water', 'dixie', 'paradise', 'lion', 'red', 'dragon', 'witness', 'divide', 'world', 'balance', 'child', 'peach', 'alarm', 'door', 'call', 'knight', 'soldier', 'comrade', 'fight', 'holy', 'reign', 'martyr']",0,['new_world'],0.012789425
3148,1.0,"['mass', 'shoot', 'town', 'walmart', 'dead', 'wound', 'miss', 'add', 'information', 'mass_medium', 'white_folks', 'work', 'walmart', 'store', 'work', 'major', 'employer', 'area', 'policy', 'hire', 'white_man', 'find', 'job', 'african', 'begin', 'shoot', 'store', 'open', 'white', 'person', 'black', 'shoot', 'skill', 'miss', 'shot', 'greeter', 'white_man', 'job', 'anti-white', 'discrimination', 'point_blank', 'range', 'white_person', 'white_woman', 'wound', 'bad', 'hospital', 'foot', 'greeter', 'work', 'checkout', 'lane', 'greeter', 'station', 'white_person', 'white_woman', 'foot', 'hit', 'white_woman', 'walmart', 'policy', 'employee', 'risk', 'life', 'store', 'security', 'open', 'hour', 'day', 'living', 'work', 'pay', 'target', 'black', 'feel', 'shoot', 'white_folks', 'white_male', 'employee', 'range', 'stop', 'african', 'shot', 'fire', 'store', 'duck', 'fire', 'white_woman', 'shot', 'african', 'beast', 'crime', 'walmart', 'policy', 'demand', 'employee', 'target', 'anti-whites', 'military', 'train', 'primitive', 'american', 'jewdicial_system', 'creature', 'year', 'mass_medium', 'tell', 'white_folks', 'brown', 'woman', 'child', 'descendant', 'beast', 'america', 'mistake', 'jew', 'primitive', 'give', 'special', 'privilege', 'american', 'store', 'close', 'yesterday', 'blood', 'need', 'clean', 'open', 'today', 'business', 'employee', 'shed', 'blood', 'pay', 'survival', 'age', 'employee', 'move', 'parent', 'pay', 'rent', 'high']",0,[],0.012789425
10150,1.0,"['gun_show', 'time', 'high_capacity', 'carry', 'piece', 'magic_niggro', 'trick', 'video', 'criminal', 'niggros', 'open', 'armed_citizens', 'communist', 'idiot', 'race_traitors', 'good', 'child', 'target', 'practice', 'death', 'row', 'location', 'liberal_race', 'traitor', 'justice', 'smack', 'da', 'hood']",0,[],0.011600982
9344,1.0,"['cnn', 'communist', 'news', 'network', 'fake', 'news', 'fake', 'feminist', 'rap', 'white_woman', 'rap', 'woman', 'communist_radical', 'feminist', 'movement', 'white_man', 'woman', 'white_man', 'world', 'safety', 'right', 'woman']",0,[],0.011600982
9244,1.0,"['head', 'security', 'agency', 'interview', 'press', 'warning', 'traitor', 'incompetent', 'government', 'merkel', 'case', 'incompetence', 'people', 'merkel', 'communist', 'agent', 'act', 'genocide']",0,[],0.011600982
10178,1.0,"['alert', 'state_rifle', 'association', 'democratic_party', 'american', 'communist_party', 'anti-american', 'anti-2nd', 'amendment', 'candidate', 'run', 'senator', 'state', 'senate', 'district', 'snake', 'traitor', 'bill_clinton', 'fund', 'raiser', 'communist', 'puppet', 'candidate', 'chris', 'bell', 'communist', 'texas', 'backing', 'puppet', 'candidate', 'chris', 'bell', 'state', 'senate', 'district', 'portion', 'brazoria', 'chamber', 'fort', 'bend', 'galveston', 'harris', 'jefferson', 'county', 'chris', 'bell', 'gun', 'grab', 'commie', 'gun', 'gun', 'grab', 'commie', 'idiot', 'race_traitors', 'respect', 'gun', 'bullet', 'length', 'rope']",0,[],0.011600982
9964,1.0,"['castro', 'communist', 'mass_murderer', 'jewish_communist', 'anti-white', 'mass_murder', 'soviet_union', 'launch', 'strike', 'genocide', 'troop', 'africa', 'black', 'murder', 'innocent_white', 'folk', 'white_man', 'defeat', 'army', 'anti-white', 'lie', 'mass_medium', 'report', 'castro', 'call', 'anti-white', 'mass', 'murder', 'communist']",0,[],0.011600982
10127,1.0,"['update', 'communist', 'dupe', 'texas', 'college', 'campus']",0,[],0.011600982
9842,1.0,"['loony_leftists', 'throw', 'fit', 'criminal', 'communist_china', 'drug', 'loony_leftists', 'love', 'chinese', 'communist', 'chinese', 'communist', 'execution', 'drug', 'conviction']",0,[],0.011600982
10115,1.0,"['washington_d.c', 'communist', 'fatcat', 'h.r', 'clinton', 'list', 'nation', 'visit', 'nation', 'texas', 'washington', 'free', 'nation']",0,[],0.011600982
8279,1.0,"['russian', 'opinion', 'kenyan', 'communist', 'russian', 'communist', 'expert', 'opinion', 'nr=1', 'v=e7jkkztpzh4']",0,[],0.011600982
9804,1.0,"['white_farmers', 'world', 'communist_china', 'communist', 'north_korea', 'white_farmers', 'peasant']",0,[],0.011600982
9740,1.0,"['communist', 'free', 'flow', 'information', 'limit', 'associate', 'control', 'communist', 'system', 'mafia', 'small', 'elite', 'control', 'slave', 'communism', 'total', 'control', 'total', 'submission']",0,[],0.011600982
5961,1.0,"['white_house', 'press', 'secretary', 'jay', 'carney', 'true', 'believer', 'kenyan', 'communist', 'children_live', 'excess', 'america', 'jay', 'carney', 'soviet', 'era', 'communist_propaganda', 'poster', 'frame', 'hang', 'home', 'true', 'believer', 'fan', 'international_jewish', 'communism', 'white_children', 'million', 'loony_leftists', 'reality', 'propaganda', 'spite', 'fact']",0,[],0.011600982
9317,1.0,"['gun', 'grab', 'jewish_communists', 'defeat', 'democracy', 'citizen', 'instance', 'commie', 'citizen', 'murder', 'communist', 'alert', 'state_rifle', 'association', 'democratic_party', 'american', 'communist_party', 'anti-american', 'anti-2nd', 'amendment', 'candidate', 'run', 'senator', 'state', 'senate', 'district', 'snake', 'traitor', 'bill_clinton', 'fund', 'raiser', 'communist', 'puppet', 'candidate', 'chris', 'bell', 'communist', 'texas', 'backing', 'puppet', 'candidate', 'chris', 'bell', 'state', 'senate', 'district', 'portion', 'brazoria', 'chamber', 'fort', 'bend', 'galveston', 'harris', 'jefferson', 'county', 'chris', 'bell', 'gun', 'grab', 'commie', 'gun', 'gun', 'grab', 'commie', 'idiot', 'race_traitors', 'respect', 'gun', 'bullet', 'length', 'rope']",0,[],0.011600982
10652,1.0,"['government', 'keep', 'russia', 'ww_ii', 'russian', 'communist', 'pow', 'ally', 'russia', 'release', 'russian', 'usaf', 'pilot', 'pow', 'cold', 'war', 'china', 'american', 'pow', 'ww_ii', 'public', 'year', 'watch', 'tv', 'news_item', 'government', 'act']",0,"['ww_ii', 'cold_war', 'ww_ii']",0.011600982
4146,1.0,"['california', 'drought', 'bad', 'state', 'water', 'sound', 'commiefornia', 'state', 'communist', 'government', 'drought', 'citizen', 'farm', 'state', 'water', 'communist']",0,[],0.011600982
11167,1.0,"['loony_leftists', 'leftist', 'jewish_communist', 'leader', 'call', 'loony_leftists', 'fit', 'title', 'communist', 'revolution', 'take', 'place', 'wall', 'cuba', 'letter', 'castro']",0,['communist_revolution'],0.011600982
10921,1.0,"['berkeley', 'communist', 'indoctrination', 'center', 'supply', 'safe', 'environment', 'young', 'adult', 'price', 'institution', 'administration', 'violence', 'destruction', 'arrest', 'endangerment', 'student', 'law']",0,[],0.011600982
10786,1.0,"['man', 'support', 'trump', 'communist', 'violence', 'san', 'jose']",0,[],0.011600982
3553,1.0,"['mention', 'ak-47', 'fit', 'russian', 'swarm', 'tactic', 'ant', 'swarm', 'ant', 'hill', 'ak', 'short', 'range', 'train', 'troop', 'american', 'tactic', 'german', 'tactic', 'berlin', 'russian', 'swarm', 'troop', 'german', 'number', 'revise', 'number', 'revise', 'review', 'number', 'russian', 'swarm', 'german', 'unknown', 'number', 'capture', 'german', 'battle', 'russian', 'swarm', 'death', 'german', 'make', 'fight', 'retreat', 'delay', 'communist', 'child', 'escape', 'communist', 'rape', 'torture', 'murder', 'side', 'tactic']",0,[],0.011600982
853,1.0,"['rumor', 'international_jewish', 'communism', 'day', 'day', 'saturday', 'communist', 'orginizing', 'criminal_alien', 'invader', 'dallas', 'riot', 'info']",0,[],0.011600982
1051,1.0,"['black', 'panther', 'cat', 'type', 'black_panther', 'homosexual', 'black', 'communist', 'dupe', 'black_panther', 'murder', 'communist', 'control', 'large', 'black', 'cat', 'sighting', 'real', 'paw', 'print', 'black', 'panther', 'sight', 'track', 'inch', 'fair', 'size', 'cat', 'sight']",0,[],0.011600982
4105,1.0,"['russian', 'black', 'communist', 'maximka']",0,[],0.011600982
2995,1.0,"['communist', 'homosexual', 'pedophile', 'medium', 'milo', 'pedophile', 'hypocrite']",0,[],0.011600982
13086,1.0,"['tea_party', 'candidate', 'sharron', 'angle', 'communist', 'dupe', 'reid']",0,[],0.011600982
10413,1.0,"['punk', 'musician', 'anti-white', 'communist', 'punk']",0,[],0.011600982
12263,1.0,"['berlin', 'wall', 'prison', 'wall', 'communist', 'government', 'wall', 'citizen/slaves', 'escape']",0,[],0.011600982
12409,1.0,"['communism', 'kgb_officer', 'soviet', 'military', 'officer', 'yuri', 'conscience', 'work', 'communist', 'wrong', 'wrong', 'yuri', 'defect', 'west', 'leave', 'friend', 'homeland', 'felt', 'bezmenov', 'aka', 'thomas', 'schuman', 'tell', 'fact', 'international_jewish', 'communism', 'high', 'rank', 'kgb_officer', 'jewish_communism']",0,[],0.011600982
13482,1.0,"['victoria', 'jackson', 'communist', 'white_house']",0,[],0.011600982
5913,1.0,"['congress', 'pentagon', 'care', 'criminal', 'war', 'child', 'addict', 'heroine', 'die', 'blood', 'disease', 'needle', 'funny']",0,[],0.0102591915
9703,1.0,"['war', 'land', 'german', 'superstate', 'cost', 'drei', 'wie', 'br']",0,[],0.0102591915
1341,1.0,"['yankee', 'permit', 'lincoln', 'war', 'lincoln', 'jail', 'newspaper', 'men', 'supreme_court', 'chief', 'justice', 'entire', 'state', 'legislature', 'person', 'lincoln', 'evil', 'war', 'lifetime', 'tyrant', 'lincoln', 'tyrant', 'rest', 'god_bless', 'john', 'wilks', 'booth', 'yankee', 'fact', 'today', 'excuse', 'child', 'free', 'government', 'occupation']",0,"['murderous_war', 'evil_war']",0.0102591915
8924,1.0,"['business', 'government', 'pearl_harbor', 'plan', 'harbor', 'gulf', 'tonkin', 'incident', 'event', 'young', 'boy', 'spanish', 'us', 'maine', 'ship', 'war', 'philippine', 'hawaiian', 'island', 'chain', 'lusitania', 'passenger', 'ocean', 'liner', 'load', 'weapon', 'war', 'escort', 'government', 'war', 'loot', 'european', 'nation', 'evidence', 'iraq', 'initiate', 'war', 'base', 'pakistan', 'name', 'al_qaeda', 'al_ciada', 'government', 'afghanistan', 'al_qaeda', 'pakistan', 'global_warming', 'evidence', 'government', 'fight', 'republican', 'democrat', 'side', 'serve', 'agenda', 'conflict', 'debt', 'control', 'lie', 'control', 'war', 'control', 'dependence', 'control', 'give']",0,"['corporate_war', 'corporate_war', 'control_war']",0.0102591915
9757,1.0,"['jack', 'london', 'war', 'war', 'man', 'politician', 'capitalist', 'place', 'bohemian', 'grove', 'rich', 'slip', 'secret', 'plan', 'jack', 'london', 'left', 'note', 'play', 'orchestra', 'orchestra', 'pit', 'armel-and.html', 'y_magazine.htm', 'jack', 'london', 'iron', 'heel', 'plan', 'intention', 'germany', 'people', 'book', 'plan', 'germany', 'december', 'perl', 'harbor', 'dupe', 'white_western', 'world', 'germany', 'blame', 'attack', 'jack', 'london', 'air', 'plan', 'action', 'power', 'germany', 'war']",0,[],0.0102591915
1326,1.0,"['stand', 'fast', 'mississippian', 'senator', 'commission', 'army', 'war', 'today', 'senator', 'nation', 'state', 'mississippi', 'union', 'nation', 'state', 'dissolve', 'senator', 'role', 'major', 'battle', 'buena', 'vista', 'mexican-american', 'war', 'senator', 'jefferson_davis', 'men', 'command', 'shout', 'stand', 'fast', 'mississippian', 'face', 'cavalry', 'men', 'foot', 'stop', 'mexican', 'cavalry', 'charge', 'turn', 'tide', 'battle', 'senator', 'washington_d.c', 'today', 'stand', 'face', 'cavalry', 'charge', 'stand', 'face', 'charge', 'court', 'law', 'battle', 'field', 'rifle', 'carry', 'battle', 'model', 'whitney', 'mississippi', 'rifle', 'day', 'senator', 'jefferson_davis', 'regiment', 'mississippi', 'rifle', 'monterrey', 'hero', 'real', 'hero', 'men', 'great', 'deed', 'valor', 'hero', 'phony', 'word', 'stand', 'fast', 'mississippian', 'southerner', 'end', 'field', 'victory', 'deo_vindice']",0,['battle_of_buena_vista'],0.0102591915
12998,1.0,"['ron_paul', 'war', 'semantics', 'monkey', 'george', 'bush', 'kenyan']",0,[],0.0102591915
9484,1.0,"['sound', 'sexist', 'society', 'woman', 'woman', 'leader', 'woman', 'choice', 'lead', 'military', 'war', 'nation', 'tough', 'negotiator', 'choice', 'winner', 'union', 'job']",0,[],0.0102591915
9394,1.0,"['mention', 'ara', 'bolshevik', 'criminal', 'camp', 'war', 'time', 'german', 'authority', 'victim', 'grip', 'bolshevik', 'hand', 'victim', 'number', 'innocent', 'wrong', 'majority', 'peace', 'time', 'non-jew', 'ara', 'type', 'suspicion', 'fate', 'chosen', 'people', 'fate', 'concern', 'ara', 'type']",0,[],0.0102591915
8057,1.0,"['washington', 'cross', 'delaware', 'day', 'washington', 'begin', 'military', 'career', 'army', 'battle', 'command', 'surprise', 'attack', 'guerrilla', 'style', 'end', 'military', 'career', 'army', 'battle', 'battle', 'french', 'indian', 'war', 'french', 'protest', 'attack', 'washington', 'command', 'pass', 'washington', 'slected', 'command', 'army', 'fight', 'war', 'military', 'etiquette', 'war', 'army', 'field', 'total', 'defeat', 'time', 'run', 'washington', 'hessian', 'soldier', 'winter', 'delaware', 'river', 'washington', 'army', 'commander', 'field', 'system', 'spy', 'army', 'american', 'civilian', 'washington', 'hessian', 'christmas', 'attack', 'drunk', 'work', 'blizzard', 'hit', 'day', 'cold', 'washington', 'men', 'cross', 'river', 'dark', 'blizzard', 'day', 'begin', 'range', 'house', 'house', 'fight', 'show', 'hessian', 'mercy', 'opinion', 'hessian', 'victory', 'attack', 'war', 'washington', 'guerrilla', 'fighter', 'fight', 'war', 'military', 'etiquette', 'put', 'road', 'victory', 'military', 'force']",0,['indian_war'],0.0102591915
10947,1.0,"['lego_star', 'war', 'empire', 'strike', 'fast', 'pace', 'action', 'comedy', 'child', 'pc', 'boy', 'boy', 'girl', 'girl', 'bathroom']",0,[],0.0102591915
13128,1.0,"['ron_paul', 'lew', 'rockwell', 'fed', 'war', 'empire', 'federal_reserve', 'international_bankers', 'tyranny', 'empire']",0,[],0.0102591915
6639,1.0,"['federal_government', 'claim', 'peace', 'talk', 'terrorist', 'organization', 'government', 'peace', 'talk', 'banker', 'war', 'syria', 'iran', 'troop', 'afghanistan']",0,[],0.0102591915
10215,1.0,"['spending', 'time', 'aol', 'poll', 'ron_paul', 'lincoln', 'war', 'answer', 'comment', 'page', 'page', 'begin', 'interest', 'real', 'discussion', 'check', 'government', 'occupation', 'deo', 'vindice', 'r/127', 'comment']",0,['war'],0.0102591915
4692,1.0,"['congratulation', 'chicago', 'shooting', 'gun_control', 'capital', 'america', 'time', 'high', 'rate', 'fatality', 'shooting', 'improvement', 'syrian', 'war', 'zone', 'shooting', 'chicago']",0,[],0.0102591915
781,1.0,"['place', 'loyalty', 'federal_government', 'child', 'future', 'answer', 'question', 'ron_paul', 'sick', 'medical', 'marijuana', 'put', 'government', 'drinking', 'raw', 'milk', 'american', 'manufacturer', 'rope', 'product', 'hemp', 'american', 'gold', 'silver', 'tender', 'mandate', 'constitution', 'germany', 'repatriate', 'gold', 'fed', 'trust', 'u.s', 'dollar', 'supremacy', 'begin', 'wane', 'leader', 'audit', 'gold', 'american', 'light', 'bulb', 'buy', 'tsa', 'permit', 'abuse', 'right', 'american', 'travel', 'air', 'mandatory', 'sentence', 'life', 'crime', 'victim', 'drug', 'law', 'government', 'commode', 'home', 'suicide', 'aipac', 'drug', 'war', 'failure', 'people', 'right', 'authority', 'drug', 'prison', 'make', 'entire', 'society', 'prison', 'problem', 'sacrifice', 'border', 'dispute', 'strife', 'root', 'border', 'world-the', 'mexico', 'congress', 'give', 'prerogative', 'executive', 'branch', 'change', 'party', 'power', 'change', 'policy', 'view', 'party', 'bank', 'large', 'corporation', 'bank', 'central', 'bank', 'bail', 'class', 'job', 'home', 'government', 'official', 'money', 'air', 'wealth', 'flaw', 'principle', 'government', 'bureaucrat', 'politician', 'principle', 'people', 'war', 'wealth', 'liberty', 'concern', 'executive', 'order', 'president', 'authority', 'kill', 'list', 'american_citizens', 'target', 'assassination', 'patriotism', 'thought', 'blind', 'loyalty', 'government', 'politician', 'run', 'loyalty', 'principle', 'support', 'people', 'real', 'patriotism', 'willingness', 'challenge', 'government', 'wrong', 'people', 'people', 'government', 'give', 'government', 'safe', 'initiate', 'violence', 'people', 'member', 'free', 'market', 'liberty', 'member', 'liberty', 'free', 'market', 'liberty', 'personal', 'liberty', 'seek', 'influence', 'positive', 'seek', 'power', 'force', 'command', 'religion', 'gospel', 'war', 'authoritarian', 'violence', 'threat', 'violence', 'aggression', 'force', 'redistribution', 'wealth', 'teaching', 'great', 'religion', 'government', 'reserve', 'information', 'deal', 'policy', 'democracy', 'high', 'esteem', 'minority', 'right', 'relative', 'dictate', 'majority', 'congress', 'credibility', 'disconnect', 'politician', 'explanation', 'deception', 'unhappiness', 'confidence', 'leader', 'distrust', 'anger', 'frustration']",0,[],0.0102591915
12517,1.0,"['david_duke', 'man', 'bob_whitaker', 'dr._duke', 'grizzle', 'professional', 'life', 'steady', 'procession', 'sellout', 'senator', 'hollings', 'governorship', 'integration', 'governor', 'senate', 'seat', 'begin', 'position', 'vice', 'spot', 'ticket', 'carolina', 'senate', 'seat', 'hollings', 'medium', 'call', 'liberal', 'senator', 'south', 'carolina', 'attack', 'bob', 'jones', 'university', 'date', 'sellout', 'sell', 'sell', 'year', 'mention', 'vice', 'presidency', 'scalawag', 'award', 'piss', 'fritz', 'south_carolina', 'seat', 'junior', 'teddy', 'kennedy', 'stay', 'fritz', 'step', 'piss', 'end', 'career', 'exposition', 'power', 'israeli', 'lobby', 'junior', 'hitler', 'eye', 'liberal', 'toady', 'decade', 'people', 'talk', 'simple', 'matter', 'supply', 'demand', 'politician', 'sellout', 'route', 'price', 'beasley', 'republican', 'side', 'need', 'pro-confederate', 'flag', 'vote', 'governor', 'end', 'election', 'day', 'november', 'want', 'vice', 'nomination', 'republican', 'ticket', 'beasley', 'face', 'time', 'crunch', 'year', 'republican', 'convention', 'reelection', 'margin', 'pro-confederate', 'national', 'nomination', 'sell', 'fast', 'beasley', 'sellout', 'route', 'mean', 'good', 'blasphemy', 'lord', 'switch', 'side', 'lord', 'switch', 'side', 'flag', 'moment', 'month', 'reelection', 'carolina', 'politics', 'anti-whites', 'harvard', 'worse', 'case', 'scenario', 'deal', 'david_duke', 'person', 'anti-whites', 'pay', 'fortune', 'sellout', 'household', 'word', 'compliment', 'admiration', 'pro', 'reason', 'pro', 'david_duke', 'insult', 'mention', 'sell', 'case', 'dave', 'damn', 'ten', 'million', 'david', 'prison', 'hop', 'switch', 'side', 'prison', 'sentence', 'thousand', 'inmate', 'place', 'information', 'negotiation', 'prosecution', 'defense', 'refusal', 'cost', 'reason', 'call', 'david_duke', 'man', 'jungle', 'war', 'politics', 'insult', 'mention', 'dr._duke', 'sellout', 'sentence', 'simple', 'statement', 'david', 'praise', 'white', 'dog', 'favorite', 'person', 'dog', 'people', 'david_duke', 'man']",0,[],0.0102591915
6469,1.0,"['mexican', 'mormon', 'war', 'drug_cartel', 'mormon', 'mexico', 'paradise', 'mestizo']",0,['mormon_war_(drug_cartels'],0.0102591915
4029,1.0,"['bear_arms', 'war', 'battle', 'court', 'year', 'fight', 'totalitarian', 'slave', 'mercy', 'right', 'knee', 'europe', 'foot']",0,[],0.0102591915
13201,1.0,"['lbj', 'mistress', 'government']",0,[],0.008749347
9407,1.0,"['saddam', 'humanity', 'list', 'king', 'parliament', 'leader', 'wrong-doing', 'leader', 'office', 'jail', 'offense', 'leader', 'office', 'break', 'vow', 'office', 'america', 'punishment', 'america', 'holder', 'office', 'judge', 'american', 'government', 'form', 'common', 'defense', 'america', 'purpose', 'america', 'justice', 'pay']",0,[],0.008749347
13303,1.0,"['max_keiser', 'branch', 'government', 'alex', 'jones_part', 'google', 'spy', 'computer', 'video', 'freedom', 'speech', 'youtube', 'google', 'charge', 'content']",0,[],0.008749347
12869,1.0,"['fbi', 'entrapment', 'desire', 'talk', 'plan', 'carry', 'plan', 'government', 'general', 'george_washington']",0,[],0.008749347
12861,1.0,"['governor', 'jesse_ventura', 'government', 'update']",0,[],0.008749347
9357,1.0,"['anti-american', 'activist', 'epa', 'fire', 'fake', 'government', 'job', 'american', 'real', 'job']",0,[],0.008749347
12829,1.0,"['brave', 'fight', 'drug', 'real', 'government', 'support']",0,[],0.008749347
13166,1.0,"['spy', 'factory', 'run', 'government', 'attack', 'present', 'simple', 'incompetence', 'investigation']",0,[],0.008749347
12663,1.0,"['government', 'put', 'uranium', 'public', 'drinking_water']",0,[],0.008749347
13321,1.0,"['power', 'juror', 'government', 'fear', 'part']",0,[],0.008749347
9449,1.0,"['discourse', 'flame', 'post', 'comment', 'bad', 'word', 'stoop', 'level', 'white_man', 'stoop', 'reply', 'incendiary', 'attack', 'ozzy', 'forum', 'participant', 'personal', 'email', 'hit', 'nail', 'head', 'black', 'person', 'month', 'idea', 'black_african', 'ghetto', 'slum', 'law_abiding', 'white_neighborhood', 'black_african', 'america', 'small', 'stupid', 'individual', 'slave', 'slave', 'scot', 'scot', 'irish', 'sell', 'slave', 'type', 'individual', 'begin', 'buying', 'black_african', 'slave', 'slave', 'trader', 'sell', 'generation', 'american', 'colonial', 'black_african', 'riot', 'stupid', 'british', 'government', 'slave', 'riot', 'slave', 'trade', 'history', 'profit', 'slave', 'run', 'american', 'colonial', 'american_citizens', 'slave', 'slave', 'want', 'stupid', 'slave', 'property', 'america', 'slave', 'set', 'free', 'leave', 'america', 'class', 'slave', 'class', 'american', 'prison', 'system', 'full', 'black_african', 'slave', 'kick', 'underling', 'hateful_violent', 'criminal', 'release', 'prison', 'arrest', 'crime_spree', 'free', 'white_man', 'island', 'plague', 'rampage', 'black_horde', 'reality', 'black_african', 'culture', 'experience', 'work', 'black_african', 'term', 'black_african', 'adult', 'black_african', 'white_human', 'child', 'black_african', 'open', 'area', 'black_african', 'hood', 'venture', 'night', 'thug', 'area', 'safe', 'daylight', 'hour', 'offer', 'home', 'black_african', 'co-worker', 'time', 'flat', 'safe', 'kind', 'hate', 'black_african', 'kill', 'home', 'peace', 'land', 'wish', 'visit', 'african', 'ghetto', 'black_african', 'village', 'major', 'american', 'city', 'luck', 'unfortunate', 'white', 'stray', 'wilderness', 'jungle', 'area', 'head', 'remains', 'turn', 'black_african', 'put', 'man', 'hood', 'island', 'plague', 'good', 'people', 'iceland', 'area', 'canada', 'white_western', 'world', 'attack', 'local', 'black_african', 'slave', 'overrun', 'forced_integration', 'people', 'good_luck', 'politician', 'people', 'politician', 'side', 'free', 'future_generations']",0,"['black_african_culture', 'black_african_hood', 'black_african']",0.008749347
10228,1.0,"['good', 'president', 'american', 'soil', 'date', 'president', 'jefferson_davis', 'rise', 'fall', 'confederate', 'government', 'h/19831-h.htm']",0,[],0.008749347
12516,1.0,"['russian', 'government', 'take', 'official', 'anti-russian', 'stance', 'anti-white', 'government', 'nation']",0,[],0.008749347
9956,1.0,"['government', 'government', 'state', 'nation', 'government', 'treaty', 'nation', 'federal_government', 'duplication', 'service', 'nation', 'office', 'federal_government', 'service', 'cost', 'today', 'government', 'government', 'break', 'treaty', 'dissolve', 'government']",0,[],0.008749347
10244,1.0,"['update', 'state', 'nation', 'csa', 'gun_rights', 'texas', 'legislature', 'governor', 'bandit', 'threat', 'sept', 'type', 'theft', 'arm', 'government', 'abuse', 'power', 'texas', 'update', 'carry', 'travel', 'sept', 'personal', 'information', 'handgun', 'permit', 'permit', 'holder', 'state', 'park', 'property', 'special', 'texas_state', 'rifle_association', 'license', 'plate', 'money', 'collect', 'shooting_sports', 'texas', 'tubb', 'scholarship', 'hope', 'white_children', 'white', 'tax_dollars', 'sept', 'foster', 'parent', 'posse', 'gun', 'home']",0,[],0.008749347
10324,1.0,"['amendment', 'place', 'sort', 'regulation', 'restriction', 'militia', 'body', 'white_male', 'american_citizen', 'militia', 'militia', 'amendment', 'place', 'restriction', 'government', 'place', 'restriction', 'law', 'law', 'government', 'break', 'law', 'criminal', 'justice']",0,"['2nd_amendment', '2nd_amendment']",0.008749347
10501,1.0,"['office', 'sherriff', 'office', 'state', 'government', 'bad', 'sherriff']",0,[],0.008749347
10151,1.0,"['study', 'conduct', 'state_rifle', 'association', 'state', 'official', 'manner', 'area', 'citizen', 'study', 'area', 'amendment', 'government', 'agent', 'agency', 'amendment', 'victim', 'violent_crime', 'police_officer', 'criminal', 'place', 'law', 'land', 'posse', 'firearm', 'amendment', 'win', 'criminal']",0,[],0.008749347
10608,1.0,"['real', 'tragedy', 'shoot', 'event', 'anti-white', 'agenda', 'government', 'forced_integration', 'leftist', 'policy', 'cause', 'murder', 'rape', 'attack', 'multitude', 'innocent_white', 'child', 'girl', 'victim', 'fall', 'american_citizens', 'neighbor', 'elect', 'student', 'council', 'government']",0,[],0.008749347
10120,1.0,"['patriotic_ancestors', 'revolution', 'liberty', 'thirteen', 'english', 'colony', 'thirteen', 'free', 'nation', 'state', 'treaty', 'thirteen', 'american', 'nation', 'article', 'confederation', 'treaty', 'form', 'government', 'serve', 'american', 'nation', 'patrick', 'henry', 'smell', 'rat', 'history', 'patrick', 'henry', 'patrick', 'henry', 'king', 'father', 'child', 'tyrant', 'forfeit', 'allegiance', 'subject', 'good', 'patriot', 'patrick', 'henry', 'today', 'feel', 'government']",0,['american_revolution_for_liberty'],0.008749347
10686,1.0,"['leftist', 'liberal', 'liberalism', 'begin', 'liberal', 'join', 'liberal', 'scotland', 'wale', 'northern', 'ireland', 'great', 'number', 'control', 'english', 'politics', 'share', 'government', 'government']",0,[],0.008749347
10761,1.0,"['track', 'move', 'government', 'agent', 'bother', 'track', 'form', 'resistance', 'resistance', 'resistance']",0,[],0.008749347
9853,1.0,"['government', 'shake', 'hand', 'islam']",0,[],0.008749347
12469,1.0,"['prisoner', 'ice', 'russian', 'sailor', 'russian', 'government', 'claim', 'hovercraft', 'rescue', 'sailor', 'hovercraft', 'tow', 'ship', 'citizen/slaves', 'russia', 'state', 'ussr/cccp']",0,[],0.008749347
11368,1.0,"['government', 'pay', 'indian', 'money', 'attack', 'indian', 'hunt', 'fish', 'rule', 'regulation', 'indian', 'money', 'free', 'stuff', 'government', 'build', 'school', 'road', 'public', 'rest', 'room', 'government', 'pay', 'indian', 'police', 'land', 'government', 'grant', 'indian', 'free', 'college', 'education', 'giveaway', 'tribe', 'casino', 'amount', 'money', 'state', 'indian', 'reservation', 'place', 'primitive', 'chaos', 'disorder', 'indian', 'human', 'sacrifice', 'power', 'desire', 'skin', 'walker', 'shape', 'shifter', 'murder', 'entire', 'family', 'power', 'indian', 'reservation', 'deal', 'drug', 'crime', 'innocent_white', 'folk', 'church', 'government', 'power', 'poor', 'indian', 'primitive']",0,[],0.008749347
11454,1.0,"['american', 'tax_dollars', 'fund', 'anti-white', 'hate', 'group', 'la_raza', 'anti-white_washington', 'government', 'money', 'mexican', 'outrage', 'government', 'funding', 'la_raza', 'tax_dollars', 'american', 'renaissance', 'news']",0,[],0.008749347
11844,1.0,"['government', 'spy', 'nato', 'ally']",0,[],0.008749347
11873,1.0,"['cyber', 'canadian', 'government', 'communist_china']",0,[],0.008749347
11983,1.0,"['unemployment', 'poverty', 'spark', 'rebellion', 'estimate', 'unemployed', 'hight', 'estimate', 'forty', 'million', 'home', 'government', 'cia', 'report', 'insurrection', 'bargain', 'anti-american', 'citizen', 'king', 'george', 'townsend', 'cornwallis']",0,[],0.008749347
12054,1.0,"['cherryholmes', 'switzerland', 'love', 'dixie', 'yankee', 'government']",0,[],0.008749347
12262,1.0,"['government', 'white', 'folk', 'non-whites', 'stay', 'nation']",0,[],0.008749347
12406,1.0,"['suzanne', 'hupp', 'gun_control', 'suzanne', 'hupp', 'victim', 'mother', 'father', 'shooter', 'government', 'victim', 'criminal', 'law', 'testimony', 'congress', 'subject', 'gun_control']",0,[],0.008749347
11996,1.0,"['enforcer', 'bend', 'government', 'government', 'israel', 'people', 'equation']",0,[],0.008749347
39,1.0,"['nation', 'left', 'merkel', 'office', 'leave', 'merkel', 'traitor', 'government', 'germany', 'child', 'die', 'merkel', 'pet']",0,[],0.008749347
13488,1.0,"['revolution', 'london_government', 'government', 'tax', 'government', 'life', 'redcoat', 'gun', 'redcoat', 'order', 'law', 'break', 'law', 'london_government', 'wrong', 'time', 'secession', 'freedom']",0,[],0.008749347
1301,1.0,"['people', 'greenland', 'move', 'independence', 'anti-white_washington', 'government', 'dixie']",0,[],0.008749347
5192,1.0,"['french', 'government', 'close', 'border', 'politician', 'people', 'lead']",0,[],0.008749347
1295,1.0,"['begin', 'state', 'union', 'english', 'colony', 'care', 'america', 'root', 'government', 'fertilizer', 'root', 'state']",0,[],0.008749347
5527,1.0,"['official', 'gmo', 'gmo', 'label', 'label', 'violation', 'result', 'fine', 'confiscation', 'item', 'item', 'gmo', 'guess', 'sell', 'stupid', 'american', 'walmart', 'putin', 'sign', 'gmo', 'label', 'government', 'poison', 'citizen', 'soren', 'dreier']",0,[],0.008749347
5558,1.0,"['anti-white', 'teacher', 'brainwashing', 'student', 'school_system', 'anti-white', 'government', 'genocide', 'wrong', 'stop_white', 'genocide']",0,[],0.008749347
5622,1.0,"['ramzpaul', 'government', 'vow', 'tough', 'heretic']",0,[],0.008749347
5747,1.0,"['nevada', 'desert', 'large', 'satellite', 'ge_july_03.jpg', 'pay', 'attention', 'show', 'government', 'trust', 'land', 'set', 'government', 'facility', 'list', 'map', 'fly', 'zone', 'fence', 'sign', 'guard', 'flight', 'line', 'edward', 'afb', 'land', 'strip', 'satellite', 'image', 'government']",0,[],0.008749347
1291,1.0,"['fix', 'fix', 'advantage', 'free', 'state', 'share', 'government', 'like', 'inclination', 'give', 'compromise', 'king', 'george', 'england', 'england', 'desire', 'advantage', 'share', 'government', 'tyrant', 'tyrant', 'child', 'beast', 'time', 'freedom']",0,[],0.008749347
1201,1.0,"['white', 'american_citizens', 'government', 'system', 'taxation', 'representation']",0,[],0.008749347
1164,1.0,"['germany', 'hitler', 'hand', 'friendship', 'polish', 'government', 'polish', 'government', 'stab', 'germany', 'murder', 'innocent', 'german', 'civilian', 'polish', 'government', 'criminal', 'act', 'mass_murder', 'terrorism', 'germany', 'england', 'aid', 'sign', 'treaty', 'government', 'people', 'polish', 'government', 'attack', 'desire', 'germany', 'russia', 'england', 'poland', 'polish', 'government', 'ww_ii', 'sixty', 'white', 'european']",0,[],0.008749347
6365,1.0,"['bad', 'government', 'white_nations', 'single', 'government', 'assist', 'nsa/mossad', 'spy', 'citizen', 'government', 'canada', 'australia', 'zealand', 'government', 'offer', 'resistance', 'japan', 'bad']",0,[],0.008749347
1159,1.0,"['military', 'jade', 'helm', 'training', 'extraction', 'civilian', 'target', 'government', 'federal_military', 'kidnapping', 'extraction', 'schedule', 'dead', 'night', 'town', 'military', 'shot', 'fault', 'shoot', 'criminal', 'act', 'texas', 'texas', 'jury', 'return', 'verdict', 'need', 'shoot', 'case', 'texas', 'freedom']",0,[],0.008749347
6613,1.0,"['partner', 'crime', 'nsa', 'gchq', 'government', 'communication', 'headquarters', 'signal', 'intelligence', 'sigint', 'center', 'government']",0,[],0.008749347
6830,1.0,"['question', 'federal', 'involvement', 'boston', 'marathon', 'bombing', 'federal_agent', 'involvement', 'bomber', 'bomb', 'government', 'murder', 'innocent', 'civilian', 'blood_thirsty', 'revenge', 'security', 'government']",0,['boston_marathon_bombing'],0.008749347
2833,1.0,"['african', 'act', 'give', 'african', 'government', 'nation', 'african', 'act', 'left', 'church', 'service', 'stop', 'mcdonalds']",0,[],0.008749347
7105,1.0,"['anti-dixie', 'media_mafia', 'media_mafia', 'government', 'dixie', 'citizen', 'dixie', 'property', 'hate', 'freedom']",0,[],0.008749347
1297,1.0,"['government', 'stay', 'union', 'deo', 'vindice']",0,[],0.008749347
1307,1.0,"['government', 'government', 'consent', 'people', 'government', 'beast', 'mistake', 'confusion', 'beast', 'delight', 'force', 'white_folks', 'people', 'criminal_aliens', 'wild', 'beast', 'people', 'white_children', 'education', 'primitive', 'inferior', 'creature', 'space', 'institution', 'people', 'aid', 'manufacturing', 'industry', 'increase', 'manufacturing', 'land', 'enemy', 'people', 'creature', 'medium', 'nation', 'broadcast', 'program', 'child', 'people', 'give', 'enemy', 'people', 'white_children', 'good', 'white_families', 'homeless', 'mistake', 'beast', 'anti-white', 'action', 'people', 'power', 'people', 'mean', 'deo', 'vindice']",0,[],0.008749347
7556,1.0,"['osama', 'bin', 'subject', 'man', 'hunt', 'history', 'photo', 'video', 'eye', 'witness', 'sound', 'government', 'man', 'man', 'federal', 'fairy', 'tale']",0,[],0.008749347
4397,1.0,"['stripper_clips', 'load', 'type', 'magazine', 'ammo', 'surplus', 'stripper_clips', 'ammo', 'load', 'magazine', 'ammo', 'ammo', 'ammo', 'primer', 'expose', 'ammo', 'bullet', 'object', 'contact', 'force', 'discharge', 'discharge', 'leave', 'pant', 'ammo', 'stripper_clips', 'ammo', 'save', 'condition', 'primer', 'contact', 'set', 'ammo', 'stripper_clips', 'preloading', 'magazine', 'constant', 'tension', 'magazine', 'spring', 'time', 'feed', 'problem', 'stripper_clips', 'stripper_clips', 'adaptor', 'loader', 'government', 'type', 'adaptor', 'government', 'supply', 'soldier', 'type', 'cammenga', 'easyloader', 'p', 'idproduct=26', 'deal', 'stripper_clips', 'dirt', 'ammo', 'store', 'hold', 'round', 'stripper_clips', 'loader', 'deal', 'stripper_clips', 'thought', 'stripper_clips']",0,[],0.008749347
3100,1.0,"['white_woman', 'face', 'slash', 'city', 'white_folks', 'government', 'place', 'texas', 'general', 'population', 'arm', 'gun_free', 'zone', 'put', 'innocent', 'people', 'danger']",0,[],0.008749347
1868,1.0,"['white_genocide', 'program', 'white_genocide', 'government', 'european', 'white_genocide', 'military', 'submission', 'put', 'stop', 'belligerent', 'anti-white_washington', 'dc', 'regime', 'american']",0,[],0.008749347
1835,1.0,"['sector', 'cleaning', 'government']",0,[],0.008749347
1378,1.0,"['traitor', 'government', 'fear', 'honest_law', 'abiding_citizens', 'purchase', 'rifle']",0,[],0.008749347
3233,1.0,"['government', 'law', 'regulation', 'property', 'tax']",0,[],0.008749347
3304,1.0,"['list', 'america', 'enemy', 'federal_government', 'major', 'problem', 'face', 'today', 'root', 'government', 'strike', 'root', 'hack', 'branch']",0,[],0.008749347
3323,1.0,"['nation', 'nation', 'distress', 'homeland', 'flag', 'symbol', 'anti-american', 'washington', 'government', 'law']",0,[],0.008749347
3726,1.0,"['strike', 'french', 'socialist', 'arrest', 'government']",0,[],0.008749347
3806,1.0,"['hazmat', 'fee', 'anti-white_washington', 'government', 'hazmat', 'fee', 'shipment', 'ammo', 'powder', 'carrier', 'hazmat', 'shipment', 'store', 'ship', 'package', 'cost', 'carrier', 'hazmat', 'shipment', 'hazmat', 'shipment', 'ship', 'charge', 'fee', 'extra', 'service', 'fraud', 'anti-white_washington', 'government', 'criminal_conspiracy', 'fraud', 'american', 'hazmat', 'fee', 'white_man', 'order', 'container', 'smokeless_powder', 'sell', 'dollar', 'hazmat', 'fee', 'charge', 'handle', 'shipping', 'amount', 'ten', 'dollar', 'twenty', 'dollar', 'powder', 'ship', 'door', 'total', 'cost', 'fifty', 'dollar', 'simple', 'theft', 'collusion', 'anti-white_washington', 'government', 'aim', 'white_male', 'american_citizens']",0,[],0.008749347
1360,1.0,"['observer', 'true', 'word', 'clause', 'rise', 'growth', 'northern', 'state', 'school', 'government', 'form', 'compact', 'state', 'national', 'government', 'state', 'organization', 'state', 'blessing', 'independence', 'aggression', 'pervert', 'machine', 'domestic', 'affair', 'creature', 'creator', 'principal', 'subordinate', 'agent']",0,[],0.008749347
3970,1.0,"['congress', 'email', 'congress', 'read', 'hillary', 'government']",0,[],0.008749347
1320,1.0,"['role', 'law_enforcement', 'agency', 'government', 'charge', 'city', 'county', 'state', 'federal', 'level', 'role', 'mass', 'mass', 'action', 'mass', 'government', 'law_enforcement', 'code', 'enforcement', 'revenue', 'gathering', 'protection', 'commerce', 'protection', 'citizen', 'role', 'military', 'government', 'government', 'feel', 'order', 'military', 'threat', 'government', 'feel', 'threat', 'lincoln', 'order', 'slaughter', 'white_woman', 'child', 'military', 'trust']",0,[],0.008749347
4269,1.0,"['stormfront', 'member', 'pas', 'miss', 'member', 'flat', 'great', 'poster', 'stomp', 'foot', 'left', 'website', 'meet', 'fact', 'face', 'left', 'run', 'website', 'good', 'parallel', 'site', 'member', 'multiple', 'site', 'site', 'fight', 'good', 'fight', 'teach', 'reader', 'medium', 'government', 'movement', 'gain', 'member', 'talent', 'dedication', 'question', 'stormfront', 'win']",0,[],0.008749347
1314,1.0,"['draft', 'independence', 'word', 'document', 'debate', 'result', 'word', 'document', 'word', 'chosen', 'meaning', 'document', 'begin', 'choice', 'chance', 'word', 'hap', 'hazard', 'manner', 'word', 'condition', 'party', 'alliance', 'king', 'land', 'individual', 'land', 'sole', 'property', 'king', 'king', 'heed', 'law', 'core', 'pact', 'king', 'subject', 'loyalty', 'king', 'king', 'loyalty', 'subject', 'king', 'english', 'queen', 'scottish', 'queen', 'law', 'tyrant', 'title', 'president', 'father', 'true', 'bound', 'arrangement', 'band', 'limited', 'agreement', 'limit', 'agreement', 'king', 'head', 'way', 'point', 'colony', 'band', 'government', 'crown', 'state', 'independent_nations', 'join', 'american', 'union', 'band', 'bond', 'colonial', 'band', 'union', 'party', 'true', 'state', 'band', 'american', 'union', 'form', 'dissolve', 'union', 'union', 'cease', 'patriotic_ancestors', 'dissolve', 'union', 'time', 'independence', 'deo_vindice']",0,[],0.008749347
1312,1.0,"['independence', 'inevitable', 'scotland', 'seek', 'independence', 'government', 'london', 'northern', 'ireland', 'seek', 'ireland', 'western', 'germany', 'join', 'people', 'win', 'people', 'military', 'occupation', 'washington_d.c', 'devin', 'carnate', 'today', 'tomorrow', 'deo', 'vindice']",0,[],0.008749347
7547,1.0,"['communist_chinese', 'government']",0,[],0.008749347
6912,1.0,"['william', 'william', 'control', 'government', 'ancestor', 'multiple', 'time', 'surprise']",0,[],0.008749347
8850,1.0,"['government', 'order', 'law_abiding', 'firearm', 'salesman', 'firearm', 'criminal', 'mexican', 'thug', 'firearm', 'criminal', 'mexican', 'thug', 'government', 'order', 'innocent', 'firearm', 'salesman', 'sale', 'government', 'order', 'law_abiding', 'firearm', 'salesman', 'law', 'government', 'batfe', 'operation', 'run', 'state', 'union', 'operation', 'government', 'law', 'government', 'coverup', 'law', 'government', 'fire', 'whistleblower', 'expose', 'criminal', 'act', 'government', 'law', 'fire', 'whistleblower', 'government', 'amendment_rights', 'intent', 'criminal', 'act', 'government', 'amendment_rights', 'government', 'law', 'law', 'law', 'government', 'serf', 'people', 'hindrance', 'life', 'burden', 'time', 'dissolve', 'government', 'child', 'beast']",0,[],0.008749347
9002,1.0,"['explosion', 'plane', 'gallon', 'burning', 'jet', 'fuel', 'government', 'tell']",0,[],0.008749347
785,1.0,"['petition', 'grant', 'state', 'state', 'america', 'government', 'nment/bmdwcp8b']",0,[],0.008749347
8913,1.0,"['philip', 'zelikow', 'government', 'desire', 'pearl_harbor', 'event', 'coverup', 'philip', 'zelikow', 'terrorism', 'outline', 'benefit', 'terrorism', 'event', 'federal_government', 'focus', 'denial', 'basic', 'freedom', 'bill', 'right', 'government', 'harbor', 'event', 'desire', 'government', 'term', 'philip', 'zelikow', 'expert', 'al_qaeda', 'cia', 'program', 'philip', 'zelikow', 'tax_dollars', 'reward', 'part', 'act']",0,[],0.008749347
8911,1.0,"['government', 'justice', 'justice', 'single', 'citizen', 'federal_judge', 'judgment', 'wrong', 'government', 'standout', 'exception', 'federal_judge', 'agent', 'ruby', 'ridge', 'murder', 'wrong', 'federal', 'murder', 'jail', 'high_paying', 'federal', 'job', 'education', 'impression', 'history', 'import', 'issue', 'housing', 'white_man', 'interest', 'loan', 'white_man', 'housing', 'homeless', 'food', 'drug', 'administration', 'drug', 'market', 'safe', 'alternative', 'medicine', 'market', 'chemical', 'food', 'water', 'bureau', 'investigation', 'block', 'investigation', 'government', 'top', 'criminal', 'business', 'drug', 'enforcement', 'agency', 'enforcement', 'drug', 'law', 'federal', 'drug', 'ton', 'bureau', 'alcohol', 'tobacco', 'firearm', 'explosive', 'law_abiding', 'citizen', 'enforcement', 'federal', 'firearm', 'regulation', 'arm', 'drug_gangs', 'federal', 'drug', 'investigation', 'bomb', 'set', 'federal_agent', 'waco', 'world', 'trade', 'center', 'bombing', 'criminal_conspiracy', 'federal_mafia']",0,[],0.008749347
8961,1.0,"['event', 'government']",0,[],0.008749347
8879,1.0,"['drug_cartel', 'drug_cartel', 'crime', 'government']",0,[],0.008749347
787,1.0,"['state', 'union', 'money', 'state', 'military', 'equipment', 'troop', 'government', 'paper', 'tiger']",0,[],0.008749347
8983,1.0,"['japanese', 'radiation', 'coverup', 'government', 'epa', 'monitor', 'function', 'meltdown', 'suspect', 'epa', 'turn', 'accident', 'citizen']",0,[],0.008749347
7897,1.0,"['north_carolina', 'gun_laws', 'castle', 'doctrine', 'concealed_carry', 'state', 'park', 'loony_leftists', 'government', 'begin', 'law_abiding', 'citizen', 'come', 'gun_laws', 'nc', 'wway', 'newschannel', 'wilmington', 'nc', 'news']",0,[],0.008749347
819,1.0,"['fema', 'texas', 'firefighter', 'stand', 'order', 'texas', 'burn', 'government', 'hell', 'rick', 'perry', 'texas', 'wild', 'fire', 'wild', 'fire', 'burning', 'area', 'wild', 'fire', 'burn', 'area', 'connecticut', 'total', 'texas', 'drought', 'mexican', 'leave', 'texas']",0,[],0.008749347
8988,1.0,"['cost', 'congress', 'pay', 'dividend', 'generation', 'dissolve', 'government']",0,[],0.008749347
8809,1.0,"['worker', 'accident', 'job', 'action', 'sacrifice', 'accident', 'death', 'exposure', 'expose', 'obligation', 'disaster', 'action', 'fault', 'worker', 'mother', 'nature', 'bad', 'luck', 'ge', 'government', 'government', 'cause', 'disaster', 'nuclear_power', 'insanity']",0,[],0.008749347
8807,1.0,"['surrender', 'dollar', 'government', 'protection', 'information', 'incoming', 'meteor', 'information', 'citizen', 'potential', 'event', 'military', 'hush-up', 'incoming', 'space', 'rock', 'space.com']",0,[],0.008749347
8959,1.0,['government'],0,[],0.008749347
8777,1.0,"['project', 'funvax', 'vaccine', 'religious', 'fundamentalism', 'mutation', 'population', 'infection', 'dollar', 'action', 'god', 'save', 'government']",0,[],0.008749347
780,1.0,"['population', 'estimate', 'meas', 'citizen', 'dictate', 'majority', 'government', 'individual', 'government', 'population', 'individual', 'state', 'u.s', 'world', 'population', 'clock']",0,[],0.008749347
8768,1.0,"['central', 'failure', 'local', 'individual', 'problem', 'population', 'government', 'government', 'oligarch', 'situation']",0,[],0.008749347
8368,1.0,"['documentary', 'anniversary', 'murder', 'government', 'men', 'nation']",0,[],0.008749347
873,1.0,"['argument', 'claim', 'state', 'federal', 'money', 'federal', 'money', 'income', 'tax_dollars', 'money', 'state', 'government', 'money', 'stop', 'feed']",0,[],0.008749347
871,1.0,"['mexican', 'free', 'medical', 'care', 'government']",0,[],0.008749347
865,1.0,"['texas_secession', 'washington_dc', 'state', 'secession', 'federal', 'money', 'money', 'state', 'government', 'state', 'money', 'tell', 'stop', 'money', 'washington_dc', 'money', 'save', 'money', 'federal_tyranny']",0,[],0.008749347
8366,1.0,"['arnie_gundersen', 'assessment', 'situation', 'evaluation', 'fact', 'arnie_gundersen', 'assessment', 'situation', 'government', 'expert', 'stupid', 'incompetent', 'liar']",0,[],0.008749347
8289,1.0,"['american', 'debt', 'slave', 'government', 'qualified_white', 'american_citizens', 'hire', 'hire', 'mexican', 'citizen', 'place']",0,[],0.008749347
8373,1.0,"['time', 'government']",0,[],0.008749347
8641,1.0,"['give', 'm2', 'heavy', 'machine_gun', 'mexican_drug', 'gang', 'dollar', 'weapon', 'government', 'military', 'give', 'payer', 'property', 'mexican_drug', 'gang']",0,[],0.008749347
868,1.0,"['texas', 'crawl', 'mexican', 'texan', 'government', 'state', 'city', 'government', 'law', 'remove', 'mexican', 'infestation', 'government', 'put', 'halt']",0,[],0.008749347
8703,1.0,"['hunter', 'prey', 'media_mafia', 'budget', 'science_fiction', 'movie', 'crash', 'land', 'remote', 'planet', 'soldier', 'hunt', 'escape', 'prisoner', 'story', 'take', 'place', 'space', 'earth', 'message', 'hate', 'government', 'soldier', 'military']",0,[],0.008749347
8952,1.0,"['dennis', 'kucinich', 'truth', 'reconciliation', 'government', 'government', 'time', 'dissolve', 'government']",0,[],0.008749347
10466,1.0,"['student', 'staff', 'isi', 'jihadis', 'ak', 'assault', 'rifle']",0,[],0.0076255435
4279,1.0,"['good', 'draft', 'syrian', 'syria', 'isi']",0,[],0.0076255435
9784,1.0,"['russia', 'syrian', 'cease', 'fire', 'isi', 'al-nusra', 'russian', 'bomber', 'terrorist', 'equipment', 'terrorist', 'tank', 'vehicle', 'weapon', 'depot', 'isi', 'field', 'camp', 'target', 'russian', 'aircraft', 'return', 'base']",0,[],0.0076255435
3978,1.0,"['assad', 'russia', 'win', 'defeat', 'israel', 'secret', 'intelligence', 'service', 'isi', 'troop', 'assad', 'resort', 'chemical', 'weapon', 'isi', 'israel', 'saudi_arabia', 'turkey']",0,[],0.0076255435
569,1.0,"['left', 'inclination', 'niggros', 'slavery', 'generation', 'longer', 'niggros', 'slave', 'niggro', 'slave_owner', 'work', 'force', 'niggro', 'slave', 'worker', 'work', 'niggro', 'slavery']",0,[],0.0071616119999999995
1365,1.0,"['point', 'niggros', 'work', 'produce', 'negative', 'sight', 'work', 'field', 'niggros', 'pick', 'cotton', 'stole', 'cotton', 'natural', 'niggros', 'raider', 'victim', 'niggro', 'buck', 'raid', 'cotton', 'picker', 'cotton', 'sack', 'turn', 'cotton', 'cotton', 'pick', 'niggros', 'make', 'work', 'niggros', 'work', 'monkey', 'shine', 'niggros', 'work', 'individual', 'niggros', 'profit', 'slavery', 'profit', 'hard_working', 'niggro', 'life', 'idiot', 'slave', 'sight', 'planning']",0,[],0.0071616119999999995
9351,1.0,"['secret', 'dna', 'researcher', 'indian', 'tribe', 'white_folks', 'explorer', 'tribe', 'white', 'indian', 'louis', 'clarke', 'tribe', 'white', 'indian', 'pocahontas', 'white_woman', 'tribe', 'capture', 'child', 'slave']",0,[],0.0071616119999999995
9944,1.0,"['mafia', 'system', 'word', 'propaganda', 'impression', 'troop', 'mafia', 'inch', 'america', 'property', 'mafia', 'creature', 'plant', 'structure', 'property', 'mafia', 'grant', 'freedom', 'individual', 'mafia', 'free', 'slave', 'property', 'slave', 'mafia', 'citizen', 'property', 'mafia', 'demand', 'property', 'fit', 'mafia', 'change', 'fight', 'win', 'freedom', 'defeat', 'victory']",0,[],0.0071616119999999995
1343,1.0,"['yankee', 'liberal_race', 'traitor', 'aol', 'poll', 'lincoln', 'free', 'slave', 'general', 'robert_e', 'lee', 'free', 'slave', 'general', 'forrest', 'lincoln', 'free', 'slave', 'chosen', 'lincoln', 'capture', 'slave', 'concentration', 'camp', 'camp', 'island', 'jamestown', 'colony', 'capture', 'slave', 'riot', 'bet', 'black', 'rioting', 'burn', 'original', 'building', 'james', 'town', 'colony', 'stand', 'time', 'pipe', 'dream', 'great', 'emancipator', 'smoke', 'james', 'town', 'colony']",0,[],0.0071616119999999995
13158,1.0,"['die', 'slave', 'ar', 'america', 'rifle', 'dispatch', 'yard', 'light', 'weight', 'recoil', 'white_human', 'childhood', 'age', 'common', 'pistol', 'caliber', 'light', 'rifle', 'caliber', 'battle', 'rifle', 'caliber', 'winchester', 'american', 'ar_rifles', 'type_rifle', 'publication', 'american_rifleman']",0,[],0.0071616119999999995
13277,1.0,"['du', 'uranium', 'training', 'video']",0,[],0.006588482
12370,1.0,"['bear', 'segment', 'ritual', 'murder/human', 'sacrifice', 'video', 'stand', 'handle', 'post', 'material', 'grizzly', 'child', 'murder', 'savage', 'white_human', 'hebrew', 'act', 'victim', 'cry', 'blood', 'libel', 'cry']",0,[],0.006588482
1370,1.0,"['steve_lee', 'gun', 'video', 'record', 'america', 'post8148379']",0,[],0.006588482
840,1.0,"['police', 'state', 'tv', 'conspiracy', 'theory', 'jesse_ventura', 'episode', 'media_mafia', 'copy', 'keepvid', 'save', 'video', 'youtube', 'dailymotion', 'metacafe', 'ifilm']",0,[],0.006588482
1296,1.0,"['thomas', 'dilorenzo', 'abraham', 'lincoln', 'video', 'page=388']",0,[],0.006588482
13061,1.0,"['landslide', 'vibo', 'valentia', 'italy', 'video', 'feb']",0,[],0.006588482
1126,1.0,"['build', 'video', 'strip', 'page=333']",0,[],0.006588482
1909,1.0,"['brick', 'wall', 'close_range', 'burst', 'hit', 'spot', 'video', 'film', 'military', 'ammo', 'penetration', 'test', 'postcount=6050']",0,[],0.006588482
1959,1.0,"['watch', 'video', 'javascriptpenpopup_3c7d', 'manhj0knwqyqm4', 'guy', 'absolute', 'master', 'revolver', 'plain', 'english']",0,[],0.006588482
2669,1.0,"['video', 'guy', 'host', 'mail', 'call', 'invite', 'event', 'shoot', 'start', 'revolver', 'note', 'put', 'gun', 'head', 'pull', 'hold', 'high', 'air', 'custom', 'custom', 'gas', 'escape', 'cylinder', 'gap', 'blind', 'flash', 'burn', 'guess']",0,[],0.006588482
10600,1.0,"['forgery', 'train', 'wreck', 'photo', 'extra', 'smoke', 'body', 'paint', 'photo', 'video', 'show', 'photo']",0,[],0.006588482
4404,1.0,"['product', 'test', 'great', 'range', 'magazine', 'round', 'left', 'time', 'tweak', 'catch', 'mag', 'fire', 'test', 'catch', 'hold', 'close', 'mag', 'screwdriver', 'move', 'computer', 'animation', 'show', 'mag', 'video', 'show', 'normal', 'water', 'test', 'sand', 'test', 'snow', 'test', 'mag', 'work', 'stripper_clips', 'hp', 'category=5']",0,[],0.006588482
4344,1.0,"['h', 'rap', 'video', 'h', 'black', 'buy', 'firearm', 'steal']",0,[],0.006588482
9531,1.0,['video'],0,[],0.006588482
73,1.0,"['canada', 'talk', 'video', 'evalion', 'video', 'white', 'suggestion', 'white_nationalism', 'national_socialism', 'vids']",0,[],0.006588482
7404,1.0,"['black', 'ops', 'zombie', 'video', 'record', 'game', 'play']",0,[],0.006588482
6611,1.0,"['video', 'paula', 'deen']",0,[],0.006588482
6196,1.0,"['nasa', 'release', 'color', 'photo', 'moon', 'china', 'release', 'color', 'photo', 'video', 'moon', 'nasa', 'release', 'chinese', 'image', 'show', 'moon', 'orange', 'color', 'blue', 'green', 'nasa', 'image', 'green', 'nasa', 'release', 'image', 'color', 'remove', 'nasa', 'image', 'color', 'photo', 'release', 'color', 'moon', 'green', 'cheese', 'nasa', 'straight', 'answer', 'small', 'click', 'man', 'nasa', 'release', 'photo', 'apollo', 'program', 'shot', 'mission']",0,[],0.006588482
6079,1.0,"['still', 'ukraine', 'patriot', 'video', 'english', 'subtitle', 'video']",0,[],0.006588482
5972,1.0,"['iron', 'man', 'paranoid', 'year', 'anniversary', 'young', 'ozzy', 'song', 'black_sabbath', 'album', 'vinyl', 'herd', 'unknown', 'time', 'black_sabbath', 'time', 'friend', 'sam', 'houston', 'coliseum', 'charlie', 'dannels', 'lynnard', 'skinyard', 'opening', 'act', 'night', 'toast', 'friend', 'admission', 'oz', 'beer', 'album', 'turn', 'table', 'door', 'grand', 'funk', 'rail', 'road', 'pie', 'iron', 'butterfly', 'steppenwolf', 'king', 'crimson', 'leslie', 'west', 'frank', 'marino', 'post', 'video', 'time']",0,['black_sabbath'],0.006588482
9428,1.0,"['mention', 'stormfront', 'radio', 'watch', 'video', 'news', 'clip', 'day', 'issue', 'news', 'news_item', 'call', 'white_humans', 'attack', 'white_human', 'clip', 'short', 'reporter', 'hate', 'twenty', 'time', 'story', 'information', 'medium', 'message', 'clear', 'people', 'nation', 'message', 'medium', 'people', 'nation', 'nation', 'coordinate', 'map', 'nation', 'region', 'topography', 'continent', 'nation', 'people', 'culture', 'heritage', 'message', 'medium', 'nation', 'globalists', 'view', 'paradise', 'ruling', 'elite', 'wealth', 'surf', 'bidding', 'people', 'forefather', 'desire', 'forefather', 'desire']",0,[],0.006588482
5474,1.0,"['kill', 'shot', 'miss', 'earth', 'yesterday', 'cme', 'technology', 'miss', 'hit', 'earth', 'face', 'side', 'cme', 'power', 'grid', 'damage', 'estimate', 'month', 'power', 'area', 'year', 'power', 'grid', 'year', 'power', 'grid', 'start', 'finish', 'life', 'job', 'electricity', 'million', 'job', 'income', 'security', 'alarm', 'traffic', 'light', 'electric', 'gas', 'pump', 'gas', 'station', 'electric', 'heating', 'refrigerator', 'electric', 'water', 'heater', 'electric', 'light', 'tv', 'radio', 'video', 'game', 'internet']",0,[],0.006588482
10383,1.0,"['robert', 'calvert', 'stuff', 'baby', 'stuff', 'video']",0,[],0.006588482
4523,1.0,"['mestizo', 'girl', 'girl', 'rescue', 'harm', 'mestizo', 'arrest', 'brave', 'rescue', 'tell', 'stranger', 'police', 'arrest', 'video', 'theblaze.com']",0,[],0.006588482
10440,1.0,"['stock', 'market', 'bottom', 'economist', 'bottom', 'worse', 'worse', 'video', 'economist', 'stock', 'fall']",0,[],0.006588482
9611,1.0,"['video', 'interview', 'r', 'lee', 'ermey', 'gunny', 'military', 'handgun', 'postcount=5739']",0,[],0.006588482
9658,1.0,"['video', 'game', 'turn', 'point', 'fall', 'join', 'resistance', 'nazi', 'nyc', 'guess', 'american', 'pay', 'twenty', 'fifty', 'dollar', 'nazi']",0,[],0.006588482
4303,1.0,"['bluegrass', 'star', 'gal', 'tennessee', 'video', 'link', 'post7976494']",0,[],0.006588482
11053,1.0,"['video', 'brass', 'post5973417']",0,[],0.006588482
4125,1.0,"['louise', 'quinn', 'video']",0,[],0.006588482
10670,1.0,"['security', 'camera', 'video', 'action', 'gang_bangers', 'military', 'force']",0,[],0.006588482
3908,1.0,"['green', 'screen', 'time', 'video', 'update', 'stormfront', 'switch', 'firefox', 'avatar', 'firefox', 'right-click', 'view', 'page', 'info', 'address', 'image', 'og', 'image', 'post', 'image', 'property', 'firefox', 'click', 'image', 'copy', 'image', 'location', 'post', 'image', 'web', 'page', 'work', 'firefox', 'memory', 'perfect']",0,[],0.006588482
8997,1.0,"['brass', 'shotgun', 'shell', 'video', 'cover', 'antique', 'ga', 'brass', 'shotshells', 'metallic', 'shotshells', 'ga', 'shotgun', 'mag', 'metallic', 'shotshells', 'russian', 'steel', 'shotshells', 'brass', 'shotshells']",0,[],0.006588482
2965,1.0,"['african', 'pull', 'gun', 'fire', 'police', 'police_officer', 'give', 'african', 'chance', 'african', 'shoot', 'african', 'video']",0,[],0.006588482
10793,1.0,"['video', 'clip', 'tell', 'trump', 'wound', 'road', 'white_house']",0,[],0.006588482
3133,1.0,"['black', 'attack', 'white_folks', 'park', 'youtube', 'video', 'pull', 'youtube', 'video']",0,[],0.006588482
9027,1.0,"['amp', 'candy', 'sponsor', 'lindsey_stirling', 'production', 'video', 'lindsey_stirling', 'prism']",0,[],0.006588482
11155,1.0,"['place', 'read', 'reloading_manual', 'fat', 'book', 'load', 'data', 'table', 'read', 'hornady', 'bullet', 'buy', 'reloading_manual', 'speer', 'manufacturer', 'info', 'product', 'manual', 'cover', 'hornady', 'bullet', 'hornady', 'lock-n-load', 'single', 'stage', 'press', 'reloading_manual', 'authority', 'data', 'data', 'hornady', 'lee', 'hodgdon', 'powder', 'bullet', 'cartridge', 'hate', 'stay', 'safe', 'range', 'powder', 'safe', 'safe', 'range', 'safe', 'range', 'stray', 'parameter', 'data', 'powder', 'match', 'data', 'powder', 'change', 'part', 'equipment', 'good_quality', 'job', 'read', 'manual', 'catalog', 'sale', 'information', 'customer', 'review', 'forum', 'reloaders', 'watch', 'tutorial', 'shooting_usa', 'video', 'youtube', 'magazine', 'article', 'find', 'info', 'find', 'buying', 'work', 'miss', 'key', 'component', 'work', 'add', 'stress', 'start', 'order', 'equipment', 'supply', 'hurry', 'decision', 'hope', 'order', 'shipping', 'order', 'supplier', 'stock', 'stuff', 'buy', 'people', 'time', 'equipment', 'work', 'good', 'data']",0,[],0.006588482
8810,1.0,"['armed_citizen', 'grizzly', 'bear', 'attack', 'pepper', 'spray']",0,[],0.0061414274
9460,1.0,"['woman', 'black', 'beast', 'church', 'animal', 'orleans', 'call', 'time', 'law_abiding', 'citizen', 'state', 'america', 'action', 'orleans', 'battle', 'cry', 'century', 'prison', 'full', 'carbon', 'copy', 'rampage', 'black', 'prison', 'door', 'raider', 'attack', 'society', 'left', 'fore', 'father', 'time', 'building', 'prison', 'rampage', 'black_horde', 'doom', 'failure', 'criminal', 'turn', 'street', 'society', 'time', 'stop', 'entire', 'system', 'time', 'building', 'prison', 'start', 'building', 'penal_colony', 'africa', 'sender', 'orleans']",0,[],0.0061414274
318,1.0,"['race_mixer', 'african', 'murder', 'class', 'high_school', 'african', 'wood', 'rap', 'african', 'knife', 'tree', 'hit', 'neck', 'knife', 'wound', 'arm', 'attack', 'guess', 'rape', 'great', 'date', 'ohio', 'teen', 'woman', 'school', 'ny', 'daily', 'news', 'teen', 'custody', 'reynoldsburg', 'death', 'knife', 'victim', 'wbns-10tv', 'columbus', 'ohio', 'medium', 'blackout', 'conviction', 'hate_crime', 'nj', 'girl']",0,[],0.0061414274
8922,1.0,"['afghan', 'citizen', 'support', 'taliban', 'attack', 'military', 'invader', 'homeland', 'natural', 'instinct', 'invading_army', 'dixie', 'rpg', 'tank', 'jet', 'fighter', 'helicopter', 'stop', 'poison', 'water', 'poison', 'food', 'road', 'set', 'forest', 'fire', 'camp', 'break', 'dam', 'flood', 'camp', 'set', 'booby', 'trap', 'devise']",0,[],0.0061414274
8858,1.0,"['cia', 'whistleblower', 'susan', 'lindauer', 'cia', 'dia', 'rice', 'cheney', 'bush', 'suspect', 'attack', 'plan', 'lie']",0,[],0.0061414274
11391,1.0,"['brother', 'nathanial', 'tel', 'aviv', 'command', 'attack', 'libya']",0,[],0.0061414274
12623,1.0,"['ted', 'gunderson', 'fbi_agent', 'pearl_harbor', 'day', 'attack']",0,[],0.0061414274
8085,1.0,"['wound', 'belgian', 'attack', 'italian', 'invader']",0,[],0.0061414274
9817,1.0,"['arrest', 'brussels', 'brussels', 'citizen', 'murder', 'attack', 'steal', 'brussels', 'europe', 'give', 'europe']",0,[],0.0061414274
1209,1.0,"['death', 'indian', 'attack', 'white_folks', 'indian', 'time', 'indian', 'murder', 'white_families', 'indian', 'murder']",0,[],0.0061414274
2877,1.0,"['black', 'homosexual', 'black', 'videoed', 'attack']",0,[],0.0061414274
12602,1.0,"['fdr', 'pearl_harbor', 'attack']",0,[],0.0061414274
9256,1.0,"['presence', 'constant', 'child', 'white_humans', 'remove', 'primitive_savages', 'win', 'wait', 'child', 'rap', 'savage', 'beast', 'career', 'criminal', 'penal_colony', 'africa', 'boon', 'central_african', 'economy', 'action', 'boon', 'economy', 'house', 'criminal', 'africa', 'nation', 'life', 'criminal', 'child', 'attack', 'repeat', 'offender', 'service', 'job', 'central_african', 'penal_colony', 'non-whites', 'fill', 'job', 'non-whites', 'servant', 'central_african', 'homeland', 'non-whites', 'central_africa', 'paradise', 'white_man', 'place', 'black', 'act', 'black', 'jail', 'mass', 'migration', 'begin', 'mass', 'migration', 'wait', 'black', 'build', 'central_african', 'penal_colony', 'mass', 'migration']",0,[],0.0061414274
3693,1.0,"['safe', 'white_man', 'african', 'hood', 'safe', 'young_white', 'woman', 'african', 'crime', 'violent_crime', 'chance', 'home', 'worse', 'home', 'vehicle', 'vehicle', 'home', 'window', 'attack', 'rape', 'gang', 'rape', 'torture', 'murder', 'black', 'hood', 'safe', 'potential', 'victim', 'hood', 'luck']",0,[],0.0061414274
3107,1.0,"['black', 'white', 'violence', 'start', 'young', 'school', 'teach', 'white_kids', 'teach', 'black', 'beast', 'attack', 'white_kids']",0,[],0.0061414274
1850,1.0,"['african', 'attack', 'savage', 'attack', 'attack', 'kind', 'problem', 'place', 'harm', 'kind', 'africa', 'perfect', 'place']",0,[],0.0061414274
9257,1.0,"['white', 'female', 'wife', 'mother', 'dead', 'victim', 'release', 'black_male', 'convict', 'ing.html', 'imw=y', 'ack.html', 'imw=y', 'police', 'stop', 'justice', 'system', 'stop', 'bullet', 'black', 'terror', 'spree', 'white', 'victim', 'rampage', 'black_horde', 'incident', 'time', 'time', 'orleans', 'bleeding', 'heart', 'liberal', 'excuse', 'rampage', 'black_horde', 'world', 'watch', 'orleans', 'call', 'time', 'law_abiding', 'citizen', 'state', 'america', 'action', 'orleans', 'battle', 'cry', 'century', 'prison', 'full', 'carbon', 'copy', 'rampage', 'black', 'prison', 'door', 'raider', 'attack', 'society', 'left', 'fore', 'father', 'time', 'building', 'prison', 'rampage', 'black_horde', 'doom', 'failure', 'criminal', 'turn', 'street', 'society', 'time', 'stop', 'entire', 'system', 'time', 'building', 'prison', 'start', 'building', 'penal_colony', 'africa', 'sender', 'orleans']",0,[],0.0061414274
