,text,doc_id
22,The two soldiers killed during the rescue were named as Cédric de Pierrepont and Alain Bertoncello. The French military posted their photos on social media.,22
39,"The other two liberated hostages had apparently already been in the kidnappers' hands for 28 days, Gen Lecointre said.",39
