,topic_lda,bag_words,sa_score,events,rank
40,0.0,"['normal', 'muslim', 'begin', 'slaughter', 'white', 'folk', 'germany', 'reach', 'pocket', 'pull', 'handgun', 'shoot']",0,[],0.016001997515559196
72,0.0,"['jew', 'white', 'girl', 'public', 'jew', 'quake']",0,[],0.016001997515559196
73,0.0,"['canada', 'guess', 'talk', 'video', 'evalion', 'video', 'white', 'suggestion', 'white', 'nationalism', 'national', 'socialism', 'vids']",0,[],0.016001997515559196
92,0.0,"['fire', 'show', 'work', 'day', 'hire', 'white', 'man', 'place']",0,[],0.016001997515559196
97,0.0,"['time', 'white', 'man', 'stop', 'world', 'slave', 'work', 'support', 'world', 'savage', 'earth', 'savage', 'home', 'build', 'food', 'drive', 'car', 'build', 'white', 'man', 'benefit', 'labor']",0,[],0.016001997515559196
13,0.0,"['handgun', 'snub']",0,[],0.007124000228941441
