,Unnamed: 0,Term,Fq-0,Fq-1,Fq-2,Fq-3,Fq-4,Tfidf-0,Tfidf-1,Tfidf-2,Tfidf-3,Tfidf-4,Prob-0,Prob-1,Prob-2,Prob-3,Prob-4
15,african,african,0,3,1,1,2,0.0,0.13255731250991235,0.03396024152981693,0.041258987038399815,0.10637336629539122,1.1528817594808059e-05,0.023559017106890682,0.0049179582856595525,0.0020819369237869982,0.00457062479108572
197,fact,fact,0,2,0,0,0,0.0,0.15685885304077285,0.0,0.0,0.0,1.0252240826957859e-05,0.010038779117166996,1.2945767593919301e-05,1.2419985978340264e-05,1.8162629203288816e-05
207,federal,federal,0,2,1,1,2,0.0,0.08837154167327489,0.03396024152981693,0.041258987038399815,0.10637336629539122,0.0010520464275032284,0.009581838734447956,0.001455251476727426,0.007078136317431927,0.0035429839044809346
289,honor,honor,0,1,1,0,0,0.0,0.06327636748482153,0.04863286714763408,0.0,0.0,0.00020474371558520946,0.009391071274876595,0.001834853203035891,1.215717838931596e-05,1.816926487663295e-05
288,homosexual,homosexual,0,3,0,1,0,0.0,0.18982910245446455,0.0,0.05908505784691547,0.0,1.0935311365756206e-05,0.009363075718283652,0.00023251003585755825,0.0017631481168791652,3.0707411497132846e-05
347,mafia,mafia,1,1,1,0,0,0.038388070989761935,0.05252510100057305,0.04036967291919343,0.0,0.0,0.0017601273721084,0.007604203652590512,0.0005402366514317691,0.0003824754967354238,2.360840517212637e-05
352,man,man,1,1,2,1,0,0.03229325551598055,0.04418577083663745,0.06792048305963386,0.041258987038399815,0.0,0.002019752981141209,0.00759452860802412,0.003760545048862696,0.003622559364885092,1.839164542616345e-05
525,side,side,1,1,1,0,0,0.038388070989761935,0.05252510100057305,0.04036967291919343,0.0,0.0,0.002512372098863125,0.007564408238977194,0.0017608485650271175,0.00015129428356885907,0.0003229899157304317
537,society,society,1,2,0,0,0,0.04624565475761944,0.12655273496964306,0.0,0.0,0.0,0.0014027245342731474,0.007343190256506205,1.2938707186549435e-05,2.615910125314258e-05,1.830558721849229e-05
418,patriot,patriot,1,1,0,0,0,0.04624565475761944,0.06327636748482153,0.0,0.0,0.0,0.0012543993070721624,0.0072059687227010736,1.2507516657933593e-05,0.00014276195724960414,1.7762598872650415e-05
