,topic_lda,bag_words,sa_score,events
3,1.0,"['homosexual', 'anti-gun', 'mayor', 'jail', 'gun', 'crime']",-1,[]
5,1.0,"['shooter', 'recoil', 'cartridge', 'fire', 'shoot']",-1,[]
8,1.0,"['african', 'murder', 'child']",-1,[]
65,1.0,"['homosexual', 'liveleak.com', 'comprehensive', 'list', 'serial', 'killer', 'homosexual']",-1,[]
