,topic_lda,bag_words,sa_score,events
0,1.0,"['dr', 'david', 'duke', 'phd', 'question', 'video']",0,[]
6,1.0,"['stripper', 'clip', 'budge', 'brass', 'case', 'cartridge', 'device']",0,[]
9,1.0,"['road', 'destination', 'cover', 'county', 'city', 'town', 'community', 'heritage', 'music', 'year', 'major', 'venue', 'affiliate', 'venue', 'festival', 'wayside', 'exhibit', 'visitor', 'opportunity', 'experience', 'music', 'tradition', 'world', 'america', 'music', 'born', 'life']",0,[]
11,1.0,"['bloat', 'holyco', 'industry', 'fact', 'sound', 'acceptance', 'fact', 'bear', 'scrutiny', 'math', 'science', 'logic', 'fact']",0,[]
22,1.0,['observation'],0,[]
23,1.0,"['week', 'price']",0,[]
25,1.0,"['photo', 'wrong']",0,[]
41,1.0,"['air', 'training', 'train', 'air', 'replica', 'carry', 'handgun', 'recoil', 'fire', 'air', 'lot', 'dry', 'fire', 'real', 'firearm', 'bit', 'lighter', 'feel', 'air', 'real', 'line', 'sight', 'shot', 'hand-eye', 'coordination', 'practice', 'practice', 'stay', 'practice', 'line', 'sight', 'line', 'sight', 'hit', 'aim', 'trigger', 'control', 'trigger', 'time', 'control', 'shoot', 'air', 'day', 'range', 'day', 'large', 'difference', 'price', 'shoot', 'air', 'handgun', 'shoot', 'defense', 'handgun', 'train', 'grip', 'stance', 'real', 'handgun', 'photo', 'show', 'side', 'side', 'comparison', 'real', 'carry', 'pistol', 'air', 'training', 'pistol', 'favorite', 'target', 'air', 'plastic', 'pellet', 'comparison', 'relationship', 'size', 'target', 'size', 'ammo', 'hit', 'target', 'shot', 'foot', 'paper', 'target', 'shot', 'rapid', 'fire', 'foot', 'carry', 'pistol']",0,['air_soft']
45,1.0,"['fn', 'plant', 'america', 'run', 'advertisement', 'supply', 'small', 'arm', 'military', 'talk', 'soldier', 'leave', 'weapon', 'issue', 'fn', 'colt', 'percentage', 'barrett', 'alexander', 'arm', 'supply', 'small', 'arm', 'sas', 'rifle', 'supply', 'colt', 'supply']",0,[]
58,1.0,"['semi', 'auto', 'ar-10', 'bump', 'fire']",0,[]
61,1.0,"['dr', 'david', 'duke', 'phd', 'question', 'video', 'large', 'crowd', 'people', 'question', 'anti-racists', 'population', 'watch', 'video', 'answer', 'question']",0,[]
64,1.0,"['gay', 'teen', 'activist', 'honor', 'obama', 'charge', 'sex', 'crime', 'minor']",0,[]
76,1.0,"['army', 'tom', 'metzger', 'african', 'africa', 'mexican', 'mexico', 'asian', 'asia', 'white', 'homeland']",0,[]
83,1.0,"['waste', 'lot', 'money', 'keel', 'tall', 'mast', 'storm', 'bet', 'keel']",0,[]
84,1.0,"['babe', 'anti-feminists']",0,[]
93,1.0,"['interest', 'video', 'rt', 'ukrainian', 'america', 'crimea', 'mass', 'medium', 'lie', 'ukraine', 'crimea', 'russian', 'crimea', 'cry', 'joy', 'left', 'ukrainian', 'government', 'crimea', 'russian', 'passport', 'russian', 'healthcare', 'ukrainian', 'cemetery', 'crimea', 'crimea', 'hitler', 'ww', 'ii', 'diversion', 'give', 'communist', 'red', 'army', 'breathing', 'space', 'need', 'murder', 'german', 'soldier', 'camp', 'open', 'summer', 'uniform', 'russian', 'winter', 'crimea', 'land', 'hero', 'patriot', 'fool', 'attack', 'ukrainian', 'khrushchev', 'communist', 'russia', 'give', 'crimea', 'ukraine', 'gift', 'wow', 'guy', 'soviet', 'union', 'fell', 'russian', 'crimea', 'vote', 'secession', 'ukraine', 'gift', 'russian', 'crimea', 'people', 'ukrainian', 'government', 'people', 'spirit', 'history', 'heritage', 'language', 'culture', 'crimea', 'russian', 'russian', 'crimea', 'ukrainian', 'tyranny', 'good', 'luck', 'republic', 'crimea', 'ukrainian', 'ukraine']",0,['ww_ii']
