,text,doc_id,events
8,Africans murder three children,8,[]
3,Homosexual anti-gun mayor goes to jail for gun crime,3,[]
65,Famous Homosexuals LiveLeak.com - A Comprehensive List of Serial Killers Who Were Homosexual,65,[]
