,topic_lda,bag_words,sa_score,events
26,1.0,"['ar-10', 'rifle', 'today']",1,[]
176,1.0,"['sound', 'great', 'work', 'vacation', 'time', 'hope']",1,[]
843,1.0,"['gene', 'autry', 'texas', 'christmas']",1,[]
915,1.0,"['free', 'texas', 'almanac', 'free', 'texas', 'almanac', 'ebook']",1,[]
938,1.0,"['church', 'kek', 'music', 'video', 'sound', 'social', 'justice']",1,[]
1009,1.0,"['citizen', 'great', 'white', 'land', 'australia', 'display', 'great', 'white', 'pride']",1,[]
1045,1.0,"['flag', 'youtube', 'today', 'confederate', 'government', 'flag', 'south_carolina', 'accent', 'felt']",1,[]
1163,1.0,"['loony_leftists', 'savage', 'world', 'white_nations', 'benefit', 'white_children']",1,[]
1236,1.0,"['quality', 'product', 'sell']",1,[]
1253,1.0,"['spread', 'county', 'orchard', 'tree', 'plant', 'orange', 'climate', ""a'hinge"", 'life']",1,[]
1281,1.0,"['rockefeller', 'crime_family', 'secret', 'cabal', 'work', 'state', 'internationalist', 'structure', 'charge', 'stand']",1,[]
2050,1.0,"['good', 'goose', 'good', 'gander', 'jew']",1,[]
2361,1.0,"['camera', 'show', 'door', 'safe', 'room', 'good', 'safe', 'room', 'open', 'door', 'trouble']",1,[]
2542,1.0,"['wutz', 'dis', 'brn', 'lady', 'wontz', 'ta', 'ax', 'yu', 'sumpin', 'utopia', 'nyc', 'true', 'brave', 'muslim', 'woman', 'youtube']",1,[]
2595,1.0,"['president', 'america', 'jefferson_davis']",1,[]
2693,1.0,"['perfect', 'sense', 'degenerate', 'freak', 'cher', 'support', 'degenerate', 'hillary', 'girl', 'cheer', 'hillary', 'cocaine']",1,[]
2715,1.0,"['africa', 'farm', 'land', 'growing_season', 'continent', 'rich', 'natural', 'resource', 'coastline', 'river', 'model', 'super', 'power']",1,[]
3069,1.0,"['african_home', 'invasion', 'white', 'grand', 'mother', 'grand', 'daughter', 'shot']",1,[]
3539,1.0,"['free', 'ballistics', 'calculator', 'hornady', 'website', 'yard', 'calculator.php', 'caliber', 'bullet']",1,[]
3554,1.0,"['time', 'favorite', 'tull', 'tune', 'song', 'wood', 'jack', 'green', 'celtic', 'heritage']",1,[]
3762,1.0,"['survival', 'strategy', 'public', 'statement', 'merkel', 'europe']",1,[]
3778,1.0,"['sneak', 'security', 'cnn', 'headquarters', 'building', 'office', 'room', 'move', 'stay', 'free', 'food', 'free', 'medical', 'free', 'college', 'degree', 'building', 'person', 'life', 'cnn', 'building', 'cnn', 'building']",1,[]
3854,1.0,"['speech', 'winner']",1,[]
3888,1.0,"['israel', 'diversity', 'israel', 'strength']",1,[]
3902,1.0,"['olympic_arms', 'carbine', 'price', 'amp', 'wesson', 'ar', 'price', 'drop']",1,[]
4063,1.0,"['today', 'weather']",1,[]
4106,1.0,"['moa', 'minute', 'angle', 'inch', 'forty', 'thousandth', 'yard', 'yard', 'armalite', 'claim', 'accuracy', 'inch', 'yard', 'moa', 'group', 'moa', 'good', 'ammo', 'deal', 'good_luck', 'good_shooting']",1,[]
4138,1.0,"['impression', 'lady', 'union', 'role', 'support', 'husband']",1,[]
4152,1.0,"['beck', 'moral', 'hillary']",1,[]
4155,1.0,"['put', 'black_sabbath', 'youtube', 'concert', 'begin']",1,[]
4266,1.0,"['poster', 'communist', 'jew', 'henry', 'kissinger']",1,[]
4312,1.0,"['kid', 'public', 'service', 'criminal', 'cost', 'payer', 'dollar', 'cash', 'reward', 'bounty', 'thug', 'reform', 'system', 'mexican', 'mexico']",1,[]
4345,1.0,"['trash', 'white_folks', 'watch', 'jewish_controlled', 'tv', 'solution', 'jew', 'america']",1,[]
4350,1.0,"['line', 'problem', 'line', 'modern', 'female', 'life', 'child']",1,[]
4415,1.0,"['trump', 'drink', 'guinness', 'stormfront', 'pint', 'glass', 'victory', 'taste', 'great']",1,[]
4418,1.0,"['infowars', 'call', 'trump', 'winner']",1,[]
4419,1.0,"['trump', 'win', 'michigan', 'win']",1,[]
4512,1.0,"['putin', 'moscow', 'grand', 'mosque', 'internationalist', 'kgb', 'man']",1,[]
4672,1.0,"['muslim', 'rent', 'muslim', 'extremist', 'moderate', 'non-violent', 'muslim', 'peace']",1,[]
5062,1.0,"['john', 'friend', 'stormfront', 'radio', 'mm', 'john', 'friend', 'website', 'realist', 'report', 'real', 'history', 'race', 'reality', 'realist', 'report', 'real', 'history', 'race', 'reality']",1,[]
5142,1.0,"['front', 'national', 'win', 'election']",1,[]
5238,1.0,"['greece', 'border', 'european', 'nation', 'hungarian', 'prime', 'minister', 'viktor', 'orban']",1,[]
5253,1.0,"['japanese', 'hippie', 'band', 'american', 'influence', 'flute', 'player', 'chinese', 'sound', 'irish', 'people', 'child', 'nordic', 'race_mixers', 'japan', 'race_mixing', 'chance', 'people', 'hitler', 'love', 'nazi', 'white', 'european', 'view', 'white', 'european', 'potential', 'japanese', 'hippy']",1,[]
5271,1.0,"['olga', 'kuzkova', 'strip', 'beauty', 'title']",1,[]
5323,1.0,"['whitey', 'hit']",1,[]
5353,1.0,"['poem', 'feature', 'stormfront', 'radio', 'hour', 'mm', 'rudyard', 'kipling', 'head', 'dream', 'dream', 'master', 'heap', 'winning', 'talk', 'crowd', 'virtue']",1,[]
5359,1.0,"['white_boy', 'dy', 'fire', 'rescue', 'kid']",1,[]
5581,1.0,"['blue', 'sky', 'rider', 'feel', 'brave']",1,[]
5660,1.0,"['jump', 'good', 'airplane']",1,[]
5737,1.0,"['invention', 'classroom', 'door', 'inventor', 'want', 'school', 'shooting', 'work', 'door']",1,[]
5765,1.0,"['robin', 'trower', 'lady', 'love', 'daydream', 'roll', 'stone']",1,[]
5818,1.0,"['utopia', 'brazil', 'loony_leftists', 'world', 'brazil', 'loony_leftists', 'brazil']",1,[]
5962,1.0,"['brad', 'paisley', 'anniversary', 'tele']",1,[]
6036,1.0,"['dude', 'perfect', 'nerf', 'sport', 'edition']",1,[]
6235,1.0,"['merry_christmas', 'john', 'fogerty', 'family']",1,[]
6438,1.0,"['perfection', 'violin']",1,[]
6447,1.0,"['black', 'oak', 'arkansas', 'jim', 'dandy', 'rescue']",1,[]
6509,1.0,"['freedom', 'palooza', 'merlin', 'miller']",1,[]
6552,1.0,"['american', 'freedom', 'party', 'report', 'paul', 'fromm', 'interview', 'jamie', 'kelso']",1,[]
6632,1.0,"['peace', 'talk', 'update']",1,[]
6706,1.0,"['walmart', 'federal', 'welfare', 'federal', 'program', 'walmart', 'pay', 'living', 'employee', 'profit', 'high']",1,[]
6719,1.0,"['agrability', 'agrability', 'program', 'disabled', 'farmer', 'freedom', 'farm', 'youtube']",1,[]
6762,1.0,"['nature', 'friend', 'plant', 'sweet', 'potato']",1,[]
6781,1.0,['mother'],1,[]
6794,1.0,"['nationalist', 'men', 'communist', 'scum', 'washington', 'dc', 'god_bless', 'dixie', 'freedom']",1,[]
6807,1.0,"['peace', 'time']",1,[]
6939,1.0,"['baby', 'elephant', 'rescue']",1,[]
6979,1.0,"['corr', 'joy', 'life']",1,[]
6991,1.0,"['information', 'shadow']",1,[]
7060,1.0,"['hero', 'school', 'school']",1,[]
7103,1.0,"['bill', 'concealed_carry', 'collage', 'campus', 'arkansas', 'god_bless', 'dixie']",1,[]
7471,1.0,"['game', 'camera', 'gift']",1,[]
7496,1.0,"['cheese', 'mold', 'free', 'longer']",1,[]
7565,1.0,"['turkey', 'mortar', 'free', 'missile', 'defense', 'shield', 'cost', 'tax_payers', 'union', 'billion']",1,[]
7965,1.0,"['great', 'garloo']",1,[]
8124,1.0,"['merry_christmas', 'ramzpaul']",1,[]
8251,1.0,"['judis', 'priest', 'danica', 'patrick', 'turbo', 'lover']",1,[]
8316,1.0,"['jessie', 'abbate', 'steel', 'challenge', 'winner']",1,[]
8331,1.0,"['independence', 'day', 'day', 'freedom', 'day', 'demand', 'freedom']",1,['independence_day']
8365,1.0,"['bob_whitaker', 'real', 'history', 'liberal', 'history', 'real', 'true', 'history', 'loony_leftists', 'history']",1,[]
8666,1.0,"['lynyrd_skynyrd', 'free', 'bird']",1,[]
8706,1.0,"['pink', 'ak', 'fun', 'girl', 'love', 'gun']",1,[]
8793,1.0,"['gwyneth', 'paltrow', 'country', 'cma', 'award']",1,[]
8815,1.0,"['mexican', 'illegal_aliens', 'mexican', 'law', 'mexican', 'mexican']",1,[]
8824,1.0,"['cousin', 'kenny', 'vaughan', 'superlative', 'flat', 'wound', 'string']",1,[]
8953,1.0,"['alex_jones', 'culture']",1,[]
9217,1.0,"['loony_leftists', 'discus', 'good', 'white_folks', 'great', 'deed', 'list', 'equal']",1,[]
9382,1.0,"['african', 'return', 'africa', 'journey', 'building', 'africa', 'african', 'colony', 'job', 'african', 'colony', 'surround', 'community', 'supply', 'service', 'colony', 'african', 'return', 'million', 'glad', 'white_man', 'law', 'win', 'win', 'situation', 'history']",1,[]
9402,1.0,"['virtue', 'white_humans', 'die', 'virtue', 'cling', 'virtue', 'favorite', 'prize', 'possession', 'great', 'hero', 'virtue', 'weakness', 'time', 'time', 'chosen', 'mortal', 'enemy', 'kind', 'virtue', 'good', 'white_humans', 'found', 'civilization', 'content', 'meadow', 'hill', 'side', 'contentment', 'joy', 'good', 'white_humans', 'invader', 'land', 'root', 'beggar', 'share', 'truth', 'white_humans', 'fruit', 'labor', 'accordance', 'fruit', 'labor', 'poverty', 'condition', 'creation', 'great', 'love', 'virtue', 'white_humans', 'white_humans', 'help', 'great', 'love', 'virtue', 'white_humans', 'turn', 'back', 'kind', 'help', 'poor', 'invader', 'white_human', 'founder', 'chinese', 'culture', 'virtue', 'life', 'lack', 'virtue', 'virtue', 'worth', 'life', 'child', 'place', 'high', 'virtue', 'child', 'living', 'space', 'child', 'safe', 'white_human', 'founder', 'chinese', 'culture']",1,[]
9406,1.0,"['kind', 'party', 'matter', 'white', 'nationilist', 'party', 'human', 'freedom', 'prosperity', 'fraternity', 'security', 'generation']",1,['year']
9590,1.0,"['putin', 'stamp', 'white', 'pride']",1,[]
9599,1.0,"['marvel', 'anti-white', 'dc', 'anti-white', 'justice', 'league', 'anti-white', 'episode', 'dc', 'star_wars', 'anti-white', 'teach', 'aid']",1,[]
9605,1.0,"['folk', 'thanksgiving', 'federal_school', 'post9759541']",1,['thanksgiving']
9636,1.0,"['congratulation', 'make', 'debate', 'face', 'face', 'friend', 'true', 'gentleman', 'request', 'conduct', 'true', 'gentleman', 'public', 'eye', 'debate', 'medium', 'drag', 'level', 'conduct', 'honor', 'decorum', 'charm', 'win', 'side', 'win', 'man', 'white_man']",1,[]
9742,1.0,"['ireland', 'country', 'uk', 'usa', 'scotland', 'free', 'rank']",1,[]
9905,1.0,"['dem', 'black', 'fok', 'dey', 'shoe']",1,[]
9922,1.0,"['model', 'amp', 'w', 'model', 'good', 'knife', 'blade', 'hold', 'edge', 'good', 'texture', 'handle', 'arthritis', 'open', 'regular', 'fold', 'knife']",1,[]
9935,1.0,['glad'],1,[]
10088,1.0,"['division', 'divide', 'beast', 'freedom']",1,[]
10192,1.0,"['lookout', 'free', 'cash']",1,[]
10223,1.0,"['lady', 'great', 'knight', 'shin', 'armor', 'single', 'guy', 'white_woman', 'white_nationalist']",1,[]
10285,1.0,"['god_bless', 'commonwealth', 'virginia', 'god', 'bless_dixie', 'god', 'beast']",1,[]
10352,1.0,"['color', 'color', 'color', 'invention', 'discovery', 'moon', 'mar', 'venus', 'mercury', 'nation', 'men', 'woman', 'produce', 'music', 'art', 'literature', 'website']",1,[]
10390,1.0,"['congratulation', 'married', 'raise', 'family', 'glad']",1,[]
10418,1.0,"['special', 'privilege', 'special', 'group', 'equal']",1,[]
10429,1.0,"['marxist', 'tell', 'african', 'great', 'tradition', 'rich', 'culture', 'food', 'culture', 'time', 'african']",1,[]
10560,1.0,"['corn', 'tassel', 'corn', 'silk', 'flower', 'add', 'beauty', 'enjoyment', 'garden', 'bee', 'butterfly', 'come', 'garden']",1,[]
10634,1.0,['flag'],1,[]
10713,1.0,"['liberal', 'remake', 'hollywood', 'jew', 'remake', 'combination', 'american', 'sniper', 'selma', 'potential', 'money', 'maker']",1,[]
10904,1.0,"['crop', 'proportion', 'software', 'stretch', 'fit', 'photo']",1,[]
11159,1.0,"['obama', 'homosexual', 'druggie', 'african', 'muslim', 'respect', 'trump', 'white', 'american', 'man', 'command', 'respect']",1,[]
11215,1.0,"['state', 'territory', 'support', 'law', 'confederacy', 'union', 'confederacy', 'nation', 'nation', 'union', 'army', 'cause', 'ruckus', 'free', 'state', 'leaf', 'texas', 'south_carolina', 'vermont', 'maine', 'hate', 'government', 'raise', 'hand', 'sea', 'hand', 'stretch', 'sea', 'shin', 'sea', 'god', 'bless_dixie']",1,[]
11295,1.0,"['halloween', 'version', 'community', 'holiday', 'meet', 'great', 'neighbor', 'community', 'building', 'halloween']",1,[]
11561,1.0,"['guinness', 'irish', 'dance']",1,[]
11948,1.0,"['ron_paul', 'win', 'cpac', 'straw', 'poll']",1,[]
12053,1.0,"['calhoun', 'county', 'alabama', 'confederate', 'memorial', 'god_bless', 'dixie', 'god_bless', 'patriot', 'present', 'liberty', 'deo', 'vindice']",1,[]
12084,1.0,"['egyptian', 'pipeline', 'explosion', 'egyptian', 'gas', 'pipeline', 'supply', 'good', 'friend']",1,[]
12208,1.0,"['battlelore', 'house', 'hero']",1,[]
12233,1.0,"['skrewdriver', 'march', 'glory']",1,[]
12294,1.0,"['nugent', 'interview', 'clarence', 'douglas', 'malcolm', 'investigation', 'arm', 'american_citizens', 'hope', 'liberty', 'texas']",1,[]
12472,1.0,"['major', 'general', 'albert', 'bert', 'n', 'stubblebine', 'iii', 'head', 'army', 'intelligence', 'official', 'washington_government', 'lie']",1,[]
12799,1.0,"['route', 'freedom']",1,[]
12826,1.0,"['liberty', 'movie', 'preview']",1,[]
12875,1.0,"['charlotte', 'iserbyt', 'dumbing', 'america', 'excerpt', 'save', 'pull', 'youtube', 'video', 'save', 'savevid.com', 'save', 'website']",1,[]
13106,1.0,"['edible', 'landscape']",1,[]
13148,1.0,['body'],1,[]
13397,1.0,"['victory', 'empire']",1,[]
13398,1.0,"['south_carolina', 'independence', 'rally', 'report', 'july', 'god', 'liberty', 'freedom', 'washington_d.c', 'god', 'independence', 'day']",1,['independence_day']
13461,1.0,"['alan', 'gura', 'alan', 'gottlieb', 'significance', 'mcdonald', 'chicago', 'supreme_court', 'gun_rights', 'supreme_court', 'gun_rights', 'cbs2chicago.com']",1,[]
