,Unnamed: 0,Term,Fq-0,Fq-1,Fq-2,Fq-3,Fq-4,Tfidf-0,Tfidf-1,Tfidf-2,Tfidf-3,Tfidf-4,Prob-0,Prob-1,Prob-2,Prob-3,Prob-4
11596,white,white,14,33,135,522,14,0.010769102392205271,0.05177158973213253,0.1505737950680921,0.3388410280828634,0.04729376960358485,3.6310696e-05,0.00035110614,0.003564683,0.019439694,0.0006998619599999999
1048,black,black,28,22,28,370,7,0.021538204784410542,0.03451439315475502,0.03123012045856725,0.2401746750778917,0.023646884801792424,0.00011993466,0.0007701331,0.0003048346,0.019069351000000002,0.00020842442999999998
167,african,african,18,15,24,561,11,0.013845988789978204,0.023532540787332967,0.026768674678771927,0.3641567370775601,0.03715939040281666,0.000100193385,2.9002966e-05,0.00024186974,0.013397497,9.0620575e-05
11607,white_folks,white_folks,6,17,23,266,7,0.004615329596659401,0.026670212892310696,0.025653313233823097,0.17266611775870053,0.023646884801792424,1.2737431e-05,0.00018171561999999998,0.00014876343000000002,0.010382246999999999,0.0014378295999999998
1862,child,child,8,29,75,269,12,0.006153772795545869,0.04549624552217707,0.08365210837116227,0.1746134799890618,0.04053751680307272,7.527383000000001e-05,0.001494968,0.0026710187,0.009967812,0.002045904
7908,people,people,38,51,71,171,10,0.029230420778842883,0.08001063867693209,0.07919066259136695,0.1109996471305932,0.0337812640025606,0.00010875962,0.003276662,0.0021609394,0.008675064,0.0015398248999999998
5572,jew,jew,4,183,29,271,23,0.0030768863977729344,0.2870969976054622,0.032345481903516084,0.17591172147596934,0.07769690720588937,4.913143599999999e-06,0.012789425,0.0002846581,0.008629364,0.0013085209
6063,leftist,leftist,1,28,13,112,6,0.0007692215994432336,0.043927409469688206,0.014499698784334797,0.07270152326682128,0.02026875840153636,1.5401669e-05,0.0035709387,0.00046620989999999996,0.008501851999999999,0.0009202363400000001
9301,savage,savage,20,5,9,179,4,0.015384431988864671,0.007844180262444322,0.010038253004539472,0.11619261307822328,0.013512505601024242,6.705255e-05,3.9532944e-05,4.733103e-05,0.007985121,0.00023000644
11618,white_man,white_man,14,9,50,229,6,0.010769102392205271,0.014119524472399782,0.05576807224744152,0.14864865025091134,0.02026875840153636,2.976943e-05,1.3057696000000001e-05,0.0014611039000000001,0.007647325799999999,0.00021228343999999996
