,topic_lda,bag_words,sa_score,events,rank
11225,4.0,"['nazi', 'hate', 'alex_jones', 'alex_jones', 'jew', 'crime', 'jew', 'jew', 'hitler', 'jewish_leaders', 'hitler', 'round', 'jew', 'lie', 'jew', 'round', 'jew', 'crime', 'arrest', 'german', 'arrest', 'jew', 'jew', 'arrest', 'hitler', 'jew', 'sensitive', 'position', 'military', 'military', 'complex', 'hitler', 'issue', 'prisoner', 'cost', 'cause', 'german', 'citizen', 'food', 'medical', 'supply', 'short', 'supply', 'supply', 'prisoner', 'cause', 'german', 'civilian', 'general', 'patton', 'prisoner', 'bullet', 'head', 'order', 'soldier', 'prisoner', 'resource', 'alex_jones', 'jew', 'crime', 'guess', 'nazi', 'hate', 'hitler']",-1,[],0.007508738
10901,4.0,"['medium', 'lie', 'hide', 'normal', 'attack', 'family', 'give', 'attack']",-1,[],0.007508738
2117,4.0,"['hillary', 'hire', 'american', 'document', 'destruction']",-1,[],0.0071571437
5711,4.0,"['bob_whitaker', 'real', 'american', 'indian', 'history', 'savage', 'share']",-1,[],0.0071571437
7293,4.0,"['bank', 'america', 'american', 'gun_sales', 'jewish_owned', 'international_banks', 'bank', 'america', 'gun_sales']",-1,[],0.0071571437
8740,4.0,"['bank', 'call', 'bank', 'america', 'display', 'greed', 'upset', 'american', 'hand', 'wealth', 'fast']",-1,[],0.0071571437
2047,4.0,"['care', 'white_folks', 'rap', 'torture', 'cut', 'piece', 'news_worthy', 'hand', 'criminal', 'prison', 'camp', 'criminal', 'prison', 'event', 'media_mafia', 'white_folks', 'white_folks', 'civil_right', 'white_folks', 'importance', 'hand', 'neighbor', 'call', 'slur', 'folk', 'scream', 'evil', 'black_african', 'hack', 'piece', 'answer', 'call']",-1,[],0.006432009399999999
4184,4.0,"['patient', 'die', 'hospital', 'die', 'black_african', 'nurse', 'mood', 'wash', 'hand', 'stick', 'patient', 'iv', 'med', 'read', 'doctor', 'medical', 'order', 'check', 'patient', 'wristband', 'give', 'med', 'patient', 'medical', 'alert', 'alarm']",-1,[],0.006432009399999999
1532,4.0,"['white_folks', 'black_african', 'crime', 'medium', 'find', 'news_worthy']",-1,[],0.006432009399999999
9685,4.0,"['prince', 'charles', 'give', 'putin', 'insult', 'compare', 'hitler', 'putin', 'wrong', 'presstv', 'putin', 'prince', 'charles', 'hitler', 'remark', 'wrong']",-1,[],0.006124121
10737,4.0,"['crime', 'primitive', 'african', 'savage', 'mexican', 'invader', 'america', 'safe', 'place', 'asian', 'respect', 'asian', 'asia', 'good']",-1,[],0.0058690109999999995
8721,4.0,"['batfe', 'buying', 'sell', 'firearm', 'mexican', 'criminal', 'tax_dollars']",-1,[],0.0058690109999999995
10230,4.0,"['mexican', 'black', 'people', 'mistake', 'mexican', 'africanized', 'indian', 'ability', 'contrary', 'intelligence', 'crime', 'mexican', 'watch', 'program', 'talmud', 'vision', 'dna', 'evidence', 'murder', 'victim', 'set', 'victim', 'burn', 'burn', 'dead', 'body', 'murder', 'victim', 'mexican', 'black', 'security', 'camera', 'set', 'victim', 'mexican', 'black', 'brain', 'cell', 'evil', 'criminal', 'intent', 'inferior', 'mexican', 'black', 'ability', 'hatch', 'victim']",-1,[],0.0058690109999999995
3758,4.0,"['think', 'brick', 'fine', 'cqc', 'close_quarters', 'combat', 'stoved', 'criminal', 'head', 'brick', 'kill', 'black', 'criminal', 'neighborhood', 'pistol', 'hit', 'chest', 'time', 'point_blank', 'criminal', 'kill', 'mexican']",-1,[],0.0058690109999999995
10736,4.0,"['channel', 'gun', 'ammo', 'classic', 'weapon', 'shooting_sports', 'product', 'review', 'american_rifleman', 'history', 'weapon', 'product', 'cowboy', 'shooter', 'rifle', 'shotgun', 'cowboy', 'action', 'shoot', 'western', 'shooting_gallery', 'technique', 'shooting_sports', 'tv', 'shoot', 'instruction', 'defensive', 'info', 'dog', 'bird', 'dog', 'bird', 'hunt', 'history_channel', 'wild', 'west', 'tech', 'real', 'event', 'person', 'jewish_communist', 'anti-white_propaganda', 'record', 'house', 'slander']",-1,[],0.005510051
10856,4.0,"['trump', 'insider', 'real', 'trump', 'clinton', 'bush', 'crime', 'family', 'expose']",-1,[],0.005510051
1391,4.0,"['disaster', 'chernobyl', 'disaster', 'part', 'youtube']",-1,[],0.005341729
