,topic_lda,bag_words,sa_score,events,rank
48,2.0,"['ak', 'work', 'cqc', 'ar-10', 'ar-10', 'work', 'great', 'yard', 'folk', 'ak', 'super', 'human', 'claim', 'hit', 'range', 'ak', 'limit', 'yard', 'ak', 'ammo', 'work', 'great', 'short', 'range', 'hit', 'short', 'range', 'ar-10', 'bet', 'lot', 'mud', 'arm', 'short', 'range', 'rifle', 'white', 'marksman', 'arm', 'range', 'rifle', 'range']",0,[],0.0147430170327425
49,2.0,"['chant', 'usa', 'usa', 'usa', 'movement', 'trump', 'usa', 'white', 'american', 'america', 'great']",0,[],0.0147430170327425
50,2.0,"['great', 'speech', 'trump', 'spoke', 'jew', 'fear', 'man', 'public', 'side', 'step', 'issue', 'beat', 'bush', 'message', 'group', 'message', 'group', 'message', 'good', 'message', 'trump', 'support', 'white', 'america', 'america', 'great']",0,[],0.0147430170327425
51,2.0,"['massachusetts', 'liberal', 'progressive', 'anti-conservative', 'massachusetts', 'prof', 'fed', 'white', 'america', 'anti-white', 'trend', 'america', 'trump', 'pack', 'pack']",0,[],0.0147430170327425
63,2.0,"['glad', 'future', 'descendant', 'black', 'brown', 'future', 'white', 'folk']",0,[],0.0147430170327425
68,2.0,"['alex', 'jones', 'repeat', 'lie', 'hitler', 'nazi', 'ww', 'ii', 'majority', 'normal', 'day', 'white', 'men', 'america', 'average', 'white', 'man', 'america', 'hate', 'hitler', 's', 'gestapo', 'reich', 'nazi', 'individual', 'show', 'wave', 'nazi', 'flag', 'drive', 'normal', 'white', 'men', 'join', 'white', 'nationalist', 'white', 'family', 'men', 'support', 'future', 'white', 'child', 'natural', 'earth', 'majority', 'white', 'family', 'men', 'join', 'nazi', 'flag']",0,['ww_ii'],0.0147430170327425
79,2.0,"['trump', 'cnn', 'reporter', 'time', 'trump', 'tomorrow', 'medium', 'rant', 'rave', 'call', 'murder']",0,[],0.011270016431808472
18,2.0,"['alex', 'jones', 'report', 'deutsche', 'bank', 'verge', 'failure', 'information', 'source', 'jones']",0,[],0.009109132923185824
90,2.0,"['great', 'job', 'pride']",0,[],0.008033865131437778
