,Unnamed: 0,Term,Fq-0,Fq-1,Fq-2,Fq-3,Fq-4,Tfidf-0,Tfidf-1,Tfidf-2,Tfidf-3,Tfidf-4,Prob-0,Prob-1,Prob-2,Prob-3,Prob-4
3586,racist,racist,0,32,0,3,0,0.0,0.2075679815156049,0.0,0.02128882481400424,0.0,0.0,0.015651494,0.0,0.00032754854,0.00039683678
4884,white,white,22,86,43,65,26,0.0911591544124352,0.3294686703720014,0.2209706571355088,0.2724263290670029,0.1269506369009553,0.0015040085,0.013798051499999998,0.004960538400000001,0.012700546000000002,0.0024729224
2359,jew,jew,42,69,59,21,10,0.1740311129691945,0.2643411425077686,0.3031922969998842,0.08801466016010863,0.048827168038828965,0.009079341999999999,0.010799196,0.011659138999999999,0.0038325544,0.0034135606
4887,white_folks,white_folks,6,47,11,15,1,0.024861587567027783,0.1800584593893496,0.056527377406758075,0.06286761440007757,0.0048827168038828965,0.0005836495,0.010055436999999999,0.0021287105,0.0026482190000000003,0.0002785712
432,black,black,17,41,9,22,17,0.07044116477324537,0.15707227308432625,0.04624967242371115,0.09220583445344713,0.08300618566600923,0.005222516,0.008668535,0.0040068566,0.0056926627,0.005288322
4981,year,year,13,36,8,7,8,0.05386677306189353,0.13791711783014013,0.04111081993218769,0.029338220053369536,0.03906173443106317,0.0013252079999999998,0.0076085418,0.0016766557999999998,0.0011327162,0.000623335
4538,time,time,26,41,16,36,25,0.10773354612378706,0.15707227308432625,0.08222163986437538,0.1508822745601862,0.1220679200970724,0.0040618726,0.006777766,0.00487877,0.007433768,0.005320221
3279,people,people,15,24,17,17,12,0.06215396891756945,0.0919447452200934,0.08736049235589884,0.0712499629867546,0.05859260164659475,0.0018127416,0.006672676999999999,0.0059909285,0.0020805178,0.0030335078000000002
616,call,call,13,29,9,10,9,0.05386677306189353,0.11109990047427956,0.04624967242371115,0.04191174293338505,0.04394445123494607,0.0023798651999999997,0.0063007823,0.0012091239,0.0021149123,0.0020315147
4890,white_man,white_man,6,29,9,17,4,0.024861587567027783,0.11109990047427956,0.04624967242371115,0.0712499629867546,0.019530867215531586,0.00068183045,0.006256380600000001,0.0009692299,0.0032694716999999997,0.00010552891000000002
