,doc_id,sa_score
0,0,0
1,1,0
2,2,1
3,3,-1
4,4,1
5,5,-1
6,6,0
7,7,0
8,8,-1
9,9,0
10,10,0
11,11,0
12,12,1
13,13,0
14,14,-1
15,15,0
16,16,1
17,17,1
18,18,0
19,19,0
20,20,0
21,21,0
22,22,0
23,23,0
24,24,0
25,25,0
26,26,1
27,27,0
28,28,0
29,29,0
30,30,0
31,31,0
32,32,-1
33,33,1
34,34,0
35,35,0
36,36,0
37,37,0
38,38,0
39,39,0
40,40,0
41,41,0
42,42,1
43,43,0
44,44,0
45,45,0
46,46,-1
47,47,0
48,48,0
49,49,0
50,50,0
51,51,0
52,52,0
53,53,0
54,54,0
55,55,0
56,56,-1
57,57,0
58,58,0
59,59,0
60,60,1
61,61,0
62,62,-1
63,63,0
64,64,0
65,65,-1
66,66,-1
67,67,0
68,68,0
69,69,0
70,70,-1
71,71,0
72,72,0
73,73,0
74,74,1
75,75,0
76,76,0
77,77,-1
78,78,0
79,79,0
80,80,0
81,81,0
82,82,0
83,83,0
84,84,0
85,85,0
86,86,0
87,87,0
88,88,0
89,89,0
90,90,0
91,91,0
92,92,0
93,93,0
94,94,0
95,95,0
96,96,0
97,97,0
98,98,0
99,99,0
