,topic_lda,bag_words,sa_score,events
16,4.0,"['grand', 'palace', 'great', 'negus', 'project']",1,[]
17,4.0,"['update', 'schedule', 'north', 'texas', 'irish', 'festival', 'headliner', 'altan', 'play', 'festival', 'sunday']",1,[]
