,topic_lda,bag_words,sa_score,events,rank
13138,1.0,"['paul', 'joseph', 'watson', 'obama', 'zombie', 'goon', 'friend', 'homosexual', 'radical', 'marxist', 'bill', 'ayers']",-1,[],0.014021736000000002
12989,1.0,"['man', 'anti-obama', 'sign', 'obama', 'personal', 'savior']",-1,[],0.014021736000000002
12811,1.0,"['barack_hussein', 'obama', 'jr', 'anti-white', 'racist', 'rant']",-1,[],0.014021736000000002
12776,1.0,"['obama', 'hate', 'america']",-1,[],0.014021736000000002
8994,1.0,"['rand_paul', 'obama', 'failure', 'take']",-1,[],0.014021736000000002
8902,1.0,"['dead', 'kenyan', 'fuel', 'pipeline', 'fire', 'time', 'incident', 'report', 'burn', 'savage', 'line', 'fuel', 'leak', 'pipeline', 'article', 'mention', 'leak', 'overturn', 'tanker', 'world', 'ready', 'white_man', 'technology', 'kenyan', 'leader', 'obama', 'dead', 'kenyan', 'fuel', 'pipeline', 'fire', 'telegraph']",-1,[],0.014021736000000002
6612,1.0,"['irish', 'parliment', 'speech', 'obama', 'war', 'criminal', 'law', 'war', 'criminal', 'hang']",-1,[],0.014021736000000002
6577,1.0,"['african', 'love', 'obama', 'black', 'black']",-1,[],0.014021736000000002
3977,1.0,"['trump', 'obama', 'hillary', 'soros', 'banking_families', 'israel', 'saudi_arabia', 'chemical', 'weapon', 'attack']",-1,[],0.014021736000000002
3145,1.0,"['african', 'muslim', 'white_boy', 'blue', 'eye', 'swedish', 'boy', 'assault', 'blue', 'eye']",-1,[],0.013089547
11321,1.0,"['terror', 'attack', 'terrorist', 'attack', 'muslim', 'marxist', 'germany']",-1,[],0.013089547
4467,1.0,"['crime', 'muslim', 'burn']",-1,[],0.013089547
14,1.0,"['explosion', 'restaurant', 'music', 'festival', 'ansbach', 'dead', 'accident', 'muslim']",-1,[],0.013089547
1372,1.0,"['jew', 'muslim', 'pedophile', 'jewish_hollywood', 'movie', 'leftist', 'anti-whites', 'death']",-1,[],0.013089547
1826,1.0,"['muslim', 'terrorist', 'partner', 'ukraine']",-1,[],0.013089547
3644,1.0,"['jew', 'sell', 'black', 'market', 'gun', 'irish', 'patriot', 'gun', 'fire']",-1,[],0.012789425
8950,1.0,"['brother', 'nathanael', 'jew', 'nato', 'rape', 'libya']",-1,"[""nato's""]",0.012789425
1679,1.0,"['soviet', 'government', 'member', 'jew', 'government', 'murdered_millions', 'fellow', 'communist', 'white']",-1,[],0.012789425
9309,1.0,"['fair', 'poor', 'jew']",-1,[],0.012789425
3182,1.0,"['mass', 'shooter', 'website', 'facebook', 'facebook', 'begin', 'mass', 'shooter', 'facebook', 'crime', 'history', 'jew', 'committed_mass', 'murder', 'jew', 'facebook', 'mass_murderer']",-1,[],0.012789425
8821,1.0,"['israel', 'promise', 'land', 'crime', 'crime', 'mass_murder', 'jew', 'israel', 'escape', 'justice']",-1,[],0.012789425
523,1.0,"['jew', 'lead', 'gun_control', 'charge', 'jew', 'favor', 'israeli', 'jew']",-1,[],0.012789425
1549,1.0,"['race_traitors', 'evil', 'jew']",-1,[],0.012789425
10710,1.0,"['jew', 'white_folks', 'hate', 'jew', 'hate', 'return', 'jew', 'group']",-1,[],0.012789425
6658,1.0,"['jew', 'christian', 'jew', 'christian', 'time', 'christ', 'jew', 'christ']",-1,[],0.012789425
10614,1.0,"['communist', 'mass_murderer', 'mass_murder', 'mass', 'graf', 'belarus']",-1,[],0.011600982
10524,1.0,"['ukraine', 'anti-government', 'riot', 'riot', 'begin', 'communist']",-1,[],0.011600982
10331,1.0,"['leftist', 'communism', 'hate', 'communist']",-1,[],0.011600982
10480,1.0,"['communist', 'mass_murder', 'instance', 'communist', 'control', 'control', 'commit_mass', 'murder', 'ussr', 'committed_mass', 'murder', 'innocent_white', 'child']",-1,[],0.011600982
8972,1.0,"['communist', 'news', 'network', 'broadcast', 'lie', 'zionism', 'corporate_wars']",-1,[],0.011600982
6990,1.0,"['communist', 'nation', 'nation']",-1,[],0.011600982
11848,1.0,"['winter', 'war', 'fin', 'communist', 'tank']",-1,['winter_war'],0.011600982
11794,1.0,"['finnish', 'sniper', 'white', 'death', 'communist', 'kill']",-1,[],0.011600982
7191,1.0,"['war', 'international_bankers']",-1,['federal_global_war'],0.0102591915
8980,1.0,"['false_flag', 'attack', 'war', 'conquest']",-1,[],0.0102591915
13101,1.0,"['nationalist', 'fight', 'order', 'world_wide', 'enemy', 'win', 'war', 'ally']",-1,[],0.0102591915
1092,1.0,"['norad', 'move', 'cheyenne', 'mountain', 'cold', 'war', 'location']",-1,['cold_war'],0.0102591915
5265,1.0,"['lego_star', 'war', 'droid', 'tale', 'episode']",-1,[],0.0102591915
8842,1.0,"['dead', 'mexican_drug', 'war']",-1,['mexican_drug_war'],0.0102591915
5363,1.0,"['general', 'smedley', 'butler', 'war']",-1,[],0.0102591915
9707,1.0,"['blame', 'hitler', 'start', 'war', 'start']",-1,[],0.0102591915
5423,1.0,"['lego_star', 'war', 'rebel']",-1,[],0.0102591915
11538,1.0,"['murder', 'machine', 'inch', 'war']",-1,[],0.0102591915
10657,1.0,"['neocon', 'rule', 'engagement', 'young', 'boy', 'war', 'zone', 'fire', 'weapon', 'zog', 'tribunal', 'young', 'boy', 'murder', 'neocon', 'mass_murder', 'sentence']",-1,[],0.0102591915
8273,1.0,"['lego_star', 'war', 'harbinger']",-1,[],0.0102591915
8235,1.0,"['military', 'fight', 'war', 'unocal', 'company', 'pipeline', 'american-canadian', 'pipeline']",-1,[],0.0102591915
9364,1.0,"['flood', 'texas', 'mexican', 'invader', 'texas', 'law', 'government', 'fight', 'federal', 'court', 'outcome', 'rig', 'texas', 'mexican', 'federal_judge', 'block', 'mexican', 'vote', 'power']",-1,[],0.008749347
8991,1.0,"['explosive', 'terror', 'drill', 'phoenix', 'airport', 'thief', 'training', 'public', 'location', 'real', 'explosive', 'murder', 'purpose', 'murder', 'incompetence', 'government']",-1,[],0.008749347
8908,1.0,"['federal_government', 'waste', 'tax_dollars', 'government', 'waste', 'money', 'youtube']",-1,[],0.008749347
8636,1.0,"['cancer', 'cure', 'dca', 'government', 'federal', 'regulation', 'cure', 'disease', 'cancer']",-1,[],0.008749347
8914,1.0,"['alex_jones', 'july', 'sign', 'point', 'false_flag', 'terror', 'event', 'government']",-1,[],0.008749347
8910,1.0,"['rhonda_vincent', 'star', 'spangle', 'banner', 'star', 'bangled', 'banner', 'tyranny', 'loyalty', 'tyranny', 'government']",-1,[],0.008749347
8704,1.0,"['ppt', 'rule', 'trading', 'derivative', 'expert', 'claim', 'ppt', 'ppt', 'government', 'mass_murder', 'american_citizens']",-1,[],0.008749347
7876,1.0,"['april', 'patriot', 'shot', 'government', 'committed_mass', 'murder', 'child', 'waco', 'texas']",-1,[],0.008749347
7567,1.0,"['ron_paul', 'free', 'government']",-1,[],0.008749347
8945,1.0,"['operation', 'northwoods', 'fake', 'terror', 'false_flag', 'plot', 'government']",-1,[],0.008749347
6077,1.0,"['government', 'thug', 'capture', 'pay', 'terrorist', 'bomb']",-1,[],0.008749347
6660,1.0,"['slavery', 'slavery', 'outlaw', 'slavery', 'mexican', 'buy', 'sell', 'black_african', 'slave', 'slavery', 'today', 'white_man', 'slavery']",-1,[],0.0071616119999999995
3041,1.0,"['african_female', 'white_woman', 'white_woman', 'shopping', 'dollar', 'store', 'female', 'african', 'rush', 'chase', 'knock', 'floor', 'hate_crime', 'white_person', 'shock', 'video', 'alabama', 'woman', 'hate_crime']",-1,[],0.006588482
8281,1.0,"['person', 'shooter', 'video', 'game', 'train', 'america', 'youth', 'white_americans']",-1,[],0.006588482
1452,1.0,"['michael', 'brown', 'assault', 'robbery', 'video', 'gut', 'fair', 'fight']",-1,[],0.006588482
4636,1.0,"['video', 'update', 'savage', 'machete', 'attack', 'texas']",-1,[],0.006588482
8968,1.0,"['post', 'police', 'state', 'terror', 'cover', 'oil', 'rich', 'nation', 'false_flag', 'terror', 'attack', 'terrorism']",-1,['false_flag_terror_attacks'],0.0061414274
3035,1.0,"['hammer', 'attack', 'savage', 'asian', 'canadian', 'boy', 'rafid', 'jihad', 'canadian', 'boy', 'beat', 'hammer', 'boy', 'skull', 'fracture', 'injury']",-1,[],0.0061414274
4014,1.0,"['fdr', 'launch', 'surprise', 'attack', 'japan', 'document', 'treason', 'fdr', 'communist/zionist', 'media_mafia', 'cover', 'limited', 'extent']",-1,[],0.0061414274
4015,1.0,"['pearl_harbor', 'attack', 'film', 'film', 'footage', 'film', 'day', 'attack']",-1,[],0.0061414274
2746,1.0,"['pack', 'savage', 'african', 'attack', 'victim']",-1,[],0.0061414274
2781,1.0,"['ebola', 'treatment', 'center', 'guinea', 'black_african', 'african', 'attack', 'medical', 'treatment', 'center', 'african']",-1,[],0.0061414274
10819,1.0,"['trump', 'brussels', 'terror', 'attack', 'u.s', 'border', 'security']",-1,[],0.0061414274
8654,1.0,"['attack', 'eye']",-1,[],0.0061414274
9331,1.0,"['propaganda', 'poster', 'show', 'secret', 'sneak', 'attack', 'america']",-1,[],0.0061414274
3144,1.0,"['white', 'community', 'african', 'attack']",-1,[],0.0061414274
