,text,doc_id
4495,"One of the best White Events in Texas starts today! The North Texas Irish Festival In Dallas At Fair Park  (the place with the Cotton Bowl, the giant Farris Wheel, where the State Fair of Texas is held). Better than the State Fair! http://www.ntif.org/ I just checked the updates to the schedule for the North Texas Irish Festival, and it appears that the headliner, Altan, is playing only once to close the festival on Sunday.",4495
346,Race Traitor who helped to subjugate the South African White Minority receives a bit of what she served to innocent White Folks.,346
10530,What are things rich white people could do for their race?,10530
1189,"I know that we have some police officers here reading this, and it is obvious but I will say it anyway--  We support the police, we support law and order, we support civilization! In a lot of the urban police forces, the white men who apply will be the last ones hired due to racial quotas, then once hired they will be skipped over for promotion in favor officers with less qualification but more color, and might wind up working under a supervisor who is not qualified for that position but was the preferred color (everyone is not blue when it comes to promotions and support) and the department might not support a white officer when they would have supported one with more color. White police officers are the target of criminals and sometimes even the department he works for. To all the white heroes in uniform out there: Stay safe and stay white!",1189
2038,"Just the simple fact that Jewish Leaders are behind the on going World Wide Genocide of White Children would be enough of a reason by itself, but Jewish Mulattos, just like their Central African Cousins, are not white.",2038
3625,"Every sane intelligent individual will admit that Asian cultures are superior to black cultures, but some are afraid to admit that white cultures are superior. If Asians and Africans did not believe that living in a white nation is better than living in their own, then they would all just stay at home.",3625
2362,"I am certain that there are many non-white who do support white survival, because without white folks the entire world will just sink back into the stone age; much of the world has never risen above that level, except where white folks have pulled them up.",2362
185,"Niggros want special treatment, special rights, special privileges, special considerations, special everything! That fact alone proves that Niggros themselves see that they are not a part of this White Christian Society, ant that they never will be. The only place on Earth where the Niggros are just the same as everybody else, and truly fit in, is Central Africa. The Niggro will never be at Peace, or ever truly set Free, until it has been returned to it&#146;s natural homeland in Central Africa.",185
3536,"A Jew is a Chimera:  looks like a rat, lives like a parasite, filthy as a cockroach, as cowardly as a hyena, that flock together like black birds.",3536
2986,"I am surprised Jews are not carrying machine guns and dropping Africans on sight, just like they would do in Israel.",2986
3669,No African on Earth is happy except for those Africans who live in Africa. We should help all the rest of the Africans find happiness in Africa.,3669
11172,"Africans have never been at rest or happy in America and they never will be. The right thing to do is to help the Africans get back home to their natural home in Africa, no matter how much it costs, it is simply what we owe them.",11172
2858,"White Woman won't give her Number to an African Stranger So the beast slaps her, another African trips her from behind, and a third African films and laughs.",2858
2776,"Africans will sometimes clean them self up, but they will never clean up their environment.",2776
4394,"It is very telling that the vast majority expect no help what so ever for White Folks from the non-Whites, but it is always expected that White Folks will help the non-Whites every time that they need help.",4394
7436,RamZPaul - Jamie Foxx says Killin' White Folks is GREAT!,7436
6554,Mike Lee at Free the People,6554
8759,People don't rob banks; banks rob people!,8759
10388,More and more great people keep arriving here. It is wonderful to have you all here with us!,10388
74,"It has always been the custom of our People to live as Free Men, but to rally behind a Leader when the need to be United presents itself. The Need is certainly here, now we must Choose a Leader and Rally!",74
1016,"Restore the Republic! People would normally say that &#147;Folks from all walks of Life were represented&#148; but I won&#146;t. These were TEXANS from all walks of Life, and all age groups. I don&#146;t care what is walking around in New England, they ain&#146;t like us Texans! Texans are Independent, Self Reliant, Free Thinking, and unaffected by Marxist Propaganda. Each one of us is the Decider, not any clown in Washington D.C. Texas&#9472;  It&#146;s like a whole different Country, because she is! Besides the RESTORE THE REPUBLIC sign with the words GRASS ROOTS written in green, there is a yellow DON&#146;T TRED ON ME flag, a man wearing a felt cowboy hat and a Harley Davidson T-shirt, and the girl holding the small federal flag is wearing what is probably a home made top because the symbols on it are turned in the right direction forming LIFE RUNES rather than Marxist peace symbols. That stone work is of course the exterior of our Nation&#146;s Capitol in Austin, Texas. We have a lot of beautiful stone work like that here in Texas, much of it done by Germans who came directly from Germany to Texas.  They brought us German Craftsmanship, German Sausage, German Beer, and beautiful German Women! God bless Texas!",1016
8167,An Honest Look at the Real Relationship between Jews and Christians Caution:  Contains a typical foul mouthed Jew,8167
1649,"The Jewish neocons are Jewish communists pretending to be conservatives, and the Jews controlling the democratic party are also communists who pretend to only be socialists. Verbally, the platforms of the parties sound different, but in action they are one united communist party. The American voter has a choice, but the choice is between the Jewish communist neocon controlled republican candidate and the Jewish communist controlled democratic candidate, the 2 party system is a fraud; it is one party with both halves controlled at the top by the international Jewish bankers, the individuals who control international Jewish communism.",1649
3191,"Since Lincoln did not burn that letter, I guess we know, that he knew, it was True! Jews have certainly proved by their actions, a thousand times over, that the letter is true!",3191
5436,"Sugar Lime Blue - No Road Back To Texas Texas was the White Man's Paradise!   When the good folks have had enough,  and are of a mind to help the Mexicans find their way home to Mexico,  I will be on the road back home to Texas!",5436
2452,Every Honorable Law Abiding White Man should own and carry a firearm.,2452
2325,"In order to be a real White Man, you really need to be a good strongman, not a bad one.",2325
