,Unnamed: 0,Term,Fq-0,Fq-1,Fq-2,Fq-3,Fq-4,Tfidf-0,Tfidf-1,Tfidf-2,Tfidf-3,Tfidf-4,Prob-0,Prob-1,Prob-2,Prob-3,Prob-4
13,benin,benin,3,1,0,0,0,0.3790479270772999,0.09700422613277382,0.0,0.0,0.0,0.0195295512676239,0.006593560799956322,0.011847945861518385,4.655627708416432e-05,4.203230128041469e-05
20,citizen,citizen,2,1,0,0,0,0.2526986180515333,0.09700422613277382,0.0,0.0,0.0,0.01915467344224453,0.006777998525649309,8.438086661044508e-05,3.936687789973803e-05,3.680029112729244e-05
126,operation,operation,2,0,1,2,0,0.2097626801830224,0.0,0.19781447093222654,0.15870179013012045,0.0,0.017963832244277,0.00030524999601766467,0.011307507753372192,0.01236612256616354,0.0003477323625702411
58,french,french,2,3,1,1,6,0.14924787458108785,0.17187677582883246,0.1407466252922465,0.05645881538238329,0.23538183012007524,0.017679814249277115,0.025868965312838558,0.007887877523899078,0.005676025524735451,0.04862851276993752
153,rescue,rescue,2,2,0,0,0,0.2526986180515333,0.19400845226554764,0.0,0.0,0.0,0.017562266439199448,0.016907943412661552,8.709635585546494e-05,3.9972710510483005e-05,3.619584094849415e-05
151,report,report,1,0,1,0,1,0.1048813400915112,0.0,0.19781447093222654,0.0,0.05513682488606818,0.008381013758480549,5.130336649017409e-05,0.01188355777412653,4.59666844108142e-05,0.005246049724519253
18,burkina,burkina,1,0,0,1,3,0.1048813400915112,0.0,0.0,0.07935089506506023,0.16541047465820455,0.00837439764291048,0.0067494334653019905,9.324864367954433e-05,0.005675013177096844,0.01885467767715454
187,woman,woman,1,0,0,1,1,0.1048813400915112,0.0,0.0,0.07935089506506023,0.05513682488606818,0.008337593637406826,4.835129948332906e-05,8.729526598472148e-05,0.0056493934243917465,0.011968757025897505
165,soldier,soldier,1,1,1,0,1,0.08822948971145035,0.06773787239155693,0.16640776912902427,0.0,0.04638283530476292,0.008330170065164566,0.006803787313401699,0.009636147879064085,4.039208943140693e-05,0.006312423385679722
88,korean,korean,1,0,0,0,3,0.12634930902576666,0.0,0.0,0.0,0.1992680410114227,0.008328299969434738,4.829424869967625e-05,8.564863674109802e-05,3.979633402195759e-05,0.018862653523683548
