,topic_lda,bag_words,sa_score,events,rank
11006,0.0,"['bullet', 'production', 'grain', 'pound', 'grain', 'bullet', 'bullet', 'watch', 'show', 'lead', 'history', 'modern_day', 'usage', 'guess', 'situation', 'bullet', 'manufacturer', 'production', 'bullet', 'abomanation', 'show', 'state', 'bullet', 'manufacturer', 'counting', 'bullet', 'manufacture', 'ton', 'lead', 'bullet', 'produce', 'normal', 'day']",0,[],0.015753925
11147,0.0,"['bullet', 'seat', 'depth', 'col', 'cartridge', 'length', 'short', 'bullet', 'seat', 'factory', 'depth', 'rcbs', 'mic', 'col', 'magazine', 'bullet', 'seat', 'manufacturer', 'col', 'fit', 'magazine', 'fine', 'case', 'depth', 'accuracy', 'col', 'lee', 'factory_crimp', 'die', 'crimp', 'bullet', 'decision', 'performance', 'good', 'shooter', 'accuracy', 'bullet', 'seat', 'thousandth', 'short', 'instance', 'bullet', 'col', 'thousandth', 'short', 'seat', 'throat', 'deep', 'rifle', 'cartridge', 'fit', 'magazine', 'seat', 'bullet', 'col', 'cartridge', 'chamber', 'bullet', 'seat', 'deep', 'cartridge', 'fit', 'magazine', 'col', 'magazine', 'travel', 'magazine', 'jam', 'fire', 'military', 'surplus', 'round', 'fit', 'magazine', 'col', 'bullet', 'col', 'bullet', 'test', 'batch', 'bullet', 'seat', 'accuracy', 'result', 'accuracy', 'seat', 'col', 'manufacturer', 'compare', 'result', 'accuracy', 'col', 'change', 'seat', 'bullet', 'depth', 'note', 'bullet', 'manufacture', 'hornady', 'put', 'place', 'hornady', 'factory', 'hornady', 'manual', 'show', 'col', 'gr', 'fmj', 'bt', 'reference', 'draw', 'manual', 'match', 'location', 'bullet', 'position', 'bullet', 'reference', 'draw', 'show', 'match', 'col']",0,[],0.015753925
11127,0.0,"['think', 'dawn', 'shock', 'wave', 'theory', 'accuracy', 'bullet', 'speed', 'shock', 'wave', 'bullet', 'exit', 'ammo', 'factory', 'sell', 'ammo', 'people', 'buy', 'people', 'money', 'ammo', 'ammo', 'factory', 'sell', 'ammo', 'ammo', 'factory', 'sweet', 'spot', 'cartridge', 'sell', 'ammo', 'sweet', 'spot', 'bullet', 'speed', 'speed', 'bullet', 'cartridge', 'check', 'factory_ammo', 'winchester', 'caliber', 'bullet', 'list', 'velocity', 'fps', 'support', 'shockwave', 'theory', 'place', 'result', 'list', 'velocity', 'inch', 'barrel', 'register', 'inch', 'barrel', 'way', 'chronograph', 'check', 'bullet', 'speed', 'shoot', 'factory_ammo', 'rat', 'fps', 'range', 'compare', 'measure', 'result', 'barrel', 'gauge', 'custom', 'load', 'load', 'data', 'find', 'grain', 'weight', 'powder', 'rat', 'fps', 'test', 'varget', 'answer', 'varget', 'ar-10', 'barrel', 'load', 'result', 'match', 'hodgdon', 'load', 'data', 'fps', 'table', 'barrel', 'test', 'dpms', 'model', 'lr-308', 'stainless_steel', 'bull_barrel', 'time', 'hodgdon', 'data', 'table', 'math', 'answer', 'grain', 'varget', 'hornady', 'fmj', 'bt', 'hodgdon', 'list', 'bullet', 'hodgdon', 'list', 'begin', 'load', 'bullet', 'grain', 'varget', 'max', 'charge', 'grain', 'varget', 'max', 'high', 'work', 'load', 'grain', 'short', 'max', 'load', 'work', 'load', 'bullet', 'hodgdon', 'list', 'chart', 'caution', 'work', 'data', 'eitemid=273029', 'list', 'price', 'hornady', 'fmj', 'bt', 'bullet', 'shot', 'round', 'load', 'range', 'area', 'theory', 'theory', 'load', 'data', 'work', 'load', 'real', 'cartridge', 'fire', 'sign', 'high', 'pressure', 'rifle', 'target', 'record', 'shoot']",0,[],0.015753925
11110,0.0,"['regular', 'factory_ammo', 'fmj', 'load', 'test', 'inch', 'group', 'yard', 'inch', 'bullet', 'land', 'paper', 'photo', 'target', 'ammo', 'test', 'result', 'background', 'grid', 'inch', 'square', 'hole', 'target', 'test', 'group', 'bullet', 'shot', 'range', 'ar-10', 'hope', 'bullet', 'load', 'work', 'bullet', 'nosler', 'grain', 'bt', 'tip', 'bullet', 'varget', 'powder', 'charge', 'grain', 'winchester', 'brand', 'case', 'winchester', 'large', 'rifle', 'primer', 'ar-10', 'barrel', 'light_weight', 'carbine', 'x', 'mm', 'scope', 'wind', 'gust', 'mph', 'shot', 'gust', 'test', 'load', 'range', 'day', 'wind', 'nice', 'pick', 'charge', 'load', 'grain', 'varget', 'good', 'individual', 'result', 'power', 'individual', 'scale', 'measure', 'grain', 'register', 'weight', 'individual', 'powder', 'scale', 'bullet', 'fly', 'rescue', 'abandon', 'brass', 'day', 'good_luck', 'good_shooting']",0,[],0.015753925
11082,0.0,"['range', 'load', 'work', 'bolt_action', 'rifle', 'guy', 'bolt_action', 'rifle', 'want', 'fair', 'ar-10', 'rifle', 'twist', 'twist', 'scope', 'set', 'bullet', 'test', 'smk', 'land', 'fly', 'smk', 'hp', 'bt', 'sierra', 'match', 'king', 'hollow_point', 'boat_tail', 'lapua', 'brass', 'grain', 'hodgdon', 'h380', 'powder', 'cci', 'primer', 'col', 'cartridge', 'length', 'magazine', 'load', 'time', 'magazine', 'result', 'test', 'authority', 'h380', 'powder', 'powder', 'caliber', 'heavy', 'bullet', 'load', 'smk', 'hp', 'bullet', 'target', 'bullet', 'good', 'paper', 'target', 'head', 'shot', 'head', 'shot', 'sniper', 'government', 'army', 'smk', 'hp', 'bullet', 'shot', 'look', 'good', 'find', 'load', 'data', 'powder', 'find', 'people', 'ar-15', 'round', 'powder', 'burn', 'rate', 'chart', 'powder', 'powder', 'common', 'ar', 'powder', 'burn', 'rate', 'chart', 'notice', 'finding', 'test', 'facility', 'result', 'ballistics', 'lapua', 'brass', 'lake_city', 'brass']",0,['powder_burn_rate_charts'],0.015753925
11072,0.0,"['stand', 'turn', 'granule', 'powder', 'charge', 'tenth', 'grain', 'test', 'weight', 'type', 'bullet', 'rifle', 'patriot', 'revolution', 'shoulder', 'patriot', 'conflict', 'government', 'american', 'colony', 'smooth', 'bore', 'musket', 'main', 'defensive', 'arm', 'point', 'rank', 'government', 'troop', 'hope', 'hit', 'combination', 'projectile', 'firearm', 'yield', 'accuracy', 'lead', 'hit', 'prayer', 'marksmanship', 'today', 'optic', 'mass', 'produce', 'projectile', 'case', 'primer', 'rifle', 'barrel', 'smokeless_powder', 'composition', 'hit', 'target', 'optic', 'month', 'load', 'test', 'fire', 'projectile', 'patriot', 'conflict', 'fire', 'war', 'last', 'april', 'february', 'stand', 'opinion', 'stand', 'precision', 'manufacture', 'accuracy', 'ballistics', 'waste', 'good', 'ammo', 'bad', 'enemy', 'shot', 'feel', 'march', 'time', 'freedom']",0,[],0.015753925
11041,0.0,"['barnes', 'bullet', 'price']",0,[],0.015753925
11019,0.0,"['handgun_ammo', 'dollar', 'plat', 'handgun', 'bullet', 'jacket', 'plat', 'ten', 'cent', 'cast', 'lead', 'handgun', 'bullet', 'find', 'jacket', 'handgun', 'bullet', 'thirteen', 'cent', 'twenty', 'cent', 'area', 'powder', 'load', 'round', 'handgun_ammo', 'loading', 'powder', 'dollar', 'dollar', 'shipping', 'hazmat', 'thousand', 'primer', 'dollar', 'forty', 'dollar', 'caliber', 'round', 'factory_ammo', 'dollar', 'brass', 'rescue', 'abandonment', 'range', 'ten', 'cent', 'bullet', 'powder', 'primer', 'seventeen', 'cent', 'lee', 'dy', 'work', 'hornady', 'lock-n-load', 'collar', 'hold', 'dy', 'hornady', 'press', 'start', 'load', 'handgun_ammo', 'range', 'trip', 'snub_nose', 'yard', 'pistol', 'range', 'yard', 'maximum', 'distance', 'shoot', 'yard', 'hit', 'range', 'save', 'brass', 'rescue', 'tail', 'gaiter', 'bumper', 'sticker', 'shoot', 'good_luck', 'good_shooting']",0,[],0.015753925
1910,0.0,"['lever_action', 'scope', 'game', 'good', 'white', 'tail', 'deer', 'power', 'cartridge', 'velocity', 'small', 'bullet', 'eyesight', 'scope', 'hit', 'white', 'tail', 'rifle', 'carbine', 'heavy', 'brush', 'white', 'tail', 'deer', 'shot', 'yard', 'yard', 'brush', 'power', 'cartridge', 'ak', 'drive', 'heavy', 'bullet', 'moose', 'elk', 'large', 'bear', 'mule', 'deer', 'open', 'country', 'texas', 'folk', 'mule', 'deer', 'rifle', 'hunt', 'mule', 'deer', 'lever_action', 'rifle', 'cartridge']",0,[],0.015753925
11010,0.0,"['moa', 'shoot', 'attempt', 'shoot', 'basic', 'minute', 'angle', 'circle', 'divide', 'degree', 'degree', 'divide', 'minute', 'minute', 'divide', 'second', 'ballistics', 'second', 'angle', 'machine', 'shop', 'rocket', 'science', 'minute', 'angle', 'degree', 'inch', 'yard', 'scope', 'set', 'quarter', 'click', 'click', 'eighth', 'click', 'click', 'short_range', 'scope', 'set', 'moa', 'click', 'click', 'design', 'range', 'scope', 'click', 'yard', 'moa', 'adjustment', 'scope', 'eighth', 'click', 'click', 'scope', 'click', 'moa', 'adjustment', 'click', 'accuracy', 'test', 'yard', 'math', 'bullet', 'hole', 'spot', 'scope', 'folk', 'inch', 'yard', 'inch', 'yard']",0,[],0.015753925
10930,0.0,"['sniper_rifle', 'lapua', 'field', 'sniper', 'cartridge', 'rifle', 'short', 'feed', 'magazine', 'hit', 'drive', 'heavy', 'bullet', 'lighter', 'weight', 'bullet', 'velocity', 'range', 'cartridge', 'lapua']",0,[],0.015753925
2105,0.0,"['bullet', 'dr', 'fackler', 'evidence', 'show', 'bullet', 'fragment', 'velocity', 'distance']",0,[],0.015753925
2106,0.0,"['chart', 'data', 'find', 'grain', 'caliber', 'bullet', 'carbine', 'velocity', 'fps']",0,[],0.015753925
2318,0.0,"['yard', 'shot', 'small', 'light', 'bullet', 'lack', 'power', 'effect', 'wind', 'bullet', 'government', 'give', 'child', 'size', 'rifle', 'study', 'abandon', 'combat', 't-taliban.html']",0,[],0.015753925
10232,0.0,"['silver', 'bullet', 'choice', 'high', 'caliber', 'threat', 'werewolf', 'lead', 'plenty', 'alien', 'threat', 'face', 'today', 'worth', 'bullet', 'treasure', 'white_man', 'delivery', 'metal', 'cap', 'odds', 'high', 'alien', 'place', 'love', 'mortal', 'danger', 'high', 'alert', 'government', 'border', 'race_traitors', 'aid', 'jew', 'discrimination', 'earth', 'white_child', 'white_neighborhood', 'white', 'school', 'good', 'white', 'heritage', 'movie', 'tv', 'show', 'chance', 'university', 'work', 'place', 'born', 'white', 'skin', 'ala', 'today', 'powder', 'dry']",0,[],0.015753925
9486,0.0,"['start', 'reading', 'manual', 'text', 'manual', 'short', 'start', 'bullet', 'manual', 'information', 'bullet', 'thread', 'information', 'time', 'load', 'post', 'information', 'bottle', 'neck', 'material', 'primer', 'shortage', 'supplier', 'primer']",0,[],0.015753925
9398,0.0,"['ranger', 'guy', 'white', 'hat', 'white', 'horse', 'straight', 'shooter', 'big_white', 'horse', 'name', 'silver', 'noble', 'steed', 'evil', 'shout', 'ho', 'silver', 'bad', 'guy', 'lump', 'silver', 'bullet', 'big_white', 'man', 'big_white', 'horse', 'icon', 'good', 'clean', 'heritage', 'rich', 'man', 'rich', 'man', 'purchase', 'white', 'stallion', 'rich', 'man', 'big_white', 'stallion', 'buy', 'big_white', 'stallion', 'rich', 'man', 'breed', 'original', 'big_white', 'stallion', 'black', 'mare', 'rich', 'man', 'colt', 'breed', 'big_white', 'stallion', 'black', 'mare', 'breeding', 'big_white', 'stallion', 'black', 'mare', 'remove', 'stallion', 'big_white', 'stallion', 'man', 'soul', 'future_generations', 'born', 'public', 'outcry', 'people', 'true', 'voice', 'true', 'voice', 'ring', 'pas', 'breeder', 'sell', 'big_white', 'stallion', 'demand', 'return', 'basis', 'plan', 'scheme', 'animal', 'group', 'court', 'issue', 'injunction', 'action', 'big_white', 'stallion', 'turn', 'breed', 'preservation', 'individual', 'big_white', 'stallion', 'breed', 'destruction', 'individual', 'death', 'threat', 'rich', 'man', 'court', 'action', 'demonstration', 'break-in', 'threat', 'violence', 'spectacle', 'situation', 'situation', 'today', 'white_humans', 'big_white', 'stallion', 'child', 'peril', 'today', 'big_white', 'stallion', 'public', 'outrage', 'indignation', 'human', 'right', 'group', 'true', 'voice', 'people', 'ring', 'pas', 'life', 'white_child', 'due', 'respect', 'due', 'noble', 'steed']",0,[],0.015753925
3256,0.0,"['wolf', 'ammo', 'wolf', 'primer', 'pull', 'wolf', 'ammo', 'bang', 'part', 'fine', 'accuracy', 'ignition', 'load', 'accuracy', 'bother', 'wolf', 'primer', 'load', 'short_range', 'ammo', 'accuracy', 'issue', 'primer', 'bullet', 'powder', 'case']",0,[],0.015753925
8247,0.0,"['nosler', 'tip', 'varmint', 'bullet']",0,[],0.015753925
8168,0.0,"['christian', 'support', 'israel', 'dr._david', 'duke', 'phd', 'conversation', 'nixon', 'rev', 'graham', 'baptist', 'evangelist', 'express', 'disdain', 'domination', 'medium', 'audio', 'link', 'st01252003.mp3', 'christian', 'state', 'religious', 'belief', 'people', 'practice', 'religious', 'belief', 'desire', 'freedom', 'thought', 'conscience', 'belief', 'speech', 'fundamental', 'european', 'community', 'religious', 'intolerance', 'tyranny', 'encroachment', 'world_government', 'europe', 'time', 'religious', 'oppression', 'western', 'civilization', 'classical', 'root', 'greece', 'rome', 'modern', 'europe', 'defender', 'freedom', 'thought', 'conscience', 'accident', 'pocket', 'ancient', 'european', 'iceland', 'stand', 'parliament', 'religious', 'matter', 'honor', 'pastor', 'priest', 'policy', 'christian', 'church', 'well-being', 'european', 'american', 'european', 'christian', 'christian', 'church', 'influence', 'society', 'matter', 'christian', 'european', 'american', 'shock', 'support', 'christian', 'televangelist', 'anti-christian', 'religion', 'face', 'earth', 'judaism', 'support', 'supremacist', 'anti-christian', 'israeli', 'state', 'reading', 'anti-christian', 'religion', 'judaism', 'faith', 'judaism', 'sister', 'religion', 'christianity', 'term', 'modern', 'lexicon', 'politician', 'george', 'bush', 'term', 'christian', 'heritage', 'add', 'prefix', 'judeo', 'term', 'existence', 'world_war', 'jew', 'influence', 'major', 'medium', 'judeo-christianity', 'satanic-christianity', 'religion', 'call', 'judaism', 'existence', 'jesus_christ', 'begin', 'codification', 'babylonian', 'talmud', 'judaism', 'talmud', 'scripture', 'testament', 'satanism', 'rival', 'judaism', 'hatred', 'jesus_christ', 'talmud', 'jesus_christ', 'hell', 'boil', 'semen', 'read', 'talmudic', 'read', 'quotation', 'judaism', 'anti-christian', 'judaism', 'embodiment', 'tradition', 'christ', 'synagogue', 'satan', 'rev', 'document', 'word', 'text', 'judaism', 'document', 'word', 'authority', 'judaism', 'scripture', 'closer', 'christianity', 'judaism', 'instance', 'judaism', 'virgin', 'mary', 'prostitute', 'jesus', 'evil', 'sorcerer', 'bastard', 'talmud', 'jesus', 'pervert', 'intercourse', 'relation', 'donkey', 'contrast', 'islam', 'share', 'christian', 'view', 'jesus_christ', 'view', 'christ', 'true', 'prophet', 'god', 'virgin-born', 'god', 'jesus', 'dead', 'chief', 'religious', 'book', 'islam', 'qur', 'jesus_christ', 'slander', 'talmud', 'shock', 'hearing', 'time', 'think', 'true', 'blame', 'think', 'fact', 'jewish-dominated', 'medium', 'televangelist', 'document', 'space', 'documentation', 'issue', 'chapter', 'judaism', 'christianity', 'autobiography', 'find', 'book', 'supremacism', 'chapter', 'judaism', 'talmud', 'torah', 'bible', 'chief', 'authority', 'judaism', 'christian', 'impression', 'judaism', 'testament', 'authority', 'judaism', 'bible', 'call', 'babylonian', 'talmud', 'series', 'writing', 'set', 'babylon', 'sixth', 'century', 'christ', 'american', 'heritage', 'dictionary', 'talmud', 'basis', 'religious', 'authority', 'judaism', 'universal', 'encyclopedia', 'lead', 'organization', 'clear', 'talmud', 'torah', 'testament', 'authority', 'judaism', 'talmud', 'chief', 'authority', 'judaism', 'jesus_christ', 'balaam', 'jesus', 'jackass', 'sanhedrin', 'priest', 'raise', 'balaam', 'jesus', 'dead', 'boil', 'semen', 'gittin', 'descendant', 'prince', 'governor', 'virgin', 'mary', 'harlot', 'carpenter', 'sanhedrin', 'jew', 'share', 'attitude', 'jesus_christ', 'official', 'position', 'judaism', 'quotation', 'read', 'group', 'christian', 'attitude', 'jesus_christ', 'jew', 'seek', 'christian', 'criticism', 'balaam', 'jew', 'christ', 'major', 'authority', 'encyclopedia', 'encyclopedia', 'lead', 'organization', 'balaam', 'jesus_christ', 'head', 'balaam', 'pseudonym', 'balaam', 'jesus', 'sanhedrin', 'gittin', 'term', 'balaam', 'common', 'practice', 'age', 'jew', 'disguise', 'anti-jesus', 'anti-christian', 'hatred', 'gentile', 'pry', 'talmud', 'christian', 'belief', 'religion', 'judaism', 'attitude', 'jesus_christ', 'christian', 'fact', 'formal', 'policy', 'israeli', 'state', 'school', 'read', 'gospel', 'mention', 'jesus_christ', 'offense', 'christian', 'salvation', 'jesus_christ', 'israel', 'hate', 'christian', 'cross', 'school', 'sign', 'hat', 'christian', 'cross', 'israeli_government', 'support', 'public', 'burning', 'jew', 'respect', 'man', 'book', 'supremacism', 'dr', 'israel', 'shahak', 'holocaust', 'survivor', 'professor', 'hebrew', 'university', 'jerusalem', 'professor', 'shahak', 'zionist', 'burn', 'copy', 'jerusalem', 'march', 'auspex', 'yad', 'le', 'akhim', 'religious', 'organization', 'israeli', 'ministry', 'religions.7', 'quotation', 'jew', 'professor', 'israel', 'shahak', 'judaism', 'deep', 'hatred', 'christianity', 'combine', 'ignorance', 'attitude', 'christian', 'persecution', 'jew', 'independent', 'date', 'time', 'christianity', 'share', 'christian', 'help', 'talmud', 'jesus', 'court', 'idolatry', 'jew', 'idolatry', 'contempt', 'authority', 'classical', 'source', 'mention', 'execution', 'responsibility', 'talmudic', 'account', 'roman', 'mention', 'jesus', 'jew', 'symbol', 'tradition', 'gospel', 'quote', 'modern', 'israeli', 'school', 'anti-christian', 'israeli_government', 'christian', 'minister', 'american', 'tax_dollars', 'dr', 'shahak', 'expose', 'hatred', 'christian', 'child', 'child', 'passage', 'command', 'passing', 'cemetery', 'blessing', 'curse', 'mother', 'dead', 'non-jewish', 'spit', 'church', 'crucifix', 'moment', 'christian', 'pas', 'cemetery', 'curse', 'mother', 'dead', 'spit', 'synagogue', 'star', 'david', 'medium', 'hatred', 'outrage', 'leader', 'falwell', 'christian', 'curse', 'jew', 'hatred', 'curse', 'christian', 'israel', 'act', 'christianity', 'major', 'group', 'state', 'american', 'committee', 'adl', 'anti-defamation', 'league', 'b', 'nai', 'brith', 'host', 'organization', 'forefront', 'christian', 'tradition', 'state', 'lead', 'fight', 'ban', 'simple', 'prayer', 'school', 'christmas', 'carol', 'sung', 'school', 'public', 'facility', 'leader', 'movement', 'abortion', 'forefront', 'war', 'jewish_hollywood', 'wag', 'christian', 'tradition', 'belief', 'ethic', 'jew', 'lead', 'bolshevism', 'suppressor', 'mass_murderer', 'christian', 'christian', 'bolshevik', 'leader', 'jerry', 'falwell', 'pat', 'robertson', 'urge', 'christian', 'support', 'israel', 'supremacist', 'establishment', 'jesus_christ', 'support', 'anti-christian', 'israel', 'support', 'murder', 'torture', 'oppression', 'fellow', 'christian', 'mideast', 'falwell', 'robertson', 'flock', 'large', 'number', 'palestinian', 'christian', 'instance', 'birthplace', 'jesus_christ', 'bethlehem', 'palestinian', 'christian', 'population', 'figure', 'drop', 'abandonment', 'evangelicals', 'falwell', 'robertson', 'christian', 'anti-christian', 'extremist', 'jew', 'christian', 'brother', 'christianity', 'ground', 'mideast', 'major', 'christian', 'leader', 'support', 'kill', 'palestinian', 'christian', 'anti-christian', 'israeli', 'jew', 'israel', 'bomb', 'missile', 'bullet', 'palestinian', 'neighborhood', 'child', 'adult', 'murder', 'christian', 'maranatha', 'christian', 'journal', 'report', 'palestinian', 'christian', 'claim', 'western', 'church', 'quote', 'husam', 'misleh', 'christian', 'palestinian', 'organization', 'call', 'american', 'federation', 'ramallah', 'detroit', 'michigan', 'article', 'rateb', 'rabie', 'holy', 'land', 'foundation', 'silver', 'spring', 'maryland', 'week', 'israeli', 'fire', 'bombing', 'kill', 'christian', 'bethlehem', 'lay', 'siege', 'holy', 'site', 'christianity', 'birthplace', 'jesus_christ', 'church', 'nativity', 'turn', 'stomach', 'tv', 'leader', 'falwell', 'robertson', 'tell', 'christian', 'money', 'anti-christian', 'state', 'israel', 'moment', 'murder', 'christian', 'birthplace', 'christ', 'pro-israel', 'minister', 'support', 'suppression', 'fellow', 'christian', 'palestine', 'spread', 'lie', 'modern', 'god', 'chosen', 'people', 'christian', 'theology', 'year', 'god', 'covenant', 'tribe', 'israel', 'jew', 'covenant', 'jesus_christ', 'god', 'covenant', 'belief', 'jesus_christ', 'book', 'hebrew', 'clear', 'find', 'fault', 'saith', 'day', 'saith', 'lord', 'covenant', 'house', 'israel', 'house', 'judah', 'covenant', 'father', 'day', 'hand', 'land', 'egypt', 'covenant', 'regard', 'saith', 'lord', 'hebrew', 'christian', 'read', 'scripture', 'god', 'view', 'jew', 'covenant', 'god', 'covenant', 'israelite', 'faith', 'lord', 'jesus_christ', 'idea', 'found', 'principle', 'christian', 'religion', 'christian', 'distortion', 'lie', 'year', 'year', 'supremacist', 'american', 'medium', 'establishment', 'clear', 'scripture', 'tell', 'true', 'christian', 'viewpoint', 'power', 'palestinian', 'read', 'sink', 'man', 'politics', 'christian', 'clergy', 'anti-semite', 'word', 'holy', 'scripture', 'holy', 'scripture', 'palestinian', 'christian', 'muslim', 'jew', 'enemy', 'christianity', 'jesus_christ', 'ten', 'palestinian', 'christian', 'murder', 'torture', 'ten', 'thousand', 'terrorism', 'home', 'business', 'farm', 'process', 'word', 'israeli', 'murder', 'mayhem', 'curfew', 'suppression', 'drive', 'palestinian', 'life', 'child', 'land', 'father', 'christian', 'atrocity', 'christian', 'brother', 'people', 'faith', 'height', 'un-christian', 'immorality', 'myth', 'anti-christian', 'medium', 'parrot', 'preacher', 'anti-christ', 'supremacist', 'christianity', 'america', 'muslims.the', 'muslim', 'share', 'christian', 'belief', 'closer', 'christianity', 'judaism', 'quote', 'attack', 'jesus_christ', 'talmud', 'american', 'christian', 'holy', 'qur', 'islam', 'jesus_christ', 'mother', 'mary', 'slander', 'judaism', 'talmud', 'gospel', 'lie', 'crucifixion', 'jesus_christ', 'talmud', 'boast', 'jew', 'roman', 'nail', 'jesus', 'cross', 'talmudic', 'jew', 'hate', 'jesus', 'credit', 'murder', 'holy', 'book', 'qur', 'dispute', 'lie', 'gospel', 'jew', 'divine', 'displeasure', 'covenant', 'reject', 'faith', 'mary', 'grave', 'charge', 'boast', 'kill', 'christ', 'jesus', 'mary', 'messenger', 'allah', 'kill', 'full', 'doubt', 'sura', 'alnisa', 'christian', 'proof', 'anti-christian', 'evil', 'israel', 'tactic', 'israel', 'palestinian', 'resistance', 'french', 'press', 'agency', 'afp', 'ap', 'state', 'march', 'report', 'israeli', 'occupation', 'ramallah', 'israeli', 'occupation', 'palestinian', 'town', 'ramallah', 'army', 'television', 'station', 'station', 'al-watan', 'al-sharaq', 'channel', 'israeli', 'begin', 'broadcasting', 'pornography', 'palestinian', 'home', 'begin', 'pm', 'day', 'occupation', 'reaction', 'religious', 'palestinian', 'christian', 'muslim', 'israeli', 'pornography', 'point', 'article', 'quote', 'palestinian', 'latest', 'israeli', 'outrage', 'anita', 'mother', 'child', 'damage', 'broadcast', 'moral', 'nation', 'israel', 'christian', 'televangelist', 'leader', 'support', 'broadcasting', 'pornography', 'war', 'palestinian', 'people', 'christian', 'minister', 'support', 'israel', 'money', 'israel', 'broadcast', 'pornography', 'palestinian', 'christian', 'muslim', 'child', 'minister', 'support', 'anti-christian', 'israel', 'jew', 'today', 'chosen', 'people', 'god', 'covenant', 'god', 'respect', 'bible', 'thee', 'curse', 'thee', 'curse', 'show', 'clear', 'scripture', 'quote', 'jesus', 'jew', 'father', 'lead', 'land', 'egypt', 'god', 'covenant', 'saith', 'lord', 'come', 'jesus_christ', 'covenant', 'israelite', 'salvation', 'christ', 'belief', 'jesus_christ', 'requirement', 'covenant', 'jesus_christ', 'covenant', 'embrace', 'judaism', 'religion', 'hate', 'reject', 'jesus_christ', 'covenant', 'jesus_christ', 'chosen', 'god', 'elect', 'ethnic', 'descent', 'christian', 'principle', 'hate', 'jesus_christ', 'service', 'satan', 'god', 'son', 'covenant', 'christ', 'synagogue', 'satan', 'revelation', 'jew', 'christ', 'time', 'change', 'embrace', 'anti-christian', 'judaism', 'enemy', 'god', 'ally', 'satan.to', 'support', 'anti-christian', 'jew', 'evil', 'action', 'christian', 'christianity', 'betrayal', 'jesus_christ', 'support', 'man', 'evil', 'deed', 'man', 'flaw', 'anti-christian', 'belief', 'statement', 'jerry', 'falwell', 'falwell', 'rise', 'anti-christ', 'today', 'israel', 'falwell', 'evangelist', 'anti-christ', 'murder', 'torture', 'christian', 'rule', 'year', 'rise', 'anti-christ', 'christ', 'return', 'establishment', 'kingdom', 'god', 'jewish_leaders', 'falwell', 'statement', 'supporter', 'israel', 'anti-christ', 'modern', 'israel', 'support', 'support', 'israel', 'anti-christian', 'judaism', 'aid', 'anti-christ', 'power', 'support', 'evil', 'action', 'christian', 'command', 'evil', 'satan', 'rule', 'earth', 'year', 'christian', 'support', 'satan', 'anti-christian', 'idea', 'falwell', 'falwell', 'robertson', 'support', 'anti-christian', 'israel', 'support', 'enemy', 'christianity', 'jesus', 'clear', 'teaching', 'jesus', 'anti-christian', 'teaching', 'judaism', 'israel', 'power', 'judaists', 'hate', 'fundamentalist', 'christian', 'teaching', 'falwell', 'robertson', 'preacher', 'christian', 'anti-christian', 'israel', 'address', 'testament', 'blessing', 'thee', 'curse', 'curse', 'thee', 'scripture', 'blessing', 'true', 'descendant', 'god', 'word', 'israelite', 'salvation', 'jesus_christ', 'quotation', 'modern_day', 'anti-christian', 'judaism', 'jew', 'simple', 'response', 'world_war', 'america', 'history', 'extremist', 'jew', 'supremacy', 'news', 'medium', 'movie', 'aspect', 'culture', 'support', 'america', 'israel', 'question', 'blessing', 'blessing', 'supremacist', 'jew', 'earth', 'support', 'israel', 'found', 'america', 'blessing', 'pornography', 'immorality', 'jewish-run', 'hollywood', 'porn', 'industry', 'blessing', 'ten', 'baby', 'abortion', 'blessing', 'christian', 'prayer', 'christmas', 'carol', 'american', 'school', 'blessing', 'family', 'drug', 'abuse', 'earth', 'blessing', 'america', 'lead', 'violent_crime', 'rape', 'murder', 'assault', 'innocent', 'blessing', 'mass-murder', 'american', 'blowing', 'trade', 'center', 'blessing', 'patriot_act', 'take', 'constitutional', 'right', 'liberty', 'blessing', 'blessing', 'anti-christian', 'judaism', 'anti-christian', 'state', 'israel', 'blessing', 'help', 'anti-christian', 'extremist', 'jew', 'kill', 'torture', 'ten', 'christian', 'palestinian', 'men', 'child', 'american', 'european', 'christian', 'broadcast', 'issue', 'listener', 'christian', 'muslim', 'listener', 'people', 'faith', 'hope', 'message', 'christian', 'power', 'christian', 'leader', 'found', 'principle', 'christian', 'faith', 'faith', 'jews_claim', 'judaism', 'religious', 'faith', 'bribe', 'great', 'power', 'service', 'god', 'truth', 'element', 'jesus_christ', 'crucifixion', 'pharisee', 'body', 'modern', 'judaism', 'talmud', 'century', 'jesus_christ', 'jesus', 'rebuke', 'true', 'christian', 'leader', 'century', 'religious', 'strength', 'courage', 'father', 'lie', 'christian', 'minister', 'denomination', 'corruption', 'christian', 'faith', 'christian', 'lay', 'men', 'jew', 'face', 'slander', 'hatred', 'christ', 'face', 'power', 'jew', 'man', 'spoke', 'john', 'david_duke', 'footnote', 'talmud', 'sanhedrin', 'simon', 'trans', 'gittin', 'london', 'soncino', 'press', 'p.261universal', 'encyclopedia', 'authority', 'p', 'sanhedrin', 'soncino', 'edition', 'p.717.simon', 'trans', 'gittin', 'london', 'soncino', 'press', 'p.261', 'talmud', 'sanhedrin', 'soncino', 'edition', 'p.356', 'encyclopedia', 'balaam', 'p.469', 'shahak', 'history', 'religion', 'p.21', 'shahak', 'history', 'religion', 'shahak', 'history', 'religion', 'kjv', 'hebrew', 'rsv', 'thessalonian', 'kjv', 'john', 'broadcast', 'date', 'lists_498.html']",0,"['second_world_war', 'new_covenant', 'new_covenant', 'second_world_war,_america']",0.015753925
3760,0.0,"['european', 'fear', 'hurl', 'bullet', 'reply', 'insult', 'wait', 'free_speech', 'worry', 'body', 'lie', 'cold', 'graf', 'horde', 'tire', 'rap', 'body', 'drive', 'sea', 'homeland', 'white', 'people', 'call', 'place', 'east', 'ireland', 'land']",0,[],0.015753925
4297,0.0,"['c', 'mag', 'put', 'stress', 'barrel', 'man', 'fun', 'shoot', 'program', 'gun', 'stoner', 'belt', 'fed', 'full_auto', 'box', 'magazine', 'demo', 'owner', 'knight', 'manufacturing', 'burst', 'note', 'ammo', 'high', 'save', 'brass', 'steel', 'case', 'brass', 'lot', 'decision', 'give', 'reloader', 'good', 'run', 'dollar', 'cost', 'factor', 'bullet', 'powder', 'primer', 'drop', 'ammo', 'cost', 'wolf', 'rem', 'route', 'grand', 'micky', 'mouse']",0,[],0.015753925
4275,0.0,"['planter', 'work', 'people', 'brick', 'fill', 'planter', 'sand', 'dirt', 'foot', 'thick', 'foot', 'thick', 'bullet', 'armor', 'distance', 'sand', 'rifle', 'range', 'backstop', 'reason', 'berm', 'work', 'wall', 'city', 'east', 'white_folks', 'wall', 'thick', 'chariot', 'pass', 'city', 'guard', 'round', 'chariot', 'great', 'distance', 'road', 'barrier', 'great', 'move', 'men', 'equipment', 'planter', 'enclosure', 'castle', 'wall', 'road', 'section', 'overlap', 'wall', 'cover', 'entrance', 'plant', 'serve', 'cover', 'shade', 'air', 'scrubber', 'landscape', 'planter', 'wall', 'high', 'care', 'put', 'community', 'room', 'block', 'house', 'emergency', 'drainage', 'case', 'flood', 'offer', 'target', 'build', 'high', 'ground', 'give', 'fire', 'city', 'ireland', 'wall', 'wall', 'breach', 'invader', 'charge', 'invader', 'trap', 'open', 'cover', 'defender', 'kill', 'mass', 'wall', 'pile', 'dead', 'body', 'present', 'obstacle', 'invader', 'progress', 'wall', 'wall', 'wall', 'surprise']",0,[],0.015753925
11139,0.0,"['contrast', 'fmj', 'bt', 'bullet', 'manufacture', 'hornady', 'twenty', 'thousandth', 'col', 'seat', 'god', 'hornady', 'variable', 'variable', 'affect', 'accuracy', 'science', 'science', 'general', 'science', 'good_luck', 'good_shooting']",0,[],0.015753925
4100,0.0,"['folk', 'military', 'training', 'worth', 'risk', 'fact', 'train', 'recruit', 'military', 'training', 'mind', 'die', 'season', 'veteran', 'military', 'training', 'good', 'military', 'training', 'blind', 'obedience', 'special_forces', 'vet', 'fire', 'fight', 'special_forces', 'soldier', 'die', 'survival', 'luck', 'shoot', 'firearm', 'good', 'cleaning', 'care', 'firearm', 'military', 'risk', 'information', 'year', 'experience', 'stop', 'bullet']",0,[],0.015753925
806,0.0,"['range', 'weekend', 'red_dot', 'sight', 'property', 'invite', 'change', 'ammo', 'custom', 'hand', 'load', 'inch', 'carbine', 'sight', 'red_dot', 'ammo', 'point', 'bear', 'mountain', 'lion', 'area', 'bullet', 'yard', 'contour', 'land', 'yard', 'shot', 'bipod', 'carbine', 'shoulder', 'rear', 'bag', 'rear', 'pod', 'shot', 'inch', 'inch', 'red_dot', 'moa', 'adjustment', 'dial', 'click', 'left', 'click', 'red_dot', 'fine', 'left', 'dial', 'click', 'move', 'dial', 'click', 'act', 'time', 'change', 'ammo', 'fancy', 'laser', 'red', 'dot', 'movement', 'laser', 'work', 'glad', 'move', 'boy', 'keep', 'trigger', 'finger', 'muscle', 'shape']",0,[],0.015753925
986,0.0,"['laser', 'handgun', 'advantage', 'handgun', 'training', 'training', 'laser', 'point', 'shoot', 'trigger_control', 'range', 'point', 'shooter', 'place', 'fight', 'spending', 'ammo', 'point', 'shoot', 'laser', 'point', 'shoot', 'training', 'laser', 'turn', 'handgun', 'ready', 'range', 'target', 'foot', 'distance', 'point', 'handgun', 'move', 'handgun', 'turn', 'laser', 'check', 'aim', 'practice', 'land', 'inch', 'spot', 'aim', 'point', 'time', 'brain', 'session', 'night', 'sleep', 'brain', 'challenge', 'organic', 'change', 'demand', 'point', 'true', 'time', 'practice', 'skill', 'point', 'shoot', 'brain', 'organic', 'change', 'limit', 'ability', 'demand', 'brain', 'ability', 'ability', 'time', 'aim', 'sight', 'perfect', 'sight', 'alignment', 'poor', 'trigger_control', 'firearm', 'target', 'bullet', 'find', 'mark', 'laser', 'work', 'type', 'training', 'ammo', 'high', 'dollar', 'laser', 'save', 'money', 'shoot', 'ammo', 'trigger_control', 'figure', 'handgun', 'point', 'object', 'keep', 'laser', 'target', 'action', 'pull', 'worry', 'damage', 'firing_pin', 'action', 'snap', 'cap', 'firing_pin', 'keep', 'laser', 'target', 'pull', 'full_length', 'pull', 'dot', 'move', 'pull', 'folk', 'pull', 'handgun', 'target', 'trigger_pull', 'push', 'handgun', 'target', 'human', 'anatomy', 'finger', 'move', 'muscle', 'palm', 'contract', 'tendon', 'muscle', 'pull', 'push', 'handgun', 'grip', 'effect', 'palm', 'hand', 'pull', 'trigger', 'finger', 'simple', 'body', 'mechanic', 'simple', 'solution', 'grip', 'bulge', 'palm', 'push', 'handgun', 'laser', 'dot', 'movement', 'palm', 'push', 'firearm', 'practice', 'grip', 'grip', 'run', 'trigger_control', 'drill', 'regular', 'sight', 'laser', 'laser', 'defensive', 'tool', 'training', 'tool', 'good_luck', 'good_shooting']",0,[],0.015753925
136,0.0,"['turn', 'bullet', 'time']",0,[],0.015753925
960,0.0,"['burris', 'scope', 'hash', 'mark', 'match', 'bullet', 'drop', 'postcount=193', 'eitemid=282680', 'burris', 'leupold', 'mm', 'sell', 'price']",0,[],0.015753925
11152,0.0,"['yesterday', 'day', 'ar-10', 'test', 'round', 'ar-15', 'day', 'thought', 'shot', 'shot', 'group', 'ar-10', 'test', 'target', 'fast', 'pace', 'walk', 'yard', 'line', 'pulse', 'pound', 'hold', 'deep', 'breath', 'heart', 'rate', 'heart', 'rate', 'increase', 'oxygen', 'fill', 'lung', 'real', 'full', 'oxygen', 'blood', 'stream', 'heart', 'good', 'trigger_control', 'cool', 'minute', 'shot', 'steel', 'cool', 'shot', 'shot', 'group', 'custom', 'hand', 'load', 'load', 'barrel', 'harmonic', 'bullet', 'powder_charge', 'rifle', 'hit', 'harmonic', 'crown', 'bullet', 'left', 'condition', 'test', 'powder', 'load', 'olympic_arms', 'k16', 'factory', 'bull_barrel', 'twist', 'mm', 'x', 'burris', 'scope', 'plex', 'reticle', 'grain', 'hodgdon', 'bl-c', 'powder', 'coat', 'hornady', 'v-max', 'bullet', 'good_shooting', 'weather', 't=11082005', 'pag', 'mart', 'itemid=37', 'ps_ses', 'rescue', 'abandon', 'brass_cases', 'yesterday', 'day']",0,[],0.015753925
196,0.0,"['wisdom', 'cartridge', 'deer', 'mm', 'cartridge', 'bullet', 'metal', 'jacket', 'hit', 'inch', 'kill', 'zone', 'carbine', 'hunt', 'ammo', 'hunt', 'check', 'local', 'hunt', 'law', 'good_luck']",0,[],0.015753925
11150,0.0,"['ar', 'main', 'reason', 'shoot', 'government', 'surplus_ammo', 'government', 'ammo', 'commercial', 'factory_ammo', 'pressure', 'rifle', 'remington', 'sell', 'dy', 'cartridge', 'shoulder', 'angle', 'idiot', 'idea', 'rescue', 'range_brass', 'bump', 'shoulder', 'fill', 'cartridge', 'fire', 'fire', 'form', 'fit', 'chamber', 'official', 'recommendation', 'rcbs', 'shoulder', 'thousandth', 'chamber', 'cartridge', 'measure', 'fire', 'brass', 'dimension', 'chamber', 'measurement', 'fire', 'brass', 'standard', 'rescue', 'brass', 'bump', 'shoulder', 'stretch', 'pressure', 'expanding_gas', 'push', 'brass', 'fill', 'rifle', 'chamber', 'brass', 'stretch', 'result', 'case_head', 'separation', 'move', 'shoulder', 'hardness', 'brass_cases', 'uniform', 'case', 'manufacturer', 'composition', 'hardness', 'brass_cases', 'manufacturing', 'run', 'factory', 'day', 'hardness', 'work_hardened', 'brass', 'set', 'die', 'push', 'shoulder', 'measure', 'rcbs', 'mic', 'range_brass', 'rescue', 'measure', 'chamber', 'rifle', 'shoulder', 'brass', 'set', 'standard', 'factory', 'set', 'head', 'shoulder', 'length', 'rifle', 'leave', 'shoulder', 'longer', 'extra', 'movement', 'shoulder', 'range', 'thousandth', 'thousandth', 'thousandth', 'session', 'end', 'die', 'screw', 'mash', 'work_hardened', 'brass', 'raise', 'die', 'process', 'batch', 'rescue', 'range_brass', 'rescue', 'brass', 'good', 'dead', 'day', 'run', 'die', 'short', 'dimension', 'run', 'check', 'run', 'time', 'check', 'overwork', 'brass', 'brass', 'fine', 'pas', 'pas', 'die', 'screw', 'pas', 'die', 'time', 'pas', 'die', 'real', 'brass', 'manufacturer', 'brass', 'hardness', 'brass', 'manufacturer', 'work_hardened', 'brass', 'work', 'trim', 'mouth', 'case', 'work', 'case', 'work_hardened', 'elasticity', 'brass', 'range', 'life', 'case', 'good', 'condition', 'left', 'factory', 'mouth', 'head', 'set', 'water', 'head', 'case_head', 'high', 'pressure', 'expanding_gas', 'case_head', 'separation', 'bad', 'batch', 'photo', 'method', 'method', 'brass', 'good', 'instruction', 'method']",0,[],0.015077971
12485,0.0,"['magpul', 'pt', 'm4', 'full_auto', 'electric', 'airsoft', 'rifle', 'youtube', 'airsplat', 'demand', 'magpul', 'pt', 'm4', 'electric', 'airsoft', 'rifle', 'review', 'episode']",0,[],0.015077971
9145,0.0,"['true', 'assault', 'rifle']",0,[],0.015077971
8884,0.0,"['replacement', 'part', 'firearm', 'make', 'custom', 'link', 'winchester', 'wall', 'rifle']",0,[],0.015077971
8694,0.0,"['america', 'firearm', 'modern', 'factory', 'thomas', 'jefferson', 'supply', 'replacement', 'part', 'rifle', 'army', 'revolution', 'begin', 'federal', 'contract', 'supply', 'arm', 'america', 'mestizo', 'savage', 'today', 'god', 'gun', 'gut']",0,[],0.015077971
8649,0.0,"['mosin', 'nagant', 'm91/30', 'rifle']",0,[],0.015077971
8264,0.0,"['art', 'precision', 'rifle']",0,[],0.015077971
12547,0.0,"['remington', 'cnbc', 'remington', 'rifle', 'zionist/communist/neocon', 'washington_government', 'zionist/communist/neocon', 'media_mafia', 'accusation', 'lie', 'publication', 'american_rifleman', 'remington', 'manufacture', 'rifle', 'system', 'question', 'round', 'ammo', 'american_citizens', 'design', 'trigger', 'job', 'poor', 'maintenance', 'neglect', 'firearm', 'fire', 'pull', 'fire', 'pull', 'accumulation', 'rust', 'dirt', 'bad', 'modification', 'treat', 'firearm', 'load', 'point', 'load', 'firearm', 'safe', 'direction', 'zionist', 'communist', 'neocon']",0,[],0.015077971
3308,0.0,"['olympic_arms', 'cost', 'work', 'fine', 'shoot', 'government', 'surplus', 'commercial', 'ammo', 'brand', 'ammo', 'rifle', 'shot', 'hand', 'load', 'hit', 'dime', 'yard', 'barrel', 'barrel', 'rifle', 'olympic_arms', 'lifetime', 'guarantee', 'break', 'fix']",0,[],0.015077971
3311,0.0,"['caliber', 'rifle', 'ar-10', 'caliber', 'shoot', 'price', 'recoil', 'buffer', 'system', 'ar-15', 'recoil', 'shoot', 'round', 'comfort']",0,[],0.015077971
3403,0.0,"['congratulation', 'rifle', 'bolt', 'action', 'semi_auto', 'ar', 'cartridge', 'ar', 'time', 'check', 'shooter', 'range', 'rifle', 'test', 'load', 'target', 'look', 'hole', 'center', 'good', 'scope', 'stick', 'mill', 'dot', 'hash', 'mark', 'type', 'american_rifleman', 'tv', 'machine', 'barrel', 'america', 'savage', 'barrel', 'machine', 'time']",0,[],0.015077971
7849,0.0,"['rock', 'river', 'arm', 'fred', 'eichler', 'predator', 'rifle']",0,[],0.015077971
7224,0.0,"['gun', 'buy', 'intercept', 'loony_leftist', 'city', 'government', 'seattle', 'buy', 'citizen', 'cash', 'money', 'line', 'gun', 'semi_auto', 'rifle', 'god_bless', 'free', 'enterprise']",0,[],0.015077971
1006,0.0,"['tale', 'vietcong', 'sniper', 'battle', 'vietcong', 'sniper', 'station', 'snipe', 'hill', 'soldier', 'wound', 'sniper', 'give', 'position', 'soldier', 'vc', 'sniper', 'mm', 'rifle', 'afterlife', 'replacement', 'vc', 'sniper', 'turn', 'begin', 'replacement', 'vc', 'sniper', 'escort', 'meet', 'predecessor', 'mm', 'rifle', 'vc', 'sniper', 'guy', 'hit', 'fire', 'daily', 'twenty', 'round', 'score', 'hit', 'give', 'position', 'mm', 'rifle', 'vc', 'sniper', 'soldier', 'permission', 'fire', 'kill', 'guy', 'sniper', 'guy', 'shoot', 'straight', 'vc', 'sniper']",0,[],0.015077971
6928,0.0,"['colin', 'rifle']",0,[],0.015077971
5993,0.0,"['ct', 'citizen', 'register', 'rifle', 'semi-auto', 'ct']",0,[],0.015077971
166,0.0,"['talk', 'young', 'wound', 'soldier', 'leave', 'today', 'ar', 'clean', 'method', 'soak', 'bolt', 'carrier', 'bolt', 'cleaner', 'police_department', 'unit', 'military', 'post', 'picture', 'month', 'stainless_steel', 'tray', 'lid', 'home', 'cleaning', 'fluid', 'red', 'color', 'atf', 'fluid', 'soak', 'bolt', 'carrier', 'charge', 'handle', 'begin', 'fluid', 'flush', 'barrel', 'particle', 'removal', 'fluid', 'run', 'pan', 'ar', 'flush', 'receiver', 'muzzle', 'flush', 'soak', 'bore', 'mop', 'drip', 'wet', 'fluid', 'run', 'drip', 'wet', 'mop', 'clean', 'mop', 'fluid', 'pan', 'soak', 'repeat', 'fast', 'drip', 'come', 'muzzle', 'pan', 'step', 'cleaning', 'bore', 'solvent', 'brush', 'clean', 'patch', 'kroil', 'clean', 'patch', 'flush', 'flush', 'clean', 'patch', 'carbon', 'rifle', 'oil', 'soak', 'mop', 'lube', 'storage', 'strain', 'fluid', 'coffee', 'filter', 'fluid', 'gallon', 'size', 'wd-40', 'storage', 'carbon', 'left', 'pan', 'wipe', 'cloth', 'carbon', 'stay', 'clean', 'fluid', 'cleaning', 'fluid', 'pan', 'mop', 'brush', 'run', 'carbon', 'rifle', 'barrel', 'time', 'mop', 'brush', 'method', 'save', 'time', 'money', 'individual', 'police_department', 'military', 'work']",0,[],0.015077971
115,0.0,"['price', 'firearm', 'gun', 'price', 'rifle', 'good', 'high', 'quality', 'magazine', 'ammo', 'ar-10', 'king', 'semi', 'auto']",0,[],0.015077971
13091,0.0,"['rite', 'rain', 'meter', 'zero', 'target', 'm-16a2', 'm4', 'ar-15', 'rifle']",0,[],0.015077971
3811,0.0,"['good', 'chance', 'civilian', 'military', 'buyer', 'turn', 'rifle', 'price', 'charge']",0,[],0.015077971
4209,0.0,"['point', 'texas', 'criminal_aliens', 'rancher', 'good', 'scoped', 'rifle', 'see', 'type', 'open', 'long_distance', 'distance']",0,[],0.015077971
4108,0.0,"['rifle', 'cut', 'mouse', 'gun', 'caliber']",0,[],0.015077971
202,0.0,"['hand', 'ar-10_chambered', 'caliber', 'pile', 'sks', 'rifle', 'owner', 'problem', 'find', 'place', 'store', 'battlefield', 'pick']",0,[],0.015077971
13158,0.0,"['die', 'slave', 'ar', 'america', 'rifle', 'dispatch', 'yard', 'light', 'weight', 'recoil', 'white_human', 'childhood', 'age', 'common', 'pistol', 'caliber', 'light', 'rifle', 'caliber', 'battle', 'rifle', 'caliber', 'winchester', 'american', 'ar_rifles', 'type_rifle', 'publication', 'american_rifleman']",0,[],0.015077971
10362,0.0,"['m-14', 'type', 'rifle', 'north_texas', 'area', 'regular', 'basis', 'type_rifle', 'shoot', 'ar-10', 'sell', 'fast', 'ar-10', 'light_weight', 'rifle', 'muzzle', 'break', 'recoil', 'shoot', 'round', 'feel', 'effect', 'guy', 'shoot', 'm-14', 'type', 'rifle', 'shoot', 'ten', 'round']",0,[],0.015077971
1926,0.0,"['remake', 'combat', 'rifle', 'm110', 'sas', 'ar-10', 'true', 'combat', 'rifle', 'accuracy', 'knock', 'range', 'reliability', 'true', 'combat', 'rifle']",0,[],0.015077971
1378,0.0,"['traitor', 'government', 'fear', 'honest_law', 'abiding_citizens', 'purchase', 'rifle']",0,[],0.015077971
1462,0.0,"['colt', 'claim', 'true', 'mil_spec', 'manufacturer', 'military', 'buy', 'manufacturer', 'colt', 'fn', 'supply', 'small_arms', 'military', 'knight', 'manufacturing', 'florida', 'dpms', 'defense', 'procurement', 'manufacturing', 'service', 'lewis', 'machine', 'tool', 'company', 'olympic_arms', 'rumor', 'supply', 'rifle', 'military']",0,[],0.015077971
11107,0.0,"['bipod', 'accuracy', 'mount', 'bipod', 'essential', 'sling', 'swivel', 'factory', 'location', 'mount', 'plate', 'bipod', 'trick', 'free', 'float', 'tube', 'dpms', 'thread', 'back', 'turn', 'swivel', 'bottom', 'position', 'ground', 'bipod', 'leg', 'swivel', 'rifle', 'angle', 'turn', 'free', 'float', 'tube', 'bipod', 'place', 'leg', 'length', 'oil', 'gun', 'oil', 'gun', 'grease', 'thread', 'free', 'float', 'tube', 'turn', 'sling', 'swivel', 'standard', 'thread', 'thread', 'position', 'center', 'punch', 'location', 'thread', 'guide', 'chart', 'show', 'drill', 'size', 'thread', 'size', 'drill', 'bit', 'hole', 'start', 'oil', 'hole', 'drill', 'bit', 'clean', 'shaving', 'oil', 'aluminum', 'shaving', 'hole', 'bunch', 'catch', 'spin', 'drill', 'bit', 'tear', 'material', 'make', 'hole', 'diameter', 'large', 'hand', 'drill', 'hole', 'tap', 't-handle', 'tap', 'wrench', 'tap', 'state', 'square', 'hole', 'oil', 'hole', 'oil', 'tap', 'tap', 'bite', 'solid', 'resistance', 'back', 'quarter', 'turn', 'length', 'turn', 'quarter', 'turn', 'machine', 'shop', 'young', 'tension', 'cut', 'surface', 'shaving', 'fall', 'tear', 'thread', 'aluminum', 'drill', 'press', 'milling', 'machine', 'electric', 'hand', 'drill', 'hand', 'tap', 'work', 'thread', 'perfect', 'bipod', 'mount', 'sling', 'swivel', 'ar-15', 'bipod', 'ar-15', 'mag', 'longer', 'longer', 'bipod', 'longer', 'mag', 'ar-15', 'mag', 'mono-pod', 'mag', 'bolt', 'chamber', 'cause', 'failure', 'feed', 'hold', 'bipod', 'leg', 'hand', 'position', 'shot', 'competition', 'shooter', 'hit', 'target', 'shot', 'separate', 'target', 'time', 'event', 'hit', 'time', 'count', 'point', 'ring', 'steel', 'silhouette', 'harris', 'bipod', 'spring', 'mount', 'leg', 'pull', 'time', 'tie', 'leg', 'leather', 'cord', 'bipod', 'leg', 'pull', 'tension', 'cord', 'pull', 'bipod', 'leg', 'bipod', 'shot', 'good_luck', 'good_shooting']",0,[],0.015077971
972,0.0,"['soviet', 'firearm', 'time', 'purchase', 'ar', 'sell', 'rifle', 'today', 'money', 'choice', 'shoot', 'type', 'cash', 'type', 'shoot']",0,[],0.015077971
11067,0.0,"['unknown', 'twist', 'rate', 'twist', 'rate', 'simple', 'find', 'bore', 'mop', 'cleaning', 'rod', 'bore', 'mop', 'contact', 'rifle', 'mop', 'bore', 'full', 'contact', 'rifle', 'mark', 'spot', 'rod', 'mark', 'rod', 'line', 'rod', 'tape', 'shaft', 'handle', 'mark', 'tape', 'work', 'run', 'rod', 'bore', 'rod', 'turn', 'mark', 'rod', 'rod', 'rod', 'measure', 'distance', 'mark', 'distance', 'rod', 'travel', 'revolution', 'twist', 'rate']",0,[],0.015077971
1904,0.0,"['mention', 'military', 'auto', 'sniper', 'system', 'm110', 'sas', 'mention', 'notice', 'photo', 'man', 'sniper', 'team', 'team', 'man', 'team', 'run', 'kill', 'mention', 'military', 'sniper', 'kill', 'iraqi', 'sniper', 'sniper', 'rifle', 'dead', 'american', 'sniper', 'team', 'run', 'kill', 'm110', 'sas', 'sniper', 'team']",0,[],0.015077971
11037,0.0,"['model', 'sale', 'texas', 'good', 'rifle', 'kit', 'kit', 'rifle', 'part', 'kit', 'part', 'strip', 'part', 'serial', 'number', 'treat', 'rifle', 'government', 'ship', 'dealer', 'official', 'ffl', 'government', 'rifle', 'kit', 'ship']",0,[],0.015077971
1907,0.0,"['news_item', 'russia', 'cost', 'factory', 'american', 'dollar', 'produce', 'produce', 'produce', 'magazine', 'ak', 'ammo', 'ammo', 'full', 'power', 'rifle', 'ammo', 'fire', 'power', 'practice', 'rifleman', 'guy', 'spray', 'carbine', 'carry', 'round', 'battle', 'rifleman', 'ammo', 'aim', 'shot', 'spray', 'method', 'ammo', 'short', 'order', 'practice', 'rifleman', 'accurate_rifle', 'ammo', 'battlefield', 'rifleman', 'win', 'ammo', 'hold', 'custer', 'men', 'win', 'ammo', 'cqb', 'side', 'guy', 'win', 'side', 'heavy', 'loss', 'side', 'survivor', 'winner']",0,[],0.015077971
11352,0.0,"['start', 'info', 'post5235123', 'high', 'precision', 'rifle', 'round', 'single', 'stage', 'press', 'pistol', 'ammo', 'fast', 'progressive', 'press', 'lee', 'dy']",0,[],0.015077971
897,0.0,"['man', 'fly', 'confederate', 'battle', 'flag', 'ban', 'flag', 'flag', 'show', 'battle', 'flag', 'year', 'rifle', 'ammo', 'figure', 'quick']",0,[],0.015077971
1918,0.0,"['video', 'page', 'm16', 'fire', 'round', 'fire', 'last', 'second', 'flame', 'video', 'terry', 'knight', 'fire', 'belt', 'fed', 'round', 'rifle', 'fire', 'non-stop', 'flame', 'm16', 'video', 'hand', 'guard', 'dick', 'metcalf', 'video', 'fire', 'round', 'non-stop', 'todd', 'jarrett', 'video', 'fire', 'round', 'pistol', 'flame', 'video', 'machine_gun', 'fire', 'belt', 'fed', 'round', 'flame', 'guess', 'hand', 'guard', 'mosquito']",0,[],0.015077971
4089,0.0,"['standard', 'firearm', 'amp', 'w', 'cop', 'bad', 'handloads', 'blowing', 'handgun', 'factory', 'load', 'shoot', 'ammo', 'rat', 'true', 'proof', 'factory', 'turn', 'bad', 'handgun', 'sako', 'reputation', 'rifle', 'manufacturer', 'batch', 'rifle', 'supplier', 'supply', 'wrong', 'grade', 'steel', 'batch', 'recall']",0,[],0.015077971
10920,0.0,"['child', 'size', 'rifle', 'civilian', 'version', 'heat', 'build', 'small', 'size', 'id', 'diameter', 'rapid', 'cool', 'diameter', 'barrel', 'cool', 'barrel', 'heat', 'cool', 'caliber', 'rifle', 'cool', 'rifle', 'barrel', 'rapid_fire']",0,[],0.015077971
2319,0.0,"['ar-10', 'type', 'dpms', 'issue', 'area', 'issue', 'fal', 'mag', 'tolerance', 'sell', 'metric', 'inch', 'mag', 'work', 'rifle', 'mini', 'auto', 'rifle', 'shoot', 'ammo', 'semi_auto', 'ar-15', 'mag', 'interchange', 'dpms', 'armalite', 'rifle', 'replacement', 'part', 'mag', 'lower', 'dpms', 'armalite', 'rifle', 'fal', 'dpms', 'armalite', 'mag', 'choice', 'dpms', 'mag', 'heavy', 'gauge', 'steel', 'feed', 'complaint', 'fit', 'round']",0,[],0.015077971
2086,0.0,"['berlin', 'wall', 'rumor', 'spread', 'berlin', 'gate', 'open', 'open', 'crowd', 'people', 'present', 'gate', 'hey', 'gate', 'open', 'gate', 'open', 'border', 'cross', 'guard', 'citizen', 'demand', 'hey', 'full', 'auto', 'full_auto', 'rifle', 'god']",0,[],0.015077971
11732,0.0,"['fundamental', 'rifle', 'marksmanship']",0,[],0.015077971
11738,0.0,"['bren', 'gun', 'browning', 'automatic', 'rifle']",0,[],0.015077971
2588,0.0,"['terrorist', 'establishment', 'shooter', 'grill', 'rifle', 'colorado']",0,[],0.015077971
10464,0.0,"['jihadis', 'car', 'load', 'ak', 'assault', 'rifle', 'pistol', 'ammo', 'explosive', 'drive', 'mile', 'white_folks', 'garland', 'texas', 'give', 'death', 'jihadis', 'people', 'event', 'garland', 'independent', 'school', 'district', 'property', 'free', 'zone', 'gun_free', 'zone', 'stupid', 'stupid', 'place', 'kill', 'people', 'jihadis', 'open', 'fire', 'garland', 'isd', 'security', 'officer', 'wound', 'hospital', 'stand', 'texan', 'arm', 'handgun', 'jihadis', 'full_auto', 'rifle', 'handgun', 'explosive', 'hand', 'grenade', 'shot', 'jihadis', 'dead', 'shoot', 'mercy', 'jihadis', 'gun_free', 'zone', 'kill', 'people', 'texan', 'kill', 'jihadis']",0,[],0.015077971
2310,0.0,"['wanton', 'greed', 'price', 'gouge', 'remington', 'give', 'ammo', 'sell', 'price', 'remington', 'give', 'fifty', 'thousand', 'round', 'junior', 'shoot', 'program', 'kid', 'free', 'lesson', 'marksman', 'remington', 'give', 'parent', 'rifle', 'ammo', 'kid', 'clinic', 'remington', 'customer']",0,[],0.015077971
11777,0.0,"['ar', 'armalite', 'rifle']",0,[],0.015077971
9515,0.0,"['trust', 'pistol', 'jam', 'range', 'owner', 'make', 'excuse', 'jam', 'carry', 'jam', 'amp', 'p', 'safety', 'safety', 'kill', 'safety', 'magazine', 'add', 'magazine', 'extension', 'fed', 'brand', 'ammo', 'fed', 'fmj', 'target', 'ammo', 'hand', 'load', 'jhp', 'defense', 'round', 'pistol', 'texas', 'light_weight', 'magazine', 'grain', 'ammo', 'pistol', 'hand', 'grip', 'size', 'strap', 'size', 'hand', 'pick', 'assistance', 'hand', 'grip', 'amp', 'w', 'stand', 'product', 'amp', 'w', 'product', 'amp', 'w', 'manufacturer', 'carry', 'handgun', 'amp', 'w']",0,[],0.011245505
9491,0.0,"['size', 'carry', 'gun', 'writer', 'pocket', 'pistol', 'shot', 'snub', 'nose', 'revolver', 'fine', 'criminal', 'thug', 'attack', 'pack', 'share']",0,[],0.011245505
11652,0.0,"['multi', 'pistol', 'shoot']",0,[],0.011245505
9612,0.0,"['acp', 'work', 'shoot', 'handgun', 'good', 'para', 'pistol', 'canada', 'price', 'handgun', 'caliber', 'handgun', 'ammo', 'shoot', 'good_shooting', 'habit', 'flinch', 'folk', 'start', 'bb', 'gun', 'air_soft', 'gun', 'lr', 'move', 'center', 'fire', 'gun', 'practice', 'air_soft', 'handgun']",0,[],0.011245505
6896,0.0,"['pistol', 'sight']",0,[],0.011245505
8378,0.0,"['kradmelder', 'favorite', 'pistol', 'gunblast.com', 'cz', 'semi-auto', 'pistol', 'modern', 'legend']",0,[],0.011245505
12683,0.0,"['slingshot', 'pistol']",0,[],0.011245505
12366,0.0,"['gunblast.com', 'kahr', 'p45', 'cw45', 'semi-automatic', 'pistol']",0,[],0.011245505
41,0.0,"['air_soft', 'training', 'train', 'air_soft', 'replica', 'concealed_carry', 'handgun', 'recoil', 'fire', 'dry', 'fire', 'firearm', 'lighter', 'feel', 'air_soft', 'real', 'line', 'sight', 'shot', 'hand-eye', 'coordination', 'practice', 'practice', 'practice', 'line', 'sight', 'line', 'sight', 'hit', 'aim', 'trigger_control', 'trigger', 'time', 'control', 'shoot', 'range', 'large', 'difference', 'shoot', 'air_soft', 'handgun', 'shoot', 'handgun', 'train', 'grip', 'stance', 'handgun', 'photo', 'show', 'side', 'side', 'comparison', 'real', 'concealed_carry', 'pistol', 'air_soft', 'training', 'pistol', 'target', 'air_soft', 'plastic', 'pellet', 'comparison', 'target', 'ammo', 'target', 'foot', 'paper', 'target', 'shot', 'rapid_fire', 'foot', 'concealed_carry', 'pistol']",0,['air_soft'],0.011245505
2039,0.0,"['umc', 'ammo', 'cheep', 'import', 'ammo', 'arkansas', 'white_folks', 'remington', 'umc', 'function', 'purchase', 'box', 'price', 'round', 'price', 'hurt', 'box', 'pay', 'check', 'pistol', 'ammo', 'rock', 'carbine', 'ammo', 'club', 'spear', 'outfit', 'bayonet']",0,[],0.011245505
3680,0.0,"['give', 'thought', 'purchasing', 'pistol', 'roland', 'advantage', 'shoot', 'high', 'power', 'roland', 'roland', 'chamber', 'carry', 'load', 'mag', 'load', 'roland', 'change', 'caliber', 'change', 'load', 'mag', 'time', 'high', 'power', 'cartridge', 'circumstance', 'run', 'special', 'ammo', 'handgun', 'chamber', 'common', 'ammo', 'roland', 'brass', 'starline', 'load', 'complaint', 'cartridge', 'penetration', 'cover', 'roland', 'penetration', 'knock', 'power']",0,[],0.011245505
794,0.0,"['shootin', 'holler', 'clothespin', 'shoot', 'action', 'shot', 'practice', 'pistol', 'carry', 'pistol', 'shoot', 'clothespin', 'good', 'practice', 'good', 'fun', 'god_bless', 'texas']",0,[],0.011245505
944,0.0,"['limited', 'combat', 'firearm', 'ar-10', 'heavy', 'barrel', 'close_quarters', 'range', 'scope', 'red_dot', 'range', 'stuff', 'amp', 'p', 'pistol', 'light', 'carry', 'high_capacity', 'good', 'stopping_power', 'counter', 'sniper', 'mortar', 'concealment', 'good', 'hit', 'combat', 'exchange', 'mortar', 'hunt', 'bird', 'rabbit', 'ar-10', 'deer', 'wild', 'hog', 'work', 'elk', 'moose', 'black', 'bear', 'brown', 'bear', 'mountain', 'lion', 'work']",0,[],0.011245505
1896,0.0,"['amp', 'wesson', 'product', 'bone', 'head', 'decision', 'market', 'product', 'sigma', 'pistol', 'revolver', 'weight', 'trigger_pull', 'amp', 'p', 'rethink', 'screw', 'change', 'magazine', 'safety', 'original', 'design', 'amp', 'p', 'release', 'striker', 'magazine', 'magazine', 'gun', 'mag', 'remove', 'sense', 'problem', 'de-cock', 'striker', 'magazine', 'magazine', 'gun', 'slide', 'battery', 'safe', 'load', 'magazine', 'pull', 'de-cock', 'striker', 'error', 'put', 'load', 'magazine', 'magazine', 'slide', 'lock', 'open', 'slide', 'fall', 'load', 'magazine', 'pull', 'de-cock', 'striker', 'bang', 'carry', 'magazine', 'de-cocking', 'striker', 'need', 'magazine', 'safety']",0,[],0.011245505
5853,0.0,"['usda', 'seek', 'submachine', 'gun', 'w', 'u.s', 'agriculture', 'bid', 'supplier', 'submachine', 'gun', 'burst', 'capability', 'stampede', 'federal', 'agency', 'arm', 'citizen', 'secession']",0,[],0.011026515
2579,0.0,"['thought', 'central', 'government', 'government', 'set', 'motion', 'english', 'australian', 'canadian', 'armed_citizens', 'surrender', 'testicle', 'sooner', 'gun']",0,[],0.011026515
6329,0.0,"['girl', 'wan', 'na', 'gun']",0,[],0.011026515
6676,0.0,"['customizable', 'gun']",0,[],0.011026515
6824,0.0,"['gun', 'tree']",0,[],0.011026515
3715,0.0,"['hillary', 'tonight', 'line', 'coke', 'bottle', 'stare', 'empty', 'bed', 'huma', 'know', 'love', 'crush', 'defeat', 'public', 'humiliation', 'loom', 'hold', 'load', 'gun', 'hand', 'fix']",0,[],0.011026515
6943,0.0,"['nelson', 'georgia', 'mandatory', 'gun', 'ownership']",0,[],0.011026515
7076,0.0,"['counsel', 'victim', 'pop', 'tart', 'gun', 'loony_leftists', 'screw', 'fear', 'reality']",0,[],0.011026515
3394,0.0,"['florida', 'subject', 'visitor', 'totalitarian', 'state', 'range', 'gun', 'club', 'hunt', 'lease', 'grant', 'visitor', 'homeland', 'north_texas', 'dallas', 'fort', 'worth', 'area', 'range']",0,[],0.011026515
7230,0.0,"['gun', 'grabber', 'bill', 'secret']",0,[],0.011026515
10219,0.0,"['evil', 'racist', 'hater', 'gun', 'range', 'weapon', 'hand', 'force', 'promise', 'shrine', 'tyr', 'god', 'war', 'praise', 'tyr', 'pas', 'ammo']",0,[],0.011026515
10025,0.0,"['perfect', 'sense', 'stay', 'washington_government', 'list', 'government', 'list', 'real', 'surprise', 'government', 'criminal_conspiracy', 'gun', 'fix', 'find', 'gun', 'fix', 'gunsmith', 'gun', 'sell', 'gun', 'worth', 'work', 'gun']",0,[],0.011026515
3389,0.0,"['show', 'chanel', 'video', 'youtube', 'site', 'stuff', 'train', 'professional', 'nut', 'common', 'sense', 'good', 'dvd', 'free', 'info', 'shoot', 'range', 'facility', 'firearm', 'training', 'class', 'gun', 'gun', 'safety', 'website', 'place', 'join', 'magazine', 'subscription', 'membership', 'shootingusa', 'nra', 'sponsor', 'tv', 'program', 'website']",0,[],0.011026515
8241,0.0,"['gun', 'west']",0,[],0.011026515
8287,0.0,"['roanna', 'huckstep', 'gun', 'spin', 'gunslinger']",0,[],0.011026515
8293,0.0,"['operation', 'gun', 'runner', 'draw', 'mexican_drug', 'gang', 'fire', 'reply', 'operation', 'gun', 'runner', 'aim', 'white_house', 'message', 'put', 'case', 'kenyan', 'teleprompter', 'reader', 'catch', 'gun', 'federal', 'gun', 'sinaloa', 'drug', 'gang', 'standard', 'message', 'drug', 'mafia', 'bullet_proof', 'obama-regime/']",0,[],0.011026515
9353,0.0,"['medium', 'american', 'hate', 'gun', 'jewish_hollywood', 'produce', 'shoot', 'movie', 'american', 'flock', 'disconnect', 'medium']",0,[],0.011026515
8352,0.0,"['obama', 'holder', 'order', 'operation', 'gun', 'runner']",0,[],0.011026515
3241,0.0,"['nazi', 'god', 'walk', 'men', 'peace', 'time', 'hitler', 'desire', 'gun', 'point', 'european', 'nation', 'nazi', 'ship', 'buy', 'neutral', 'american', 'navy', 'hitler', 'attack', 'white_nations', 'american', 'general', 'hitler', 'germany', 'note', 'bad', 'national_socialism', 'change', 'hitler', 'ww_ii', 'inevitable', 'people', 'war', 'american', 'people', 'war', 'people', 'war', 'french', 'people', 'war', 'polish', 'people', 'war', 'care', 'people', 'want']",0,['ww_ii'],0.011026515
4030,0.0,"['house', 'house', 'gun_confiscation', 'australia', 'tv', 'turn', 'gun']",0,[],0.011026515
3234,0.0,"['photo', 'professional', 'shooter', 'gun', 'competition', 'money', 'line', 'shooter', 'super', 'ak', 'world', 'class', 'champion', 'think']",0,['world_class_champions'],0.011026515
2974,0.0,"['auto', 'armor', 'pierce', 'round', 'good', 'defensive', 'tool', 'armor', 'pierce', 'round', 'defeat', 'body_armor', 'market', 'today', 'government', 'sale', 'armor', 'pierce', 'ammo', 'caliber', 'civilian', 'magic_niggro', 'ease', 'restriction', 'point', 'caliber', 'small', 'man', 'stopper', 'rodent', 'problem', 'work', 'mouse', 'gun']",0,[],0.011026515
6026,0.0,"['covert', 'gun', 'mount']",0,[],0.011026515
6746,0.0,"['larry_potterfield', 'tig', 'welder', 'repair', 'gun', 'part']",0,[],0.011026515
3858,0.0,"['virginia', 'bristol', 'cabala', 'gun', 'display', 'case', 'factory', 'custom', 'model', 'buy', 'spot', 'cabala', 'case', 'cool', 'gun', 'picture', 'shop', 'carter', 'country', 'pasadena', 'texas', 'shop']",0,[],0.011026515
5037,0.0,"['kirsten', 'joy', 'wei', 'gun', 'yoga', 'p38']",0,[],0.011026515
11251,0.0,"['glock', 'aka', 'plastic', 'gun', 'design', 'beretta', 'design', 'polymer', 'pistol_caliber', 'carbine', 'cx4', 'storm']",0,[],0.011026515
907,0.0,"['partnership', 'sinaloa', 'drug', 'cartel', 'cia', 'drug', 'america', 'batfe', 'give', 'gun', 'dea', 'friend', 'sinaloa', 'drug', 'gang', 'south']",0,[],0.011026515
11119,0.0,"['accident', 'sample', 'gun', 'powder', 'dust', 'lint', 'dirt', 'floor', 'work', 'shop', 'drop', 'case', 'put', 'heat', 'mouth', 'glow', 'water', 'deep', 'tray', 'buy', 'equipment', 'check', 'instruction', 'box', 'buy', 'leave', 'figure', 'extra', 'part']",0,[],0.011026515
4190,0.0,"['white_man', 'canon', 'hand', 'gun', 'manner', 'firearm', 'white_folks', 'today', 'run', 'wipe', 'white_civilization', 'white_man', 'technology']",0,[],0.011026515
1810,0.0,"['gun', 'gun_owners', 'estimate', 'gun_owners', 'traitor', 'government']",0,[],0.011026515
11202,0.0,"['gun', 'buy', 'person', 'stuff', 'buy', 'dirt', 'midway', 'usa', 'good', 'service', 'complaint']",0,[],0.011026515
4098,0.0,"['pocket', 'gun', 'pocket', 'size', 'handgun', 'pocket', 'gun', 'gun']",0,[],0.011026515
5139,0.0,"['roanna', 'huckstep', 'gun', 'slinger']",0,[],0.011026515
168,0.0,"['update', 'solution', 'gun', 'oil', 'cleaning', 'gun', 'barrel', 'solution', 'hoppes', 'bore', 'solvent', 'copper', 'deposit', 'corrosion', 'problem', 'harm', 'plastic', 'part']",0,[],0.011026515
165,0.0,"['watch', 'segment', 'gun', 'ammo', 'tv', 'topic', 'clean', 'bolt', 'shooter', 'show', 'carbon', 'build', 'need', 'scrap', 'tool', 'show', 'scrap', 'carbon', 'deposit', 'interior', 'bolt', 'carrier', 'clean', 'method', 'soak', 'bolt', 'carrier', 'unit', 'bolt', 'carrier', 'carbon', 'deposit', 'guess', 'mention', 'product', 'bolt', 'carrier', 'case', 'combination', 'wet', 'time', 'clp', 'clean', 'pump', 'spray', 'bottle', 'hoppe', 'number', 'gun', 'oil', 'squeeze', 'bottle', 'hoppe', 'number', 'oil', 'spray', 'remington', 'gun', 'oil', 'teflon', 'spray', 'gibb', 'oil', 'spray', 'product', 'call', 'sweet', 'shooter', 'metal', 'cleaner', 'treatment', 'design', 'firearm', 'main', 'sell', 'point', 'sweet', 'shooter', 'soak', 'clean', 'magazine', 'stainless_steel', 'tray', 'soak', 'bolt', 'carrier', 'sweet', 'shooter', 'package', 'product', 'work', 'bolt', 'carrier', 'fire', 'time', 'dry', 'carbon', 'stick']",0,[],0.011026515
760,0.0,"['chemical', 'fertilizer', 'plant', 'fire', 'explosion', 'west', 'texas', 'home', 'west', 'fest', 'czech', 'sausage', 'chemical', 'fertilizer', 'need', 'production', 'fluoride', 'add', 'city', 'water', 'farm', 'food', 'chemical', 'tragedy', 'greed', 'texas', 'plant', 'explosion', 'town', 'west', 'waco']",0,[],0.010820835
6089,0.0,"['orwell', 'radical_feminism', 'job', 'strength', 'endurance', 'corporation', 'hire', 'female', 'position', 'pair', 'female', 'job', 'female', 'job', 'equal', 'pay', 'work', 'pay', 'female', 'job', 'pay', 'male', 'hire', 'job', 'fire', 'female', 'fair', 'equal']",0,[],0.010820835
9357,0.0,"['anti-american', 'activist', 'epa', 'fire', 'fake', 'government', 'job', 'american', 'real', 'job']",0,[],0.010820835
9457,0.0,"['medium', 'blitz', 'year', 'true', 'halloween', 'medium', 'entire', 'heritage', 'cloud', 'meaning', 'holiday', 'event', 'history', 'debt', 'sacrifice', 'hardship', 'today', 'drought', 'flood', 'fire', 'earthquake', 'eruption', 'ship', 'wreck', 'storm', 'wave', 'animal', 'attack', 'plague', 'famine', 'generation', 'bore', 'today', 'mater', 'great', 'debt', 'sacrifice', 'great', 'burden', 'great', 'heritage', 'destiny', 'lead', 'heritage', 'halloween', 'year', 'set', 'die', 'talk', 'ghost', 'come', 'visit', 'barrier', 'world', 'light', 'sound', 'time', 'visit', 'time', 'visit', 'time', 'great', 'heritage', 'halloween', 'time', 'child', 'candy', 'fun', 'duty', 'pay', 'debt', 'great', 'ancestor', 'great', 'heritage', 'honor', 'memory', 'halloween', 'today', 'medium', 'work', 'non-stop', 'campaign', 'propaganda', 'aim', 'generation', 'television', 'program', 'movie', 'book', 'child', 'cartoon', 'trend', 'man', 'pair', 'woman', 'woman', 'pair', 'man', 'worse', 'medium', 'man', 'woman', 'experiment', 'gay', 'lifestyle', 'abort', 'present', 'lifestyle', 'propaganda', 'construct', 'murder', 'generation', 'white_race', 'attack', 'group', 'group', 'specie', 'definition', 'race', 'list', 'grant', 'protection', 'mammal', 'bird', 'fish', 'reptile', 'insect', 'list', 'white_humans', 'creator', 'civilization', 'medium', 'reality', 'white_woman', 'seek', 'black', 'man', 'wisdom', 'guidance', 'man', 'buffoon', 'science_fiction', 'drama', 'drip', 'medium', 'propaganda', 'commander', 'military', 'ship', 'space', 'white_children', 'science_fiction', 'bone', 'white_humans', 'document', 'carbon', 'date', 'major', 'lab', 'twenty', 'thousand', 'average', 'child', 'bearing', 'age', 'twenty', 'average', 'thousand', 'generation', 'white', 'mother', 'white', 'father', 'individual', 'present', 'day', 'life', 'white_man', 'couple', 'white_woman', 'couple', 'entire', 'great', 'line', 'white_humans', 'parent', 'white_children', 'medium', 'science_fiction', 'reality', 'medium', 'pressure', 'young', 'white', 'girl', 'culture', 'woman', 'asian', 'culture', 'pregnancy', 'exam', 'fetus', 'female', 'fetus', 'woman', 'family', 'arab', 'culture', 'woman', 'slave', 'right', 'black', 'culture', 'woman', 'injun', 'woman', 'serve', 'pack', 'mule', 'turn', 'wilderness', 'die', 'young_white', 'woman', 'brain', 'wash', 'join', 'culture', 'show', 'phrase', 'snake', 'mind', 'medium', 'lie', 'small', 'halloween', 'generation', 'responsibility', 'generation', 'action', 'white_race', 'heroic', 'murder', 'future_generations', 'future_generations', 'mercy', 'tradition', 'duty', 'white_humans', 'destiny']",0,[],0.010820835
9222,0.0,"['remove', 'work', 'brass', 'brass', 'work', 'brass', 'brass', 'crack', 'firing', 'folk', 'brass', 'work', 'temper', 'brass', 'work', 'work', 'thread', 'ar', 'longer', 'explanation', 'work', 'dent', 'case', 'body', 'dent', 'remains', 'brass', 'full_length', 'dent', 'volume', 'increase', 'pressure', 'accuracy', 'fire', 'undented', 'brass', 'pressure', 'change', 'velocity', 'change', 'point', 'change', 'group', 'size', 'accuracy', 'velocity']",0,[],0.010820835
3297,0.0,"['men', 'nut', 'basis', 'lawsuit', 'file', 'feminist', 'men', 'fee', 'inferior', 'put', 'nut', 'point', 'job', 'full', 'pay', 'pay', 'job', 'job', 'year', 'job', 'year', 'job', 'fire', 'lawsuit', 'funny', 'america', 'gut', 'wrong']",0,[],0.010820835
2801,0.0,"['african', 'attack', 'female', 'female', 'target', 'victim', 'drag', 'car', 'male', 'african', 'employ', 'fire', 'fighter', 'arrest', 'strike']",0,[],0.010820835
8173,0.0,"['shooter', 'active_duty', 'police_officer', 'border_patrol', 'agent', 'line', 'duty', 'kill', 'combat', 'situation', 'recruit', 'dead', 'meat', 'military', 'training', 'sill', 'damn', 'time', 'die', 'day', 'combat', 'combat', 'veteran', 'guy', 'combat', 'skill', 'combat', 'veteran', 'combat', 'skill', 'stay', 'skill', 'kill', 'skill', 'war', 'ww_ii', 'death', 'american', 'army', 'combat', 'veteran', 'kill', 'credit', 'active_duty', 'police_officer', 'barn', 'barn', 'ammo', 'member', 'sheriff', 'department', 'entire', 'family', 'shot', 'reputation', 'shot', 'sheriff', 'department', 'family_member', 'worst', 'shot', 'family', 'marksman', 'swat', 'team', 'police_officer', 'soldier', 'effort', 'marksmanship', 'expert', 'shot', 'border_patrol', 'agent', 'place', 'winner', 'large', 'mexican', 'shoot', 'target', 'hit', 'target', 'skill', 'kill', 'border_patrol', 'teach', 'shoot', 'join', 'border_patrol', 'trick', 'shot', 'place', 'ping', 'pong', 'ball', 'hand', 'service', 'revolver', 'draw', 'aim', 'fire', 'hit', 'target', 'ball', 'hit', 'floor', 'reaction', 'time', 'skill', 'ping', 'pong', 'ball', 'mexican', 'criminal', 'trick', 'skill', 'kill']",0,['ww_ii'],0.010820835
11455,0.0,"['liberal', 'solid', 'treat', 'human', 'liberal', 'difference', 'white_woman', 'african', 'co-worker', 'steal', 'manager', 'african', 'arrest', 'african', 'fire', 'african', 'store', 'closing', 'innocent_white', 'woman', 'report', 'african', 'criminal', 'behavior', 'african', 'present', 'opportunity', 'beat', 'white_woman', 'police', 'african', 'beat', 'white', 'victim', 'unconscious', 'beating', 'minute', 'employee', 'door', 'noise', 'attack', 'white', 'victim', 'liberal_race', 'traitor', 'family_members', 'outrage', 'spoke', 'sound']",0,[],0.010820835
11044,0.0,"['rcbs', 'military', 'crimp', 'primer_pocket', 'swag', 'die', 'die', 'technique', 'work', 'military', 'crimp', 'die', 'work', 'work', 'mash', 'edge', 'military', 'crimp', 'center', 'force', 'bevel', 'die', 'nipple', 'insert', 'pocket', 'pressure', 'crimp', 'spring', 'crimp', 'swag', 'crimp', 'swag', 'swag', 'crimp', 'raise', 'die', 'swag', 'crimp', 'time', 'work', 'charm', 'press', 'primer', 'case', 'swag', 'problem', 'swag', 'pocket', 'remove', 'crimp', 'crimp', 'swag', 'pocket', 'pocket', 'crimp', 'remove', 'pocket', 'large', 'fit', 'grip', 'place', 'cartridge', 'fire', 'result', 'primer', 'pressure', 'primer', 'kill', 'primer', 'blow', 'primer', 'lodge', 'trigger', 'group', 'jam', 'group', 'make', 'fire', 'jam', 'clear', 'remove', 'military', 'crimp', 'primer', 'swag', 'crimp']",0,[],0.010820835
2080,0.0,"['combine', 'fire', 'challenge', 'coffin', 'set', 'bbq', 'joint', 'sense', 'let', 'meat', 'waste', 'bbq', 'gathering', 'ghetto', 'style']",0,[],0.010820835
1091,0.0,"['military', 'russia', 'play', 'fire']",0,[],0.010820835
6337,0.0,"['nina', 'ivory', 'fantasy', 'great', 'ball', 'fire']",0,[],0.010820835
6653,0.0,"['fire', 'team', 'basic', 'flank']",0,[],0.010820835
8978,0.0,"['batfe', 'wistleblower', 'fire', 'government', 'fire', 'whistleblower', 'government', 'act', 'government', 'serf', 'purpose', 'american_citizens', 'time', 'dissolve', 'government']",0,[],0.010820835
10975,0.0,"['take', 'police_officer', 'fire', 'vehicle', 'room', 'permanent', 'hearing', 'loss', 'degree', 'shot', 'fire']",0,[],0.010820835
1728,0.0,"['merkel', 'race_traitor', 'follower', 'international_jewish', 'communism', 'angela', 'merkel', 'fire', 'communist', 'link', 'uniform', 'release', 'mail_online']",0,[],0.010820835
10882,0.0,"['president', 'elect', 'trump', 'rally', 'orlando', 'fl', 'voter', 'trump', 'fire', 'marshal', 'thousand', 'left']",0,[],0.010820835
8737,0.0,"['fire', 'start', 'start', 'fire', 'cotton', 'ball', 'grease', 'vaseline', 'striker', 'sound', 'video', 'good']",0,[],0.010820835
1081,0.0,"['nuke', 'commander', 'fire', 'patriot']",0,[],0.010820835
7360,0.0,"['swedish', 'fire', 'torch']",0,[],0.010820835
1666,0.0,"['police_officer', 'call', 'hero', 'shoot', 'african', 'dead', 'jewish_mass', 'medium']",0,[],0.010738055
11403,0.0,['shoot'],0,[],0.010738055
2107,0.0,"['advantage', 'cartridge', 'carry', 'disadvantage', 'cartridge', 'soldier', 'enemy', 'soldier', 'magazine', 'par', 'magazine', 'soldier', 'home', 'leave', 'soldier', 'move', 'carry', 'cartridge', 'nato', 'soldier', 'military', 'full_auto', 'longer', 'target', 'semi_auto', 'target', 'semi_auto', 'shooter', 'target', 'speed', 'kill', 'advantage', 'nato', 'shoot', 'heavy', 'cover', 'shot', 'capability', 'disadvantage', 'ar-10']",0,[],0.010738055
9585,0.0,"['shooting', 'neighborhood', 'neighborhood', 'white', 'neighborhood', 'appalachia', 'white_folks', 'shoot', 'african', 'advantage', 'gift', 'government', 'tax_dollars', 'hire', 'job', 'qualified_white', 'men', 'position', 'qualified_white', 'men', 'government', 'medium', 'blame', 'white_man', 'poor', 'african', 'primitive', 'savage', 'europe', 'caribbean', 'african', 'millionaire', 'crime', 'african', 'welfare', 'location', 'situation', 'african', 'remains']",0,[],0.010738055
1042,0.0,"['american_rifleman', 'magazine', 'annual', 'membership', 'worth', 'magazine', 'subscription', 'nra', 'help', 'fund', 'shoot', 'organization', 'state_rifle', 'association', 'battle', 'state', 'court']",0,[],0.010738055
422,0.0,"['indian', 'travel', 'reservation', 'gather', 'tribe', 'travel', 'settlement', 'white_folks', 'shout', 'white_folks', 'white', 'reservation', 'white', 'tribe', 'sound', 'day', 'indian', 'butcher', 'white', 'settlement', 'loony_leftists', 'jewish_communists', 'join', 'indian', 'attack', 'white', 'settlement', 'north_dakota', 'medium', 'white', 'settlement', 'white_folks', 'buying', 'product', 'white', 'settlement', 'support', 'regular', 'white_folks', 'individual', 'drop', 'icon', 'display', 'neighbor', 'nazi', 'display', 'indian', 'jew', 'loony_leftist', 'town', 'idea', 'nazi', 'neighbor', 'shoot', 'foot', 'costume', 'wave', 'flag', 'condition', 'birth', 'hate', 'nazi']",0,[],0.010738055
9347,0.0,"['mass', 'shoot', 'stop', 'citizen', 'tell', 'life', 'save', 'killing-vegas/']",0,[],0.010738055
9763,0.0,"['shoot', 'pattern', 'distance', 'sale', 'pitch', 'hunt', 'load', 'bird', 'game', 'lead', 'fly']",0,[],0.010738055
1906,0.0,"['question', 'afghan', 'shoot', 'fly', 'modern', 'jet', 'answer', 'video', 'post8160737']",0,[],0.010738055
200,0.0,"['concealment', 'aspect', 'bolt_action', 'bolt_action', 'guy', 'movement', 'entire', 'arm', 'cycle', 'bolt', 'wave', 'flag', 'shout', 'shoot', 'concealment', 'rapid_fire', 'bolt_action', 'semi_auto', 'movement', 'need', 'mag', 'change']",0,[],0.010738055
1825,0.0,"['ukraine', 'support', 'shoot', 'russian', 'aircraft', 'turkey']",0,[],0.010738055
10608,0.0,"['real', 'tragedy', 'shoot', 'event', 'anti-white', 'agenda', 'government', 'forced_integration', 'leftist', 'policy', 'cause', 'murder', 'rape', 'attack', 'multitude', 'innocent_white', 'child', 'girl', 'victim', 'fall', 'american_citizens', 'neighbor', 'elect', 'student', 'council', 'government']",0,[],0.010738055
8582,0.0,"['houston', 'armory', 'aac', 'silencer', 'shoot']",0,[],0.010738055
7621,0.0,"['white_woman', 'shoot', 'deer']",0,[],0.010738055
8246,0.0,"['blessing', 'mexican', 'invader', 'phony', 'drug', 'mexican_drug', 'shipment', 'harris', 'county', 'texas', 'truck', 'snitch', 'drug', 'gang', 'snitch', 'police_officer', 'begin', 'shoot', 'wound', 'druggie', 'officer', 'honest_law', 'abiding_citizens', 'in-2283370.php']",0,['war'],0.010738055
4484,0.0,"['amp', 'p', 'mag', 'fit', 'hand', 'shoot', 'put', 'light', 'coat', 'oil', 'light', 'coat', 'grease', 'jam', 'shot', 'brand', 'ammo', 'perfect', 'hammer', 'decock', 'safety', 'guide', 'rod', 'laser', 'complaint', 'shot']",0,[],0.010738055
7366,0.0,"['archery', 'fast', 'shoot', 'murmansk']",0,[],0.010738055
3796,0.0,"['toy', 'firearm', 'life', 'convert', 'function', 'real', 'firearm', 'shoot', 'real', 'ammunition', 'convert', 'toy', 'van', 'rocket', 'motor', 'guidance', 'system', 'jet', 'fuel', 'sheet', 'metal', 'time', 'convert', 'cruise', 'missile', 'van', 'cruise', 'missile', 'nation']",0,[],0.010738055
4271,0.0,"['true', 'michael/michelle', 'obama', 'tie', 'obama', 'knot', 'shoot', 'hoop', 'michael', 'teleprompter', 'obama', 'real', 'question', 'obama']",0,[],0.010738055
7653,0.0,"['martial_law', 'jersey', 'city', 'shoot', 'african', 'looter', 'city', 'lockdown', 'result', 'preserve', 'african', 'looter', 'future', 'african', 'mischief', 'jersey', 'city', 'total', 'lockdown', 'p.m', 'a.m', 'rash', 'store', 'break-in', 'official', 'nj.com']",0,[],0.010738055
3972,0.0,"['small', 'scope', 'shoot', 'scope', 'mm', 'image', 'scope', 'light', 'gathering', 'lens', 'image', 'browning', 'scope', 'small', 'light_weight', 'light', 'reticle', 'young', 'guy', 'sharp', 'eye', 'scope', 'reticle', 'life']",0,['browning_35'],0.010738055
5926,0.0,"['brandon401401', 'slappin', 'steel', 'pov', 'shoot']",0,[],0.010738055
8256,0.0,"['shoot', 'magnum', 'amp', 'w', 'revolver']",0,[],0.010738055
8341,0.0,"['aac', 'silencer', 'shoot']",0,[],0.010738055
4088,0.0,"['put', 'men', 'pink', 'camo', 'red', 'high', 'heel', 'dress', 'female', 'soldier', 'flannel', 'shirt', 'blue', 'jean', 'doc', 'martin', 'boot', 'body', 'ammo']",0,[],0.009040636999999999
6525,0.0,"['ammo', 'test', 'hornady', 'superformance', 'match', 'gr', 'bthp']",0,[],0.009040636999999999
1909,0.0,"['brick', 'wall', 'close_range', 'burst', 'hit', 'spot', 'video', 'film', 'military', 'ammo', 'penetration', 'test', 'postcount=6050']",0,[],0.009040636999999999
6602,0.0,"['ammo', 'shtf']",0,[],0.009040636999999999
4712,0.0,"['kradmelder', 'like', 'inverse', 'extra', 'fancy', 'ammo', 'performance', 'gain', 'fancy', 'ammo', 'performance', 'gain', 'fancy', 'stuff', 'bang', 'buck']",0,[],0.009040636999999999
13139,0.0,"['jewish_communist', 'schumer', 'border', 'security', 'smoke', 'screen', 'buy', 'food', 'ammo']",0,[],0.009040636999999999
4079,0.0,"['mention', 'ammo', 'find', 'super', 'availability', 'price', 'concealed_carry', 'practice', 'ammo', 'function', 'hit', 'aim', 'ammo', 'defense']",0,[],0.009040636999999999
3724,0.0,"['ammo', 'caliber', 'short', 'supply', 'brass', 'caliber', 'mm', 'brass', 'straight', 'wall', 'case', 'case', 'sig']",0,[],0.009040636999999999
2688,0.0,"['year', 'ammo', 'ammo']",0,[],0.009040636999999999
3924,0.0,"['hurricane', 'camille', 'tore', 'mississippi', 'gulf', 'coast', 'wild', 'african', 'looter', 'problem', 'last', 'hour', 'mississippi', 'state', 'national_guard', 'soldier', 'pull', 'trigger', 'guard', 'ammo', 'left', 'looter']",0,['hurricane_camille'],0.009040636999999999
3355,0.0,"['timing', 'ammo', 'fly', 'washington_dc', 'obama']",0,[],0.009040636999999999
11062,0.0,"['hornady', 'calculator', 'software', 'v-max', 'load', 'match', 'burris', 'plex', 'scope', 'inch', 'inch', 'yard', 'work', 'hashmark', 'x', 'magnification', 'long_distance', 'mm', 'scope']",0,[],0.008224150999999999
235,0.0,"['attitude', 'loony_leftists', 'agenda', 'inning', 'championship', 'game', 'run', 'bass', 'load', 'out', 'coach', 'pinch', 'hitter', 'retard', 'kid', 'team', 'mascot', 'take', 'bad', 'cut', 'pitch', 'ball', 'season', 'work', 'kid', 'put', 'season', 'strength', 'hit', 'ball', 'step', 'plate']",0,[],0.008224150999999999
10512,0.0,"['catch', 'release', 'system', 'work', 'thug', 'arrest', 'convict', 'time', 'release', 'population', 'trump', 'builder', 'time', 'africa', 'colony', 'time', 'thug', 'free', 'prison', 'space', 'load', 'criminal', 'justice', 'system', 'load', 'police', 'increase', 'safety', 'citizen', 'police_officer', 'outcome', 'person', 'construction', 'penal_colony', 'settle', 'thug', 'problem', 'thug', 'fit', 'america', 'feel', 'find', 'peace', 'happiness', 'win/win']",0,[],0.008224150999999999
4377,0.0,"['thousand', 'song', 'ipod', 'complaint', 'ipod', 'cost', 'load', 'song', 'cd', 'music', 'white_nationalist', 'band', 'time', 'load', 'cd', 'music', 'band', 'info', 'data', 'base', 'itunes', 'free', 'program', 'load', 'music', 'cd', 'white_nationalist', 'cd', 'info', 'type', 'song', 'title', 'band', 'cd', 'info', 'database', 'info', 'rip', 'cd', 'time', 'song', 'cd', 'cd', 'rip', 'music', 'mp3', 'player', 'head', 'phone', 'straight', 'computer', 'song', 'drive', 'computer', 'wire', 'home', 'stereo', 'computer', 'cd', 'player', 'music', 'load', 'hunt', 'cd', 'itunes', 'software', 'let', 'search', 'song', 'title', 'band', 'cd', 'title', 'music', 'ipod', 'search', 'play', 'song', 'band', 'cd', 'band', 'song', 'ipod', 'shuffle', 'play', 'song', 'set', 'cd', 'fm', 'transmitter', 'fit', 'ipod', 'signal', 'car', 'fm', 'radio', 'fm', 'radio', 'song', 'sixty', 'gig', 'size', 'cash', 'ipod', 'mp3', 'player', 'zune', 'blue', 'tooth', 'blue', 'tooth', 'headset', 'computer', 'blue', 'tooth', 'signal']",0,[],0.008224150999999999
11078,0.0,"['brass', 'work', 'trick', 'brass_case', 'trim', 'length', 'experiment', 'trim', 'brass', 'brass', 'brass', 'need', 'trim', 'mouth', 'test', 'case_mouth', 'die', 'trim', 'mouth', 'chamfer', 'edge', 'result', 'test', 'burr', 'left', 'mouth', 'chamfer', 'slice', 'contact', 'edge', 'die', 'shave', 'cling', 'mouth', 'chamfer', 'mouth', 'deburr', 'edge', 'die', 'burr', 'left', 'chamfer', 'result', 'case', 'trim', 'chamfer', 'burr', 'shave', 'left', 'brass_case', 'clean', 'load']",0,[],0.008224150999999999
12125,0.0,"['cartridge', 'store', 'store', 'cartridge', 'load', 'firearm', 'turn']",0,[],0.008224150999999999
4233,0.0,"['bear_arms', 'american_citizen', 'permission', 'exercise', 'firearm', 'law', 'rule', 'regulation', 'american_law', 'amendment', 'amendment', 'place', 'limit', 'government', 'right', 'citizen']",0,[],0.007798141
1804,0.0,"['president', 'trump', 'opioid', 'drug', 'abuse', 'session', 'heroine', 'heroine', 'partner', 'crime', 'senaloa', 'drug', 'gang', 'holder', 'atf', 'supply', 'firearm', 'arrest', 'mass_medium', 'abc', 'cbs', 'nbc', 'cnn', 'msnbc', 'hollywood', 'nyt', 'wapo', 'latimes', 'clearchannel', 'music', 'industry', 'heroine', 'mass_medium', 'tax', 'dodger', 'pedophile', 'drug', 'dealer', 'arrest']",0,[],0.007798141
3932,0.0,"['ptsd', 'firearm', 'right', 'vet', 'good']",0,[],0.007798141
169,0.0,"['solution', 'harm', 'antique', 'rubber', 'grip', 'left', 'rubber', 'grip', 'soak', 'solution', 'damage', 'rubber', 'wipe', 'solution', 'film', 'light', 'coat', 'rubber', 'grip', 'damage', 'solution', 'harm', 'plastic', 'rubber', 'synthetic', 'firearm']",0,[],0.007798141
3794,0.0,"['effort', 'convert', 'toy', 'firearm', 'effort', 'convert', 'federal', 'african', 'human']",0,[],0.007798141
4346,0.0,"['change', 'criminal', 'mafia', 'bank', 'machine', 'machine', 'machine', 'blank', 'finish', 'simple', 'hand', 'tool', 'power', 'drill', 'lower', 'lower', 'finish', 'firearm', 'firearm', 'part', 'unmachined', 'blank', 'horizontal', 'mill', 'finish', 'serial', 'number', 'manufacturer', 'change']",0,[],0.007798141
3973,0.0,"['practice', 'place', 'england', 'possession', 'arrow', 'bow', 'bow', 'string', 'shoe', 'lace', 'england', 'prison', 'practice', 'restriction', 'affect', 'white_man', 'muslim', 'knife', 'firearm']",0,[],0.007798141
7226,0.0,"['rally', 'government', 'firearm']",0,[],0.007798141
7559,0.0,"['firearm', 'suppressor', 'basic']",0,[],0.007798141
9775,0.0,"['check', 'firearm', 'side', 'baggage', 'check', 'call', 'airline', 'procedure', 'good', 'trip']",0,[],0.007798141
2628,0.0,"['obama', 'firearm', 'salesman', 'year']",0,[],0.007798141
10416,0.0,"['bear_arms', 'government', 'usa', 'government', 'place', 'restriction', 'citizen', 'bear_arms', 'firearm', 'violation', 'constitution', 'citizen', 'foreigner', 'criminal', 'citizen']",0,[],0.007798141
9960,0.0,"['act', 'hop', 'serve', 'warrant', 'arrest', 'niggros', 'parole', 'police', 'website', 'check', 'host', 'competition', 'team', 'training', 'competition', 'competition', 'act', 'normal', 'firearm']",0,[],0.007798141
3249,0.0,"['arm', 'firearm', 'father', 'defense', 'tyranny', 'today', 'eventhough', 'white_man', 'arm', 'government', 'arm', 'ownership', 'possession', 'arm', 'limited', 'citizen', 'father', 'savage', 'citizen']",0,[],0.007798141
6918,0.0,"['small_arms', 'treaty', 'treaty', 'register', 'american', 'firearm', 'list', 'communist_china', 'russia', 'mexico', 'member', 'nation', 'event', 'invasion', 'communist_china', 'russia', 'list', 'kill', 'list', 'mexico', 'property', 'location', 'theft', 'list']",0,[],0.007798141
2927,0.0,"['chicago', 'boy', 'kill', 'shot', 'hour', 'african', 'african', 'change', 'chicongo', 'white_human', 'medical', 'emergency', 'hospital', 'flow', 'black', 'gunshot', 'wound']",0,[],0.007620883
2777,0.0,"['african_home', 'invader', 'police', 'shot', 'chest', 'drove', 'mile', 'walk', 'gas', 'station', 'employee', 'call', 'police', 'arrest', 'african', 'catch', 'release', 'program', 'free', 'medical', 'care']",0,[],0.007620883
791,0.0,"['god_bless', 'texas', 'white_man', 'shot', 'kill', 'black', 'criminal', 'professional', 'black', 'racist', 'texas', 'trouble', 'white_man', 'response', 'white_man', 'neighbor', 'simalar', 'event', 'washington_dc', 'nyc', 'la', 'la']",0,[],0.007620883
2774,0.0,"['fourth', 'july', 'weekend', 'toll', 'shot', 'chicago', 'shooting_gallery', 'african', 'area', 'chicago', 'shooting_gallery']",0,[],0.007620883
8360,0.0,"['steve', 'reichert', 'mile', 'sniper', 'shot']",0,[],0.007620883
12280,0.0,"['concealed_carry', 'sling', 'shot']",0,[],0.007620883
2755,0.0,"['african', 'teach', 'female', 'rapper', 'lesson', 'african_female', 'rap', 'party', 'best', 'rap', 'teach', 'lesson', 'rap', 'gasoline', 'set', 'shot']",0,[],0.007620883
8387,0.0,"['story', 'begin', 'fact', 'australian', 'patriot', 'boy', 'mischief', 'kid', 'stuff', 'irish', 'catholic', 'family', 'police', 'sister', 'young', 'girl', 'night', 'policeman', 'home', 'make', 'advance', 'type', 'bum', 'bum', 'policeman', 'show', 'injury', 'hand', 'gunshot', 'wound', 'shot', 'doctor', 'wound', 'opinion', 'gunshot', 'wound', 'bum', 'drunk', 'know', 'brother', 'head', 'lay', 'police', 'ned', 'settle', 'imprisonment', 'ned', 'mother', 'newborn', 'baby', 'bum', 'badge', 'newborn', 'gang', 'policeman', 'set', 'boy', 'policeman', 'shot', 'dead', 'sound', 'story', 'american', 'outlaw', 'revolution', 'begin', 'series', 'outrage', 'american_revolution', 'begin', 'series', 'outrage', 'outrage', 'god', 'liberty', 'god_bless', 'patriot', 'present']",0,['american_revolution'],0.007620883
3196,0.0,"['idea', 'license', 'plate', 'number', 'house', 'number', 'street', 'text', 'blot', 'program', 'microsoft', 'paint', 'program', 'add', 'layer', 'image', 'change', 'image', 'individual', 'time', 'layer', 'display', 'text', 'maximum', 'security', 'blot', 'text', 'screen', 'shot', 'photo', 'text', 'blot', 'post', 'screen', 'shot', 'photo', 'screen', 'shot', 'text', 'preserve', 'safe']",0,[],0.007620883
3898,0.0,"['ar-10', 'type_rifle', 'recoil', 'quick', 'shot', 'magazine', 'fed', 'semi_auto', 'dpms', 'bang', 'buck', 'good_quality', 'brand', 'nato']",0,[],0.007620883
4143,0.0,['shot'],0,[],0.007620883
4178,0.0,"['complaint', 'controversy', 'm-16', 'capacity', 'magazine', 'machine_gun', 'extra', 'mag', 'issue', 'stripper_clips', 'issue', 'm-16', 'symbol', 'beast', 'hat', 'turn', 'great', 'deal', 'wise', 'shot', 'friend', 'ar', 'research', 'model', 'want']",0,[],0.007620883
2059,0.0,"['african', 'id', 'lawyer', 'arrest', 'record', 'carry', 'want', 'poster', 'mug', 'shot', 'crime', 'victim']",0,[],0.007620883
7651,0.0,"['shot', 'penetration']",0,[],0.007620883
4272,0.0,"['eotech', 'fast', 'target', 'acquisition', 'muzzle', 'break', 'fast', 'shot', 'speed', 'kill']",0,[],0.007620883
7364,0.0,"['progressive', 'effort', 'american', 'shot', 'afghan', 'female']",0,[],0.007620883
1112,0.0,"['african', 'reality', 'good', 'catch', 'lie', 'dead', 'gangbanger', 'blood', 'member', 'facebook', 'page', 'police', 'shot', 'gangbanger']",0,[],0.007620883
4485,0.0,"['amp', 'p', 'shot', 'revolver']",0,[],0.007620883
4690,0.0,"['weekend', 'shot_dead', 'weekend', 'month', 'left', 'top', 'gun_control', 'city', 'shooting_gallery', 'criminal', 'weekend', 'mark', 'year', 'shot', 'chicago', 'tribune']",0,[],0.007620883
4698,0.0,"['gang', 'african', 'thug', 'car', 'jack', 'man', 'shot', 'head']",0,[],0.007620883
6884,0.0,"['dude', 'perfect', 'nascar', 'trick', 'shot', 'battle']",0,[],0.007620883
3009,0.0,"['white', 'mom', 'tell', 'mestizo', 'leave', 'shot', 'dead', 'mexican', 'citizen', 'justice', 'mom', 'kill', 'man', 'romantic', 'daughter']",0,[],0.007620883
