,topic_lda,bag_words,sa_score,events,rank
321,4.0,"['race_mixer', 'dead', 'shot', 'head', 'de', 'boy', 'frin', 'claim', 'game', 'russian', 'roulette', 'wid', 'holdin', 'da', 'gun', 'shot', 'da', 'face', 'bad', 'police', 'russian', 'roulette', 'lead', 'middletown', 'shoot', 'www.journal-news.com']",-1,[],0.008454048
530,4.0,"['veteran', 'feed', 'stray', 'animal', 'shot', 'dead', 'african']",-1,[],0.008454048
1026,4.0,"['berlin', 'wall', 'murder', 'peter', 'flechter', 'shot', 'lay', 'wire', 'hour']",-1,[],0.008454048
1531,4.0,"['israeli', 'pm', 'bribe', 'guess', 'israel', 'problem', 'government']",-1,[],0.005644245500000001
315,4.0,"['race_mixing', 'whore', 'dead', 'innocent', 'child', 'stole', 'child', 'father', 'death', 'punishment', 'mom', 'boyfriend', 'slaughter', 'child', 'escape', 'relationship', 'defund.com']",-1,[],0.0054669785
1966,4.0,"['white', 'nationalist', 'men', 'bad', 'time', 'find', 'woman', 'divorce', 'woman', 'total', 'race_traitors', 'child', 'steal', 'race_traitor', 'woman', 'poison', 'white', 'nationalist', 'husband', 'race_traitor', 'wife', 'husband', 'murder', 'white', 'nationalist', 'men', 'associate', 'race_traitor', 'wife', 'verge', 'divorce', 'child', 'constant', 'threat', 'mother', 'white_children', 'anti-white', 'situation', 'bad', 'today']",-1,[],0.0054669785
