,Unnamed: 0,Term,Fq-0,Fq-1,Fq-2,Fq-3,Fq-4,Tfidf-0,Tfidf-1,Tfidf-2,Tfidf-3,Tfidf-4,Prob-0,Prob-1,Prob-2,Prob-3,Prob-4
577,bullet,bullet,9,4,1,6,26,0.03729238135054167,0.015324124203348903,0.005138852491523461,0.025147045760031038,0.1269506369009553,0.001677758,0.0012518734,0.0005930216,0.0018781273000000002,0.014381888999999998
1873,good,good,36,16,8,16,42,0.14916952540216669,0.061296496813395614,0.04111081993218769,0.06705878869341607,0.20507410576308166,0.005816511,0.0036216078000000005,0.0021655038,0.0039315443,0.009944521
3443,powder,powder,1,0,0,2,13,0.00582368230960555,0.0,0.0,0.011781098462574323,0.08921234530820073,3.9531245e-05,4.253872e-05,8.4658306e-05,0.00010097565,0.008812366
4045,shot,shot,25,12,4,9,28,0.10358994819594908,0.04597237261004671,0.020555409966093844,0.03772056864004655,0.1367160705087211,0.0045748767,0.002338647,0.0011014611,0.0011519806,0.008454048
2593,load,load,9,5,0,1,12,0.044091586374926266,0.022647552980759246,0.0,0.004955315715294784,0.06927529599540994,0.0018316973999999999,0.0018107201999999999,6.499303000000001e-05,0.00027035736,0.0077185809999999995
661,cartridge,cartridge,7,0,0,2,14,0.04076577616723885,0.0,0.0,0.011781098462574323,0.09607483340883156,0.0013220888,6.017735e-06,1.8583576e-05,0.00072306406,0.007645142
664,case,case,3,2,0,4,9,0.014697195458308757,0.009059021192303698,0.0,0.019821262861179138,0.051956471996557466,0.002947081,0.00052950316,4.3294030000000005e-05,0.0020794407,0.0073388354
3609,range,range,18,3,2,4,12,0.07458476270108334,0.011493093152511676,0.010277704983046922,0.016764697173354017,0.05859260164659475,0.004086999,0.0020713378,0.000694708,0.0011178761,0.0059854602
1883,government,government,21,20,43,24,30,0.08701555648459725,0.07662062101674451,0.2209706571355088,0.10058818304012414,0.1464815041164869,0.0038821809999999997,0.0034453635999999997,0.010298087,0.0022638945,0.005644245500000001
744,child,child,13,23,30,26,24,0.05386677306189353,0.08811371416925619,0.15416557474570386,0.10897053162680116,0.1171852032931895,0.0044494737,0.0031927493,0.009400991,0.004623492,0.0054669785
