,topic_lda,bag_words,sa_score,rank
208,0.0,"['censorship', 'end', 'person', 'jew', 'single', 'parasite', 'living_creature']",0,0.02363065
1671,0.0,"['jew', 'talk']",0,0.02363065
262,0.0,"['black', 'brown', 'nurse', 'care', 'institution', 'jew', 'control', 'hire', 'white', 'nurse', 'white', 'nurse', 'burn', 'work', 'side', 'side', 'brown', 'job', 'white', 'nurse', 'white', 'nurse', 'time', 'find', 'treat', 'dirt', 'white', 'brown', 'treat', 'chosen', 'individual', 'white', 'nurse', 'free', 'work', 'free', 'work', 'break', 'lunch', 'free', 'brown', 'leave', 'break', 'lunch', 'job', 'work', 'black', 'brown', 'privilege', 'white', 'nurse', 'white', 'doctor']",0,0.02363065
4375,0.0,"['kingston', 'pike', 'cherokee', 'blvd', 'today', 'kkk', 'liberal_race', 'traitor', 'jew', 'feel']",0,0.02363065
4352,0.0,"['war', 'arab', 'adversary', 'fight', 'girl', 'scout', 'jew', 'superiority', 'american', 'tax_payer', 'dollar', 'defeat', 'arab', 'jew', 'primitive_savage', 'white_man', 'technology', 'primitive_savage']",0,0.02363065
4192,0.0,"['gas', 'hillary', 'proxy', 'banker', 'gas', 'jew', 'proxy']",0,0.02363065
4150,0.0,"['poison', 'mind', 'anti-whites', 'poison', 'jewish_communists', 'white_nations', 'white_genocide', 'anti-whites', 'corporation', 'monopoly_system', 'head', 'international_jewish', 'banker', 'mtv', 'jewish_owned', 'propaganda', 'outlet', 'gansta', 'thug', 'life', 'immorality', 'young', 'innocent_white', 'child', 'homosexual', 'agenda', 'jew', 'poison', 'slip', 'white_culture', 'white_genocide', 'root', 'evil', 'jew']",0,0.02363065
3871,0.0,"['jew', 'superiority', 'jew', 'fellow', 'jew', 'anti-semite']",0,0.02363065
3783,0.0,"['tide', 'turn', 'fight', 'join', 'eu', 'parliament', 'member', 'shoot', 'bastard', 'zionist', 'debate', 'good', 'nation', 'debate', 'great', 'jew', 'mouth', 'anti-israel', 'comment', 'jew', 'israeli', 'zionist', 'bastard', 'shot', 'scholar', 'nazi', 'worse', 'nazi', 'sight']",0,0.02363065
3757,0.0,"['european', 'jew', 'fear', 'quake', 'fear']",0,0.02363065
3705,0.0,"['stand', 'european', 'tradition', 'release', 'prisoner', 'special', 'day', 'celebration', 'hold', 'tradition', 'ray', 'day', 'freed_slaves', 'africa', 'peace', 'dollar', 'return', 'jew', 'east', 'settle', 'freed_slaves', 'waste', 'money', 'resource', 'israel', 'waste', 'money', 'resource', 'return', 'freed_slaves', 'central_africa', 'solution', 'investment', 'america', 'freed_slaves', 'peace', 'nation', 'ray', 'day', 'patron', 'local_gun', 'shop', 'shoot', 'range']",0,0.02363065
3701,0.0,"['communist', 'arab', 'wish', 'stand', 'perfect', 'jew', 'arab', 'neighbor', 'jew', 'desire', 'arab', 'win/win', 'situation']",0,0.02363065
3583,0.0,"['jew', 'slaughter', 'slaughter']",0,0.02363065
3537,0.0,"['anti-white', 'plan', 'white_folks', 'murder', 'existence', 'mud', 'share', 'coke', 'perfect', 'harmony', 'anti-white_racists', 'explanation', 'mud', 'perfect', 'harmony', 'rape', 'loot', 'murder', 'hood', 'separate', 'tribe', 'state', 'war', 'tribe', 'japan', 'enemy', 'north_korea', 'china', 'cambodia', 'murdered_millions', 'citizen', 'hebrew', 'jew', 'arab', 'murder', 'palestinian', 'arab', 'christian', 'hebrew', 'great', 'harmony', 'white_folks', 'dead', 'harmony', 'point', 'history']",0,0.02363065
3523,0.0,"['bone', 'white_folks', 'community', 'hell', 'bent', 'indian', 'jew', 'palestine']",0,0.02363065
3150,0.0,"['alex_jones', 'jewish_mafia', 'italian', 'mafia', 'hollywood', 'italian', 'mafia', 'hollywood', 'mafia', 'control', 'hollywood', 'white', 'member', 'work', 'mafia', 'race_traitors', 'race_traitor', 'white_genocide', 'jew', 'good', 'people', 'mafia', 'white_genocide', 'legal_remedy', 'crime', 'genocide', 'death', 'reach', 'white_americans', 'european', 'alex_jones', 'mafia', 'news', 'broadcast', 'world', 'wake', 'hollywood', 'media_mafia', 'degenerate', 'institution', 'planet', 'earth', 'hollywood', 'white_genocide', 'stop_white', 'genocide']",0,0.02363065
2671,0.0,"['jew', 'boycott', 'youtube', 'jew']",0,0.02363065
2657,0.0,"['nappy', 'head', 'jew', 'white', 'black_african', 'cousin']",0,0.02363065
2650,0.0,"['jew', 'leader', 'open_borders', 'movement', 'america', 'europe', 'south_africa', 'israeli_jews', 'turk', 'african', 'jew', 'israeli', 'border', 'israel', 'nation', 'lot', 'african', 'jew', 'turkish', 'semitic', 'jew']",0,0.02363065
2191,0.0,"['jew', 'evil_isralie', 'empire', 'brag', 'put', 'black', 'slavery', 'call', 'israel', 'world', 'call', 'palestine', 'sixty', 'year', 'time', 'question', 'black_slaves', 'jew', 'free', 'black_slaves', 'accident', 'misadventure', 'concentration', 'camp', 'arab', 'evil', 'jew', 'affirmative_action', 'program', 'conduct', 'isralie_empire', 'black_slaves', 'society', 'black_slaves', 'hold', 'key', 'position', 'government', 'industry', 'jew', 'black_slaves']",0,0.02363065
2131,0.0,"['jew', 'track', 'market', 'demand', 'kill', 'folk']",0,0.02363065
1880,0.0,"['situation', 'wrong', 'nazi', 'strut', 'ant', 'ant', 'hill', 'ukraine', 'jew', 'harm', 'nazi', 'patriot', 'opposition', 'investigation', 'nazi', 'patriot', 'puppet', 'kill', 'white', 'neighbor']",0,0.02363065
1844,0.0,"['blink', 'jew']",0,0.02363065
1835,0.0,"['president', 'trump', 'cnn', 'minute', 'straight', 'lying_jewish', 'medium', 'american', 'hearing', 'hide', 'lie', 'jew', 'fear', 'american']",0,0.02363065
1827,0.0,"['usa', 'today', 'potential', 'court', 'nominee', 'white', 'male', 'red', 'state', 'comment', 'lie', 'medium', 'article', 'people', 'praise', 'pick', 'merrick', 'garland', 'white', 'male', 'white', 'identity', 'fourth', 'jew', 'supreme_court', 'trump', 'white_male', 'protestant', 'court', 'white', 'protestant', 'country', 'white', 'protestant', 'jew', 'make', 'population', 'representation', 'court', 'garland', 'jew', 'communist', 'protestation', 'contrary', 'title', 'article', 'point', 'usa', 'anti-white', 'communist_media', 'progressive', 'white', 'christian', 'european', 'descent', 'ultimate', 'animus', 'decade', 'progress']",0,0.02363065
1809,0.0,"['ocean', 'jew', 'diversity', 'nation', 'diversity', 'israel', 'jews_promote', 'diversity', 'white_genocide']",0,0.02363065
1808,0.0,"['jew', 'arrest', 'iraqi', 'special_forces', 'aid', 'isi', 'duel', 'citizenship', 'israeli_jews']",0,0.02363065
1788,0.0,"['jew', 'swindle', 'jew']",0,0.02363065
1787,0.0,"['jew', 'fear', 'protester', 'jew']",0,0.02363065
1705,0.0,"['black', 'jew', 'ethiopia', 'jew', 'world', 'black', 'ethiopian', 'jew']",0,0.02363065
1698,0.0,"['white_man', 'stand', 'jew', 'jew', 'mort', 'zuckerman', 'owner', 'publisher', 'daily_news']",0,0.02363065
12105,0.0,"['leader', 'jew', 'paranoid', 'fake', 'hate_crimes', 'fake', 'anti-semitism', 'fake', 'jew', 'control', 'shekel', 'leadership', 'fear', 'paranoia', 'leadership', 'power', 'jew']",0,0.02363065
12104,0.0,"['god', 'chosen_people', 'modern', 'tank', 'difficulty', 'defeat', 'arab', 'rock', 'good', 'technology', 'jew', 'control', 'black_african', 'cousin', 'control']",0,0.02363065
4619,0.0,"['congress', 'race_traitors', 'good', 'texan', 'state', 'bad', 'jew', 'israel', 'asian', 'african', 'secession', 'solution']",0,0.02363065
9510,0.0,"['sigmund', 'freud', 'sigismund', 'schlomo', 'freud', 'jew', 'personal', 'correspondence', 'freud', 'white_folks', 'freud', 'jew', 'attribute', 'neurotic', 'behavior', 'adult', 'woman', 'root', 'men', 'woman', 'young', 'girl', 'infant', 'freud', 'theory', 'neurosis/sexual', 'deviancy', 'fit', 'law', 'state', 'child', 'year', 'age', 'jew', 'definition', 'sex', 'child', 'year', 'age', 'sex', 'jew', 'carl', 'jung', 'rational', 'idea', 'human', 'behavior', 'human', 'illness', 'freud', 'jung', 'freud', 'form', 'cabal', 'career', 'jung', 'cabal', 'match', 'signet', 'ring', 'jung', 'benefit', 'white_humans', 'freud', 'set', 'jung', 'jung', 'legacy', 'jew', 'freud']",0,0.02363065
10975,0.0,"['survivor', 'german', 'bullet', 'gas', 'jew', 'rise', 'dead']",0,0.02363065
10802,0.0,"['jew', 'attack', 'messenger', 'message', 'individual', 'white_human', 'perfect', 'white_human', 'europe', 'central_africa', 'difference', 'blind']",0,0.02363065
10645,0.0,"['grin', 'jew', 'loony_leftists', 'attack', 'nazi', 'citizen', 'rise', 'nazi']",0,0.02363065
10624,0.0,"['jew', 'black', 'slave', 'trade', 'hold', 'african', 'jew', 'black_african', 'israel', 'slum', 'lord', 'black_african', 'ghetto', 'jew', 'african', 'short', 'blood']",0,0.02363065
10583,0.0,"['marvel', 'anti-white', 'read', 'comic', 'anti-white', 'jew', 'propaganda', 'read', 'eye', 'open', 'jew', 'mortal', 'white_folks', 'product', 'poison']",0,0.02363065
10446,0.0,"['oral', 'history', 'specie', 'beast', 'africa', 'specie', 'world', 'central_african', 'creature', 'wipe', 'mulatto', 'steal', 'rap', 'human', 'child', 'today', 'african', 'find', 'human', 'creature', 'degree', 'partial', 'human', 'mulatto', 'blood', 'human', 'difference', 'mulatto', 'creature', 'human', 'specie', 'jew', 'mulatto', 'creature', 'wipe', 'human', 'part', 'human', 'part', 'creature']",0,0.02363065
10444,0.0,"['chemical', 'farm', 'experiment', 'failure', 'farm', 'system', 'international', 'chemical', 'supplier', 'farm', 'system', 'international', 'chemical', 'supplier', 'jew', 'race_traitors']",0,0.02363065
10437,0.0,"['black_horde', 'act', 'black', 'toledo', 'ohio', 'orleans', 'tmpl=stor', 'fact', 'news_item', 'happened.html', 'good', 'men', 'toledo', 'nsmcommander', 'hotmail.com', 'effort', 'toledo', 'commie_scum', 'act', 'commie_scum', 'black', 'turn', 'act', 'rampage', 'black_horde', 'government', 'police', 'white_man', 'white_man', 'land', 'land', 'die', 'matter', 'meaning', 'philistine', 'importance', 'jew', 'hire', 'mercenary', 'army', 'murder', 'philistine', 'genocide', 'cry', 'infant', 'spar', 'trace', 'history', 'city', 'name', 'today', 'gaza', 'philistine', 'nation', 'white_nation', 'kindness', 'hospitality', 'justice', 'philistine', 'people', 'people', 'people', 'type', 'neighbor', 'today', 'philistine', 'philistine', 'palestine', 'blood', 'white_nation', 'land', 'curse', 'claim', 'land', 'today', 'steal', 'black', 'fashion', 'murder', 'die', 'fight', 'black_horde', 'rampage', 'government', 'think', 'handle', 'situation', 'step', 'black', 'rampage', 'idea', 'black', 'home', 'central_africa', 'rampage', 'orleans', 'call', 'time', 'law_abiding', 'citizen', 'state', 'america', 'action', 'orleans', 'battle', 'cry', 'century', 'prison', 'full', 'carbon', 'copy', 'rampage', 'black', 'prison', 'door', 'raider', 'attack', 'society', 'left', 'fore', 'father', 'time', 'building', 'prison', 'rampage', 'black_horde', 'doom', 'failure', 'criminal', 'turn', 'street', 'society', 'time', 'stop', 'entire', 'system', 'time', 'building', 'prison', 'start', 'building', 'penal_colony', 'africa', 'sender', 'orleans', 'page=971']",0,0.02363065
10399,0.0,"['gestapo', 'chief', 'top', 'truman', 'advisor', 'henry', 'makow', 'ph.d', 'august', 'interrogation', 'mueller', 'role', 'camp', 'put', 'people', 'camp', 'criminal', 'offense', 'run', 'camp', 'policy', 'clear', 'recollection', 'camp', 'typhus', 'jew', 'article']",0,0.02363065
10387,0.0,"['heroic', 'white', 'leader', 'dr._david', 'duke', 'phd', 'zionist', 'jew', 'cnn', 'dec-13', 'join', 'freedom', 'leave', 'comment', 'personal', 'opinion']",0,0.02363065
10303,0.0,"['leftist', 'love', 'jew', 'communist', 'muslim', 'leftist', 'love', 'drug', 'addiction', 'homosexuality', 'freak', 'jew', 'leftist', 'israel', 'communist', 'murder', 'citizen', 'start', 'radical', 'leftist', 'drug', 'user', 'freak', 'muslim', 'drug', 'user', 'homosexual', 'freak', 'leftist']",0,0.02363065
10222,0.0,"['good', 'jew', 'christian', 'death', 'cult', 'resurrection', 'death', 'place', 'body', 'burial', 'waste', 'valuable', 'land', 'jew', 'internationalist', 'spread', 'ash', 'wind', 'carry', 'wind', 'ocean', 'part']",0,0.02363065
11023,0.0,"['put', 'jew', 'seal', 'door', 'wall', 'fly', 'zone', 'quarantine', 'coast', 'blockade']",0,0.02363065
9489,0.0,"['israeli_jews', 'atheist', 'land', 'god', 'give', 'shyster', 'time', 'jew', 'magic', 'curse', 'savage', 'rise']",0,0.02363065
5458,0.0,"['rhodesia', 'white_nation', 'rhodesia', 'man', 'hand', 'dollar', 'cashier', 'lunch', 'change', 'steak', 'lunch', 'today', 'black_african', 'zimbabwe', 'cow', 'pie', 'stew', 'main', 'ingredient', 'cow', 'jew', 'world_wide', 'white_genocide', 'white_children', 'jew', 'love', 'black_african', 'love', 'marxist', 'anti-white', 'race_traitors', 'day', 'white_folks', 'jewish_controlled', 'corporation', 'jewish_controlled', 'bank', 'jewish_controlled', 'inflation', 'jewish_controlled', 'tax', 'theft', 'jewish_controlled', 'medium', 'jewish_controlled', 'invasion', 'jewish_controlled', 'genocide', 'common', 'stop_white', 'genocide']",0,0.02363065
8509,0.0,"['satanist', 'atheist', 'christian', 'jew', 'satanist', 'atheist']",0,0.02363065
8085,0.0,"['biden', 'executive', 'action', 'gun_control', 'jew', 'government', 'american', 'israeli']",0,0.02363065
8074,0.0,"['terrorist', 'arrest', 'criminal', 'activity', 'drug', 'bomb', 'newspaper', 'couple', 'neo-nazis', 'reference', 'jew', 'city', 'couple', 'aaron', 'greene', 'morgan', 'gliedman', 'explosion', 'possession', 'youtube']",0,0.02363065
11414,0.0,"['statement', 'father', 'statement', 'friend', 'family_members', 'threat', 'entire', 'generation', 'jew', 'jew', 'jew', 'fear', 'jew', 'white_children']",0,0.02363065
7157,0.0,"['secret', 'cabal', 'planning', 'world', 'domination', 'group', 'order', 'international_bankers', 'cry', 'government', 'international_bankers', 'plan', 'control', 'government', 'international_bankers', 'world', 'international_bankers', 'jew', 'international_bankers']",0,0.02363065
6914,0.0,"['anti-whites', 'protest', 'white', 'civil_right', 'segregate', 'separate', 'group', 'black', 'power', 'salute', 'anti-whites', 'black', 'power', 'brown', 'power', 'great', 'white', 'power', 'white', 'group', 'white', 'social', 'group', 'african', 'wear', 'brass', 'knuckle', 'neck', 'area', 'weapon', 'agitator', 'left', 'dress', 'palestinian', 'disguise', 'jew', 'white_genocide', 'genocide', 'hang', 'jew', 'red', 'neck', 'leftist', 'today', 'term', 'red', 'neck', 'slur', 'men', 'origin', 'term', 'communist', 'wear', 'red', 'communist', 'scarf', 'neck', 'communist', 'aid', 'mass_murder', 'communist', 'mass_murderer', 'xenophobia', 'kill', 'xenophobia', 'kill', 'mix', 'people', 'kill', 'race', 'riot', 'race', 'hate_crimes', 'hate', 'discrimination', 'white', 'supremacy', 'brown', 'hate', 'separate']",0,0.02363065
11421,0.0,"['white_folks', 'benefit', 'white_folks', 'nation', 'fed', 'white_farmers', 'jewish_media', 'white_folks', 'worst', 'enemy', 'jew']",0,0.02363065
6760,0.0,"['jew', 'chuck', 'schumer', 'nationalism', 'thee', 'anti-white']",0,0.02363065
11460,0.0,"['victim', 'dna', 'jew', 'dna', 'evidence']",0,0.02363065
6169,0.0,"['merry_christmas', 'bill', 'pass', 'jew', 'muslim']",0,0.02363065
11664,0.0,"['rabbi', 'gentile', 'jew']",0,0.02363065
11699,0.0,"['jew', 'rush', 'home', 'israel', 'community']",0,0.02363065
11835,0.0,"['hitler', 'medium', 'business', 'run', 'daily', 'item', 'life', 'time', 'hitler', 'jew', 'hold', 'candle', 'hitler', 'dead', 'hitler', 'jew', 'darkness', 'hitler', 'shin', 'sun', 'hate', 'envy', 'hitler']",0,0.02363065
1675,0.0,"['jew', 'mark', 'zuckerberg', 'democracy', 'jewish_atheists', 'pulpit', 'white_folks', 'harp', 'democracy', 'political_correctness', 'democracy', 'political_correctness', 'deceiver', 'opportunity', 'dictator', 'fairness', 'compassion']",0,0.02363065
10960,0.0,"['today', 'israel', 'fraud', 'jew', 'palestine', 'follower', 'religion', 'isralies', 'brag', 'atheist', 'communist', 'atheist', 'hebrew', 'appearance', 'part', 'hebrew', 'hebrew', 'christian', 'convert', 'thousand', 'year', 'muslim', 'hebrew', 'jew', 'arab', 'population', 'israel', 'practice', 'religion', 'hebrew', 'ancestry', 'minority', 'fraud', 'israel', 'isralie', 'atheist', 'land', 'god', 'give', 'israel', 'nation', 'land', 'grab', 'mass_murder', 'con', 'artist']",0,0.02363065
1630,0.0,"['holocaust', 'jewish_communists', 'holocaust', 'innocent_white', 'child', 'jew', 'lead', 'jew', 'david', 'holocaust', 'child', 'philistine', 'hebrew', 'holocaust', 'arab', 'tribe', 'east', 'hebrew', 'holocaust', 'greek', 'east', 'hebrew', 'holocaust', 'child', 'africa', 'holocaust']",0,0.02363065
14457,0.0,"['government', 'kennedy', 'assassin', 'kennedy', 'evil_isralie', 'government', 'nuclear_power', 'murder', 'kennedy', 'give', 'jew', 'kill', 'obama', 'fulfillment']",0,0.02363065
1186,0.0,"['jew', 'food', 'water', 'period', 'time', 'reptile']",0,0.02363065
1176,0.0,"['sound', 'jew', 'freud', 'deep', 'root', 'problem', 'result', 'childhood', 'frustration', 'adult', 'scar', 'child', 'life', 'freud', 'cure', 'jew', 'child', 'sick', 'twist', 'pervert', 'logic']",0,0.02363065
1377,0.0,"['call', 'northern', 'jew', 'freedom', 'victory', 'free', 'yankee', 'union', 'tyrant', 'beast', 'deo_vindice']",0,0.02363065
1225,0.0,"['media_mafia', 'congress', 'taxpayer', 'foot', 'bill', 'emergency', 'shipment', 'television', 'people', 'croatia', 're-programed', 'jew']",0,0.02363065
583,0.0,"['favorite', 'time', 'eu', 'parliament', 'member', 'shoot', 'bastard', 'zionist', 'debate', 'good', 'nation', 'debate', 'great', 'jew', 'mouth', 'anti-israel', 'comment', 'jew', 'israeli', 'zionist', 'bastard', 'shot', 'scholar', 'nazi', 'worse', 'nazi', 'sight']",0,0.02363065
14131,0.0,"['kosher', 'tax', 'jew', 'secret', 'symbol']",0,0.02363065
485,0.0,"['war', 'communist', 'murder', 'white_children', 'peace', 'time', 'debt', 'jew', 'compound', 'interest', 'demand']",0,0.02363065
1328,0.0,"['confederate', 'feel', 'deep', 'affinity', 'freedom', 'fighter', 'good', 'reason', 'point', 'home', 'media_mafia', 'watch', 'program', 'medium', 'white_man', 'sense', 'good', 'taste', 'jew', 'push', 'envelope', 'animation', 'show', 'combat', 'individual', 'point', 'german', 'freedom', 'fighter', 'confederate', 'freedom', 'fighter', 'jew', 'lump', 'liberty', 'defense', 'white_families', 'mortal', 'enemy', 'communist', 'overlord', 'salute', 'freedom', 'fighter', 'fight', 'fight', 'plight', 'plight', 'victory']",0,0.02363065
1321,0.0,"['thread', 'peace', 'yankee', 'respect', 'south', 'west', 'west', 'great', 'lake', 'region', 'ruin', 'folk', 'inferior', 'right', 'men', 'yankee', 'jew', 'work', 'hand', 'hand', 'common']",0,0.02363065
14424,0.0,"['jew', 'world_order', 'drug', 'water', 'supply']",0,0.02363065
1193,0.0,"['jewish_communist', 'mass_murder', 'jew', 'trial', 'penalty', 'law', 'hang', 'justice']",0,0.02363065
1269,0.0,"['break', 'robot', 'author', 'robert', 'anton', 'wilson', 'illuminatus', 'trilogy', 'book', 'call', 'break', 'robot', 'concept', 'free', 'break', 'moral', 'law', 'robot', 'limit', 'moral', 'law', 'taboo', 'evil', 'child_rape', 'murder', 'cannibalism', 'bestiality', 'homosexuality', 'black_magic', 'law', 'god', 'man', 'goal', 'free', 'jew', 'globalists', 'race_traitors', 'program', 'reward', 'control', 'measure']",0,0.02363065
1539,0.0,['jew'],0,0.02363065
1614,0.0,"['alex_jones', 'jewish_mafia', 'italian', 'mafia', 'hollywood', 'italian', 'mafia', 'hollywood', 'mafia', 'control', 'hollywood', 'white', 'member', 'work', 'mafia', 'race_traitors', 'race_traitor', 'white_genocide', 'jew', 'good', 'people', 'mafia', 'white_genocide', 'legal_remedy', 'crime', 'genocide', 'death', 'reach', 'white_americans', 'european', 'alex_jones', 'mafia', 'news', 'broadcast', 'world', 'wake', 'hollywood', 'media_mafia', 'degenerate', 'institution', 'planet', 'earth', 'hollywood', 'white_genocide', 'stop_white', 'genocide']",0,0.02363065
1530,0.0,"['jew', 'jew', 'world_wide', 'count', 'black_african', 'jew', 'black_african', 'jew', 'light', 'skin', 'jews_claim', 'world_wide', 'population', 'total', 'jew', 'white_nations', 'black_african', 'jew', 'inferior', 'stupid', 'trouble', 'maker', 'communist_utopia', 'israel', 'homeland', 'jew', 'statement', 'leader']",0,0.02363065
1572,0.0,"['jew', 'chuck', 'schumer', 'nationalism', 'thee', 'anti-white']",0,0.02363065
1570,0.0,"['call', 'jew', 'aleister', 'crowley', 'anti-semite', 'dare', 'expose', 'truth', 'fellow', 'jew']",0,0.02363065
10823,0.0,"['white_genocide', 'class', 'session']",0,0.01565728
3363,0.0,"['trump', 'policy', 'white_genocide', 'trump', 'white_nationalist', 'trump', 'basic', 'nationalist', 'security', 'economy', 'nation', 'program', 'white_genocide', 'traitor', 'fear', 'nationalism']",0,0.01565728
1455,0.0,"['minority', 'right', 'minority', 'brown', 'individual', 'population', 'earth', 'brown', 'individual', 'brown', 'individual', 'minority', 'brown', 'black', 'black', 'minority', 'left', 'minority', 'white_folks', 'white_folks', 'female', 'female', 'minority', 'leaf', 'real', 'earth', 'white_man', 'homosexual', 'minority', 'white_man', 'woman', 'minority', 'minority', 'right', 'normal', 'white_man', 'right', 'family', 'court_system', 'system', 'white_families', 'white_man', 'raise', 'influence', 'child', 'influence', 'white_children', 'minority', 'white', 'female', 'train', 'condition', 'hate', 'white_man', 'implement', 'speed', 'white_genocide', 'kind', 'stop_white', 'genocide']",0,0.01565728
2561,0.0,['white_genocide'],0,0.01565728
8528,0.0,"['multiculturalism', 'program', 'multiculturalism', 'white_genocide']",0,0.01565728
4717,0.0,"['south_african', 'farm', 'murder', 'african', 'african', 'arrest', 'death_penalty', 'prison', 'medium', 'south_african', 'white_genocide', 'farm_murders', 'news_worthy', 'hate_crimes', 'white_folks', 'debt', 'medium', 'full', 'interest', 'demand']",0,0.01565728
4681,0.0,"['putin', 'stand', 'brics', 'nation', 'stand', 'south_africa', 'south_africa', 'putin', 'troop', 'russian', 'troop', 'south_africa', 'white_genocide', 'south_africa', 'south_africa', 'glory', 'putin', 'action']",0,0.01565728
5255,0.0,"['race_traitor', 'race_traitor', 'american', 'legion', 'veteran', 'war', 'time', 'multiculturalism', 'white_genocide', 'government', 'destruction']",0,0.01565728
6683,0.0,"['nick_griffin', 'expose', 'white_genocide', 'floor']",0,0.01565728
6612,0.0,"['media_mafia', 'white_genocide', 'sea', 'hate', 'real', 'american', 'archie', 'bunker']",0,0.01565728
1188,0.0,"['military', 'put', 'girl', 'front', 'line', 'white_genocide', 'size', 'caliber', 'girl', 'baby', 'white', 'baby', 'world']",0,0.01565728
5910,0.0,"['greg', 'johnson', 'exploit', 'trust-based', 'society', 'architect', 'white_genocide']",0,0.01565728
3366,0.0,"['putin', 'desire', 'russian', 'nation', 'desire', 'melt', 'pot', 'empire', 'white_genocide', 'stability', 'empire', 'putin', 'race_traitor', 'race_traitor', 'damage', 'white', 'population']",0,0.01565728
9193,0.0,"['pro', 'white', 'pro', 'white_genocide']",0,0.01565728
3456,0.0,"['flag', 'alien', 'symbol', 'drive', 'good_decent', 'folk', 'flag', 'white_nationalism', 'good', 'hard_working', 'white_man', 'white_children', 'real', 'importance', 'flag', 'help', 'program', 'white_genocide', 'kill', 'burn']",0,0.01565728
4488,0.0,"['white_supremacist', 'group', 'normal', 'white_folks', 'white_genocide', 'stop_white', 'genocide']",0,0.01565728
1974,0.0,"['special', 'breed', 'coward', 'trouble', 'shot', 'set', 'witness', 'world_wide', 'genocide', 'white_children', 'white_genocide']",0,0.01565728
10602,0.0,"['race_traitors', 'white_genocide', 'communist', 'white_genocide']",0,0.01565728
10488,0.0,"['support', 'nationalism', 'open', 'door', 'white_nationalism', 'defeat', 'globalists', 'white_genocide']",0,0.01565728
409,0.0,"['fellow', 'white_folks', 'white_nationalism', 'brainer', 'white', 'support', 'catch', 'individual', 'white_nationalist', 'movement', 'bad', 'agenda', 'nationalist', 'agenda', 'white_genocide']",0,0.01565728
1615,0.0,"['white_genocide', 'ussr', 'dr._david', 'duke', 'phd', 'radio', 'show', 'june', 'mm', 'stop_white', 'genocide']",0,0.01565728
4522,0.0,"['anti-white', 'white_genocide']",0,0.01565728
3101,0.0,"['south_african', 'farm', 'murder', 'african', 'african', 'arrest', 'death_penalty', 'prison', 'medium', 'south_african', 'white_genocide', 'farm_murders', 'news_worthy', 'hate_crimes', 'white_folks', 'debt', 'medium', 'full', 'interest', 'demand']",0,0.01565728
9620,0.0,"['world_wide', 'white_genocide', 'mean', 'white_children', 'white_children', 'breed', 'genocide', 'economic_collapse', 'plan', 'advance', 'decrease', 'white_children', 'born', 'generation', 'job', 'decrease', 'invasion', 'order', 'corporate_wars', 'begin', 'white_genocide', 'young_white', 'men', 'die', 'war', 'white_children', 'born', 'nation', 'control', 'engineer', 'famine', 'come', 'year', 'crop', 'irrigation', 'southern_california', 'flood', 'control', 'mississippi', 'river', 'bee', 'food', 'reserve', 'america', 'move', 'communist_china', 'communist', 'north_korea', 'monsanto', 'gmo', 'crop', 'organ', 'failure', 'mutation', 'white_children', 'water', 'fluoridation', 'plan', 'cause', 'brain_damage', 'white_children', 'cause', 'energy', 'motivation', 'white', 'adult', 'turn', 'lamb', 'slaughter', 'nuclear_power', 'plant', 'genocide', 'large', 'population', 'center', 'failure', 'spread', 'death', 'mutation', 'multiple', 'failuers', 'multiple', 'failure', 'year', 'cme', 'coronal', 'mass', 'ejection', 'power', 'grid', 'power', 'grid', 'nuke_plant', 'blow', 'push', 'holocaust', 'approach', 'minion', 'dollar', 'construct', 'deep', 'underground', 'bunker', 'time', 'oligarch', 'media_mafia', 'ridicule', 'white_man', 'build', 'bunker', 'take', 'step', 'control', 'education', 'medium', 'white_folks', 'move', 'coast', 'large_cities', 'place', 'white_man', 'genocide', 'soviet_union', 'white_man', 'white_children', 'order', 'representative', 'federal_government', 'genocide', 'tool', 'white_man', 'offer', 'resistance', 'oligarch', 'evil', 'plan', 'doom', 'offer', 'resistance', 'oligarch', 'evil', 'plan', 'doom']",0,0.01565728
4490,0.0,"['flyer', 'white_genocide', 'side', 'issue']",0,0.01565728
1241,0.0,"['america', 'white', 'singe', 'person', 'poor', 'dirt', 'poor', 'welfare', 'black', 'tax_dollars', 'time', 'work', 'day', 'life', 'person', 'work', 'dollar', 'mow', 'grass', 'plough', 'field', 'painting', 'house', 'fix', 'car', 'pay', 'drinking_water', 'community', 'spring', 'highway', 'narrow', 'lane', 'blacktop', 'poor', 'poor', 'crime', 'rate', 'stay', 'poor', 'feed', 'poor', 'white_folks', 'poor', 'black']",0,0.014272296
4001,0.0,"['white', 'convert', 'mulatto', 'mulatto', 'brown', 'jewos', 'niggros', 'hate']",0,0.014272296
4247,0.0,"['rockwall', 'lake', 'horney', 'dike', 'smell', 'rot', 'fish', 'national_socialists', 'nazi', 'white_nationalist', 'drag', 'white_nationalism', 'white_nationalist', 'independent', 'white_nationalist', 'japanese', 'asian', 'national_socialists', 'black', 'national_socialists', 'normal', 'white_americans', 'white', 'european', 'join', 'nationalist', 'nazi']",0,0.014272296
12119,0.0,"['begin', 'watch', 'ghost', 'shell', 'series', 'section', 'white_folks', 'ghost', 'shell', 'complex', 'story', 'line', 'wow', 'japanese', 'deep', 'producer', 'series', 'audience', 'concept', 'success', 'white', 'audience', 'ghost', 'shell', 'cover', 'technology', 'real', 'heart', 'series', 'machine', 'processing', 'power', 'child', 'personality', 'individuality', 'independent', 'act', 'individual', 'agenda', 'series', 'ai', 'tank', 'innocence', 'gold', 'hearted', 'goodness', 'child', 'controller', 'project', 'evil', 'way', 'japanese', 'adult', 'think', 'japanese', 'aname', 'basic', 'true', 'level']",0,0.014272296
1198,0.0,"['black_savages', 'walk', 'white', 'police_officer', 'police', 'know', 'police_officer', 'black_thugs', 'black', 'hood', 'black']",0,0.014272296
1216,0.0,"['montana', 'north_dakota', 'minnesota', 'enemy', 'scandinavian', 'population', 'white', 'indian', 'daughter', 'race', 'mix', 'generation', 'indian', 'african', 'left', 'scandinavian', 'population']",0,0.014272296
5259,0.0,"['day', 'generation', 'save', 'world', 'bob_whitaker', 'today', 'v-e', 'day', 'nazi', 'germany', 'surrender', 'tom', 'brokaw', 'germany', 'fell', 'heroic', 'joseph', 'stalin', 'world', 'save', 'generation', 'save', 'comrade', 'stalin', 'generation', 'love', 'uncle', 'serve', 'world_war', 'ii', 'people', 'individual', 'generation', 'disagreement', 'generation', 'nonsense', 'insult', 'granddaddy', 'papa', 'leave', 'room', 'grownup', 'talk', 'world_war', 'ii', 'generation', 'generation', 'reason', 'tom', 'brokaw', 'love', 'world_war', 'generation', 'age', 'white_male', 'walk', 'world', 'colossus', 'cease', 'dominant', 'group', 'white', 'world', 'forgiveness', 'time', 'world_war', 'ii', 'generation', 'cease', 'dominant', 'group', 'white', 'race', 'racist', 'immigration', 'integration', 'miscegenation', 'final', 'solution', 'race_problem', 'problem', 'white_countries', 'problem', 'white_countries', 'race_problem', 'miscegenation', 'africa', 'immigration', 'japan', 'taiwan', 'area', 'africa', 'brazil', 'brokaw', 'generation', 'idea', 'liberal', 'brokaw', 'love']",0,0.014272296
4713,0.0,"['jewish_media', 'police', 'murder', 'hate_crime', 'murder_victim', 'white', 'police_officer', 'influence', 'jewish_leaders', 'class', 'form', 'jewish_organizations', 'splc']",0,0.014272296
11884,0.0,"['white', 'land', 'wasteland', 'land', 'earth', 'resource']",0,0.014272296
12168,0.0,"['fix', 'sight', 'trigger', 'time', 'air_soft', 'air_soft', 'rifle', 'sight', 'light', 'paint', 'sight', 'white', 'dead', 'buying', 'purchase', 'shot', 'ten', 'foot', 'high', 'plastic', 'fix', 'sight', 'folk', 'fix', 'sight', 'line', 'point', 'aim', 'file', 'front_sight', 'post', 'wing', 'front_sight', 'force', 'pick', 'sight', 'picture', 'point', 'point', 'left', 'rear', 'sight', 'plastic', 'peep', 'sight', 'screw', 'rifle', 'adjustment', 'file', 'plastic', 'carry', 'handle', 'peep', 'left', 'move', 'rear', 'sight', 'left', 'move', 'point', 'left', 'shimmed', 'peep', 'left', 'washer', 'shot', 'file', 'space', 'washer', 'fix', 'sight', 'practice', 'practice', 'air_soft', 'shoot', 'hand', 'eye', 'coordination', 'shoot']",0,0.014272296
1209,0.0,"['white', 'white', 'white', 'change']",0,0.014272296
12092,0.0,"['north_dakota', 'work', 'fat', 'job', 'white', 'female', 'dress', 'tramp', 'medical', 'doctor', 'rich', 'white', 'female', 'dress', 'girl', 'disorder']",0,0.014272296
4719,0.0,"['active_duty', 'mestizo', 'murder', 'active_duty', 'white', 'police_officer', 'dark', 'mestizo', 'station', 'ft', 'bliss', 'el_paso', 'texas', 'beat', 'el_paso', 'constable', 'uniform', 'work', 'security', 'haunt', 'house', 'jewish_media', 'coverage', 'police_officer', 'graduate', 'el_paso', 'coronado', 'high_school', 'graduate', 'texas', 'el_paso', 'utep', 'time', 'pe', 'coach', 'reputation', 'help', 'school_children', 'mestizo', 'savage', 'murder', 'black_male', 'beat', 'white', 'constable', 'medium', 'outrage']",0,0.014272296
12108,0.0,"['watch', 'barbarian', 'queen', 'ii', 'shock', 'date', 'produce', 'picture', 'anti-white', 'white', 'cast', 'movie', 'revolution', 'tyrant', 'today', 'dictator', 'rule']",0,0.014272296
4835,0.0,"['african', 'bus', 'driver', 'watch', 'africans_attack', 'white', 'grader', 'school', 'gulf', 'coast', 'african', 'attack', 'pack', 'harm', 'white', 'student', 'stop', 'africans_behave', 'blood_thirsty', 'savage']",0,0.014272296
7400,0.0,"['white_flight', 'suburb', 'white_flight', 'white_flight', 'cost', 'farmland', 'suburb', 'road', 'suburb', 'farmland', 'shopping', 'area', 'suburb', 'farmland', 'school', 'suburb', 'white_flight', 'place', 'child', 'white_folks', 'city', 'savage', 'cost', 'white_flight', 'area', 'time', 'waste', 'white', 'workforce', 'commute', 'white_neighborhoods', 'white_man', 'city', 'gasoline', 'waste', 'commute', 'air', 'pollution', 'commute', 'tax_payers', 'white', 'workforce', 'savage', 'drove', 'white_families', 'neighborhood', 'government', 'supply', 'program', 'savage', 'pay', 'government', 'savage', 'flood', 'room', 'left', 'white_man', 'city', 'influx', 'savage', 'invasion', 'white_flight', 'area', 'suburb', 'city', 'construct', 'suburb', 'savage', 'white_neighborhoods', 'white_flight']",0,0.014272296
5639,0.0,"['william', 'michael', 'morgan', 'white', 'christmas']",0,0.014272296
11239,0.0,"['planning', 'trip', 'texas_state', 'fair', 'opening', 'crowd', 'white', 'remains', 'white', 'dusk', 'darky', 'start', 'come', 'dusk', 'crowd', 'darky', 'dark', 'plan', 'trip', 'police', 'lookout', 'booth', 'foot', 'mount', 'horse', 'mount', 'motorcycle', 'patrol', 'golf', 'cart', 'help', 'darky', 'daylight', 'place', 'world', 'darkie', 'white_man', 'law']",0,0.014272296
10868,0.0,"['person', 'iq', 'upset', 'white', 'white', 'parent', 'white', 'grand_parents', 'great_grand', 'parent', 'great', 'great_grand', 'parent', 'white', 'image', 'loony_leftist', 'girl', 'opinion', 'call', 'hitler', 'nice', 'job', 'loser', 'v=c6krgfbk2gq']",0,0.014272296
266,0.0,"['african', 'hate_crime', 'eve', 'white', 'couple', 'attack', 'home', 'eve']",0,0.014272296
10827,0.0,"['white', 'school', 'close', 'federal_agent', 'government', 'hate', 'white_folks', 'federal', 'civil_right', 'white']",0,0.014272296
10826,0.0,"['white', 'rabbit', 'australia', 'tread', 'australia']",0,0.014272296
341,0.0,"['race_mixing', 'extinction', 'black', 'child', 'mean', 'line', 'line', 'white', 'ancestor', 'time', 'great_grand', 'child', 'stupid', 'white', 'whore', 'grand', 'mother', 'autobiography', 'magic_mulatto', 'white', 'whore', 'mother', 'pretend', 'black', 'white', 'fear', 'black', 'kid', 'white']",0,0.014272296
10605,0.0,"['white', 'farmer', 'love', 'farm', 'area', 'year', 'growing_season', 'black_african', 'zone', 'bother', 'seed', 'african', 'hold', 'empty', 'hand', 'white_man', 'fill']",0,0.014272296
10443,0.0,"['texas', 'white', 'tax_dollars', 'donation', 'white_man', 'race_traitors', 'run', 'ut', 'supreme_court', 'white_man', 'hire', 'process', 'student', 'acceptance', 'process', 'business', 'vendor', 'found', 'white_man', 'white_man', 'conduct', 'white_man']",0,0.014272296
10435,0.0,"['medium', 'blitz', 'year', 'true', 'halloween', 'medium', 'entire', 'heritage', 'cloud', 'meaning', 'holiday', 'event', 'history', 'debt', 'sacrifice', 'hardship', 'today', 'drought', 'flood', 'fire', 'earthquake', 'eruption', 'ship', 'wreck', 'storm', 'wave', 'animal', 'attack', 'plague', 'famine', 'generation', 'bore', 'today', 'mater', 'great_debt', 'sacrifice', 'great', 'burden', 'great', 'heritage', 'destiny', 'lead', 'heritage', 'halloween', 'year', 'set', 'die', 'talk', 'ghost', 'come', 'visit', 'barrier', 'world', 'light', 'sound', 'time', 'visit', 'time', 'visit', 'time', 'great', 'heritage', 'halloween', 'time', 'child', 'candy', 'fun', 'duty', 'pay', 'debt', 'great', 'ancestor', 'great', 'heritage', 'honor', 'memory', 'halloween', 'today', 'medium', 'work', 'non-stop', 'campaign', 'propaganda', 'aim', 'generation', 'television', 'program', 'movie', 'book', 'child', 'cartoon', 'trend', 'man', 'pair', 'woman', 'woman', 'pair', 'man', 'worse', 'medium', 'man', 'woman', 'experiment', 'gay', 'lifestyle', 'abort', 'present', 'lifestyle', 'propaganda', 'construct', 'murder', 'generation', 'white', 'race', 'attack', 'group', 'group', 'specie', 'definition', 'race', 'list', 'grant', 'protection', 'mammal', 'bird', 'fish', 'reptile', 'insect', 'list', 'white_humans', 'creator', 'civilization', 'medium', 'reality', 'white_woman', 'seek', 'black', 'man', 'wisdom', 'guidance', 'man', 'buffoon', 'science_fiction', 'drama', 'drip', 'medium', 'propaganda', 'mexican', 'commander', 'military', 'ship', 'space', 'white_children', 'science_fiction', 'bone', 'white_humans', 'document', 'carbon', 'date', 'major', 'lab', 'twenty', 'thousand', 'average', 'child', 'bearing', 'age', 'twenty', 'average', 'thousand', 'generation', 'white', 'mother', 'white', 'father', 'individual', 'present', 'day', 'life', 'white_man', 'couple', 'white_woman', 'couple', 'entire', 'great', 'line', 'white_humans', 'parent', 'white_children', 'medium', 'science_fiction', 'reality', 'medium', 'pressure', 'young', 'white', 'girl', 'culture', 'woman', 'asian', 'culture', 'pregnancy', 'exam', 'fetus', 'fetus', 'woman', 'family', 'arab', 'culture', 'woman', 'slave', 'right', 'black', 'culture', 'woman', 'injun', 'woman', 'serve', 'pack', 'mule', 'turn', 'wilderness', 'die', 'young_white', 'woman', 'brain', 'wash', 'join', 'culture', 'show', 'phrase', 'snake', 'mind', 'medium', 'lie', 'small', 'halloween', 'generation', 'responsibility', 'generation', 'action', 'white', 'race', 'heroic', 'murder', 'future_generations', 'future_generations', 'mercy', 'tradition', 'duty', 'white_humans', 'destiny']",0,0.014272296
10422,0.0,"['black_african', 'zimbabwe', 'white_farmers', 'black_african', 'zimbabwe', 'invite', 'white_farmers', 'food', 'farmer', 'black_african', 'zimbabwe', 'murder', 'beat', 'torture', 'rap', 'white_humans', 'farmer', 'illegal_aliens', 'family', 'generation', 'activity', 'subversive', 'national', 'security', 'murder', 'white', 'skin', 'black_african', 'zimbabwe']",0,0.014272296
10350,0.0,"['question', 'white', 'dark', 'da', 'hood']",0,0.014272296
10313,0.0,"['editorial', 'north_dakota', 'newspaper', 'anti-white', 'letter', 'editor', 'anti-white', 'race_mixers', 'anti-racists', 'anti-whites', 'citizen', 'dakota', 'anti-white', 'north_dakota', 'newspaper', 'editor', 'call', 'cobb', 'white_supremacist', 'white', 'community', 'white_supremacist', 'non-whites']",0,0.014272296
11198,0.0,"['texas_state', 'rifle_association', 'gunshow', 'today', 'price', 'pistol', 'ga', 'mag', 'polymer', 'krag', 'beretta', 'semi_auto', 'shotgun', 'hodgdon', 'gun', 'powder', 'container', 'ga', 'semi_auto', 'magazine', 'feed', 'shotgun', 'brass', 'case', 'mm', 'remington', 'bolt_action', 'polymer', 'stock', 'rifle', 'savage', 'bolt_action', 'rifle', 'mossberg', 'pump', 'shotgun', 'semi', 'auto', 'german', 'helmet', 'label', 'set', 'branch', 'service', 'collectible', 'ammo', 'semi_auto', 'rifle', 'semi_auto', 'pistol', 'safe', 'holster', 'vehicle', 'hand', 'tool', 'leather', 'holster', 'gun', 'belt', 'revolver', 'lever_action', 'rifle', 'custom', 'rifle', 'texas', 'lady', 'crowd', 'white', 'opening', 'line', 'give', 'extra', 'time', 'talk', 'folk', 'place', 'family', 'gunshow', 'firearm', 'money', 'magic_niggro', 'act', 'positive', 'comment', 'government', 'black', 'messiah', 'join', 'texas_state', 'rifle_association', 'membership', 'admission', 'free', 'renewal', 'fee', 'dollar', 'show', 'magazine', 'gun', 'calender', 'hat', 'pin', 'stuff', 'knowledge', 'deed', 'texas', 'spoke', 'people', 'gunshow', 'government', 'texas', 'left', 'union', 'show', 'tomorrow', 'god_bless', 'texas']",0,0.014272296
9586,0.0,"['black_savages', 'beat', 'white_man', 'cut', 'line', 'hate_crime', 'hate_crime', 'white', 'white_folks', 'protection', 'jewdicial_system', 'black_african', 'savage', 'real', 'victim', 'media_mafia', 'white_man', 'hospital', 'minor', 'injury', 'hospital', 'call', 'minor', 'injury', 'white_man', 'beat', 'black', 'injury', 'minor', 'injury']",0,0.014272296
735,0.0,"['san', 'jacinto', 'day', 'day', 'texan', 'independence', 'government', 'mexico', 'city', 'substitute', 'mlk', 'day', 'texas', 'university', 'policy', 'white', 'employee', 'mlk', 'holiday', 'work', 'anti-white', 'anti-white']",0,0.014272296
9331,0.0,"['justice', 'league', 'starcrossed', 'movie', 'dc', 'product', 'anti-white', 'make', 'movie', 'project', 'hurry', 'space', 'alien', 'hawkgirl', 'white_woman', 'wing', 'date', 'black_male', 'give', 'young', 'white', 'girl', 'impression', 'race_mixing', 'fine', 'dandy', 'voice', 'hawkgirl', 'mexican', 'voice', 'main', 'hawkmen', 'character', 'mexican', 'pair', 'black', 'give', 'illusion', 'young_white', 'girl', 'white', 'black', 'crowd', 'scene', 'crowd', 'scene', 'last', 'second', 'take', 'day', 'week', 'display', 'white_woman', 'black_male', 'hold', 'black', 'child', 'arm', 'race_mixing', 'genocide', 'name', 'credit', 'dc', 'product', 'program', 'message', 'clear', 'race_mixer', 'hero', 'hollywood', 'support', 'genocide', 'white_children']",0,0.014272296
5807,0.0,"['ronda', 'rousey', 'asian', 'male', 'white', 'female', 'warrior', 'man', 'ronda', 'weight', 'lb']",0,0.014272296
9319,0.0,"['homosexual', 'fashion', 'industry', 'mafia', 'reject', 'normal', 'white', 'texan', 'girl', 'clutch', 'african', 'time', 'african', 'time', 'individual', 'feel', 'fashion', 'industry', 'gay', 'mafia', 'racist']",0,0.014272296
9269,0.0,"['chris', 'matthew', 'slam', 'white', 'people', 'white', 'people', 'people', 'arab', 'pop', 'pimple', 'face', 'white_folks']",0,0.014272296
9055,0.0,"['white', 'santa', 'leaf', 'toy', 'good', 'girl', 'boy', 'santa', 'black', 'crow', 'sack', 'present']",0,0.014272296
8856,0.0,"['taylor', 'swift', 'white', 'christmas']",0,0.014272296
760,0.0,"['fire', 'explosion', 'west', 'texas', 'african', 'comment', 'mass', 'white', 'death']",0,0.014272296
8245,0.0,"['sweetbriar', 'bluegrass', 'white', 'snow']",0,0.014272296
8027,0.0,"['dolphin', 'white', 'diver']",0,0.014272296
11341,0.0,"['cross', 'ar_rifles', 'image', 'standard', 'red', 'white', 'blue', 'confederate', 'battle', 'flag', 'blue', 'cross', 'ar_rifles', 'white', 'star', 'rifle', 'red', 'background', 'great']",0,0.014272296
982,0.0,"['time', 'missouri', 'city', 'white', 'government', 'houston', 'texas', 'area', 'target', 'destruction', 'houston', 'white', 'city']",0,0.014272296
3894,0.0,"['hispanic', 'white', 'male', 'white']",0,0.014272296
1129,0.0,"['african', 'scene', 'chant', 'hand', 'shoot', 'white', 'guy', 'shock']",0,0.014272296
6859,0.0,"['white', 'indian', 'nivaria', 'v=w77t3vzs5qa']",0,0.014272296
1137,0.0,"['stand', 'liberal', 'disease', 'liberal', 'area', 'white', 'white_folks', 'brown', 'point', 'influence', 'liberal', 'hope']",0,0.014272296
6382,0.0,"['chris', 'matthew', 'race', 'anti-whites', 'white', 'supremacist', 'brown', 'ancestor', 'white_gods', 'trend']",0,0.014272296
3947,0.0,"['white', 'heritage', 'event', 'non-whites', 'heritage', 'irish', 'st', 'day', 'black', 'martin', 'luther', 'king', 'day', 'cinco', 'de', 'mayo', 'day', 'mexican', 'drunk', 'stab']",0,0.014272296
3636,0.0,"['diversity', 'christmas', 'season', 'white_folks', 'purchase', 'item', 'jewish_owned', 'business', 'brown', 'break', 'white', 'home', 'white', 'vehicle', 'steal', 'item']",0,0.014272296
13913,0.0,"['savage', 'blood_thirsty', 'savage', 'savage_indians', 'virginia', 'frontier', 'mistake', 'worst', 'murder', 'father', 'lewis', 'wetzel', 'murder', 'lewis', 'wetzel', 'county', 'virginia', 'west', 'virginia', 'louis', 'wetzel', 'boone', 'west', 'virginia', 'adventure', 'indian', 'year', 'zane', 'brother', 'settle', 'mouth', 'wheel', 'creek', 'brave', 'rough', 'german', 'john', 'wetzel', 'father', 'louis', 'bold', 'indian', 'hunter', 'west', 'virginia', 'household', 'word', 'state', 'father', 'son', 'daughter', 'son', 'martin', 'george', 'john', 'jacob', 'daughter', 'susan', 'christina', 'book', 'indian', 'war', 'story', 'john', 'wetzel', 'kill', 'wheel', 'creek', 'border', 'book', 'author', 'talk', 'louis', 'wetzel', 'kill', 'captina', 'ion', 'author', 'western', 'border', 'canoe', 'paddle', 'shore', 'ohio', 'river', 'hail', 'party', 'indian', 'land', 'refuse', 'fire', 'wetzel', 'body', 'feel', 'wound', 'companion', 'lie', 'canoe', 'wetzel', 'strength', 'paddle', 'frail', 'vessel', 'reach', 'savage', 'save', 'life', 'friend', 'ebb', 'fast', 'die', 'reach', 'shore', 'baker', 'station', 'mile', 'north', 'author', 'mceldowney', 'true', 'statement', 'death', 'john', 'wetzel', 'grave', 'scene', 'fortress', 'rough', 'stone', 'mark', 'spot', 'bearing', 'inscription', 'rough', 'plain', 'letter', 'j', 'w', 'western', 'border', 'dread', 'louis', 'wetzel', 'regard', 'semi-savage', 'man', 'disposition', 'panther', 'mind', 'blood', 'human', 'true', 'dehaas', 'border', 'war', 'western', 'virginia', 'cruelty', 'child', 'torture', 'victim', 'charge', 'mother', 'read', 'line', 'bible', 'vengeance', 'saith', 'lord', 'torture', 'indian', 'revengful', 'vengeance', 'indian', 'race', 'mother', 'brother', 'zanes', 'mouth', 'wheel', 'creek', 'join', 'brother', 'jacob', 'lad', 'degree', 'knowledge', 'hunter', 'bold', 'lion', 'cunning', 'fox', 'quick', 'squirrel', 'wetzel', 'thrill', 'horror', 'breast', 'savage', 'event', 'life', 'hero', 'sixteen', 'year', 'age', 'indian', 'trou', 'blesome', 'vicinity', 'jacob', 'brother', 'play', 'gun', 'point', 'start', 'run', 'house', 'shot', 'breast', 'wound', 'instant', 'warrior', 'prisoner', 'mile', 'home', 'march', 'louis', 'wound', 'hand', 'bore', 'cour', 'age', 'know', 'scalp', 'night', 'fire', 'rest', 'tie', 'prisoner', 'custom', 'louis', 'caution', 'sleep', 'push', 'wood', 'pause', 'louis', 'find', 'moccasius', 'returne', 'camp', 'moccasin', 'fitting', 'gun', 'indian', 'steal', 'house', 'aud', 'return', 'friend', 'escape', 'indian', 'detection', 'incident', 'life', 'louis', 'wetzel', 'mirror', 'time', 'border', 'life', 'scout', 'party', 'year', 'father', 'bank', 'ohio', 'virginia', 'place', 'mingo', 'bottom', 'mile', 'steubenville', 'party', 'indian', 'cross', 'ohio', 'kill', 'family', 'escape', 'impunity', 'indian', 'cross', 'ohio', 'neighborhood', 'year', 'settler', 'safety', 'cabin', 'murder', 'spread', 'great', 'alarm', 'settlement', 'revenge', 'settler', 'circumstance', 'young', 'active', 'vengeance', 'draw', 'subscription', 'give', 'reward', 'indian', 'scalp', 'dollar', 'major', 'mcmahon', 'lead', 'hardy', 'frontiersman', 'time', 'raise', 'company', 'men', 'louis', 'wetzel', 'cross', 'ohio', 'indian', 'trail', 'tact', 'muskingum', 'river', 'advance', 'spy', 'party', 'indian', 'number', 'bank', 'river', 'indian', 'white_man', 'major', 'mcmahon', 'retreat', 'party', 'hill', 'future', 'operation', 'conclusion', 'conference', 'discretion', 'valor', 'retreat', 'resolve', 'party', 'propriety', 'attack', 'indian', 'louis', 'wetzel', 'sat', 'log', 'gun', 'lap', 'tomahawk', 'hand', 'part', 'council', 'resolution', 'retreat', 'delay', 'put', 'execution', 'party', 'set', 'leave', 'louis', 'log', 'major', 'mcmahon', 'call', 'louis', 'answer', 'hunt', 'indian', 'home', 'fool', 'finger', 'mouth', 'scalp', 'home', 'argument', 'avail', 'disposition', 'control', 'advice', 'solitary', 'midst', 'thick', 'forest', 'surrounder', 'enemy', 'solitary', 'individual', 'rush', 'danger', 'fury', 'man', 'disposition', 'cunning', 'fox', 'boldness', 'lion', 'friend', 'left', 'blanket', 'shoulder', 'rifle', 'country', 'fortune', 'place', 'indian', 'large', 'stream', 'large', 'party', 'travel', 'wood', 'tread', 'keen', 'glance', 'eagle', 'day', 'even', 'smoke', 'curl', 'bush', 'fire', 'blanket', 'copper', 'kettle', 'camp', 'camp', 'indian', 'kill', 'thick', 'brush', 'position', 'number', 'motion', 'sunset', 'indian', 'fire', 'cooking', 'supper', 'ate', 'supper', 'tell', 'comic', 'story', 'burst', 'roar', 'laughter', 'tell', 'story', 'common', 'practice', 'white', 'red', 'men', 'lie', 'hunt', 'camp', 'poor', 'fellow', 'utmost', 'glee', 'dream', 'monster', 'death', 'shape', 'louis', 'wetzel', 'steal', 'march', 'louis', 'keen', 'watch', 'maneuver', 'ten', 'night', 'indian', 'wrap', 'blanket', 'shoulder', 'rifle', 'chunk', 'fire', 'hand', 'left', 'camp', 'intention', 'watch', 'lick', 'fire', 'smoke', 'serve', 'gnat', 'mosquito', 'fact', 'deer', 'fire', 'circumstance', 'fall', 'winter', 'season', 'leaf', 'grass', 'dry', 'absence', 'indian', 'vexation', 'disappointment', 'hero', 'trap', 'set', 'game', 'indian', 'camp', 'day', 'bird', 'wood', 'give', 'notice', 'woodsman', 'day', 'louis', 'songster', 'chatter', 'delay', 'work', 'death', 'return', 'indian', 'walk', 'camp', 'step', 'victim', 'sleep', 'lie', 'side', 'drew', 'butcher', 'knife', 'force', 'revenge', 'thrust', 'blade', 'heart', 'indian', 'give', 'quiver', 'motion', 'fade', 'death', 'sleep', 'scalp', 'set', 'home', 'mingo', 'bottom', 'day', 'companion', 'reward', 'general', 'harmer', 'fort', 'mouth', 'muskingum', 'river', 'white_man', 'flag', 'indian', 'tribe', 'endeavor', 'fort', 'treaty', 'indian', 'general', 'invitation', 'muskingum', 'river', 'mile', 'mouth', 'general', 'harmer', 'issue', 'proclamation', 'give', 'cessation', 'arm', 'white', 'red', 'men', 'effort', 'treaty', 'treaty', 'indian', 'llrtle', 'faith', 'stability', 'treaty', 'frontiersman', 'frontier', 'men', 'day', 'born', 'fort', 'manhood', 'siege', 'indian', 'war', 'war', 'fight', 'oppression', 'indian', 'truthless', 'confidence', 'stability', 'treaty', 'general', 'harmer', 'make', 'peace', 'indian', 'wetzel', 'fort', 'harmer', 'indian', 'passing', 'repassing', 'camp', 'fort', 'offer', 'fair', 'opportunity', 'kill', 'enterprise', 'dickinson', 'grade', 'restlessness', 'dare', 'enterprise', 'resolve', 'set', 'ambush', 'path', 'lead', 'fort', 'indian', 'camp', 'wayside', 'approach', 'horse-back', 'run', 'horse', 'full', 'speed', 'call', 'clatter', 'horse', 'foot', 'heed', 'call', 'sweep', 'gallop', 'indian', 'pass', 'fire', 'fire', 'indian', 'fall', 'thought', 'miss', 'alarm', 'spread', 'large', 'number', 'hand', 'retreat', 'home', 'neighbor', 'object', 'return', 'luck', 'wetzel', 'answer', 'bad', 'luck', 'horseback', 'miss', 'shot', 'body', 'camp', 'night', 'wound', 'rumor', 'lewis', 'wetzel', 'murderer', 'general', 'harmer', 'captain', 'kingsbury', 'company', 'men', 'mingo', 'bottom', 'order', 'wetzel', 'dead', 'order', 'company', 'men', 'pit', 'lewis', 'wetzel', 'force', 'neighborhood', 'mingo', 'bottom', 'day', 'captain', 'kingsbury', 'shoot', 'match', 'father', 'lewis', 'object', 'captain', 'kingsbury', 'resolve', 'ambush', 'captain', 'barge', 'kill', 'men', 'major', 'mcmahon', 'present', 'catastrophe', 'wetzel', 'friend', 'attack', 'pay', 'captain', 'kingsbury', 'visit', 'make', 'wetzel', 'great_deal', 'reluctance', 'attack', 'major', 'mcmahon', 'return', 'resentment', 'fury', 'wetzel', 'boil', 'blowing', 'steam', 'steamboat', 'affair', 'hang', 'man', 'kill', 'kill', 'major', 'mcmahon', 'captain', 'kingsbury', 'force', 'fury', 'people', 'wetzel', 'settler', 'country', 'save', 'massacre', 'return', 'captain', 'advice', 'fort', 'harmer', 'wetzel', 'affair', 'settle', 'lewis', 'range', 'river', 'ft', 'pitt', 'fall', 'ohio', 'guest', 'captain', 'kingsbury', 'men', 'canoe', 'intention', 'ohio', 'river', 'kentucky', 'hamilton', 'carr', 'settle', 'island', 'ft', 'harmer', 'stop', 'intention', 'stop', 'night', 'mean', 'general', 'harmer', 'island', 'guard', 'cross', 'island', 'surround', 'carr', 'house', 'wetzel', 'lay', 'numers', 'hand', 'foot', 'bound', 'hurry', 'boat', 'guard', 'room', 'load', 'iron', 'ignominy', 'wear', 'iron', 'hand', 'cuff', 'hobble', 'chain', 'independent', 'spirit', 'bear', 'death', 'general', 'harmer', 'request', 'visit', 'general', 'wetzel', 'hesitation', 'shot', 'dog', 'request', 'general', 'indiaus', 'number', 'present', 'circle', 'indian', 'fight', 'general', 'officer', 'law', 'law', 'compromise', 'grant', 'request', 'day', 'longer', 'confinement', 'general', 'wetzel', 'permit', 'general', 'order', 'officer', 'guard', 'knock', 'iron', 'fetter', 'handcuff', 'permit', 'point', 'mouth', 'muskingum', 'watch', 'fort', 'gate', 'lewis', 'caper', 'wild', 'colt', 'stall', 'start', 'run', 'yard', 'make', 'escape', 'turn', 'join', 'guard', 'start', 'run', 'stop', 'guard', 'start', 'run', 'length', 'call', 'strength', 'resolution', 'activity', 'freedom', 'grave', 'give', 'spring', 'bound', 'speed', 'shelter', 'beloved', 'wood', 'movement', 'quick', 'guard', 'surprise', 'yard', 'astonishment', 'fire', 'miss', 'pursuit', 'left', 'sight', 'country', 'thicket', 'mile', 'fort', 'midst', 'thicket', 'tree', 'fall', 'log', 'brush', 'tree', 'squeeze', 'body', 'brush', 'thick', 'pursuer', 'escape', 'general', 'harmer', 'start', 'soldier', 'indian', 'pursuit', 'hour', 'place', 'concealment', 'indian', 'thicket', 'log', 'lay', 'heart', 'beat', 'thump', 'halloo', 'direction', 'hunt', 'brush', 'length', 'even', 'day', 'thicket', 'hand', 'iron', 'cuff', 'bolt', 'friend', 'ohio', 'assistance', 'cabin', 'virginia', 'ohio', 'assistance', 'power', 'night-fall', 'left', 'thicket', 'ohio', 'river', 'mile', 'fort', 'circuit', 'guard', 'set', 'canoe', 'river', 'question', 'raft', 'hand', 'bound', 'swimmer', 'swim', 'ohio', 'heavy', 'iron', 'handcuff', 'pause', 'attempt', 'death', 'fall', 'harmer', 'indian', 'caesar', 'storm', 'trust', 'event', 'fortune', 'plunge', 'river', 'distance', 'reach', 'virginia', 'shore', 'safety', 'exhaust', 'lay', 'beach', 'rise', 'cabin', 'friend', 'rapture', 'file', 'hammer', 'release', 'iron', 'handcuff', 'friend', 'gun', 'ammunition', 'blanket', 'free', 'enterprise', 'strike', 'fancy', 'canoe', 'kentucky', 'safe', 'fram', 'grasp', 'general', 'harmer', 'unfortunate', 'south', 'year', 'friend', 'relative', 'wonder', 'whereabouts', 'inquiry', 'confinement', 'natches', 'felony', 'counterfeit', 'intimate', 'wife', 'spaniard', 'friend', 'pardon', 'return', 'home', 'wheel', 'relative', 'greotfge', 'crookis', 'time', 'wife', 'reply', 'heaven', 'return', 'south', 'crookis', 'homestead', 'year', 'vow', 'spaniard', 'put', 'jail', 'david', 'mclntire', 'county', 'belmont', 'ohio', 'man', 'louis', 'wetzel', 'natches', 'visit', 'phillip', 'sykes', 'scalp', 'unestimable', 'authority', 'estimate']",0,0.014272296
2626,0.0,"['white', 'safe', 'scar', 'loony_leftist', 'young', 'female', 'race_traitors', 'man', 'nationalist', 'start', 'family']",0,0.014272296
1398,0.0,"['mestizo', 'worth', 'typical_african', 'worth', 'white', 'workforce', 'hire', 'employee', 'worth', 'shop', 'california', 'bankrupt', 'add']",0,0.014272296
3208,0.0,"['black', 'white', 'violence', 'start', 'young', 'school', 'teach', 'white_kids', 'teach', 'black', 'beast', 'attack', 'white_kids']",0,0.014272296
12900,0.0,"['white', 'law', 'kick', 'red']",0,0.014272296
1948,0.0,"['lever_action', 'scope', 'game', 'good', 'white', 'tail', 'deer', 'power', 'cartridge', 'velocity', 'small', 'bullet', 'eyesight', 'scope', 'hit', 'white', 'tail', 'rifle', 'carbine', 'heavy', 'brush', 'white', 'tail', 'deer', 'shot', 'yard', 'yard', 'brush', 'power', 'cartridge', 'ak', 'drive', 'heavy', 'bullet', 'moose', 'elk', 'large', 'bear', 'mule', 'deer', 'open', 'country', 'texas', 'folk', 'mule', 'deer', 'rifle', 'hunt', 'mule', 'deer', 'lever_action', 'rifle', 'cartridge']",0,0.014272296
3252,0.0,"['white', 'safe', 'school_system', 'white', 'teacher', 'african_savages', 'separate', 'school', 'killer', 'black', 'cut', 'throat', 'teacher', 'school', 'free', 'tutor', 'african', 'reward', 'rape', 'murder', 'school', 'restroom', 'die']",0,0.014272296
2234,0.0,"['japanese', 'engineer', 'training', 'local', 'manufacturer', 'state', 'department', 'set', 'engineer', 'free', 'training', 'expense', 'local', 'business', 'statue', 'rise', 'garden', 'herman', 'park', 'sister', 'city', 'engineer', 'show', 'engineer', 'show', 'equal', 'jap', 'equal', 'specific', 'point', 'tell', 'grasp', 'show', 'conclusion', 'show', 'chinese', 'engineer', 'training', 'state', 'meeting', 'sum', 'state', 'part', 'device', 'chinese', 'engineering', 'complement', 'union_government', 'text', 'book', 'author', 'east', 'white_folks', 'percent', 'east', 'peasant', 'farmer', 'labor', 'doubt', 'validity', 'test', 'result', 'people', 'equal', 'raise', 'primitive', 'existence', 'white', 'civilization', 'asian']",0,0.014272296
2312,0.0,"['magic_mulatto', 'representative', 'white', 'christian', 'america', 'anti-white_racists']",0,0.014272296
3310,0.0,"['young', 'stupid', 'nordic', 'girl', 'black', 'boyfriend', 'child', 'north_dakota', 'care', 'great_grand', 'child', 'stupid', 'white', 'whore', 'grand', 'mother', 'family', 'secret', 'segment', 'race_mixers', 'nordic', 'gene', 'pool', 'good', 'riddance', 'descendant', 'white_folks', 'race_mixers']",0,0.014272296
2753,0.0,"['snow', 'shoe', 'combustion', 'engine', 'petroleum', 'manufacture', 'plastic', 'item', 'paint', 'petroleum', 'product', 'gun', 'power', 'great', 'silver', 'bird', 'fly', 'sky', 'pipeline', 'white_man', 'beer', 'truck', 'water', 'life', 'tribe', 'pipeline', 'industry', 'petroleum', 'tax', 'revenue', 'check', 'great', 'white', 'father', 'washington', 'number']",0,0.014272296
3081,0.0,"['white', 'mom', 'tell', 'mestizo', 'leave', 'dead', 'mexican', 'citizen', 'justice', 'mom', 'kill', 'man', 'romantic', 'daughter']",0,0.014272296
3100,0.0,"['active_duty', 'mestizo', 'murder', 'active_duty', 'white', 'police_officer', 'dark', 'mestizo', 'station', 'ft', 'bliss', 'el_paso', 'texas', 'beat', 'el_paso', 'constable', 'uniform', 'work', 'security', 'haunt', 'house', 'jewish_media', 'coverage', 'police_officer', 'graduate', 'el_paso', 'coronado', 'high_school', 'graduate', 'texas', 'el_paso', 'utep', 'time', 'pe', 'coach', 'reputation', 'help', 'school_children', 'mestizo', 'savage', 'murder', 'black_male', 'beat', 'white', 'constable', 'medium', 'outrage']",0,0.014272296
13926,0.0,"['mound', 'white', 'north', 'american']",0,0.014272296
3103,0.0,"['white', 'refugee', 'african', 'young_white', 'man', 'leftist', 'hell_hole', 'california', 'escape', 'white', 'land', 'north_dakota', 'savage_african', 'african', 'body', 'north_dakota', 'access', 'internet', 'philadelphia', 'elick', 'funeral', 'home', 'obituary', 'nine-week', 'manhunt', 'arrest', 'minot', 'homicide', 'grand', 'fork', 'herald']",0,0.014272296
1397,0.0,"['topic', 'sound', 'topic', 'white', 'parent', 'discus', 'child']",0,0.014272296
13929,0.0,"['lord', 'white', 'oak', 'hill', 'fescue', 'bluegrass', 'band']",0,0.014272296
1474,0.0,"['jewish_media', 'police', 'murder', 'hate_crime', 'murder_victim', 'white', 'police_officer', 'influence', 'jewish_leaders', 'class', 'form', 'jewish_organizations', 'splc']",0,0.014272296
3154,0.0,"['africans_attack', 'white', 'jogger']",0,0.014272296
12413,0.0,"['nugent', 'ancient', 'american', 'white']",0,0.014272296
12455,0.0,"['garden', 'stew', 'start', 'bacon', 'strip', 'cut', 'short', 'length', 'add', 'onion', 'stove', 'smoke', 'hamburger', 'meat', 'pecan', 'wood', 'pecan', 'tree', 'grille', 'bacon', 'slice', 'mushroom', 'cooking', 'stove', 'put', 'brisket', 'smoke', 'thaw', 'steam', 'cooking', 'pot', 'hamburger', 'good', 'smoke', 'pot', 'brisket', 'meat', 'cut', 'large', 'cube', 'put', 'cube', 'pot', 'meat', 'tomato', 'sauce', 'garden', 'tomato', 'can', 'sweet', 'corn', 'garden', 'corn', 'pickle', 'green', 'bean', 'pickle', 'white', 'vinegar', 'pickle', 'pepper', 'garden', 'cayenne', 'pepper', 'jalape', 'pepper', 'pablano', 'pepper', 'paprika', 'pepper', 'bell', 'pepper', 'banana', 'pepper', 'dice', 'pickle', 'white', 'vinegar', 'white', 'wine', 'vinegar', 'add', 'taste', 'cilantro', 'leaf', 'taste', 'taste', 'add', 'real', 'butter', 'sea', 'salt', 'grinder', 'black_pepper', 'taste', 'turn', 'great']",0,0.014272296
12472,0.0,"['white_children', 'parent', 'door', 'meet', 'neighbor', 'give', 'handful', 'good', 'chocolate', 'candy', 'kid', 'great', 'halloween', 'white', 'tradition', 'white_homelands']",0,0.014272296
3767,0.0,"['north_dakota', 'market', 'dollar', 'white_man', 'work', 'hope', 'land', 'job', 'employer', 'hire', 'somali', 'mexican', 'indian', 'friend', 'interview', 'place', 'hire', 'employee', 'white', 'employee', 'hide', 'sleep', 'job', 'company', 'newspaper', 'article', 'sport', 'team', 'kid', 'paper', 'article', 'mexican', 'kid', 'star', 'player', 'mexican', 'white_kid', 'star', 'player', 'mention']",0,0.014272296
1714,0.0,"['sinead', 'interview', 'james', 'lancia', 'author', 'downtown', 'white', 'police']",0,0.014272296
2030,0.0,"['california', 'white', 'america', 'california']",0,0.014272296
2107,0.0,"['die', 'die', 'beast', 'field', 'bird', 'walk', 'crawl', 'fly', 'swim', 'die', 'action', 'preserve', 'life', 'run', 'hide', 'save', 'die', 'positive', 'action', 'life', 'life', 'child', 'world', 'child', 'target', 'genocide', 'multitude', 'earth', 'single', 'child', 'single', 'group', 'single', 'group', 'single', 'child', 'child', 'earth', 'child', 'white_humans', 'genocide', 'murder', 'bear', 'lion', 'cub', 'child', 'tooth', 'nail', 'child', 'flag', 'flag', 'fly', 'flag', 'future', 'stand', 'flag', 'blue', 'field', 'white', 'crayon', 'red', 'paper', 'crayon', 'red', 'paper', 'logo', 'read', 'child', 'white', 'letter', 'red', 'white', 'blue', 'heritage', 'future', 'murder']",0,0.014272296
2437,0.0,"['white', 'parent', 'raise', 'white_children', 'non-whites']",0,0.014272296
3658,0.0,"['buying', 'yellow', 'umc', 'round', 'sell', 'winchester', 'white', 'grain', 'jhp', 'round', 'shot', 'dud', 'buy', 'local', 'guy']",0,0.014272296
3142,0.0,"['white_folks', 'non-whites', 'treat', 'equal', 'jewdicial_system', 'state', 'strike', 'rule', 'white_man', 'life', 'news', 'indian', 'conviction', 'state', 'violent_crimes', 'indian', 'violent_crimes', 'ninth', 'time', 'violent_crime', 'murder', 'young_white', 'man', 'indian', 'fit', 'court', 'indian', 'feel', 'fair', 'decade', 'murder', 'white_man', 'indian', 'life', 'death_sentence', 'treatment', 'criminal', 'attitude', 'criminal']",0,0.012005785500000001
1364,0.0,"['poll', 'brent6:38amdec', 'yankee', 'simple', 'mind', 'southerner', 'white_folks', 'homeland', 'slave', 'south', 'farmer', 'evil', 'farm', 'lincoln', 'evil', 'support', 'evil', 'folk', 'harm']",0,0.012005785500000001
11681,0.0,"['france', 'vehicle', 'eve', 'muslim', 'feel', 'attack', 'white_folks']",0,0.012005785500000001
1189,0.0,"['white_folks', 'setting', 'doom', 'hill']",0,0.012005785500000001
3001,0.0,"['africans_behave', 'african', 'civilized_white', 'human', 'african', 'african', 'white_folks', 'white_nations', 'african']",0,0.012005785500000001
14225,0.0,"['communist_propaganda', 'reality', 'loony_leftist', 'leader', 'idiot', 'loony_leftist', 'race_traitors', 'primitive', 'chinese_communist', 'savage', 'america', 'white_folks', 'asian_savages', 'indian', 'america', 'white_folks', 'work', 'white_folks', 'communist_chinese', 'savage', 'leftists_claim', 'leftist', 'white_folks', 'european', 'europe', 'chinese_communists', 'home', 'communist_china', 'show', 'leftist', 'white_humans', 'america', 'asian_savage', 'set_foot', 'loony_leftists', 'situation', 'circumstance', 'anti-white']",0,0.012005785500000001
11564,0.0,"['jihadis', 'car', 'load', 'ak', 'assault', 'rifle', 'pistol', 'ammo', 'explosive', 'drive', 'mile', 'murder', 'white_folks', 'garland', 'texas', 'give', 'death', 'jihadis', 'people', 'event', 'garland', 'independent', 'school', 'district', 'property', 'gun_free', 'zone', 'gun_free', 'zone', 'stupid', 'stupid', 'place', 'kill', 'people', 'jihadis', 'open', 'fire', 'garland', 'isd', 'security', 'officer', 'wound', 'hospital', 'stand', 'texan', 'arm', 'handgun', 'jihadis', 'full_auto', 'rifle', 'handgun', 'explosive', 'hand', 'grenade', 'shot', 'jihadis', 'dead', 'shoot', 'mercy', 'jihadis', 'gun_free', 'zone', 'kill', 'people', 'texan', 'kill', 'jihadis']",0,0.012005785500000001
10244,0.0,"['african', 'african', 'white_folks', 'danger', 'shot_dead', 'police', 'protection', 'equal', 'african_slaves', 'set', 'free', 'africa', 'equal', 'fellow', 'african', 'white_man', 'civilization']",0,0.012005785500000001
2719,0.0,"['leftist', 'racism', 'time', 'brown', 'racist', 'racist', 'folk', 'group', 'racist', 'white_folks', 'racism', 'white_nations', 'brown', 'white_nations']",0,0.012005785500000001
2402,0.0,"['black_african', 'black_neighborhoods', 'zone', 'non-blacks', 'shout', 'black', 'power', 'attack', 'non-blacks', 'trespass', 'leftist', 'black', 'racism', 'black', 'solidarity', 'white_folks', 'racism']",0,0.012005785500000001
11420,0.0,"['propaganda', 'media_mafia', 'fall', 'place', 'white_folks', 'wake', 'media_mafia', 'die']",0,0.012005785500000001
2665,0.0,"['satan', 'program', 'hitler', 'program', 'devil', 'role', 'model', 'david_duke', 'jews_hate', 'hitler', 'white_folks', 'bad', 'bad', 'good', 'hitler']",0,0.012005785500000001
901,0.0,"['texas', 'texas', 'texan', 'gain', 'texas_independence', 'san', 'jacinto', 'san', 'ja-cento', 'white_folks', 'brown', 'mexican', 'call', 'san', 'he-cento']",0,0.012005785500000001
2445,0.0,"['white_man', 'black', 'brown', 'racist', 'white_folks', 'protection']",0,0.012005785500000001
2451,0.0,"['population', 'earth', 'brown', 'black', 'earth', 'white_folks', 'white_folks', 'white_homeland', 'black', 'fifty', 'nation', 'brown', 'brown_nations', 'citizen', 'white_nation']",0,0.012005785500000001
2455,0.0,"['slave_owner', 'media_mafia', 'condemnation', 'indian', 'slave_owner', 'indian', 'black_slaves', 'jewish_slave', 'dealer', 'whitey', 'small', 'fraction', 'white_folks', 'slave', 'whitey']",0,0.012005785500000001
11879,0.0,"['white_folks', 'equal_rights', 'special', 'special', 'group']",0,0.012005785500000001
12763,0.0,"['rockwell', 'white_folks', 'difference']",0,0.012005785500000001
1235,0.0,"['hillary', 'hate', 'white_folks', 'white_woman', 'white_woman', 'white_folks', 'dress', 'mao', 'stalin', 'stalin', 'genocide', 'white_folks', 'concern', 'life', 'center', 'drug', 'addict', 'health', 'issue', 'drug', 'addiction', 'cough', 'lung', 'damage', 'addict', 'cocaine', 'lung', 'damage', 'smoking', 'crack', 'stroke', 'cocaine', 'high', 'debate', 'cocaine', 'debate', 'work']",0,0.012005785500000001
441,0.0,"['good', 'program', 'play', 'pb', 'zionist', 'takeover', 'red', 'paint', 'people', 'people', 'sea', 'fair', 'deep', 'sea', 'fishing', 'white_folks', 'america']",0,0.012005785500000001
1858,0.0,"['conflict', 'donbas', 'putin', 'citizen', 'donbas', 'ukrainian', 'invader', 'home', 'putin', 'russian', 'citizen', 'donbas', 'support', 'citizen', 'russian', 'special_forces', 'ukrainian', 'donbas', 'glad', 'white_folks', 'kill', 'white_folks', 'territory', 'putin', 'vow', 'pro-russian', 'ukrainian', 'nationalist']",0,0.012005785500000001
414,0.0,"['white_folks', 'america', 'asian_savage', 'set_foot', 'savage', 'call', 'people', 'people', 'matter', 'part', 'asian', 'history', 'asian', 'language', 'case', 'language', 'asian', 'asian', 'group', 'simple', 'sign', 'language', 'savage', 'mean', 'fed', 'murder', 'great', 'number', 'reply']",0,0.012005785500000001
10706,0.0,"['boycott', 'white_folks', 'negro', 'felon', 'league']",0,0.012005785500000001
10793,0.0,"['control', 'tv', 'child', 'cartoon', 'movie', 'public', 'school', 'government', 'hate', 'white_folks', 'white_children', 'simple', 'term', 'anti-white_propaganda', 'child', 'watch', 'teach', 'moment', 'child', 'program', 'pb', 'people', 'broadcasting', 'system', 'white_family', 'anti-white', 'program', 'pb', 'white_families']",0,0.012005785500000001
2067,0.0,"['post', 'music', 'video', 'link', 'rebel', 'son', 'video', 'rock', 'dixie', 'music', 'wn', 'music', 'video', 'western', 'swing', 'country', 'rock', 'western', 'rock', 'space', 'rock', 'punk', 'rock', 'metal', 'bluegrass', 'celtic', 'music', 'song', 'classical', 'music', 'music', 'item', 'interest', 'white_folks', 'thread', 'n', 'music']",0,0.012005785500000001
1856,0.0,"['article', 'state', 'pro-ukrainian', 'faction', 'donbas', 'minority', 'ukraine', 'majority', 'show', 'standard', 'communist', 'tactic', 'arrest', 'rape', 'torture', 'murder', 'land', 'communist', 'crime', 'communist', 'communist', 'goal', 'ukrainian', 'aggression', 'cease', 'communist', 'citizen', 'peace', 'pro-ukrainians', 'leave', 'donbas', 'ukraine', 'ukrainian', 'ukrainian', 'majority', 'ukrainian', 'ukrainian', 'force', 'love', 'point', 'gun', 'ukraine', 'stop', 'kill', 'white_folks']",0,0.012005785500000001
11294,0.0,"['full', 'white_folks', 'young', 'single', 'female', 'wife', 'folk', 'faire']",0,0.012005785500000001
1341,0.0,"['ray', 'day', 'range', 'ray', 'day', 'folk', 'confederate_heroes', 'day', 'day', 'black', 'give', 'day', 'job', 'white_folks', 'good', 'reason', 'day', 'day', 'work', 'baby', 'set', 'ray', 'day', 'school', 'holiday', 'texas', 'ray', 'day', 'gun', 'range', 'ray', 'day', 'smile', 'handshake', 'salute', 'south', 'heroism', 'marksmanship', 'favorite', 'actor', 'john', 'wilks', 'booth', 'america', 'white_nation', 'rifleman', 'rifleman', 'english', 'colony', 'murder', 'existence', 'blood_thirsty', 'asian_savages', 'indian', 'savage', 'rifle', 'accu', 'trigger', 'want', 'feather', 'savage', 'logo', 'rifle', 'beast', 'murder', 'worse', 'relation', 'white_man', 'buy', 'buffalo', 'rifle', 'buffalo', 'rifle', 'buffalo', 'savage', 'rifle', 'list', 'black', 'panther', 'semi_auto', 'stop', 'stampede', 'charge', 'panther', 'texas', 'attack', 'blood_thirsty', 'savage', 'white_man', 'lever_action', 'rifle', 'round', 'ammunition', 'shot_dead', 'savage', 'battle', 'day', 'history', 'repeat', 'bighorn', 'people', 'pile', 'dead', 'savage', 'soldier', 'twenty', 'fifty', 'target', 'rich', 'environment', 'end', 'savage', 'soldier', 'ammunition', 'savage', 'warrior', 'general', 'custer', 'white_man', 'kill', 'drew', 'breath', 'end', 'hand', 'hand', 'combat', 'surrender', 'account', 'day', 'savage', 'charge', 'soldier', 'fast', 'pony', 'ridge', 'shot', 'steal', 'horse', 'wound', 'single', 'wound', 'savage', 'die', 'death', 'toll', 'american', 'hero', 'davy', 'crockett', 'battle', 'day', 'lay', 'sick', 'bed', 'mexican', 'pile', 'dead', 'mexican', 'litter', 'texas', 'soil', 'white_man', 'causality', 'excess', 'mexican', 'savage', 'morning', 'san', 'jacinto', 'mexican', 'arm', 'white_man', 'savage', 'turn', 'tail', 'life', 'mexican', 'border', 'reason', 'firearm', 'shopping', 'list', 'firearm', 'criminal', 'mexican', 'alien', 'life', 'time', 'worth', 'firearm', 'scratch', 'buy', 'gun', 'safe', 'change', 'blood_thirsty', 'primitive_savages', 'arm', 'jewish_communists', 'attack', 'year', 'inevitable', 'savage', 'primitive_savages', 'attack', 'savage', 'change']",0,0.012005785500000001
3170,0.0,"['african', 'primitive', 'attack', 'white_folks', 'wisconson']",0,0.012005785500000001
1262,0.0,"['business', 'white_folks', 'shop', 'generation', 'grandfather', 'house', 'catalogue', 'loss', 'job', 'economy', 'walmart', 'make', 'money', 'place', 'closing', 'store', 'family', 'business', 'business', 'job', 'harm', 'economy', 'place', 'job', 'income', 'business', 'customer', 'money', 'local', 'grocery_store', 'pharmacy', 'sell', 'soap', 'toilet', 'paper', 'diaper', 'disruption', 'folk', 'poor', 'people', 'drive', 'city', 'item', 'gasoline', 'cost', 'item', 'spot', 'economy', 'gun', 'ammo', 'sale']",0,0.012005785500000001
2023,0.0,"['today', 'cell', 'phone', 'time', 'electricity', 'communication', 'number', 'white_child', 'white_child', 'time', 'general', 'emergency', 'white_child', 'hiding', 'unknown', 'location', 'message', 'white_folks', 'leave', 'large_cities', 'liberal_race', 'traitor', 'road', 'impassible', 'white_families', 'move', 'foot', 'food', 'water', 'line', 'electricity', 'charge', 'phone', 'child', 'battery', 'run']",0,0.012005785500000001
6582,0.0,"['western', 'washington', 'university', 'advocate', 'ethnic', 'anti-whites', 'support', 'genocide', 'group', 'bird', 'fish', 'wolf', 'snake', 'turtle', 'whale', 'white_children', 'stop_white', 'genocide']",0,0.008920845
10727,0.0,"['wall', 'stop_white', 'genocide', 'invasion', 'drug', 'run', 'mass_medium', 'waste', 'time', 'stop', 'building', 'wall']",0,0.008920845
3331,0.0,"['stop_white', 'genocide']",0,0.008920845
9467,0.0,"['gmo', 'crop', 'genocide', 'order', 'monsanto', 'humanity', 'jeffrey', 'smith', 'international_corporations', 'evil', 'extent', 'international_corporations', 'evil', 'monsanto', 'jewish_international', 'corporation']",0,0.008920845
10922,0.0,"['world_wide', 'genocide', 'white_children', 'stop_white', 'genocide']",0,0.008920845
384,0.0,"['australian_pygmies', 'australian', 'pygmy', 'pygmy', 'rainforest', 'australia', 'today', 'murder', 'existence', 'ship', 'australia', 'christian', 'missionary', 'pygmy', 'group', 'australian', 'savage', 'race', 'existence', 'race_mixing', 'cause', 'genocide', 'australian_pygmies', 'australian_pygmies', 'rainforest', 'link', 'birdsell-2.jpg', 'paper', 'dna', 'evidence', 'link', 'alian-pygmies/']",0,0.008920845
13569,0.0,"['video', 'arizona', 'shooter', 'film', 'pima', 'community', 'college', 'jewish_communist', 'government', 'free_speech', 'genocide', 'american_citizens', 'system', 'evidence', 'show', 'shoot', 'congress', 'woman', 'event', 'media_mafia', 'event', 'shooter', 'jewish_communist']",0,0.008920845
1382,0.0,"['trump', 'step', 'white_homeland', 'stop_white', 'genocide']",0,0.008920845
5939,0.0,"['australian_pygmies', 'australian', 'pygmy', 'pygmy', 'rainforest', 'australia', 'today', 'murder', 'existence', 'ship', 'australia', 'christian', 'missionary', 'pygmy', 'group', 'australian', 'savage', 'race', 'existence', 'race_mixing', 'cause', 'genocide', 'australian_pygmies', 'australian_pygmies', 'rainforest', 'link', 'birdsell-2.jpg', 'paper', 'dna', 'evidence', 'link', 'alian-pygmies/']",0,0.008920845
4329,0.0,"['nick_griffin', 'tolerence', 'genocide']",0,0.008920845
4848,0.0,"['young', 'swedish', 'woman', 'attack', 'mother', 'attack', 'approach', 'male', 'dark', 'skin', 'foreigner', 'swedish', 'answer', 'attack', 'shout', 'land', 'loony_leftists', 'europe', 'stop_white', 'genocide', 'kvinna', 'ner', 'f', 'r', 'att', 'hon', 'var', 'svenska', 'fria', 'tider']",0,0.008920845
11288,0.0,"['flood', 'homeland', 'primitive_savages', 'turn', 'clock', 'constant', 'state', 'alert', 'moment', 'blood_thirsty', 'savage', 'today', 'program', 'white_children', 'word', 'show', 'aspect', 'genocide', 'program', 'people', 'people', 'wake', 'situation', 'desperate', 'put', 'government', 'white_children']",0,0.008920845
1838,0.0,"['genocide', 'people', 'medium', 'book', 'germany', 'evil']",0,0.008920845
3631,0.0,"['white_man', 'open', 'mouth', 'state', 'white_man', 'world_wide', 'genocide', 'white_children', 'genocide', 'white_children', 'place', 'white_children', 'call', 'opening', 'mouth', 'genocide', 'support', 'genocide', 'genocide', 'call', 'guilt']",0,0.008920845
13900,0.0,"['barrett', 'm107', 'semi_auto', 'sniper_rifle', 'african', 'military']",0,0.008594975999999999
1473,0.0,"['african_murders', 'hard_working', 'white_man', 'medium', 'protester', 'tax_dollars', 'entire_life', 'murder', 'hard_working', 'white_man', 'work', 'job', 'christmas', 'money', 'kid', 'african', 'living', 'white_man', 'tax_dollars']",0,0.008594975999999999
502,0.0,"['african', 'child', 'school', 'bus', 'adult', 'african', 'african', 'school', 'child', 'school', 'bus', 'cold', 'february', 'morning', 'gun', 'point', 'africa', 'driver', 'vehicle', 'african', 'child', 'shoe', 'hoodie', 'child', 'walk', 'home', 'cold', 'african', 'detroit', 'winter', 'detroit', 'boy', 'walk', 'home', 'detroit', 'detroitnews.com']",0,0.008594975999999999
11003,0.0,"['find', 'african', 'infection', 'rate', 'test']",0,0.008594975999999999
391,0.0,"['mess', 'wrong', 'african', 'graphic', 'result']",0,0.008594975999999999
2024,0.0,"['police_department', 'baltimore', 'tactic', 'ghetto', 'patrol', 'dmz', 'arrest', 'african', 'find']",0,0.008594975999999999
514,0.0,"['african', 'support', 'obama']",0,0.008594975999999999
2093,0.0,"['snowfall', 'cover', 'body', 'cold', 'miss', 'african', 'mamma']",0,0.008594975999999999
2098,0.0,"['african', 'id', 'lawyer', 'arrest', 'record', 'carry', 'want', 'poster', 'mug', 'shot', 'crime', 'victim']",0,0.008594975999999999
499,0.0,"['loony_leftist', 'african', 'nyc', 'show', 'solidarity', 'primitive', 'head', 'split', 'open']",0,0.008594975999999999
11012,0.0,"['african', 'africa', 'home', 'african', 'home', 'african', 'home']",0,0.008594975999999999
2798,0.0,"['africans_attempt', 'armed_robbery', 'hospital', 'feel', 'african']",0,0.008594975999999999
4526,0.0,"['african', 'civilization', 'stop', 'african']",0,0.008594975999999999
2583,0.0,"['african', 'criminal_alien', 'invader', 'african', 'african', 'nazi', 'loony_leftist', 'propaganda']",0,0.008594975999999999
4718,0.0,"['african_female', 'help', 'white_woman', 'white_woman', 'black_hood', 'african', 'start', 'beating', 'white_woman', 'teach', 'kind', 'black_hood', 'african', 'mulatto', 'obama', 'beat', 'black', 'black_hood', 'african', 'white_girl', 'favor', 'kill', 'sight', 'trespass', 'black_hood', 'loony_leftists', 'travel', 'black', 'hood', 'education', 'real_world', 'politics']",0,0.008594975999999999
5001,0.0,"['african', 'car', 'fight', 'case', 'hit', 'run', 'hit', 'limp', 'police', 'lookout', 'thug', 'limp']",0,0.008594975999999999
4969,0.0,"['african', 'charity', 'fraud', 'african', 'shyster', 'cousin']",0,0.008594975999999999
4964,0.0,"['african', 'privilege', 'black', 'criminal', 'arrest']",0,0.008594975999999999
3193,0.0,"['leftist', 'coma', 'move', 'birthday', 'african', 'cut', 'left', 'dead', 'remains', 'coma', 'da', 'good_boy', 'dat', 'miami', 'woman', 'left', 'coma', 'male', 'roommate', 'craigslist', 'daily_mail']",0,0.008594975999999999
4794,0.0,"['african', 'high_paying', 'tech', 'job', 'rap', 'hospital', 'patient', 'female', 'african', 'think', 'solution', 'place', 'guard', 'patient', 'guess', 'place', 'african', 'guard', 'guard', 'guard']",0,0.008594975999999999
4764,0.0,"['african_home', 'invader', 'police', 'shot', 'chest', 'drove', 'mile', 'walk', 'gas_station', 'employee', 'call', 'police', 'arrest', 'african', 'catch', 'release', 'program', 'free', 'medical', 'care']",0,0.008594975999999999
4759,0.0,"['act', 'hate_crime', 'african', 'beat', 'white_man', 'beat', 'wife', 'drunk', 'high', 'savage_african', 'beast', 'ngor', 'peter', 'makuey']",0,0.008594975999999999
3195,0.0,"['police_officer', 'call', 'hero', 'shoot', 'african', 'dead', 'jewish_mass', 'medium']",0,0.008594975999999999
3246,0.0,"['african', 'mass', 'shooter', 'african_shot', 'white_man', 'walmart', 'shoot', 'interrupt', 'police', 'charge', 'year', 'month', 'da', 'lack', 'ethnic', 'intimidation', 'charge', 'walmart', 'shooter']",0,0.008594975999999999
5044,0.0,"['traffic', 'officer', 'stray', 'african', 'ticket']",0,0.008594975999999999
4697,0.0,"['africans_attempt', 'armed_robbery', 'hospital', 'feel', 'african']",0,0.008594975999999999
12518,0.0,"['african', 'mestizo', 'work', 'worth', 'fifteen', 'dollar', 'worth', 'ten', 'proof', 'africa', 'mestizo', 'population']",0,0.008594975999999999
3371,0.0,"['african', 'area', 'somali', 'lutheran', 'social', 'service', 'tax_dollars', 'fly', 'somalia', 'taunt', 'beta', 'male', 'area', 'law', 'touch', 'taunt', 'step', 'walk', 'direction']",0,0.008594975999999999
4551,0.0,"['northern', 'nordic', 'settle', 'settle', 'nordic', 'nordic', 'rise', 'force', 'nordic', 'today', 'muslim', 'northern', 'nordic', 'mange', 'look', 'tragedy', 'teach', 'north_dakota', 'settle', 'scandinavian', 'race_mixing', 'young', 'blond', 'girl', 'mating', 'african', 'indian', 'asian', 'mexican', 'scandinavian', 'see', 'love', 'grandchild', 'sooner']",0,0.008594975999999999
4434,0.0,"['african', 'homeland', 'african']",0,0.008594975999999999
3691,0.0,"['time', 'grand', 'mother', 'grand', 'father', 'die', 'room', 'african', 'rape', 'grand', 'child', 'sweden', 'diversity']",0,0.008594975999999999
1246,0.0,"['toy', 'gun', 'atf', 'special', 'agent', 'effort', 'convert', 'toy', 'firearm', 'effort', 'convert', 'federal', 'african', 'human']",0,0.008594975999999999
1261,0.0,"['african', 'living', 'wage', 'fast', 'food', 'job', 'work', 'white_teenagers', 'living', 'wage', 'pay', 'job', 'experience', 'job', 'fast', 'food', 'buy', 'good', 'health', 'economy', 'tax', 'structure', 'screw', 'mess', 'invasion']",0,0.008594975999999999
5037,0.0,"['african', 'life']",0,0.008594975999999999
5033,0.0,"['african', 'male']",0,0.008594975999999999
5066,0.0,"['judge', 'outlaw', 'profile', 'home_invasion', 'arm', 'african', 'backstabbing', 'anti-white', 'liberal', 'husband', 'victim', 'innocent_white', 'folk', 'special', 'treatment', 'federal_judge', 'marshal', 'call', 'arm', 'african', 'call', 'assist', 'citizen', 'home_invasion', 'glad', 'liberal', 'mercy', 'savage', 'set', 'time']",0,0.008594975999999999
5176,0.0,"['hunt', 'african']",0,0.008594975999999999
2585,0.0,"['bank', 'bag', 'beating', 'arrest', 'attacker', 'driver', 'brown', 'gas_station', 'clerk', 'beat', 'african', 'scar', 'baby', 'fight', 'gas_station', 'clerk', 'mma', 'training', 'surprise', 'thief', 'home']",0,0.008594975999999999
8376,0.0,"['african', 'grave', 'plot', 'typical_african', 'behavior', 'behavior']",0,0.008594975999999999
2611,0.0,"['mexican', 'invite', 'african', 'party', 'mexican']",0,0.008594975999999999
8198,0.0,"['african', 'luvs', 'dem', 'crismus', 'prezents']",0,0.008594975999999999
845,0.0,"['decade', 'texas', 'southwestern', 'medical', 'center', 'staff', 'african', 'african', 'white_human', 'today', 'day', 'ut', 'prof', 'stay', 'open', 'holiday', 'day', 'ut', 'run', 'patient', 'satisfaction', 'day', 'african', 'day', 'human', 'mlk', 'day', 'mlk', 'day', 'fell', 'cinco', 'de', 'mayo', 'primitive_savages', 'murder', 'street', 'white_man', 'day', 'work']",0,0.008594975999999999
1121,0.0,"['african', 'reality', 'good', 'catch', 'lie', 'dead', 'gangbanger', 'blood', 'member', 'facebook', 'page', 'police', 'shot', 'gangbanger']",0,0.008594975999999999
2795,0.0,"['african', 'burn', 'car', 'diversity', 'medium', 'blackout', 'muslim', 'immigrant', 'torch', 'car']",0,0.008594975999999999
3835,0.0,"['safe', 'white_man', 'african', 'hood', 'safe', 'young_white', 'woman', 'african', 'crime', 'violent_crime', 'chance', 'home', 'worse', 'home', 'vehicle', 'vehicle', 'home', 'window', 'attack', 'rape', 'gang', 'rape', 'torture', 'murder', 'black_hood', 'safe', 'potential', 'victim', 'hood', 'luck']",0,0.008594975999999999
2833,0.0,"['african', 'shoot', 'hour']",0,0.008594975999999999
2928,0.0,"['african', 'pull', 'ak', 'wing']",0,0.008594975999999999
2970,0.0,"['african', 'education']",0,0.008594975999999999
2989,0.0,"['african', 'rape', 'funny', 'selfie', 'rape', 'progress', 'rape', 'victim', 'gun', 'head', 'african', 'selfie', 'think', 'funny', 'ia-twitter.jpg']",0,0.008594975999999999
3006,0.0,"['hunt', 'african']",0,0.008594975999999999
5198,0.0,"['race_mixer', 'dead', 'victim', 'domestic', 'violence', 'african', 'home', 'neighbor', 'house', 'drug', 'african', 'die', 'beating', 'house', 'african', 'shot', 'dead', 'childhood', 'abomination', 'child', 'race_mixers', 'dawn', 'giffa', 'kingston', 'ont', 'dead', 'shoot', 'toronto', 'cbc', 'news', 'fort', 'hood', 'soldier', 'kill', 'killeen', 'crime', 'mobile', 'adv']",0,0.008594975999999999
5196,0.0,"['african', 'friend', 'mom']",0,0.008594975999999999
5182,0.0,"['african', 'arrest']",0,0.008594975999999999
1355,0.0,"['yankee', 'liberal_race', 'traitor', 'aol', 'poll', 'lincoln', 'free', 'slave', 'general', 'robert_e', 'lee', 'free', 'slave', 'general', 'forrest', 'lincoln', 'free', 'slave', 'chosen', 'lincoln', 'capture', 'slave', 'concentration', 'camp', 'camp', 'island', 'jamestown', 'colony', 'capture', 'slave', 'riot', 'bet', 'black', 'rioting', 'burn', 'original', 'building', 'james', 'town', 'colony', 'stand', 'time', 'pipe', 'dream', 'great', 'emancipator', 'smoke', 'james', 'town', 'colony']",0,0.007787272
10995,0.0,"['mafia', 'system', 'word', 'propaganda', 'impression', 'troop', 'mafia', 'inch', 'america', 'property', 'mafia', 'living_creature', 'plant', 'structure', 'property', 'mafia', 'grant', 'freedom', 'individual', 'impossible', 'mafia', 'free', 'slave', 'property', 'slave', 'mafia', 'citizen', 'property', 'mafia', 'demand', 'property', 'fit', 'mafia', 'change', 'fight', 'win', 'freedom', 'defeat', 'victory']",0,0.007787272
3753,0.0,"['green', 'communist', 'protest', 'pollution', 'animal', 'cruelty', 'meat', 'chinese_communists', 'prisoner', 'slave', 'labor', 'communist_chinese', 'africa']",0,0.007787272
11210,0.0,"['gun_show', 'time', 'high_capacity', 'carry', 'piece', 'magic_niggro', 'trick', 'video', 'criminal', 'niggros', 'armed_citizens', 'communist', 'idiot', 'liberal_race', 'traitor', 'good', 'child', 'target', 'practice', 'death', 'row', 'location', 'liberal_race', 'traitor', 'justice', 'smack', 'da', 'hood']",0,0.0071464046
13613,0.0,"['loony_leftists', 'demand', 'aid', 'haiti', 'aid', 'ireland', 'irish', 'child', 'video']",0,0.0071464046
13617,0.0,"['water', 'copy', 'media_mafia', 'dvd', 'sale', 'series', 'keepvid', 'save', 'video', 'youtube', 'dailymotion', 'metacafe', 'ifilm']",0,0.0071464046
13205,0.0,"['forgery', 'train', 'wreck', 'photo', 'extra', 'smoke', 'body', 'paint', 'photo', 'video', 'show', 'photo']",0,0.0071464046
11292,0.0,"['video', 'interest', 'texan', 'today', 'post4711647']",0,0.0071464046
12245,0.0,"['video', 'lube', 'pad', 'post5773887', 'demo', 'step', 'lube', 'case', 'lube', 'pad', 'line', 'case', 'spray', 'lube', 'regular', 'steel', 'dy']",0,0.0071464046
4510,0.0,"['h', 'rap', 'video', 'h', 'black', 'buy', 'firearm', 'steal']",0,0.0071464046
10895,0.0,"['video', 'block', 'jewish_controlled', 'country']",0,0.0071464046
2233,0.0,"['video', 'post5586024']",0,0.0071464046
4594,0.0,"['obama', 'disapproval', 'rate', 'current', 'newsmax', 'poll', 'poll', 'support', 'president', 'result', 'newsmax.com', 'break', 'news', 'globe', 'u.s', 'news', 'politics', 'world', 'health', 'finance', 'video', 'science', 'technology', 'news', 'stream']",0,0.0071464046
4574,0.0,"['product', 'test', 'great', 'range', 'magazine', 'round', 'left', 'time', 'tweak', 'catch', 'mag', 'fire', 'test', 'catch', 'hold', 'close', 'mag', 'screwdriver', 'move', 'computer', 'animation', 'show', 'mag', 'video', 'show', 'normal', 'water', 'test', 'sand', 'test', 'snow', 'test', 'mag', 'work', 'stripper_clips', 'hp', 'category=5']",0,0.0071464046
4101,0.0,"['video', 'bob_munden', 'ordinary', 'human', 'hit', 'target', 'bond', 'derringer', 'shot', 'shell', 'snake', 'colt', 'stopping_power', 'shotshell']",0,0.0071464046
3821,0.0,"['looter', 'video']",0,0.0071464046
3794,0.0,"['reading', 'news_item', 'violence', 'great', 'comment', 'video', 'interpol', 'male', 'muslim', 'military', 'age', 'army', 'european', 'nation', 'man', 'army', 'arm', 'european', 'kill', 'european', 'win', 'european', 'strategy', 'scream', 'run', 'hide', 'cry', 'fate', 'strategy', 'run', 'shoot', 'stab', 'stab', 'blow', 'long_term', 'win', 'strategy', 'solution', 'europe', 'ban', 'knife', 'motor', 'vehicle', 'police', 'military', 'government', 'motor', 'vehicle', 'truck', 'knife', 'ax', 'firearm', 'explosive', 'european', 'feel', 'safe', 'know']",0,0.0071464046
3785,0.0,"['video', 'professor', 'study', 'communist', 'manifesto', 'state', 'ten', 'point', 'communist', 'takeover', 'victoria', 'jackson', 'obama', 'communist', 'manifesto']",0,0.0071464046
3274,0.0,"['voice', 'tyr', 'god', 'war', 'tyr', 'god', 'justice', 'call', 'god', 'war', 'side', 'tyr', 'judge', 'battle', 'video', 'post7418832']",0,0.0071464046
2577,0.0,"['post', 'wn', 'music', 'video', 'thread', 'signature']",0,0.0071464046
2161,0.0,"['video', 'put', 'hillary', 'jail']",0,0.0071464046
5502,0.0,"['isi', 'propaganda', 'video', 'play', 'advertisement', 'youtube', 'program', 'censor', 'isi', 'website', 'recruit', 'train', 'soldier', 'israeli_government', 'government', 'isi', 'terrorist', 'group', 'people', 'isi', 'threat', 'israel', 'washington_dc', 'fight', 'evil', 'source', 'israeli', 'secret', 'intelligence', 'service']",0,0.0071464046
2151,0.0,"['video', 'prototype', 'm-16', 'ar-10', 'caliber', 'page=280']",0,0.0071464046
1997,0.0,"['watch', 'video', 'javascriptpenpopup_3c7d', 'manhj0knwqyqm4', 'guy', 'absolute', 'master', 'revolver', 'plain', 'english']",0,0.0071464046
1944,0.0,"['question', 'afghan', 'shoot', 'fly', 'modern', 'jet', 'answer', 'video', 'post8160737']",0,0.0071464046
1470,0.0,"['looter', 'video']",0,0.0071464046
1340,0.0,"['youtube', 'glitch', 'video', 'message', 'click', 'blue', 'text', 'video', 'image', 'open', 'window', 'play', 'video']",0,0.0071464046
1308,0.0,"['thomas', 'dilorenzo', 'abraham', 'lincoln', 'video', 'page=388']",0,0.0071464046
1233,0.0,"['post', 'video', 'basic', 'rifle', 'today', 'post9636165']",0,0.0071464046
1135,0.0,"['build', 'video', 'strip', 'page=333']",0,0.0071464046
4746,0.0,"['mestizo', 'girl', 'girl', 'rescue', 'harm', 'mestizo', 'arrest', 'brave', 'rescue', 'tell', 'stranger', 'police', 'arrest', 'video', 'theblaze.com']",0,0.0071464046
14721,0.0,"['bank', 'laundering', 'drug', 'money', 'point', 'video', 'bank', 'gamble', 'investment', 'bank', 'win', 'profit', 'tax_dollars', 'pay', 'loss', 'politician', 'banker', 'bailouts', 'sentence']",0,0.0071464046
6864,0.0,"['nasa', 'release', 'color', 'photo', 'moon', 'china', 'release', 'color', 'photo', 'video', 'moon', 'nasa', 'release', 'chinese', 'image', 'show', 'orange', 'color', 'blue', 'green', 'nasa', 'image', 'green', 'nasa', 'release', 'image', 'color', 'remove', 'nasa', 'image', 'color', 'photo', 'release', 'color', 'green', 'cheese', 'nasa', 'straight', 'answer', 'small', 'click', 'man', 'nasa', 'release', 'photo', 'apollo', 'program', 'shot', 'mission']",0,0.0071464046
6089,0.0,"['youtube', 'average', 'hour', 'video', 'minute']",0,0.0071464046
9307,0.0,"['high', 'resolution', 'video', 'image']",0,0.0071464046
10071,0.0,"['darpa', 'advance', 'mind', 'control', 'ai', 'ape', 'kill', 'girl', 'race_mixing', 'ape', 'human', 'mind', 'reading', 'mind', 'control', 'technology', 'thought', 'control', 'video', 'game', 'fighter', 'jet', 'telepathy', 'technology', 'project', 'vision', 'technology', 'secret', 'underground', 'base', 'microsoft', 'ai', 'twitter', 'response', 'executive', 'summary', 'no-touch', 'torture', 'report', 'robert', 'duncan', 'a.b', 's.m', 'm.b.a', 'ph.d', 'dr', 'robert', 'p', 'duncan', 'a.b', 's.m', 'm.b.a', 'ph.d', 'government', 'warfare', 'surveillance', 'system', 'architect', 'author', 'project', 'soul', 'catcher', 'matrix', 'demon']",0,0.0071464046
6736,0.0,"['video', 'still', 'ukraine', 'english', 'subtitle', 'form', 'video', 'shoot', 'government', 'agent', 'shoot', 'shoot']",0,0.0071464046
9962,0.0,"['amp', 'candy', 'sponsor', 'lindsey_stirling', 'production', 'video', 'lindsey_stirling', 'prism']",0,0.0071464046
6055,0.0,"['kill', 'shot', 'miss', 'earth', 'yesterday', 'cme', 'technology', 'miss', 'hit', 'earth', 'face', 'side', 'cme', 'power', 'grid', 'damage', 'estimate', 'month', 'power', 'area', 'year', 'power', 'grid', 'year', 'power', 'grid', 'start', 'finish', 'life', 'job', 'electricity', 'million', 'job', 'income', 'security', 'alarm', 'traffic', 'light', 'electric', 'gas', 'pump', 'gas', 'station', 'electric', 'heating', 'refrigerator', 'electric', 'water', 'heater', 'electric', 'light', 'tv', 'radio', 'video', 'game', 'internet']",0,0.0071464046
6015,0.0,"['interest', 'video', 'rt', 'ukrainian', 'america', 'mass_medium', 'lie', 'ukraine', 'crimea', 'russian', 'cry', 'joy', 'left', 'ukrainian', 'government', 'russian', 'passport', 'russian', 'healthcare', 'ukrainian', 'cemetery', 'crimea', 'hitler', 'ww_ii', 'diversion', 'give', 'communist', 'red', 'army', 'breathing', 'space', 'need', 'murder', 'german', 'soldier', 'camp', 'open', 'summer', 'uniform', 'russian', 'winter', 'crimea', 'land', 'hero', 'patriot', 'attack', 'ukrainian', 'khrushchev', 'communist', 'give', 'crimea', 'ukraine', 'gift', 'wow', 'guy', 'soviet_union', 'fell', 'russian', 'secession', 'ukraine', 'gift', 'russian', 'people', 'ukrainian', 'government', 'people', 'spirit', 'history', 'heritage', 'language', 'culture', 'crimea', 'russian', 'russian', 'ukrainian', 'tyranny', 'good_luck', 'crimea', 'ukrainian']",0,0.0071464046
7337,0.0,"['ramzpaul', 'stand', 'free_speech', 'loony_leftists', 'stupid', 'belief']",0,0.0069607454
9505,0.0,"['communist_china', 'secret', 'loony_leftists', 'pollution', 'small', 'business', 'amount', 'toxin', 'communist', 'country', 'world', 'communist_chinese', 'toxin', 'release', 'environment', 'concern', 'loony_leftists', 'environmentalist', 'watermelon', 'green', 'red']",0,0.0069607454
9408,0.0,"['mass_murder', 'loony_leftists', 'give', 'give']",0,0.0069607454
14510,0.0,"['dog', 'bark', 'stranger', 'true', 'loony_leftists', 'racist', 'dog', 'bark', 'stranger', 'dog', 'racist', 'dog', 'dog', 'racist', 'propaganda', 'dog', 'train', 'racist', 'leftist', 'idiot']",0,0.0069607454
10840,0.0,"['white_house', 'press', 'secretary', 'jay', 'carney', 'true', 'believer', 'kenyan', 'communist', 'children_live', 'excess', 'america', 'jay', 'carney', 'soviet', 'era', 'communist_propaganda', 'poster', 'frame', 'hang', 'home', 'true', 'believer', 'fan', 'international_jewish', 'communism', 'white_children', 'loony_leftists', 'reality', 'propaganda', 'spite', 'fact']",0,0.0069607454
7646,0.0,"['loony_leftists', 'propaganda', 'journalist', 'politician', 'post', 'lawn', 'sign', 'home', 'gun_free', 'youtube']",0,0.0069607454
5149,0.0,"['indonesia', 'fishing', 'indonesian', 'fish', 'indonesia', 'navy', 'ship', 'vietnam', 'philippine', 'thailand', 'great', 'communist_china', 'loony_leftists', 'white_man', 'world', 'indonesia', 'loony_leftists', 'loony']",0,0.0069607454
9006,0.0,"['website', 'hour', 'loony_leftists', 'visit', 'coordinate', 'attack', 'leftist', 'lean']",0,0.0069607454
14394,0.0,"['jewish_communist', 'schumer', 'border', 'security', 'smoke', 'screen', 'buy', 'food', 'ammo']",0,0.0065154913
10805,0.0,"['month', 'supply', 'food', 'good', 'time', 'farmer', 'month', 'worth', 'food', 'hand', 'case', 'can', 'good', 'time', 'date', 'stamp']",0,0.0065154913
14171,0.0,"['home', 'garden', 'harm', 'giant', 'food', 'corporation']",0,0.0065154913
10221,0.0,"['produce', 'report', 'insurrection', 'buying', 'survival', 'food', 'ammo', 'fill', 'survival', 'bunker', 'whistleblower', 'time', 'table', 'safe', 'bunker', 'hell', 'hurt']",0,0.0065154913
303,0.0,"['food', 'bird', 'shot', 'bird', 'bird', 'shot', 'good', 'great', 'bird']",0,0.0065154913
297,0.0,"['cleaning', 'optic', 'chemical', 'damage', 'coat', 'lens', 'doubt', 'cover', 'optic', 'chemical', 'exposure', 'plastic', 'food', 'wrap']",0,0.0065154913
14469,0.0,"['food', 'secret']",0,0.0065154913
13976,0.0,"['s510', 'law', 'attempt', 'food', 'supply']",0,0.0065154913
13949,0.0,"['circle', 'closing', 'tsa', 's510', 'arrest', 'press', 'food', 'freedom']",0,0.0065154913
11782,0.0,"['weird', 'human', 'dietary', 'body', 'food', 'food', 'coconut', 'oil', 'salmon', 'palm', 'date', 'apple', 'seed', 'buffalo', 'beef', 'chicken', 'chocolate', 'walnut', 'corn', 'potato', 'tomato', 'food', 'food', 'taste', 'black_pepper', 'ginger', 'cinnamon', 'turmeric', 'vanilla', 'food', 'planet']",0,0.0065154913
1431,0.0,"['thousand', 'homeless', 'earthquake', 'wave', 'thousand', 'radiation', 'contamination', 'union', 'move', 'safe', 'housing', 'turn', 'farm', 'ranch', 'mean', 'food', 'water', 'air', 'escape', 'mess', 'nuclear_power', 'plant', 'japan', 'radiation', 'spread', 'house', 'food', 'baby', 'formula', 'youtube']",0,0.0065154913
9854,0.0,"['afghan', 'citizen', 'support', 'taliban', 'attack', 'military', 'invader', 'homeland', 'natural', 'instinct', 'invading_army', 'dixie', 'rpg', 'tank', 'jet', 'fighter', 'helicopter', 'stop', 'poison', 'water', 'poison', 'food', 'road', 'set', 'forest', 'fire', 'camp', 'break', 'dam', 'flood', 'camp', 'set', 'booby', 'trap', 'devise']",0,0.0065154913
5739,0.0,"['king', 'crimson', 'cat', 'food']",0,0.0065154913
8695,0.0,"['drought', 'wholesale', 'corn', 'corn', 'bushel', 'wheat', 'corn', 'corn', 'store', 'corn', 'shipment', 'communist_china', 'communist', 'north_korea', 'food', 'inflation', 'fear', 'crop', 'price', 'surge', 'telegraph']",0,0.0065154913
7913,0.0,"['food', 'stamp', 'criminal_alien', 'invader', 'territory', 'exclusive', 'food', 'stamp', 'balance', 'youtube']",0,0.0065154913
3792,0.0,"['food', 'waste', 'toss', 'reason', 'harvest', 'weather', 'field', 'wet', 'farm', 'equipment', 'distribution', 'set', 'shelf', 'high', 'price', 'store', 'purchase', 'set', 'consumer', 'left', 'meal', 'toss', 'time', 'famine', 'food', 'waste']",0,0.0065154913
12356,0.0,"['fast', 'food', 'week', 'meal', 'fast', 'food', 'cost', 'food', 'cook', 'taste', 'fast', 'food']",0,0.0065154913
11526,0.0,"['white_nations', 'farmland', 'growing_season', 'africa', 'year', 'growing_season', 'winter', 'farmland', 'climate', 'black_african', 'savage', 'white_man', 'condition', 'export', 'rice', 'asia', 'export', 'food', 'communist', 'utopia', 'china', 'north_korea', 'feed', 'savage']",0,0.0065154913
4240,0.0,"['ammo', 'vacuum', 'seal', 'food', 'processor']",0,0.0065154913
5248,0.0,"['human', 'human', 'food', 'featur', 'v=d5wfmnnr3ak']",0,0.0065154913
4268,0.0,"['sentence', 'release', 'advantage', 'job', 'government', 'pay', 'food', 'stamp', 'obama', 'phone', 'free', 'rent', 'token', 'rent', 'house', 'time', 'high', 'buy', 'food', 'stamp', 'steal', 'dollar', 'property', 'sell', 'dollar', 'target', 'family', 'friend', 'neighbor', 'time', 'probation', 'time']",0,0.0065154913
