,text,doc_id
4055,"I don't watch much TV, but here are a few good shows: Shooting USA Cowboys (Cowboy single action shooting sports) Impossible Shots American Rifleman Guns and Ammo Shooting Gallery Long Range Pursuit (Thousand yard hunting with 7 mm Magnum rifles)",4055
11877,"There are some on the Outdoor Channel that I try to not miss: Guns &amp; Ammo (classic weapons, shooting sports, and new product reviews) American Rifleman (by the NRA, history, weapons, new products) Cowboys (six shooters, rifles, shotguns, Cowboy Action Shooting, and all things Western) Shooting Gallery (self defense techniques and the shooting sports) Self Defense TV (shooting instruction and other defensive and ballistic info) What the Dogs Taught Me (bird dogs and bird hunts) On the History Channel there is: Wild West Tech (Real historical events and persons, with some Jewish Communist anti-White propaganda that never gets recorded at my house;  it is up to us to edit the truth from the slander.)",11877
11586,"I have never used one, but I have heard that folks are putting them on dangerous game rifles so that a hunter can acquire the animal faster if it is charging. Speed kills!",11586
9037,Bill Jordan part 1 American Rifleman Television | magazine | nra | outdoor channel | rifle | rifleman | gun | Outdoor Channel part 2 American Rifleman Television | magazine | nra | outdoor channel | rifle | rifleman | gun | Outdoor Channel,9037
12399,"Why do Nazis hate Alex Jones? Because Alex Jones refuses to condemn all Jews as guilty of the many horrible crimes that many Jews have committed. Who else refused to condemn all Jews as guilty? Hitler! Jewish Leaders claim that ""Hitler rounded up all of the Jews"" which is a typical Jewish lie. Jews were not rounded up for being Jews, only Jews who committed crimes were arrested, and many more Germans were arrested than Jews.  Many Jews were not arrested, and Hitler allowed thousands of Jews to remain in sensitive positions in the military and the German military industrial complex. It was Hitler who issued the order to ""keep the Jewish prisoners alive at all costs"" which caused the deaths of German Citizens.  Food and medical supplies were in too short a supply for everyone to live, any of those supplies that were diverted to Jewish prisoners caused the deaths of German Civilians.  General Patton said ""he should have given those prisoners a bullet in the head"" because it was insane to order soldiers to keep prisoners alive when the resources to do so did not exist. Alex Jones has condemned many Jews as guilty of the crimes they have committed, just like Hitler did, but both of them refused to say that all Jews are guilty. I guess Nazis should hate Hitler too.",12399
5,"If a shooter is trying to compensate for the recoil as the cartridge fires, he will often shoot low.",5
9309,"Fire Attorney General Eric Holder! Holder is as CRIMINAL he needs to be ARRESTED, IMPRISIONED, and legally EXECUTED for his crimes!",9309
12944,More Fire Bombs in Greece,12944
3088,"2 Innocent White Folks murdered by Muslim religious leader He was a typical Muslim, admitted rapist who was out on bail for a murder he had committed.  He had also been arrested for harassing the families of Australian soldiers who had died in Afghanistan. He walked into a chocolate shop with an illegal firearm and held about 30 individuals hostage.  He released a few Asians, but killed two White Folks. Hero, unarmed but attempted to disarm Muslim madman. Helpless hostage murdered by Muslim holy man. Murderous Muslim from the ""religion of peace"". Sydney cafe manager shot dead as he grabbed terrorist's gun to protect hostages | Daily Mail Online",3088
12839,"Mexican Gun Purchaser Arrested in Death of ICE Agent Arrested were the Mexican (or whatever type of Mestizo it might be) his brother, and an African who lived next door.",12839
832,"North Texas Gun Club  Gun show this weekend Irving Convention Center Irving, Texas",832
4633,What sort of a brain dead idiot could imagine that gun laws could end violence? Most gun crime in America is committed by Africans will illegal guns. Most of the rest of the gun crime is committed by illegal Mexican invaders with illegal guns. Violent criminals don't obey laws.,4633
362,"Race mixer supplied guns to her African felon That is a felony, and so is accessory to murder, but that can draw a death penalty. At least 3 dead and 14 wounded. The African was permanently reformed by a police officer when its crime spree was brought to a final conclusion.",362
9340,"Holder Claims he never Heard of Operation Gun Runner The Deputy Attorney General, David Ogden, says that Obama and Holder both knew about that illegal criminal activity, which they ordered to be carried out. According to his statements:  BATFE is sending an additional 100 Agents to carry out Operation Gun Runner. Holder and Obama appear to be guilty of MURDER and TREASON; either one could carry a DEATH PENALTY if found GUILTY in a Court of Law.",9340
5022,"Race mixer supplied guns to her African felon That is a felony, and so is accessory to murder, but that can draw a death penalty. At least 3 dead and 14 wounded. The African was permanently reformed by a police officer when its crime spree was brought to a final conclusion.",5022
5185,African gun grabber arrested for gun crime Africans don't intend to obey any of the White Man's Laws anyway.,5185
9060,"Sheriff Paul Babeu, Pinal County, Arizona    Fast and Furious Guns are in the Hand of criminals here in America! The Kenyan Communist is an enemy of America, and so is the entire Federal Mafia!",9060
8265,Gun Gripes Episode 51: Children and Guns,8265
6478,Operation Choke Point Another Federal Program to stop legal firearms ownership!,6478
12502,"The typical black that joins the NRA wants to own a legal firearm for the same reason that Whites need to own firearms, to arm themselves against the criminal violent Niggros!",12502
1989,"Registered Firearms in Canada that were Stolen and REGISTERED to a NEW OWNER, not returned to the Rightful Owner!",1989
9048,BOB MUNDEN Outrageous Shooting,9048
908,Waco Biker Shooting: Matt Clendennen Talks About His Arrest,908
2521,"DPMS is hosting a ""Zombie Shoot"" Here is their evaluation of defensive tools for survival of Zombie attacks: http://www.dpmsinc.com/outbreak/pages/weapons.html",2521
2685,Hickok45 - Knob Creek Machine Gun Shoot,2685
2580,"They are shooting them in the streets. Stabbing them in the prisons. Beating them to death at the bus stop. And I have heard them bragging about how their cousin, the one who works at the restaurant, always puts a little rat poison in their food.  (At Mexican restaurants they call it monkey poison.) So how many blacks have the browns murdered so far?",2580
7257,Trap Shooting &amp; Sporting Clays,7257
2861,"87 year old White Man shot to death by Africans An 87 year old man was in the parking lot leaving a grocery store when three savage Africans confronted him, one of the savages shot him to death, then they robbed his dead body, and went on a shopping spree. The three beasts were captured alive, but the one who did the shooting might be put down as a result of its actions, the other two will likely be caged and released to resume criminal activities. 87 year old killed in racial hate crime in Meridian, MS",2861
5016,"White Police Woman first day on the job shot dead by African Another murderous active duty federal African. Slain Virginia officer lauded for bravery, intelligence - Live5News.com | Charleston, SC | News, Weather, Sports Army Sergeant Arrested in Killing of Wife, Police Officer One officer killed, two injured in Virginia shooting Ronald Hamilton: U.S. Army Soldier Accused Of Killing Police Officer Ashley Guindon On Her First Day On The Police Force https://twitter.com/CBSNews/status/7...654465/photo/1",5016
4844,"African Shotgunned 4 Victims The African shooter had about 100 shotgun shells with him when he was shot in the arms and legs and arrested. Police identify suspect in shooting of 4 outside NC Wal-Mart, say man had 100 shotgun shells | Fox News",4844
2641,Steve Lee - Knob Creek Machine Gun Shoot,2641
3203,85 year old White Man murdered by Africans An 85 year old white man sacrificed his own life to defend his wife from savage African home invaders. The white man did manage to shoot one of the Africans who was arrested at a nearby hospital. The two Africans had just pulled a home invasion on an elderly woman before committing another home invasion and murder.,3203
3119,"87 year old White Man shot to death by Africans An 87 year old man was in the parking lot leaving a grocery store when three savage Africans confronted him, one of the savages shot him to death, then they robbed his dead body, and went on a shopping spree. The three beasts were captured alive, but the one who did the shooting might be put down as a result of its actions, the other two will likely be caged and released to resume criminal activities. 87 year old killed in racial hate crime in Meridian, MS",3119
3112,"African gangbanger shot and paralyzed an innocent White Woman Claims he is only being prosecuted for the crime because the victim is white. Said ""I didn't even try to shoot that bitch"" claims he was shooting at two other gang bangers when he missed and shot a White Woman. I guess he believes that if he shot a black bitch, then that would not be a crime? Black-On-White Crime Blog: Black Shooter Blames 'Racism' for the Fact that He Is Being Prosecuted for Crippling Random White Female",3112
4972,"Already 2,000 shootings in the gun control city of Chicago More than 300 killed. Shooting unarmed individuals is as easy as shooting fish in a barrel!",4972
