,text,doc_id
12977,"The original AR (Armalite Rifle)  Chambered in .308 Winchester, the way God and Eugene Stoner intended.",12977
4379,"I read a great statement which I will paraphrase: The John Browning designed firearms are the best of the best and suffer only one single common failure, they run out of ammo!",4379
10548,A website for best price on ammo on the web: http://gun-deals.com/ammo,10548
5408,Kirsten Joy Weiss - Scorpion .22 LR Target Pistol,5408
1805,"Diversity in Israel If diversity is so great for every white nation,  why isn't it good for Israel?",1805
2089,What's good for the goose is good for the gander? Why is there always a HUGE DOUBLE STANDARD with Jews?,2089
5700,Rhonda Vincent swappin' off with Nothin' Fancy  Comedy and good pickin' ensues.,5700
11189,This is an important Texas website: Our Texas Constitution and Laws http://www.statutes.legis.state.tx.us/ Use it to good purpose!,11189
13288,"Egyptian Pipeline Explosion Somehow, an Egyptian gas pipeline that happens to supply their good friends in Israel blew up.",13288
