,text,doc_id
14410,"Tea Party Leaders from Columbia, SC interviewed  What is the Advantage for the Nation of South Carolina being a member to a union that includes Commiefornia and New England? How does South Carolina benefit from the Iron Heel of the Federal Government?",14410
12696,"Luton, in Formerly Great Brittan The government of every White Nation is openly Anti-White!",12696
1993,"Just like everything else in the Washington Government's Re-educational System, calling Lying Lincoln ""the Great Emancipator"" is exactly the opposite of the Truth!",1993
11103,"They can hide the truth, they can distract from the truth, they can even lie about the truth, but they can't change the truth. The truth is the truth.",11103
11941,"Top 10 reasons why Donald Trump will protect Americans from the lying FDA, EPA, CDC and USDA",11941
11636,What are things rich white people could do for their race?,11636
4231,"The festival was good, met some good people, ate some good food, heard some good music.",4231
4639,"In all the new cartoons that are aimed at young children every villain is White, and the dumb people are White, a lot of the really smart people are brown, and the smartest one of all is a super intelligent black gorilla. Many of the heroes are brown or black, but I have never seen a brown or a black save a White victim from a brown or black villain, at least that depiction is just like real life!",4639
6112,Merkel embraces Islam The People Embrace Germany!,6112
1024,"Restore the Republic! People would normally say that &#147;Folks from all walks of Life were represented&#148; but I won&#146;t. These were TEXANS from all walks of Life, and all age groups. I don&#146;t care what is walking around in New England, they ain&#146;t like us Texans! Texans are Independent, Self Reliant, Free Thinking, and unaffected by Marxist Propaganda. Each one of us is the Decider, not any clown in Washington D.C. Texas&#9472;  It&#146;s like a whole different Country, because she is! Besides the RESTORE THE REPUBLIC sign with the words GRASS ROOTS written in green, there is a yellow DON&#146;T TRED ON ME flag, a man wearing a felt cowboy hat and a Harley Davidson T-shirt, and the girl holding the small federal flag is wearing what is probably a home made top because the symbols on it are turned in the right direction forming LIFE RUNES rather than Marxist peace symbols. That stone work is of course the exterior of our Nation&#146;s Capitol in Austin, Texas. We have a lot of beautiful stone work like that here in Texas, much of it done by Germans who came directly from Germany to Texas.  They brought us German Craftsmanship, German Sausage, German Beer, and beautiful German Women! God bless Texas!",1024
11244,"Texas Country Reporter, a program that focuses on the places, people, and events of Texas is going to sponsor a festival in Waxahachie, TX, on October the 25th, made up of good Texans, including Texas Entertainers, Craftsmen, and the good Rural Texas Folk.  Now for the good news, just to make certain that it will not be an all White event, it will feature a black vocal group, sure to draw in the type they really want mixing with all those young White Texas Girls. Thank you Talmud-a-Vision! We owe you a lot, and it will be repaid!",11244
11485,More and more great people keep arriving here. It is wonderful to have you all here with us!,11485
3944,"Russian General calls out Obama for supporting ISIS Obama is not fighting Islamic terrorism, he is spreading Islamic terrorism!",3944
5167,"ISIS Attacks: What They're Not Telling You  We are all the same, diversity is our strength, Islam is a religion of peace. Multiculturalism leads to peace and prosperity,  just like with Israelis and Palestinians.",5167
731,"Crimea Votes for Secession Now lets see other free and independent states, such as Texas!",731
12027,The Joy of Photographing Insane Leftists in their Natural State,12027
10861,"Freedom Ranking of US States Commiefornia, New York, and New Jersey at the bottom, no surprise there. Study: U.S. States Ranked By Freedom | Ben Swann Truth In Media",10861
5600,"The Texas Legislature preempts Federal Tyranny In the text of HB 2 passed by the Texas Legislature, the ""decisions"" on ""vague"" text by the US federal supreme court is preempted by stating that at any time that any ""justice"" in that court fails to have an ability to read simple text written in plain English, then that ""vague text"" will be interpreted by the Texas Supreme Court, because we can read English just fine right here in Texas. Don't mess with Texas!",5600
14860,TSRA Highpower Championship 2010  Texas State Rifle Association Support your state firearms association!,14860
1200,"I know that we have some police officers here reading this, and it is obvious but I will say it anyway--  We support the police, we support law and order, we support civilization! In a lot of the urban police forces, the white men who apply will be the last ones hired due to racial quotas, then once hired they will be skipped over for promotion in favor officers with less qualification but more color, and might wind up working under a supervisor who is not qualified for that position but was the preferred color (everyone is not blue when it comes to promotions and support) and the department might not support a white officer when they would have supported one with more color. White police officers are the target of criminals and sometimes even the department he works for. To all the white heroes in uniform out there: Stay safe and stay white!",1200
11447,"Which color is the best color? Which color has achieved the most, has the most inventions, the most discoveries, first to the Moon, first to Mars, first to Venus, first to Mercury, first to the Sun, has the best nations, has the most handsome men and beautiful women, produces the best music, art, and literature, and has the best websites.",11447
6409,ISIS gaining ground in Iraq,6409
