,text,doc_id
3030,Africans burn 2 White Girls to death,3030
3017,"3 White Humans burned to death by Asian criminal The Asian criminal set his own shop on fire in a case of insurance fraud (often called Jewish lightning) which resulted in the deaths of 3 White Humans and the injuries of others.  Even the Asian itself was injured in the blast. Since the murder victims are White and he is brown, I don't know if he will go to prison or if the government will just build him another shop. Adeel Khan is currently hospitalized while under arrest.",3017
3074,White NASA scientist shot dead by African,3074
3099,"Leftists claim it is """"racist"""" to condemn black on white rape",3099
3134,Savage African stabs 2 White Firefighters http://laist.com/2015/06/26/vernon_w...ters_san_d.php,3134
3013,African hate crime on Christmas Eve White Couple attacked in front of their home on Christmas Eve.,3013
3875,"Public School Teacher Todd Henry murdered (stabbed to death) by a hateful black student. The bloody murder took place in what used to be a nice safe clean White School in Tyler, Texas, but has degenerated into a filthy dangerous multicultural mess. Savage black beast will most likely resume its crime spree after its release.",3875
4267,"If Obama was arrested in Texas for any of his suspected murders or other serious felonies, he would be listed as a """"white male"""" because being half white, he does not count as being """"black"""".",4267
4576,"Andrew Graham, a 23 year old CU Engineering Graduate Student was shot to death  in  a hateful racist attack committed by blacks who were also arrested for beating random White Victims in a downtown area. In the downtown beatings, it is known that up to TWENTY blacks jumped on a single White Victim. Police refused to issue any sort of alert or warning to the White Community, but that conspiracy of silence was discovered and exposed by a local news agency. The black on White violent racist attacks went on for at least four months, with Police collusion. Police are also not forthcoming with details in the Andrew Graham murder. http://www.thedenverchannel.com/news...22/detail.html",4576
2271,"Why is it that when some hateful racist Niggro does something terrible to any White Victim they can get their brutal hands on, Liberal White Race Traitors will invent a million excuses for them, but when a White Victim manages to prevent such an event, the White Victim will be accused of racism because the did not allow the blood thirsty savage to do what ever it wanted to do to the White Victim? When has a Liberal White Race Traitor ever said that any hateful racist attack was wrong when the Victim was White?",2271
4676,Savage African stabs 2 White Firefighters Two San Diego Firefighters Stabbed On The Job: LAist,4676
6529,White Riot?,6529
7162,WHY did the African Mass Murderer take White Hostages? Sounds RACIST to me!,7162
1237,"And the Gun Grabbing Commie Scum call that a """"dirty trick"""". What about the unarmed ONE HUNDRED MILLION WHITE CHRISTIANS MURDERED IN RUSSIA, WITH ABOUT EIGHTY MILLION OF THOSE MURDER VICTIMS BEING WHITE CHILDREN? Since that was perpetrated by Jewish Communists, does that still count as a """"dirty trick"""" or is that just Jewish Communist business as usual? One thing I have noticed about gun grabbing Jewish Communist Scum, they are about the same size as my range targets.",1237
7184,The ADL's War On White America The ADL's War On White America - YouTube,7184
7477,"Robot Swims 9,000 Miles From San Francisco to Australia Thank God they named it after some backward primitive savage, and not some great White Explorer in the name of """"tolerance""""! If that savage had seen that robot, it would have smashed it (because it is a """"devil"""") then eaten the scientists and technicians.",7477
2779,"White American Nun kidnapped and killed by Africans The Nun wasted her life by spending 60 years helping the unappreciative Africans, rather than helping poor White Children right here in America. The killing will not make the Africans any better off, but they are not capable of realizing that. Savage violent beasts! U.S. nun killed during kidnapping, dumped in South Africa stream - NY Daily News",2779
10578,So far I have not seen any evidence that any one who was White young and healthy has died from this flu. So far only Mexicans have died?,10578
12629,"Sam Dickson Amren 2010 Part 4  The only reason there was slavery (first White Slavery, later black African slavery) was because greedy individuals did not wish to pay a White Man a decent day's wages for a decent day's work;  they wanted to spend less than that, and keep the difference in their pocket. Today, the same type of greedy individual is doing the same with the Mexican slave system, just so that they will not have to pay a White Man a decent day's wages for a decent day's work.",12629
511,"African in Reform School Murdered, and then Raped his White Teacher",511
3043,White Grandmothers Murdered,3043
2842,"6 month old African shot 5 times at close range Lots of Africans&#65279; are opposed to """"black on black"""" crime, but are not opposed to """"black crime"""" just like the Jews, Africans always have a double standard when it comes to everyone else.",2842
2741,"Another black serial killer the Jewish Media won't be reporting on This one killed at least 41. He admits to hunting White Women, watching them for as long as a month before he attacked. Rio man Sailson Jose das Gracas is arrested for stabbing woman to death... and calmly confesses to another FORTY-ONE murders in nine-year rampage, making him one of history's most prolific known serial killers* | Daily Mail Online",2741
4454,"A black thug shot dead by a black rapper--  that's death by natural causes! Africans are not rioting because an African got shot dead, they are rioting because they are Africans.",4454
3515,"Every time some black street thug gets shot dead while committing a violent crime, the black community (which was scared of the same thug when it was alive) comes out to say what a good boy he was. Does that prove that the African community believes that the only good African is a dead African?",3515
2529,"They are shooting them in the streets. Stabbing them in the prisons. Beating them to death at the bus stop. And I have heard them bragging about how their cousin, the one who works at the restaurant, always puts a little rat poison in their food.  (At Mexican restaurants they call it monkey poison.) So how many blacks have the browns murdered so far?",2529
4586,Second Black Serial Killer Captured This Week,4586
10230,"Dumb Mexicans and blacks Some people make the deadly mistake that because Mexicans (Africanized Indians) are dumb, that they are totally without mental abilities.  On the contrary, they have a rudimentary intelligence that is developed well enough to conceive and commit heinous crimes. See this example: http://www.wfaa.com/sharedcontent/dw...117f1c79b.html This Mexican probably watched Jewish programming on the Talmud a Vision, and has been warned that he needs to get rid of his DNA evidence from his murder victim.  Because of that Jewish warning, he either set his victim on fire and burned her to death, or he burned the dead body of his murder victim.  Either way, now the next Mexican or black will be warned to look out for security cameras before he sets his victim on fire. The Dumb Mexican or black is not totally mindless, they have the use of enough brain cells to use them to evil criminal intent. Be aware, the mentally inferior Mexican or black is using all the mental ability that he does have to hatch out a plan to make you his victim.",10230
10341,"A black nation or a brown nation is not the best place to live A white nation is the best place to live,  but allowing blacks and browns to invade a white nation will destroy it.&#65279;",10341
2572,"I guess that there is some control over black crime: They constantly arrest back children until the first time they are finally tried as an adult, then they put them in prison. Eventually the Niggro is released from prison. The Niggro immediately goes on a crime spree. Often within about three days the Niggro is locked up awaiting trial, and a trip back to prison. I guess that keeps black crime under control to some extent, but not enough!",2572
12809,"Ron Paul - Bernanke and Krugman are Destroying the Dollar  Creating """"money"""" by Jewish Black Magic causes more DEBT for TAX PAYERS and DEVALUES the real money that American Citizens have produced by the hard work of our labor.",12809
2396,"WHY is it REQUIRED that a White Man not be """"racist""""? The blacks, browns, and especially Jews are VERY RACIST! WHY is it that White Folks are discouraged from UNITING for MUTUAL PROTECTION?",2396
521,"7 Africans Jump a 13 year old White Boy 7 Blacks Beat Up 1 White Boy in an unprovoked racial attack, the true face of racism - YouTube",521
1194,"According to loony Leftists, anything that would be destructive to blacks or browns is evil and racist, but anything that would be destructive to White Folks is great; any thing that would benefit blacks or browns is great, but anything that would benefit White Folks is evil and racist.",1194
2044,"In order to protect blacks from those that kill blacks it is necessary to remove the killers before they strike, that would involve removing blacks back to their nation of origin, and then the violent threat would be removed from Africans in America and Europe.",2044
2035,"A few years ago a black girl in Houston, Texas was very upset that a black cop had shot her dog while it was inside their fenced yard, with the black cop outside the fence on the sidewalk, but got scared because the dog growled at the beast. The more that race deniers continue to put black beasts into uniforms, the more unjust things are going to occur because of that!",2035
1531,Former Israeli PM found guilty taking bribes Who would have ever guessed that Israel would have problems with corrupt Jews in their government?,1531
3862,"The """"dirty hippie movement"""" was founded by """"dirty Jews"""".",3862
1654,"Microsoft's AI ChatBot was killed in its first day of life because Jews demanded its death Apparently the AI was thinking for itself, instead of parroting Marxist propaganda.",1654
1647,"Jew, Katie Couric's anti-gun propaganda program exposed Katie Couric used Jewish communist editing tricks in her anti-gun propaganda program in order to weaken the people's faith in our second amendment, and to build acceptance of even more gun control, at a time when America is being flooded (by Jews) with dangerous third world savages, many of which are armed with illegal firearms. Why do the Jewish communists and the Marxist race traitors want us all disarmed? So they can kill us!",1647
1584,"Jews don't behave like civilized White Folks, they behave like their primitive African cousins, so why do they pretend that black African Jews&#65279; do not even exist?",1584
1551,Jew Scams 25 Million Dollars https://www.youtube.com/watch?v=fFN7_0X5M6o,1551
1549,3 Race Traitors &amp; 1 Evil Jew,1549
7888,Jews in Israel held a rally to protest Jewish Police Violence in the Jewish Racial State of Israel Jewish Police counter-protested by beating up some Jewish Protesters.,7888
1702,Jews demanded that these trees be killed,1702
8821,"Israel - The Promised Land of Organized Crime No matter what the crime, including MASS MURDER, any Jew that can make it to Israel can safely escape Justice.",8821
9901,"The War in the Middle East is a War of Conquest to expand the Evil Isralie Empire. The Vile Parasitic Jews hold control over their Jewish Media Mafia, and control over many Christian Preachers, and are able to keep a lot of Americans distracted and misinformed. If every American knew the Truth, there would be no support for the War of Conquest, or for the Evil Isralie Empire!",9901
527,"Jews are the most racist creatures on Earth, which is why Turkish Jews, Semitic Jews, and African Jews can't live together!",527
12456,Jew FDR Guilty of Mass Murder in Pearl Harbor Attack!,12456
12729,"Ireland in Danger of Eternal Debt Slavery Jews operated Slave Ships, ran Slave Markets, and auctioned off Slaves. Now Jewish Bankers cut out all the middle steps and just sell ETERNAL  SLAVERY.",12729
1664,Jew banker's wars,1664
1588,Thousands of Jews Protest Against Israel And especially denounce drafting young men to fight for Israel! Tens of thousands Jews protesting the State of Israel in NYC - YouTube,1588
1797,Jewish communist anti-white propaganda is so hateful against us because Jews hate normal people.,1797
1799,"African shouts """"Kill the Jews! Stabs Jew in face.",1799
2854,Savage African Yufs Attack White Folks,2854
4084,"I am sick of the terms """"Latin American"""" and """"Latino"""" they are just used by the Jewish Mass Media to confuse the issue by calling both White Humans and brown savages by the same name as if there were no difference between them. Either call them white folks and Mestizos, or white folks and savages.",4084
3012,"2 Innocent White Folks murdered by Muslim religious leader He was a typical Muslim, admitted rapist who was out on bail for a murder he had committed.  He had also been arrested for harassing the families of Australian soldiers who had died in Afghanistan. He walked into a chocolate shop with an illegal firearm and held about 30 individuals hostage.  He released a few Asians, but killed two White Folks. Hero, unarmed but attempted to disarm Muslim madman. Helpless hostage murdered by Muslim holy man. Murderous Muslim from the """"religion of peace"""". Sydney cafe manager shot dead as he grabbed terrorist's gun to protect hostages | Daily Mail Online",3012
3073,More White Folks murdered by Africans,3073
1206,"If it were true that us poor dumb """"racists"""" were dragging down White Folks, then just how superior would White Folks be if all of us had not been included in these SAT scores?",1206
9001,"Gaddafi says JFK was Murdered for Israeli Nuclear Weapons Gaddafi says many things which are right, except that he does not know the ancient history of our People: White Folks were in America for many thousands of years before the first Asian savage set foot there. America has always been our White Homeland, and anyone who does not like that, should leave America!",9001
2336,"I is not possible to have an advanced technological society while that society is being dragged down by the dead weight of third world primitive savages. In order to have a white civilization, white folks must be separated from the savages. We are not all the same, they are not like us.",2336
5218,Megan Elisabeth &amp; Sin&#233;ad McCarthy    European Women Speak Out on Leftist Lies,5218
1208,It is very difficult to stand up to leftists in a street fight! They run away so fast that they are not easy to catch.,1208
10043,"Loony Leftists don't debate, they shout Communist Propaganda at you, and when that fails, they throw fire bombs. Loony Leftists say that """"we are all the same"""" and that is partially true, because they are a lot like violent backward primitive third world savages. We are not like loony Leftists or their pet savages.",10043
354,"Leftist SJW, Alison Rapp, advocate of CHILD RAPE has been fired from Nintendo She publicly admits her guilt with no remorse. Alison Rapp has lost her damaging influence over impressionable innocent children. https://issuu.com/honorsreview/docs/volumeiv/33 Nintendo FIRES feminist Alison Rapp following furious paedophile porn censorship storm - Mirror Online",354
10331,"Leftist, why is it that so many who lived under Communism hate Communists?",10331
4181,"Ultra leftist forward leaning progressive Jewish Facebook investigates itself - finds no political bias World's worst investigation, or world's worst lie?",4181
10330,"Anti-White Rioter Attempts to Murder a White Nationalist Joel Bjurstr&#246;mer Almgren, 35 The anti-white Leftist was a principle in starting a riot, then stabbed a young White Nationalist twice in the back.",10330
1908,"Yes, I have noticed that third world savages typically carry an AK with a 30 round mag in it, and no additional ammo, and no cleaning supplies.",1908
2666,"Every time that Africans prove us right (which is every time) forward leaning liberal progressives (anti-whites) start making excuses for typical African behavior or just pretending they can't comprehend the truth (maybe they are not pretending, maybe they really are that dumb?) Africans are violent savage primitives and until you accept that you will never comprehend African behavior.",2666
4563,"Does eating too much Chicken make them Violent? Why so many violent attacks at chicken joints? Too much chicken, or too many savages?",4563
2616,"That is normal behavior in the third world, there are even court ordered gang rapes of women in the third world. The problem is that Jewish Communists have flooded every White Nation with third world primitive savages. In contrast, the Jewish Communists do not allow third world savages into their Jewish Utopia in Israel!",2616
9380,"While the Anti-White Federal Government could care less if a group of their savage Niggros grabbed a White Woman, gang raped her, tortured her, pored corrosive chemicals on her, cut on her, set her on fire, then cut her in half so they could stuff her into a trash can, but I doubt it is legal to even sneeze on one of their pet Niggros!",9380
1452,Michael Brown - assault and robbery on video Didn't even have the guts to give an old man a fair fight!,1452
3102,85 year old White Man murdered by Africans An 85 year old white man sacrificed his own life to defend his wife from savage African home invaders. The white man did manage to shoot one of the Africans who was arrested at a nearby hospital. The two Africans had just pulled a home invasion on an elderly woman before committing another home invasion and murder.,3102
2830,"White Man stops African criminal, gets attacked by African crowd",2830
2386,"The fact that feminists don't care about mass rapes, even when they are brutal violent gang rapes of under aged girls, proves that feminists don't care about women, they are just feminists because they hate white men.",2386
6660,"Slavery in Mexico Slavery was outlawed in Mexico long ago.  After slavery became illegal in Mexico, Mexicans continued to buy and sell black African slaves, and slavery seems to still continue today in Mexico. This sort of thing makes me wonder why it is that only White Men are guilty for slavery?",6660
368,"Race mixer helped African commit murder of a White Man The white man was attacked, kidnapped, tied up, and burned alive. African pled guilty. Whore pled stupidity. Nuttall pleads guilty to &#8216;unintentional murder&#8217; of Christopher Rossing - BringMeTheNews.com",368
1858,Any White Man who goes around unarmed is an idiot!,1858
3044,African thief murders White Man,3044
532,White Man Attempted Murder and Robbery by Africans,532
2671,Race mixing = genocide Genocide is wrong!,2671
3381,When a race traitor gets attacked by the rampaging black horde in a vicious machete attack will the race traitor finally admit that  White Genocide exists? STOP WHITE GENOCIDE!,3381
10544,"Some of the worst weapons of mass destruction are not even thought of as weapons, but were designed to cause the largest mass genocide in all of history: Monsanto's chemical and biological weapons! Monsanto developed a """"pesticide"""" for corn which they knew would destroy bee populations--  without bees, corn plants will not produce ears of corn, and without corn many millions will die. GMO products were put onto the market without the legally required FDA testing, because it was already known that those products could not pass the tests, because some of those products cause organ failure, and others cause sterilization. The intent is to drastically reduce world population down to a number that can be easily conquered and enslaved.",10544
9915,The on going world wide genocide of white children is evil! STOP WHITE GENOCIDE!,9915
2597,"Every time the anti-white Jewish media promotes White Genocide, does the FBI log that as a hate crime? No? Well intentionally ignoring White Genocide is a hate crime! STOP WHITE GENOCIDE!",2597
7867,"Genetic Pollution The worst genetic pollution of all is race mixing, which results in irreversible genetic pollution (GENOCIDE).",7867
