,text,doc_id
12037,First to be prosecuted for threatening to assassinate Trump,12037
4130,"What is Trump going to do later when he discovers that Obama, Hillary, Soros, the Jewish banking families, Israel, and Saudi Arabia, were behind the chemical weapons attack?",4130
5544,ADL hate group  Vs. Trump,5544
11951,Alex Jones - Trump Destroys Hillary Clinton,11951
223,Obama is a mass murderer and the Marxists want to replace him with Hillary the serial killer.,223
2158,Hillary hired American Document Destruction Inc,2158
11991,The foreign invaders are a threat to the survival of America,11991
9811,"Larry Pratt, Executive Director of Gun Owners of America Operation Gunrunner &#150; Obstruction of Justice and Perjury Could lead to Impeachment Proceedings GOA's Larry Pratt: The ATF's Laboratory - Alex Jones Tv 1/2 - YouTube GOA's Larry Pratt: The ATF's Laboratory - Alex Jones Tv 2/2 - YouTube Ted Nugent on Gun Owners of America - YouTube",9811
9662,The International Bank called Bank of America displays even more GREED I suspect it is upset that Americans are not handing over their wealth fast enough.,9662
7366,"Obama Armed the Syrian ""Rebels"" The ""rebels"" in Syria have committed mass murders of Christians, committed war crimes, and they are Terrorists. Obama says that anyone who arms Terrorists is an enemy of America, and I agree.",7366
3049,"From the old oral history: When the Asian savages (Indians) arrived in North America (and before they ever arrived here) they were called ""naked starving savages"". The description of ""naked starving savages"" is very fitting for every group of non-whites that were encountered. Any time you here some Communist Propaganda attempting to tell you the great accomplishments claimed for some primitive tribe, remember the term ""naked starving savages"".",3049
14657,Alex Jones - 50 Random Facts on What in The Hell Happened to America part 1,14657
13866,"Sam Dickson Amren 2010 Part 4  The only reason there was slavery (first White Slavery, later black African slavery) was because greedy individuals did not wish to pay a White Man a decent day's wages for a decent day's work;  they wanted to spend less than that, and keep the difference in their pocket. Today, the same type of greedy individual is doing the same with the Mexican slave system, just so that they will not have to pay a White Man a decent day's wages for a decent day's work.",13866
8358,Communist Assassination Kit  Probably Soviet.,8358
7881,Communist Dictator Hugo Chavez is Dead A Communist Dictator like Chavez is only a small step removed from an amoral African Warload such as Obama.,7881
11582,"Communists are Mass Murders! In every instance when Communists attempted to take control, or did take control, they commit Mass Murder. The USSR committed Mass Murder against MILLIONS of innocent WHITE CHILDREN!",11582
11773,"Being a liar, cheat, swindler, deceiver, deviant, thief, pornographer, pedophile, degenerate, rapist, drug dealer, homosexual, Communist, proponent of White Genocide.",11773
2886,African tortured 13 year old brother https://www.youtube.com/watch?v=A79p7Tv_AaU,2886
12109,"Here is a movie prediction: There will be a movie made of demonic possession through the Uber app of the driver who shot 8 killing 6 because the artificial intelligence program behind the Uber app took control of him as he watched from outside his own body. The program icon changed from the normal red to demonic black when the AI controlled the driver.  A devil's head even appeared on the app, according to the possessed driver. He remembered observing the murders that took place, but at other times he has no recollection of his actions.  The driver himself had no desire to kill those persons, the AI devil took control of his body while he watched as a detached observer.  At times the icon returned to red and he resumed his job as an Uber driver, and at times it returned to black and he observed what the AI devil and his controlled body did. Report: Suspect in Kalamazoo shootings said Uber app took him over - Chicago Tribune",12109
