,text,doc_id
14629,White House and DOJ on side of hateful black racists and against American Law,14629
5021,"324,000 U.S. blacks Killed By blacks In The Past 35 Years The stats count only white and black crime with brown Mestizos included as ""white"" which drives up the ""white crime"" numbers.",5021
3096,"Another black serial killer the Jewish Media won't be reporting on This one killed at least 41. He admits to hunting White Women, watching them for as long as a month before he attacked. Rio man Sailson Jose das Gracas is arrested for stabbing woman to death... and calmly confesses to another FORTY-ONE murders in nine-year rampage, making him one of history's most prolific known serial killers* | Daily Mail Online",3096
3097,"Another black mass murderer covered up by the Jewish Media African employee suspected of drug smuggling and theft transferred not fired, then caught stealing cash and finally fired. Takes revenge by committing a mass murder against an entire airliner filled with White Folks, 44 killed. Jews never reveal the mass murder is black and bury the story. How many White Folks have to die before it is finally admitted that there is no place for violent backward primitive Africans in a White Civilization? 1987: MURDER-SUICIDE ON AN AIRPLANE KILLS 43",3097
2794,Even in an African nation  with a black majority and a white minority the criminals are black.,2794
2714,"If the poor neighborhood is an all White neighborhood, then the crime rate will be low. If the wealthy neighborhood is infested with Jews, blacks, and browns, as the low class rich neighborhoods are, then the crime rate will be high, including violent crimes of all sorts. In contrast, an all White wealthy neighborhood will also have a low crime rate. It is the sort of thing that the Jews and their useful idiots, the Liberal Race Traitors try to dance around but will not comment on.",2714
2460,"The know what them little black devils are like, they would destroy that new home in no time!",2460
2447,THE FARM MURDERS!!!!! Why does the black majority in power target the small White Minority in South Africa? Why are black idiots so hateful that they would rather murder White Farmers than eat?,2447
3609,12 Yr old Boy Tortured To Death with Welding Torches by female black racist,3609
3612,THE FARM MURDERS!!!!! Why does the black majority in power target the small White Minority in South Africa? Why are black idiots so hateful that they would rather murder White Farmers than eat?,3612
3774,"The Jews sold Black Market guns to Irish Patriots, and MANY of those guns EXPLODED when fired.",3774
3901,"I was thinking a brick of .22LR would be fine in CQC (Close Quarters Combat) as long as you stoved in the criminal's head with the brick. A Mexican did kill a black criminal in my old neighborhood with a .22 pistol, but he hit him in the chest 5 times point blank, and the criminal was alone, if there had been two of them the other one would have likely killed the Mexican.",3901
1205,"According to loony Leftists, anything that would be destructive to blacks or browns is evil and racist, but anything that would be destructive to White Folks is great; any thing that would benefit blacks or browns is great, but anything that would benefit White Folks is evil and racist.",1205
2074,"A few years ago a black girl in Houston, Texas was very upset that a black cop had shot her dog while it was inside their fenced yard, with the black cop outside the fence on the sidewalk, but got scared because the dog growled at the beast. The more that race deniers continue to put black beasts into uniforms, the more unjust things are going to occur because of that!",2074
11297,"Dumb Mexicans and blacks Some people make the deadly mistake that because Mexicans (Africanized Indians) are dumb, that they are totally without mental abilities.  On the contrary, they have a rudimentary intelligence that is developed well enough to conceive and commit heinous crimes. See this example: http://www.wfaa.com/sharedcontent/dw...117f1c79b.html This Mexican probably watched Jewish programming on the Talmud a Vision, and has been warned that he needs to get rid of his DNA evidence from his murder victim.  Because of that Jewish warning, he either set his victim on fire and burned her to death, or he burned the dead body of his murder victim.  Either way, now the next Mexican or black will be warned to look out for security cameras before he sets his victim on fire. The Dumb Mexican or black is not totally mindless, they have the use of enough brain cells to use them to evil criminal intent. Be aware, the mentally inferior Mexican or black is using all the mental ability that he does have to hatch out a plan to make you his victim.",11297
14437,"The Jewish Media Mafia hates John Wesley Hardin as much as they hate David Duke! Because John Wesley Hardin killed may blacks, Mexicans, and other undesirables.",14437
14242,"The Washington Government&#146;s Military looted their Allies they were sent to &#147;Liberate&#148;, even allowing lawless criminal black &#147;soldiers&#148; to rape and murder French Women and Children. Now the Washington Government sends their Military not to liberate allies, but to destroy enemies in enemy nations. Is it ironic at all that the same Military does not loot the nation of our enemies, and instead pours TRILLIONS of TAX DOLLARS into those enemy nations? Why?",14242
9732,32 black gangbangers Arrested in Hate Crime Roundup for Targeting Whites,9732
363,"Leftist member of the anti-white Jewish media in Dallas, Texas murdered For some reason the Jewish mass media in Dallas does not want to show a photo of the murderer who stabbed the race mixer to death. It was her black son, and he also killed her other black son  Before he killed himself, he called 911 to report the murders he had just committed.  All three found stabbed to death. I have to call that ""death by natural causes"" because it is natural for a white female to be murdered by her own black child. Race mixer murdered by her own spawn. A farewell to Stacy Fawcett | WFAA.com",363
676,"The Real Situation in South Africa The secret farm murders, black on white violence, black invasion,  discrimination against white folks, the destruction of the nation.",676
3250,A white community is fed up with African attacks!,3250
3104,African stabbed White Foster Mother to death,3104
3117,Africans burn 2 White Girls to death,3117
2846,"White American Nun kidnapped and killed by Africans The Nun wasted her life by spending 60 years helping the unappreciative Africans, rather than helping poor White Children right here in America. The killing will not make the Africans any better off, but they are not capable of realizing that. Savage violent beasts! U.S. nun killed during kidnapping, dumped in South Africa stream - NY Daily News",2846
13009,Sabaton - White Death,13009
2770,Anyone who is white and does not support a campaign like that is an absolute fool (loony Leftist).,2770
11827,"Then why does the Jewish Media Mafia and the Federal School System continuously attempt to instill ""white guilt"" into young impressionable White Children? Why is there no mention of all the past evil committed, and still committed, by backward privative murderous third world savages (unless Jewish Zionists/Communists/Neocons want to have a war with them)?",11827
3172,White NASA scientist shot dead by African,3172
3221,"Detroit Africans murdered White Veteran  Family befriended poor African savages, savages return.",3221
3231,African stabs White Police Officer Gets shot dead.,3231
3089,African hate crime on Christmas Eve White Couple attacked in front of their home on Christmas Eve.,3089
11232,"We have a LOT of criminals in Texas, but how many would we have if we did not have any Mexicans or Africans? And as you can plainly see, those non-White Mexican bandits are listed as White Criminals! The third one down, with no known hight or weight, has no Driver's License, meaning that creature is a criminal alien invader, but is listed with a known address, so some CRIMINAL ILLEGALLY RENTED TO THAT MURDERER, AND THEY SHOULD BE CHARGED WITH ACCESSORY TO COMMIT MURDER!",11232
4825,White Grandmothers Murdered,4825
4997,White NASA scientist shot dead by African,4997
4763,"White American Nun kidnapped and killed by Africans The Nun wasted her life by spending 60 years helping the unappreciative Africans, rather than helping poor White Children right here in America. The killing will not make the Africans any better off, but they are not capable of realizing that. Savage violent beasts! U.S. nun killed during kidnapping, dumped in South Africa stream - NY Daily News",4763
7949,WHY did the African Mass Murderer take White Hostages? Sounds RACIST to me!,7949
1617,"Jew, Dr. Noel Ignatiev other than from committed white supremacists.&#148; until the social construct known as the white race is destroyed, not deconstructed, but destroyed.&#148;",1617
3091,African beasts murder White Man with hammers,3091
5206,14 year old African murdered a White Man,5206
4950,"White Man  murdered by African Henry Rollins and Joe Cole were in their front yard when they were approached by two African thugs who robbed them. Joe Cole got shot dead, and Henry Rollins claims he was shot at but missed. What does race traitor Henry Rollins say about the murder of Joe Cole? Henry says ""black lives matter"" and he blames the gun, not the African thug. Joe Cole Police sketch of African who murdered Joe Cole. Joseph Cole - Unsolved Mysteries Wiki - Wikia",4950
3107,12 wild Africans attempt to beat a White Man to death,3107
3153,Pack of 5 wild Africans beat White Man to Death Preteen boy threw first punch in 'unprovoked' group attack that killed Syracuse man | syracuse.com,3153
4786,"87 year old White Man shot to death by Africans An 87 year old man was in the parking lot leaving a grocery store when three savage Africans confronted him, one of the savages shot him to death, then they robbed his dead body, and went on a shopping spree. The three beasts were captured alive, but the one who did the shooting might be put down as a result of its actions, the other two will likely be caged and released to resume criminal activities. 87 year old killed in racial hate crime in Meridian, MS",4786
5774,Fascist Heart No woman is more desirable than a white woman who does not buy into the war on white men (war on white families--  white genocide). No woman is more repulsive than a feminist.,5774
3156,African Attempts to Car Jack an Armed White Man LiveLeak.com - Carjacking a business owner goes horribly wrong for this carjacker,3156
3018,African gun grabber arrested for gun crime Africans don't intend to obey any of the White Man's Laws anyway.,3018
3807,It is all the White Man's fault! Third world savages should never have been exposed to the White Man's Technology--  it is too dangerous for them.,3807
5091,"African murderer released, kills White Man",5091
3215,91 year old White Man murdered by African,3215
2005,"There is no war against white women, but there is a war against white men. What women need to realize is that in the future there will be a war against white women too, once things are at the point where the Jew does not need to use white women as a weapon against white men, then the war against white women will begin.",2005
2899,"White Man stops African criminal, gets attacked by African crowd",2899
2433,"The fact that feminists don't care about mass rapes, even when they are brutal violent gang rapes of under aged girls, proves that feminists don't care about women, they are just feminists because they hate white men.",2433
2608,"An intelligent individual might have examined the situation, weighed the facts, and seen the threat to the future existence of their people, but that would not be Shaka Zero! No Shaka Zero has it&#146;s standard reply:  It all be Whitey&#146;s fault! You never surprise me, and you never fail to deliver your Racist Hate against the White Man!",2608
5015,African stabs two White Women shows no remorse,5015
1927,"It is getting to the point that the only violet crime that can be reported is muslim mass slaughter, or massive amounts of African violence, they are just so savage that normal murder and mayhem looks tame in comparison.",1927
10739,"In order to prevent the very serious crime of ""Cultural Appropriation"" it is vitally imperative that all Africans be immediately returned to Africa!",10739
389,Race mixing whore and African arrested Several charges.,389
8636,"Chicago - 22 shot over night 5 dead The Media Mafia makes it sound as if Africans only kill because they are poor. Africans kill because they are Africans! In Africa, the rich Africans murder more Africans than the poor Africans do.",8636
4831,"84 year old White Woman  beat, tortured, raped, robbed, and murdered by African",4831
4877,2 African boys Murder Mulatto Infant Shot in the head at point blank range.,4877
2954,African in jail charged with murder takes oath of office,2954
5004,Africans were too scared to go outside because of racist threats Racist criminal identified,5004
5006,More White Folks murdered by Africans,5006
1130,"The solution is to stay out of Asia, stay out of Africa, stop making economic war against white nations, and return the savages to the third world, where the Asians can resume killing Asians and the Africans can resume killing Africans.",1130
358,2 more race mixers murdered by Africans A hooker and a druggie.,358
5057,Obama's African aid in the rainbow house commits gun crime,5057
5073,African rapist's tongue bitten off by victim He didntdonuffin he be a good boy for sho.,5073
5075,Family of African thieves,5075
5083,African attempted armed robbery Got shot dead.,5083
5086,"Group of Africans fighting, disturbing the peace, shooting guns",5086
8140,Guns are BANNED in CHICAGO How did 500 Shooting Deaths Happen? Why are Africans in America just as violent as Africans in Africa? Obama's Gun Control Not Working Out in Chicago,8140
5115,"African films itself shooting 3 White Humans The African posted its video online. The reporter and cameraman both died, the white woman being interviewed was still in surgery at last report. When confronted by armed police officers, the cowardly African shot itself. Vester Lee Flanagan: 5 Fast Facts You Need to Know | Heavy.com TV Reporter and Camera Crew Murdered Live On Air",5115
5177,"African jailed for attempted rape in Ireland The African should hang, and whoever let the African into Ireland should hang!",5177
544,Young White Mother Murdered by African yufs,544
7960,"On Duty African ""police officer"" Refuses to Get Involved in Knife Attack",7960
6306,Africans loot &amp; riot - Gun Sales Increase! Obama is not the only African gun salesman!,6306
2955,"Africans claim it is ""racist"" for police officers to arrest criminals",2955
507,Angry African Rams Car into 2 Mestizos At least three leg amputations due to injuries.,507
3180,African stabs two White Women shows no remorse,3180
14527,"Obama's Kill Switch - Daily News - The Right Edition - July 15th, 2010  I know that here in America cashiers do refuse to take filthy reeking money from Africans, so I guess that the same happens in Africa?",14527
2946,"African children in Sweden riot  Not far removed from primates, that is why they make that primate distress call.",2946
2924,African Punch and Rob,2924
331,African kills race mixer,331
2894,3 African females burn woman to death https://www.youtube.com/watch?v=JOxvANAxXyM,2894
11792,"Africans have been killed over Jordan's, then the shoes were left at the scene, because they were the wrong size. Just a dead African, that's all.",11792
2881,African momma done killed her own 9 year old daughter https://www.youtube.com/watch?v=G47zRVXkBT8,2881
2852,African gang violence in Chicago  The African gangs in Chicago contribute less than half of the African violence--  so the African gangs are less violent than regular Africans?,2852
2814,Africans ruined the neighborhood,2814
2593,Angry African Rams Car into 2 Mestizos At least three leg amputations due to injuries.,2593
2664,Africans can't eat good healthy food in America because they can't walk their fat lazy butts past a McDonald's!,2664
324,"The race mixer was tired of getting beat up so she stabbed her African to death They were having an argument in their trailer, so the trailer park race mixer stabbed her African to death before he beat her again. She will likely go to prison for murder, where she might get murdered herself, unless she just gets a death penalty sentence.",324
313,"4 White Women Murdered Two were twins. Here is one of the twins with its ""child"". Joseph Tillman: Cops catch 'person of interest' in grisly apartment bloodbath | Mail Online Tulsa Police ID Four Women Killed Monday - NewsOn6.com - Tulsa, OK - News, Weather, Video and Sports - KOTV.com | Two Africans have been arrested for the murders, and a third African is believed to have been in the apartment and witnessed the murders (and of course he did not contact police). I wonder if the witness set them up to be murdered? Tulsa police arrest two suspects for quadruple shooting - FOX23 News Joseph Tillman: Cops catch 'person of interest' in grisly apartment bloodbath | Mail Online",313
3188,African commits attempted murder against a random White Man,3188
2307,"Right there are some ""anti-racists"" in the news, and surprise surprise, they are again violently attacking White Folks. The Anti-White Racists attacking these innocent White Folks claim that the innocent White Folks are to blame, not themselves (regardless of their hateful violent nature) and not the hateful violent Muslims either. Show me those ""anti-racists"" attacking Anti-White Muslim Racists! http://www.dailymail.co.uk/news/arti...mentalism.html",2307
4241,"I am sick of the terms ""Latin American"" and ""Latino"" they are just used by the Jewish Mass Media to confuse the issue by calling both White Humans and brown savages by the same name as if there were no difference between them. Either call them white folks and Mestizos, or white folks and savages.",4241
1217,"If it were true that us poor dumb ""racists"" were dragging down White Folks, then just how superior would White Folks be if all of us had not been included in these SAT scores?",1217
3384,"White Folks were here in America for many thousands of years before the first Asian savage set foot here. The White Folks who returned to this White Homeland did not disturb or attack those Asian Savages, the White Folks did everything they could to avoid those Asian Savages;  it was the hateful blood thirsty Asian savages who attacked peaceful innocent White Folks, again, and again, and again, and again... In fact the Asian savages spent a lot of their time attacking other Asian Savages. Just before hateful blood thirsty Asian savages committed a terrible genocide against the peaceful Jamestown Colony, those same Asian savages committed a genocide against a neighboring tribe of Asian savages, eventually leaving no survivors, after they finally finished torturing the last of them to death. A savage is a savage, and will never be anything other than a savage.",3384
1552,"White Folks murdered by black Africans A type of crime that the Jewish Media does not find ""news worthy""",1552
2382,"I is not possible to have an advanced technological society while that society is being dragged down by the dead weight of third world primitive savages. In order to have a white civilization, white folks must be separated from the savages. We are not all the same, they are not like us.",2382
3722,"In my small town, several people have been murdered within a couple of miles of my house, mostly by Mexicans, all the rest by blacks.  Some were just pure HATE CRIMES with no other motive. The Norse say ""Only a fool would go out into his fields without a sword!"" While some groups of White Folks have disappeared completely, the Norse are still around!",3722
133,The very fact that White Folks are afraid to discuss White Genocide in public is proof of just how bad the situation is.,133
11095,"The official story is now that the muslim had a suicide bomb in his backpack. The muslim was heading into the music festival, where there would have been a lot of folks close together for easy kills, but because police were searching backpacks, he got out of line and detonated his bomb at a wine bar instead. The official story is also that the motives of an Islamic jihadi suicide bomber who committed an act of Islamic jihad for Islam are completely unknown.",11095
4637,"When convicted of the crime, the muslim should be burned to death, slowly.",4637
327,"Another race mixed child becomes suicidal - stopped by police officer A race mixed 17 year old male became suicidal and cut himself with a knife. An urgent call was made to police asking for help. A police officer arrived on the scene and was able to stop the teen from committing suicide, by firing 3 or 4 shots in rapid secession, killing the teen on the scene. The officer said the teen ""lunged at him"". Why are so many mixed race children so unhappy? Because they are race mixed freaks, and they seem to come to a point in their life where all they want to do is die. The parents are at fault and should face hard time jail time for what they have done to innocent helpless children! Virginia high schooler threatens suicide, police arrive and kill him | Police State USA",327
206,All of that sluts children were going to wind up on the street anyway.,206
1273,A suspicious children's book Teaching children to keep secrets and be sneaky so parents won't know.,1273
3623,"Jewish Communists claim that Jews had a RIGHT to MURDER MILLIONS of RUSSIAN CHILDREN, because Jews really hate Russians, and likewise Jews really hate all Arabs, so Jews have a Right to murder Arabs. Do those that Jews hate have a reciprocal right?",3623
1765,Child Killed,1765
2873,Murdered 6 year old girl Locked a 6 year old girl out of her apartment on a night that was TWENTY FIVE BELOW ZERO with a wind chill of forty below. Of course the child froze to death.,2873
2628,"I guess that there is some control over black crime: They constantly arrest back children until the first time they are finally tried as an adult, then they put them in prison. Eventually the Niggro is released from prison. The Niggro immediately goes on a crime spree. Often within about three days the Niggro is locked up awaiting trial, and a trip back to prison. I guess that keeps black crime under control to some extent, but not enough!",2628
2087,Children pushed into suicide,2087
4687,"Mestizo murders wife and children Then sets fire to cover up the crime. Immigrant Mass Murder Syndrome in Texas: Hispanic Man Allegedly Murdered His Wife and Three Very Young Children&#226;&#128;&#148;2 Months, 1 Year, and 4 Years Old&#226;&#128;&#148;Before Setting Shed They Lived in on Fire | VDARE.COM",4687
8,Africans murder three children,8
4791,Mestizo stabs 2 young children to death,4791
4806,Murdered 6 year old girl Locked a 6 year old girl out of her apartment on a night that was TWENTY FIVE BELOW ZERO with a wind chill of forty below. Of course the child froze to death.,4806
715,"What do Texans think about a rapist caught in the act being beaten to death? I am not 100% certain that it was a Mexican raping the little girl, but that is highly likely.   To Mexicans there is no such thing as an ""underage"" child and they will rape both boys and girls.   To us it is rape, to Mexicans it is just having a little fun.",715
10227,"The snowflakes claim that anything that is not anti-white is ""hate"". Anything that is anti-white is hate! STOP WHITE GENOCIDE!",10227
8541,A Declaration of War - against White Genocide,8541
3498,When a race traitor gets attacked by the rampaging black horde in a vicious machete attack will the race traitor finally admit that  White Genocide exists? STOP WHITE GENOCIDE!,3498
2653,"Every time the anti-white Jewish media promotes White Genocide, does the FBI log that as a hate crime? No? Well intentionally ignoring White Genocide is a hate crime! STOP WHITE GENOCIDE!",2653
5858,NO REMORSE - Brand New Day,5858
11350,"If the power goes out in Detroit and that leads to chaos and disorder, how could you tell the difference from a normal day in Detroit?",11350
3603,"No Matter What you do, you will Die some day",3603
526,"Africans Attack on Christmas Day White Woman carjacked, kidnapped, beaten, robed, and raped on Christmas Day Woman raped during 5-hour ordeal in her car; 3 arrested - Philly.com",526
12396,"I did hear Alex Jones bashing Hitler one time, he actually referred to him as a ""Nazi"" he must really hate that guy.",12396
13683,"Edward Burlew - ''The Canadian Gun Registry is a Complete Waste of Time'' The ""Right to Self Defense"" does not exist in Canada, or the rest of the UK.",13683
3059,Why didn't any of those innocent French who were being murdered pull out a hand gun and stop that jihadi a long time before he murdered and maimed so many?,3059
7274,Steve Lee - Time To Get A Gun Time To Get A Gun - Steve Lee - YouTube,7274
