,Unnamed: 0,Term,Fq-0,Fq-1,Fq-2,Fq-3,Fq-4,Tfidf-0,Tfidf-1,Tfidf-2,Tfidf-3,Tfidf-4,Prob-0,Prob-1,Prob-2,Prob-3,Prob-4
2674,day,day,49,70,32,41,52,0.03826871260903774,0.17057500538039727,0.08650504272022465,0.03806754368267955,0.03935413877067678,0.0014132329,0.008364102,0.0040047327,0.0008388629600000001,0.0010253375999999999
3947,food,food,14,29,12,22,24,0.010933917888296498,0.07066678794330744,0.032439391020084245,0.02042648685412073,0.018163448663389287,0.00048705647000000005,0.007083484399999999,0.0005333889,0.00058432424,0.0011212832000000001
11352,video,video,39,45,42,33,22,0.030458771260254532,0.10965536060168396,0.11353786857029485,0.030639730281181093,0.016649827941440182,0.0003082209,0.0056733415,0.0046505290000000005,0.0019227603,0.00028573215
5420,isi,isi,2,10,3,5,51,0.0015619882697566426,0.024367857911485324,0.008109847755021061,0.00464238337593653,0.03859732840970223,5.2726099999999997e-05,0.0052541359999999995,0.0,0.0,0.0026189918
1351,brother,brother,6,50,6,6,9,0.004685964809269928,0.12183928955742662,0.016219695510042122,0.005570860051123836,0.006811293248770982,0.0,0.0052134320000000005,6.128114000000001e-06,0.0,5.8377e-05
7899,pepper,pepper,4,34,2,1,1,0.0031239765395132853,0.0828507168990501,0.0054065651700140405,0.000928476675187306,0.0007568103609745535,0.0,0.0049419175,0.0,0.0,1.4275534e-05
11543,water,water,14,38,20,11,15,0.010933917888296498,0.09259786006364423,0.05406565170014041,0.010213243427060368,0.011352155414618304,0.00015925108,0.004553459,0.0013373535999999999,0.00010707397,0.00033083992
4294,girl,girl,4,43,4,22,27,0.0031239765395132853,0.1047817890193869,0.01081313034002808,0.02042648685412073,0.020433879746312947,6.6282514000000004e-06,0.0045371084,0.00019402148999999997,0.00014481098,0.00037732419999999997
9018,riot,riot,4,14,1,11,11,0.0031239765395132853,0.03411500107607945,0.0027032825850070203,0.010213243427060368,0.008324913970720091,0.0,0.004014751400000001,0.0,0.0,7.645207e-05
6486,man,man,35,48,30,38,75,0.027334794720741244,0.11696571797512954,0.08109847755021063,0.03528211365711763,0.056760777073091524,0.0010561893,0.003984523,0.0023436716,0.0015003841,0.0025193265
