,Unnamed: 0,Term,Fq-0,Fq-1,Fq-2,Fq-3,Fq-4,Tfidf-0,Tfidf-1,Tfidf-2,Tfidf-3,Tfidf-4,Prob-0,Prob-1,Prob-2,Prob-3,Prob-4
1026,black,black,19,24,45,257,59,0.014838888562688102,0.05848285898756477,0.12164771632531593,0.23861850552313765,0.044651811297498664,0.0,0.0008763823,0.005667230600000001,0.018453535,0.0004927768000000001
10797,time,time,173,33,71,116,121,0.13511198533394958,0.08041393110790157,0.19193306353549844,0.1077032943217275,0.091574053677921,0.0059983577,0.0024761946,0.0051725474,0.0048833946,0.0032043696999999997
4173,garden,garden,6,37,45,4,7,0.004685964809269928,0.0901610742724957,0.12164771632531593,0.003713906700749224,0.005297672526821875,5.1373572e-05,0.0022687945,0.005165821,0.0,0.00014885368
8062,plant,plant,6,8,32,4,4,0.004685964809269928,0.01949428632918826,0.08650504272022465,0.003713906700749224,0.003027241443898214,4.4751729999999996e-05,0.0,0.005066666,1.4653291e-06,3.4464447e-05
11352,video,video,39,45,42,33,22,0.030458771260254532,0.10965536060168396,0.11353786857029485,0.030639730281181093,0.016649827941440182,0.0003082209,0.0056733415,0.0046505290000000005,0.0019227603,0.00028573215
2389,country,country,8,4,18,10,15,0.0062479530790265705,0.00974714316459413,0.04865908653012637,0.00928476675187306,0.011352155414618304,4.1264493e-06,7.765539e-06,0.0044187335,3.4078e-05,0.00012663264
985,bill,bill,6,2,29,3,15,0.004685964809269928,0.004873571582297065,0.07839519496520359,0.002785430025561918,0.011352155414618304,7.809981e-06,1.2275118000000001e-06,0.004044226,3.276938e-06,5.3901980000000005e-05
2674,day,day,49,70,32,41,52,0.03826871260903774,0.17057500538039727,0.08650504272022465,0.03806754368267955,0.03935413877067678,0.0014132329,0.008364102,0.0040047327,0.0008388629600000001,0.0010253375999999999
4937,home,home,30,13,30,32,57,0.02342982404634964,0.03167821528493092,0.08109847755021063,0.029711253605993786,0.04313819057554955,0.0009780906,0.00060828315,0.0038746484,0.0008690026600000001,0.0024128870000000003
339,amp,amp,96,0,26,1,0,0.1053753605960258,0.0,0.09878360311517906,0.0013049415706680358,0.0,0.0032599242,0.0,0.00339069,0.0,0.0
