,topic_lda,bag_words,sa_score,events,rank
0,4.0,"['french', 'troop', 'free', 'hostage', 'burkina', 'faso']",1,[],0.04862851276993752
17,4.0,"['operation', 'conduct', 'tuesday', 'support', 'french', 'track', 'kidnapper']",1,[],0.04862851276993752
