,text,doc_id
6,"Four foreign hostages have been freed by French forces in the West African country of Burkina Faso, France says.",6
9,Two French soldiers and four kidnappers were killed. Two kidnappers escaped.,9
11,"It took place in the north of Burkina Faso as the kidnappers stopped on their journey towards Mali, the head of the French military said.",11
19,"The two French soldiers who died were killed at close quarters as they entered one of the kidnappers' four shelters, the general said. The commandos did not open fire until the end of the operation, when some of the kidnappers tried to escape.",19
8,During the raid special forces found the kidnappers were also holding a US woman and a South Korean woman.,8
12,Commanders decided to act because the kidnappers were close to the Malian border and were believed to be planning to hand the hostages over to the Mali-based militant group Katiba Macina.,12
40,South Korean media quoted a government official as saying the authorities had had no report of a missing citizen and they were trying to establish the rescued woman's citizenship.,40
14,Burkina Faso - where it’s too dangerous to go to school,14
10,What do we know about the raid?,10
