,Unnamed: 0,Term,Fq-0,Fq-1,Fq-2,Fq-3,Fq-4,Tfidf-0,Tfidf-1,Tfidf-2,Tfidf-3,Tfidf-4,Prob-0,Prob-1,Prob-2,Prob-3,Prob-4
6148,lie,lie,2,53,11,42,24,0.0015384431988864672,0.08314831078190983,0.012268975894437132,0.027263071225057976,0.08107503360614544,2.614107e-05,0.004365057,0.00013156678,0.001449605,0.005865925
1049,black_african,black_african,1,3,7,50,10,0.0007692215994432336,0.0047065081574665935,0.007807530114641811,0.032456037172688065,0.0337812640025606,0.0,4.4609962e-05,7.281387e-05,0.0,0.005674599000000001
327,american,american,25,60,118,69,37,0.01923053998608084,0.09413016314933187,0.13161265050396198,0.04478933129830953,0.12499067680947425,9.801803400000001e-05,0.0039873817,0.004874138,0.002101535,0.0055584274
7910,pepper,pepper,2,7,1,4,11,0.0015384431988864672,0.010981852367422051,0.0011153614449488304,0.002596482973815045,0.03715939040281666,0.0,0.0,0.0,0.0,0.005232432
7785,part,part,60,23,13,20,40,0.04615329596659401,0.03608322920724388,0.014499698784334797,0.012982414869075228,0.1351250560102424,0.0030663738,0.0012755446,0.00034509834999999997,0.0004897421,0.0047890553
8558,question,question,14,7,10,19,17,0.010769102392205271,0.010981852367422051,0.011153614449488305,0.012333294125621466,0.05742814880435303,0.00016285403,3.0475565e-05,5.415964e-06,0.00022868841,0.0047408147
6699,media_mafia,media_mafia,1,21,15,49,21,0.0007692215994432336,0.032945557102266154,0.016730421674232457,0.031806916429234305,0.07094065440537728,0.0,0.00073132117,0.0004337571400000001,0.0007229371700000001,0.004435486
8705,real,real,41,32,29,44,27,0.031538085577172574,0.050202753679643664,0.032345481903516084,0.0285613127119655,0.09120941280691364,0.0012142244,0.0012607569000000001,0.0006796828,0.0008028113000000001,0.004337983
4910,hitler,hitler,0,19,2,39,20,0.0,0.03524250499472922,0.0026374317599597123,0.029931308469952518,0.07988063329195008,0.0,0.001131514,1.1778226e-06,0.0018580734,0.0041573113
3118,dr,dr,8,15,10,1,46,0.006153772795545869,0.023532540787332967,0.011153614449488305,0.0006491207434537612,0.15539381441177874,1.9620851e-05,1.7818944e-05,0.0,0.0,0.003963162
