,Unnamed: 0,Term,Fq-0,Fq-1,Fq-2,Fq-3,Fq-4,Tfidf-0,Tfidf-1,Tfidf-2,Tfidf-3,Tfidf-4,Prob-0,Prob-1,Prob-2,Prob-3,Prob-4
15,african,african,0,3,1,1,2,0.0,0.13255731250991226,0.033960241529816936,0.041258987038399794,0.1063733662953911,1.1527607966854704e-05,0.023559708148241043,0.004918640945106746,0.002082247752696276,0.004570698831230402
197,fact,fact,0,2,0,0,0,0.0,0.15685885304077274,0.0,0.0,0.0,1.0251165804220365e-05,0.010039061307907104,1.2944569789397066e-05,1.2418754522514066e-05,1.816096664697397e-05
207,federal,federal,0,2,1,1,2,0.0,0.08837154167327484,0.033960241529816936,0.041258987038399794,0.1063733662953911,0.0010524534154683352,0.009581930004060268,0.0014554361114278436,0.00707885529845953,0.0035429839044809346
289,honor,honor,0,1,1,0,0,0.0,0.06327636748482147,0.04863286714763409,0.0,0.0,0.00020487789879553017,0.009391165338456629,0.0018350658938288686,1.2156042430433446e-05,1.816760232031811e-05
288,homosexual,homosexual,0,3,0,1,0,0.0,0.18982910245446444,0.0,0.05908505784691544,0.0,1.0934164492937269e-05,0.009363879449665545,0.0002323433582205325,0.0017633389215916395,3.074574124184437e-05
347,mafia,mafia,1,1,1,0,0,0.03838807098976193,0.05252510100057301,0.04036967291919343,0.0,0.0,0.001760367420502007,0.007604243699461222,0.000540264998562634,0.0003824931918643415,2.3617862098035406e-05
352,man,man,1,1,2,1,0,0.032293255515980536,0.04418577083663742,0.06792048305963387,0.041258987038399794,0.0,0.002020223997533321,0.007594854570925236,0.0037608013954013595,0.003622426418587565,1.838999742176384e-05
525,side,side,1,1,1,0,0,0.03838807098976193,0.05252510100057301,0.04036967291919343,0.0,0.0,0.002512602135539055,0.0075648841448128215,0.0017609803471714258,0.00015132213593460617,0.00032309681409969926
537,society,society,1,2,0,0,0,0.04624565475761943,0.12655273496964295,0.0,0.0,0.0,0.0014028623700141909,0.007343438919633627,1.2937510291521905e-05,2.6161595087614842e-05,1.8303911929251623e-05
418,patriot,patriot,1,1,0,0,0,0.04624565475761943,0.06327636748482147,0.0,0.0,0.0,0.0012545865029096606,0.007206209469586611,1.250637160410406e-05,0.00014278700109571218,1.7760989067028273e-05
