,topic_lda,bag_words,sa_score,events,rank
8,1.0,"['african', 'murder', 'child']",-1,[],0.023559017106890682
3,1.0,"['homosexual', 'anti-gun', 'mayor', 'jail', 'gun', 'crime']",-1,[],0.009363075718283652
65,1.0,"['homosexual', 'liveleak.com', 'comprehensive', 'list', 'serial', 'killer', 'homosexual']",-1,[],0.009363075718283652
