,topic_lda,bag_words,sa_score,events
15,3.0,"['gun', 'show', 'weekend']",0,[]
19,3.0,['silver'],0,[]
20,3.0,"['banker', 'sell', 'ounce', 'paper', 'gold', 'certificate', 'ounce', 'gold', 'position']",0,[]
21,3.0,"['interest', 'item', 'ar', 'accessory']",0,[]
27,3.0,['jew'],0,[]
34,3.0,"['whitey', 'fault', 'african', 'shoot', 'african', 'rap', 'african', 'african', 'show', 'school', 'african', 'homework', 'african', 'passing', 'grade', 'african', 'bed', 'work']",0,[]
35,3.0,"['rifle', 'ammo', 'buy', 'rifle', 'price']",0,[]
57,3.0,"['accuracy', 'customer', 'supply', 'target', 'dpms', 'website']",0,[]
71,3.0,"['bother', 'point', 'medium', 'mafia', 'lie', 'address', 'item', 'item', 'point', 'national', 'socialist', 'globalists', 'world', 'order', 'communist', 'world', 'government', 'nazi', 'nazi', 'time', 'good', 'work', 'fight', 'communist', 'lie', 'truth']",0,[]
78,3.0,"['bill', 'whittle', 'cnn', 'reporting', 'truth']",0,[]
80,3.0,"['latest', 'homosexual', 'study', 'lesbian']",0,[]
85,3.0,"['african', 'beast', 'human', 'deal', 'african', 'force']",0,[]
95,3.0,"['wound', 'soldier']",0,[]
96,3.0,"['ally', 'france', 'bombing', 'campaign', 'kill', 'french', 'ally', 'save', 'french', 'survivor', 'rap', 'french', 'child', 'buy', 'ally', 'federal', 'african', 'ally', 'turkish', 'troop', 'rape', 'pillage', 'asian', 'russian', 'rape', 'gang', 'save']",0,[]
