Aracay,Info/eBooks/Relationships/Sex,The Three Keys To Seducing Any Woman,High Quality eBook (22 Page PDF File)  Table of Contents  Key #1... Fear Management Why Do You Fear Being Rejected By a Woman? Toxic Shame: The Invisible Psychic Monster The Prison of Self-Def ...,0.035509031212121206 BTC,Torland,,4.97/5,
Aracay,Info/eBooks/Relationships/Sex,Become An Alpha Male & Get All The Women You Desire,High Quality eBook (21 Page PDF File)  Table of Contents Foreword.....2 How This Product is Different.....2 Introduction.....4 CHAPTER 1: The Truth About Women's Love of Sex...It May Surprise Y ...,0.035350153265306106 BTC,Torland,,4.97/5,
captainkirk,Info/eBooks/Relationships/Sex,Wicked Quickies: 52 Ways to Get it On Anytime  Anywhere,A hasty coupling can add a little jolt to the day  a little satisfaction on the go. Wicked Quickies is your guide to such fast and furious action: it's an entire year's worth of spontaneous ecstasy.  ...,0.00406924385135135 BTC,Internet,Everywhere,4.980/5,
Aracay,Info/eBooks/Relationships/Sex,101 Romantic Ideas,High Quality Guide (33 Page PDF File) 101 Romantic Ideas for you to share with your boy/girlfriend or partner. Start boosting your relationship today!,0.03534999061224492 BTC,Torland,,4.97/5,
WeedSensation,Info/eBooks/Relationships/Sex,Black Book of Lie Detection,Black Book of Detection Lies by Martin Soorjoo  With this book you will Learn how to see somebody doesnt speak the truth.  How it works? Just place an order  within 24 hours you will receive a  ...,0.0031078844444444448 BTC,Torland,,5.00/5,
Aracay,Info/eBooks/Relationships/Sex,How To Get Email & Phone Number Of A Sexy Girl In Minutes,High Quality eBook (9 Page PDF File) You Will Learn Powerful Dating Tactics In This Great eBook – It Really Works!,0.0354081675257732 BTC,Torland,,4.97/5,
Aracay,Info/eBooks/Relationships/Sex,The 5 Types of Women,High Quality Guide (9 Page PDF File) In this brief guide  I am going to show you the 5 types of women you can categorize just about each profile and personality into.  Now  remember that this only  ...,0.035663851855670094 BTC,Torland,,4.97/5,
Aracay,Info/eBooks/Relationships/Sex,Recognizing Deception Profiles & Women,High Quality eBook (5 Page PDF File) Here is a brief report on recognizing which profiles to avoid depending on what you are looking for.,0.017697895980392148 BTC,Torland,,4.97/5,
captainkirk,Info/eBooks/Relationships/Sex,Body Language: How to Read Others' Thoughts by Their Gestures,We all know that what people say is often very different from what they think or feel. Now with Body Language  you can learn to read others' thoughts by their gestures. You can use it to tell if some ...,0.004069879509803921 BTC,Internet,Everywhere,4.980/5,
captainkirk,Info/eBooks/Relationships/Sex,The Body Language of Sex  Power & Aggression,The author of Body Language answers specific questions about non-verbal communication as it affects material success and personal happiness  -------------------------------------------------------- ...,0.004042878767123285 BTC,Internet,Everywhere,4.980/5,
dionysos,Info/eBooks/Relationships/Sex,Collection of sex comics,Collection of sex comics  format: pdf  JPEG  size: 325 MB    Alice in wonderland Battle Angel Alita vol.7 Eccentric teacher Etsuko Fairie fetish 1 Fairie fetish 2 God of sex 2 God of se ...,0.016352637192982463 BTC,Internet,,~5/5,
dionysos,Info/eBooks/Relationships/Sex,Das Kamasutra - Die Kunst der Sinnlichkeit,Das Kamasutra - Die Kunst der Sinnlichkeit (Anne Hooper)   format: pdf  size: 121 pages  7.6 MB  language: german  Inhalt:  Vorbereitung auf die Liebe Berühren und Liebkosen Küssen Kama ...,0.008168352280701752 BTC,Internet,,~5/5,
dionysos,Info/eBooks/Relationships/Sex,Collection of sex ebooks,Collection of sex ebooks  format: pdf  size: 174 MB   The Kama Sutra (Ebook - Deutsch - Erotik) Lou Paget - Der Perfekte Liebhaber (Ebook - Erotic - German - Bdsm) Das Bondage Internat (Ebo ...,0.016210755593220348 BTC,Internet,,~5/5,
dionysos,Info/eBooks/Relationships/Sex,How to make love all night and drive a women wild,How to make love all night and drive a women wild (Dr. Barbara Keesling)  format: pdf  size: 80 pages  399 KB   CONTENTS Introduction Acknowledgments ONE Making Fantasy a Reality TWO Meet  ...,0.008113940677966107 BTC,Internet,,~5/5,
dionysos,Info/eBooks/Relationships/Sex,Great sex tips (Anne Hooper),Great sex tips (Anne Hooper)   format: pdf  size: 122 pages  26 MB   If you buy this ebook I submit a link and a password. The ebook is packed and encrypted in a self extracting 7 zip file. U ...,0.016155005166666674 BTC,Internet,,~5/5,
dionysos,Info/eBooks/Relationships/Sex,All about women - The Encyclopedia of Seduction,All about women - The Encyclopedia of Seduction (Guiseppe Notte)  format: pdf  size: 73 pages  1.3 MB    Introduction  PART ONE Being a woman  If only I were a woman ...  What a girl wan ...,0.008097349500000003 BTC,Internet,,~5/5,
dionysos,Info/eBooks/Relationships/Sex,The Art of femal ejaculation - How any woman can achieve the best orgasms through female ejaculation,The Art of femal ejaculation - How any woman can achieve the best orgasms through female ejaculation (Lisa S. Longhofer)  format: pdf  size: 184 pages  2.8 MB   Contents Foreword A Note To Y ...,0.008092251333333337 BTC,Internet,,~5/5,
dionysos,Info/eBooks/Relationships/Sex,Idiots Guide to Tantric Sex,Complete Idiots Guide to Tantric Sex (Dr. Judy Kuriansky)  format: pdf  size: 387 pages  4.5 MB   Contents Part 1: An Introduction to Tantric Sex: The Spiritual Path to Sacred Love What Is  ...,0.008155815789473686 BTC,Internet,,~5/5,
dionysos,Info/eBooks/Relationships/Sex,Sexual secrets - The alchemy of ecstasy,Sexual secrets - The alchemy of ecstasy (Nik Douglas  Penny Slinger)   format: pdf  size: 353 pages  17.4 MB   CONTENTS new discoveries on the origins of the secrets  ix preface to the 20th ...,0.008146746206896552 BTC,Internet,,~5/5,
dionysos,Info/eBooks/Relationships/Sex,Sex for dummies,Sex for dummies (Dr. Ruth K. Westheimer)   format: pdf  size: 433 pages  6.1 MB   Table of Contents Introduction. About This Book Conventions Used in This Book Foolish Assumptions Organiz ...,0.008161084827586205 BTC,Internet,,~5/5,
dionysos,Info/eBooks/Relationships/Sex,erotic massage - The tantric touch of love,erotic massage - The tantric touch of love (Kenneth Ray Stubbs)   format: pdf  size: 113 pages  2.6 MB   CONTENTS INVITATION INTRODUCTION WHAT YOU NEED MEDITATIVE MASSAGE GUIDELINES REMI ...,0.008092251333333337 BTC,Internet,,~5/5,
dionysos,Info/eBooks/Relationships/Sex,Collection of dating ebooks,Collection of dating ebooks  format: pdf size: 131.7 MB    Defeat Shyness Double your dating (David DeAngelo) The Juggler Method (Juggler) GunWitch Method How To Get Into Threesomes Juggl ...,0.016199148103448274 BTC,Internet,,~5/5,
dionysos,Info/eBooks/Relationships/Sex,Understanding the G SPOT and Female Sexuality,Understanding the G-SPOT and Female Sexuality A 10-Step Guide  for Unleashing the Ultimate in Female Ecstasy (Donald L. Hicks )  format: pdf  size: 121 pages  389 KB   Table of Contents Cha ...,0.008084032786885248 BTC,Internet,,~5/5,
dionysos,Info/eBooks/Relationships/Sex,Langenscheidts Deutsch-Frau  Frau-Deutsch,Langenscheidts Deutsch-Frau  Frau-Deutsch (Mario Barth)   format: pdf  size: 128 pages  17 MB     If you buy this ebook I submit a link and a password. The ebook is packed and encrypted in  ...,0.008160981896551725 BTC,Internet,,~5/5,
Optumis,Info/eBooks/Relationships/Sex,Penis Enlargement Secrets that works (Video),Don’t Settle for an Unusually Smaller Size When It Comes to Your Penis –Naturally Enhance Your Organ Quickly & Effectively. Chances are  you've always been fascinated by your penis – since you were  ...,0.010670021874999996 BTC,,WorldWide,4.96/5,
montana1933,Info/eBooks/Relationships/Sex,The best GET LAID GUIDE ON EARTH,Here’s what this guide can do for you: -Get any woman you want without having to resort to dishonest tricks -Stop using canned pick-up lines and other generic techniques that don’t work -Make wome ...,0.0031828866283524896 BTC,Internet,,4.91/5,
Thrills,Info/eBooks/Relationships/Sex,How to Talk to Anyone: 92 Little Tricks for Big Success in Relationships,"You'll not only break the ice  you'll melt it away with your new skills. -- Larry King  ""The lost art of verbal communication may be revitalized by Leil Lowndes."" -- Harvey McKay  author of “How  ...",0.0020443712121212118 BTC,Internet,,5.00/5,
captainkirk,Info/eBooks/Relationships/Sex,The 4-Hour Body: An Uncommon Guide to Rapid Fat-Loss  Incredible Sex,The 4-Hour Body: An Uncommon Guide to Rapid Fat-Loss  Incredible Sex  and Becoming Superhuman   ----------------------------------------------------------  Thinner  bigger  faster  stronger... wh ...,0.004011644999999998 BTC,Internet,Everywhere,4.978/5,
Thrills,Info/eBooks/Relationships/Sex,How to Have Multiple Orgasms,I want to share some of the strange things that have happened to me since the original edition of my book came out over a year ago. The reactions of both men and women have been extremely interesting ...,0.0122212390625 BTC,Torland,,5.00/5,
Optumis,Info/eBooks/Relationships/Sex,Cooking Basics For Dummies 5E (2014),PDF File 456 pages November 2014 Cost $22.99 at Dummies Store. ------------------------------------------- Get started cooking now with Cooking Basics For Dummies  5th Edition!  Are you lookin ...,0.004038389264705883 BTC,,,4.97/5,
Optumis,Info/eBooks/Relationships/Sex,Bartending For Dummies 5th Edtion,Make and serve drinks like a pro  This latest edition of Bartending For Dummies features over 1 000 drink recipes in an A-Z format with clear  easy-to-follow instructions. This 5th Edition also pro ...,0.0047311557692307675 BTC,,,4.97/5,
Optumis,Info/eBooks/Relationships/Sex,Attract The Right Girl: How To Find Your Perfect Girl And Make Her Chase You For A Relationship,Attract The Right Girl: How To Find Your Perfect Girl And Make Her Chase You For A Relationship,0.004044060070422535 BTC,,,4.97/5,
Thrills,Info/eBooks/Relationships/Sex,How To Talk So People Listen: The Real Key to Job Success,Whether making a presentation or dealing one on one  interacting at a meeting or just answering questions  do others listen when you talk? This book explains how to communicate successfully so people ...,0.0037310957142857137 BTC,,,4.988/5,
Thrills,Info/eBooks/Relationships/Sex,Dealing with Difficult People: 24 lessons,These quick reads  based on McGraw-Hill bestsellers  are designed to meet the needs of busy people. Titles in the series focus on each book's main themes and action ideas  reduced to a manageable pag ...,0.0037171663636363637 BTC,,,4.988/5,
captainkirk,Info/eBooks/Relationships/Sex,Lolita: Vladimir Nabokov,Awe and exhiliration--along with heartbreak and mordant wit--abound in Lolita  Nabokov's most famous and controversial novel  which tells the story of the aging Humbert Humbert's obsessive  devouring ...,0.004063478735632186 BTC,Internet,Everywhere,4.976/5,
Thrills,Info/eBooks/Relationships/Sex,Wicked Quickies: 52 Ways to Get it On Anytime  Anywhere,A hasty coupling can add a little jolt to the day  a little satisfaction on the go. Wicked Quickies is your guide to such fast and furious action: it's an entire year's worth of spontaneous ecstasy.  ...,0.0037310957142857137 BTC,,,4.988/5,
Thrills,Info/eBooks/Relationships/Sex,Body Language: How to Read Others' Thoughts by Their Gestures,We all know that what people say is often very different from what they think or feel. Now with Body Language  you can learn to read others' thoughts by their gestures. You can use it to tell if some ...,0.0037310957142857137 BTC,,,4.988/5,
Thrills,Info/eBooks/Relationships/Sex,Invisible Viagra: Regain All the Confidence  Control  and Satisfaction in the Bedroom,"Imagine being able to instantly get a strong  rock-hard erection ...and always be ""ready"" to ravish your willing and impressed lover...whenever you want. (It's like ""tricking"" your body and mind into ...",0.0037310957142857137 BTC,,,4.988/5,
Optumis,Info/eBooks/Relationships/Sex,Pregnancy For Dummies,Pregnancy For Dummies,0.004857195151515154 BTC,,,4.97/5,
Optumis,Info/eBooks/Relationships/Sex,Manskills: How to Avoid Embarrassing Yourself and Impress Everyone Else,Manskills: How to Avoid Embarrassing Yourself and Impress Everyone Else,0.004032658101265824 BTC,,,4.97/5,
Optumis,Info/eBooks/Relationships/Sex,The Big Book of Glamour: 200 Secrets for Easier  Quicker and More Dynamic Photography,The Big Book of Glamour: 200 Secrets for Easier  Quicker and More Dynamic Photography,0.004045239393939393 BTC,,,4.97/5,
Optumis,Info/eBooks/Relationships/Sex,How to Give Her Absolute Pleasure,How to Give Her Absolute Pleasure Totally Explicit Techniques Every Woman Wants Her Man to Know,0.004035299052631577 BTC,,,4.97/5,
RichDadPoorDad,Info/eBooks/Relationships/Sex,FOCUS T25 WORKOUT,"FOCUS T25 WORKOUT  ""COME ON  IT'S 25 MINUTES. I KNOW YOU CAN DO THIS.""  I know you're busy. But anybody can find 25 minutes in their day to work out. And with FOCUS T25  that's all you'll need. I ...",0.08055078833333335 BTC,Internet,,4.94/5,
Optumis,Info/eBooks/Relationships/Sex,How To Solve Almost Any Sexual Problem The Easy Way,How To Solve Almost Any Sexual Problem The Easy Way,0.004033189139784948 BTC,,,4.97/5,
RichDadPoorDad,Info/eBooks/Relationships/Sex,BEACH BODY 10 Minute Trainer,HERE'S WHY 10-MINUTE TRAINER DOES WORK  The bottom line— if you want results  you have to work for them. With 10-Minute Trainer  I found a way to fit a lot of work... into just 10 minutes. The spor ...,0.059603046428571435 BTC,Internet,,4.94/5,
TheDigital,Info/eBooks/Economy,BUSINESS POTENTIAL  3 900 000 + Adult/Porn/Sex related TARGETED emails,BUSINESS POTENTIAL 3 900 000 + Adult/Porn/Sex related TARGETED emails,4.0764755166666635 BTC,,,5.00/5,Average price may be skewed outliar > .5 BTC found
TheDigital,Data/Accounts,3 900 000 + Adult/Porn/Sex related TARGETED emails,Buy 3 900 000 + Adult/Porn/Sex related TARGETED emails     OTHER LISTINGS  Over 50 000 000 Targeted e-mails Country/Porn/Business/Military/Bank/Cosmetics/Loan/Financial/General/Other  What a ...,4.0332793166666665 BTC,,,5.00/5,Average price may be skewed outliar > .5 BTC found
TheDigital,Data/Accounts,Buy 3 900 000 + Adult/Porn/Sex related TARGETED emails,Buy 3 900 000 + Adult/Porn/Sex related TARGETED emails     OTHER LISTINGS  Over 50 000 000 Targeted e-mails Country/Porn/Business/Military/Bank/Cosmetics/Loan/Financial/General/Other  What a ...,4.104220153571428 BTC,,,5.00/5,Average price may be skewed outliar > .5 BTC found
Optumis,Info/eBooks/Relationships/Sex,HOW IT WORKS Annual. 1000s Of Amazing Facts Inside. Vol 3,HOW IT WORKS Annual. 1000s Of Amazing Facts Inside. Vol 3,0.005691629888888888 BTC,,,4.95/5,
Optumis,Info/eBooks/Relationships/Sex,100 Questions & Answers About Anxiety,100 Questions & Answers About Anxiety,0.004559566341463414 BTC,,,4.95/5,
Optumis,Info/eBooks/Relationships/Sex,Allen Carr's Easy Way to Stop Smoking: Be a Happy Non-smoker for the Rest of Your Life,Allen Carr's Easy Way to Stop Smoking: Be a Happy Non-smoker for the Rest of Your Life,0.005848567142857144 BTC,,,4.95/5,
Optumis,Info/eBooks/Relationships/Sex,Bad Habits & Addictions,What to Do When You Don't Know What to Do: Bad Habits & Addictions: Bad Habits & Addictions,0.005208338150684929 BTC,,,4.95/5,
Optumis,Info/eBooks/Relationships/Sex,Fight: Everything You Ever Wanted to Know About Ass-Kicking,Fight: Everything You Ever Wanted to Know About Ass-Kicking but Were Afraid You'd Get Your Ass Kicked for Asking by Robinson  Eugene,0.005671464423076926 BTC,,,4.95/5,
Optumis,Info/eBooks/Relationships/Sex,Wine for Dummies,Wine for Dummies,0.004664505867768595 BTC,,,4.95/5,
TheDigital,Info/eBooks/Relationships/Sex,PORN ! Twistys Premium Account  - LIFETIME,Website: http://www.twistys.com   Twistys is a site that boggles the mind as well as the eyes. Let’s look at the numbers first: 600 000+ Full Sized Photos  14 000+ Action Filled Video Clips  1 600+  ...,0.04334947198113207 BTC,Torland,,4.81/5,
Optumis,Info/eBooks/Relationships/Sex,By Melinda Holmes Blow Her Mind: His Illustrated Guide to Orgasmic Oral Sex,By Melinda Holmes Blow Her Mind: His Illustrated Guide to Orgasmic Oral Sex So Good She'll Tell her Friends Abou,0.006302219999999999 BTC,,,4.95/5,
Optumis,Info/eBooks/Relationships/Sex,100 Questions & Answers About Aging Skin,100 Questions & Answers About Aging Skin,0.005012751525423728 BTC,,,4.95/5,
Optumis,Info/eBooks/Relationships/Sex,Hair Loss and Replacement For Dummies,What are the causes of hair loss? Can you prevent it? Can lost hair be restored? Hair Loss & Replacement For Dummies helps you understand why men and women lose their hair and offers thorough  object ...,0.006745637966101693 BTC,,,4.95/5,
Optumis,Info/eBooks/Relationships/Sex,The Secrets of Happy Families,The Secrets of Happy Families,0.005200209795918369 BTC,,,4.95/5,
optiman,Info/eBooks/Relationships/Sex,How to Make Love all Night (eBook),Stating that men can achieve multiple orgasm  a guide to more satisfying sex provides easy-to-follow exercises and secret techniques that help to prolong lovemaking for both partners.  Have fun    ...,0.01250626 BTC,Torland,PM,4.954/5,
Thrills,Info/eBooks/Relationships/Sex,Bikini Body Guide HELP Nutrition by Kayla Itsines,Hey you! Thanks for downloading. Please read the full description:  FAQ:  1 - How do I open this file? A - This file is a .PDF. When you finish downloading  open it with Adobe Reader  it should ...,0.0037945426315789473 BTC,,,4.874/5,
Thrills,Info/eBooks/Relationships/Sex,Artful Persuasion: How to Command Attention  Change Minds  and Influence People,There's really nothing mysterious about getting people to change their minds. No special  inborn gifts. No subliminal tricks. Instead  the best persuaders - advertisers  salespeople  politicians  spi ...,0.0037760479999999997 BTC,,,4.874/5,
klicka,Info/eBooks/Relationships/Sex,How to get more energy and better sex,Hi and thanks for stepping by!  Name: 50 shades of herbs. The best natural remedies for better sex  better sleep and more energy.  This e-book will info that not anyone knows. It's not magic  eve ...,0.004100347826086956 BTC,,,5.00/5,
captainkirk,Info/eBooks/Relationships/Sex,How to Give Her Absolute Pleasure,How to Give Her Absolute Pleasure: Totally Explicit Techniques Every Woman Wants Her Man to Know  Harmony Lou Paget 2000  Language: English ISBN-10: 0767904524 ISBN-13: 978-0767904520 PDF  2 ...,0.0041201415873015875 BTC,Internet,Everywhere,4.977/5,
optiman,Info/eBooks/Relationships/Sex,#1 EROTIC STORIES (eBook),217 pages with 100 sexy stories :)   Here is a taste from the book:   STORY #5 WAKE UP It was earlier than usual when Tom opened his eyes from a good nights sleep  and while looking over at G ...,0.01250626 BTC,Torland,PM,4.954/5,
captainkirk,Info/eBooks/Relationships/Sex,Ultimate Ejaculation Mastery,Make Love For Hours With Unlimited Sexual Stamina: Learn to prevent premature ejaculation forever naturally with our best-selling ebook for men and their lovers  Ultimate Ejaculation Mastery. It offe ...,0.00414774611111111 BTC,Internet,Everywhere,4.977/5,
Optumis,Info/eBooks/Relationships/Sex,100 Questions & Answers About Your Daughter's Sexual Wellness and Development,100 Questions & Answers About Your Daughter's Sexual Wellness and Development,0.005214688032786887 BTC,,,4.95/5,
Optumis,Info/eBooks/Relationships/Sex,Great in Bed,Book Description  Everyone wants to have great sex. Now everyone can!   Written by Dr. Debby Herbenick and Grant Stoddard  two of the world's most highly esteemed sex experts  Great in Bed is a  ...,0.0057188048936170225 BTC,,,4.95/5,
Optumis,Info/eBooks/Relationships/Sex,Cooking Well: Honey for Health & Beauty: Over 75 Recipes  Remedies and Natural Treatments,Book Description Discover the proven and powerful health  beauty and healing properties of nature’s miracle medicine: honey.  For millions of years  bees have worked tirelessly to create nature’s  ...,0.005688617631578946 BTC,,,4.95/5,
Optumis,Info/eBooks/Relationships/Sex,Tim Gunn: A Guide to Quality  Taste and Style,Tim Gunn: A Guide to Quality  Taste and Style,0.00415919 BTC,,,4.95/5,
Optumis,Info/eBooks/Relationships/Sex,The Whole Foot Book,The Whole Foot Book,0.005200692266666669 BTC,,,4.95/5,
Optumis,Info/eBooks/Relationships/Sex,Saw Palmetto Hair Loss: Healthy Long Hair Loss Prevention and Fast Regrowth!,Saw Palmetto Hair Loss: Healthy Long Hair Loss Prevention and Fast Regrowth! Grow Beautiful  Healthy  Natural,0.006949464473684212 BTC,,,4.95/5,
Optumis,Info/eBooks/Relationships/Sex,HomeMade: 101 Easy-to-Make Things for Your Garden  Home  or Farm,HomeMade: 101 Easy-to-Make Things for Your Garden  Home  or Farm,0.0056898696610169506 BTC,,,4.95/5,
Optumis,Info/eBooks/Relationships/Sex,How to Build A Happy Family,How to Build A Happy Family,0.0052093871999999986 BTC,,,4.95/5,
Optumis,Info/eBooks/Relationships/Sex,100 Questions & Answers About How to Quit Smoking,100 Questions & Answers About How to Quit Smoking,0.00522484753731343 BTC,,,4.95/5,
Optumis,Info/eBooks/Relationships/Sex,Being Logical: A Guide to Good Thinking,Whether regarded as a science  an art  or a skill–and it can properly be regarded as all three–logic is the basis of our ability to think  analyze  argue  and communicate. Indeed  logic goes to the v ...,0.005653881913043477 BTC,,,4.95/5,
Optumis,Info/eBooks/Relationships/Sex,Everything You Know About Sex Is Wrong: The Disinformation Guide to the Extremes of Human Sexuality,Book Description  Orgasms  sexual inventions  spirituality  high-tech porn  gender-blending  hustling  masturbation  politics  airplane sex  disabilities  sex magick  biblical erotica  advertising  ...,0.005666974563106798 BTC,,,4.95/5,
Optumis,Info/eBooks/Relationships/Sex,Talk Less  Say More: Three Habits to Influence Others and Make Things Happen,Talk Less  Say More: Three Habits to Influence Others and Make Things Happen,0.005653784846153844 BTC,,,4.95/5,
Optumis,Info/eBooks/Relationships/Sex,100 Questions & Answers About Restless Legs Syndrome,100 Questions & Answers About Restless Legs Syndrome,0.0052170956321839134 BTC,,,4.95/5,
optiman,Info/eBooks/Relationships/Sex,How To Make Anyone Fall In Love With You (eBook),Here  from bestselling author Leil Lowndes  is a surefire guide to love for anyone seeking romantic bliss. In How to Make Anyone Fall in Love with You readers will find 85 techniques based on scienti ...,0.012505537692307693 BTC,Torland,PM,4.954/5,
klicka,Info/eBooks/Relationships/Sex,How to solve almost any sex problem,Hi and thanks for stepping by!  This ebook will teach you how to solve your relationship problem and teach you how to stay away from them.  This e-book will info that not anyone knows. It's not m ...,0.004100347826086956 BTC,,,5.00/5,
klicka,Info/eBooks/Relationships/Sex,Penis enlargement handbook,Hi and thanks for stepping by!  This ebook will teach you how to train you penis so it will grow bigger!  This e-book will info that not anyone knows. It's not magic  everyone can do it.   (Eve ...,0.007450628749999998 BTC,,,5.00/5,
optiman,Info/eBooks/Relationships/Sex,How To Dominate Women (eBook),"Instant Results! Puts you in control of women forever! ""If men knew how women thought  they would be ten times more bold!"" - Sigmund Freud HOW TO DOMINATE WOMEN is written in a clear  easy-to-follow ...",0.01250626 BTC,Torland,PM,4.954/5,
Optumis,Info/eBooks/Relationships/Sex,Discovering Your Couple Sexual Style: Sharing Desire  Pleasure  and Satisfaction,Think all sex should be earth shattering? The quality of most couple sex doesn’t measure up to the much distorted image of the perfect romantic love/passionate sex encounter portrayed in popular cult ...,0.005662595890410962 BTC,,,4.95/5,
fake,Info/eBooks/Relationships/Sex,ANAL SEX TUTORIAL : HOW TO MAKE HER LOVE ANAL SEX,THE COMPLETE ANAL SEX TUTORIAL  HOW TO MAKE HER LOVE ANAL SEX,0.016666934615384623 BTC,,,4.810/5,
Optumis,Info/eBooks/Relationships/Sex,Connoisseur's Sex Guide,Following in the footsteps of the bestselling Great Sex Guide and Kama Sutra  the Connoisseur's Sex Guide if the perfect manual for couples looking for new ideas to vary and expand their sexual reper ...,0.005663132291666667 BTC,,,4.95/5,
Optumis,Info/eBooks/Relationships/Sex,Don't Be That Guy: A Collection of 60 Annoying Guys We All Know and Wish We Didn't,Don't Be That Guy: A Collection of 60 Annoying Guys We All Know and Wish We Didn't,0.005656554470588235 BTC,,,4.95/5,
Optumis,Info/eBooks/Relationships/Sex,Nature's Tools for Enhancing Your Health  Happiness  Family  and Work,The Genius of Instinct: Reclaim Mother Nature's Tools for Enhancing Your Health  Happiness  Family  and Work,0.005217060344827587 BTC,,,4.95/5,
Optumis,Info/eBooks/Relationships/Sex,Effective Public Relations,"Learn all you need to know about how to generate and manage publicity - from recognising public relations opportunities to creating and sustaining media coverage. ""Effective Public Relations"" not onl ...",0.0056708803225806485 BTC,,,4.95/5,
Optumis,Info/eBooks/Relationships/Sex,Chris Eudaley - How To Be A Pot Star Like Me,Chris Eudaley - How To Be A Pot Star Like Me,0.005816773548387096 BTC,,,4.99/5,
Optumis,Info/eBooks/Relationships/Sex,How to Think About Weird Things Fourth 4th Edition,How to Think About Weird Things Fourth 4th Edition,0.005701217384615388 BTC,,,4.99/5,
Optumis,Info/eBooks/Relationships/Sex,How To Talk To Absolutely Anyone: Confident Communication in Every Situation,How To Talk To Absolutely Anyone: Confident Communication in Every Situation,0.00569158041666667 BTC,,,4.99/5,
Optumis,Info/eBooks/Relationships/Sex,Loving Sex: The book of joy and passion,Loving Sex: The book of joy and passion,0.0050612215625 BTC,,,4.99/5,
XXiB,Info/eBooks/Relationships/Sex,The Tao of Badass: Become A Badass with Women + 4 Bonus Books,"eBook Format: PDF We will provide you a download link as well as a username and password.  Info from the author - Joshua Pellicer  ""There are very few things in life that I'm ABSOLUTELY certain  ...",0.017286067999999998 BTC,Torland,,5.00/5,
XXiB,Info/eBooks/Relationships/Sex,How to get a girls number in 3 minutes - $0.10,eBook Format: PDF We will provide you a download link as well as a username and password.  This is a very short (a little over 1 page) guide on how to get any girl's number in three minutes.  Us ...,0.000432148 BTC,Torland,,5.00/5,
Optumis,Info/eBooks/Relationships/Sex,Getting Everything You Can Out of All You've Got: 21 Ways You Can Out-Think,Getting Everything You Can Out of All You've Got: 21 Ways You Can Out-Think  Out-Perform  and Out-Earn the Competition by Abraham  Jay,0.005696785156250001 BTC,,,4.99/5,
Optumis,Info/eBooks/Relationships/Sex,How to Make Love to a Woman: 69 Orgasmic Ways to Have Mind-Blowing Sex,How to Make Love to a Woman: 69 Orgasmic Ways to Have Mind-Blowing Sex,0.005701226428571432 BTC,,,4.99/5,
Optumis,Info/eBooks/Relationships/Sex,It's True! You Can Make Your Own Jokes (It's True!),It's True! You Can Make Your Own Jokes (It's True!),0.005692805909090912 BTC,,,4.99/5,
RichDadPoorDad,Info/eBooks/Relationships/Sex,BEACHBODY 21 DAY FIX Workout,BEACHBODY 21 DAY FIX Workout  21 DAY FIX with Autumn Calabrese  Simple Fitness. Simple Eating. Fast Results.  Want amazing results in 21 days?  Then all you need is 21 Day Fix.  Achieving  ...,0.06374647777777777 BTC,USA,,4.94/5,
RichDadPoorDad,Info/eBooks/Relationships/Sex,BEACHBODY 10 Minute Trainer,HERE'S WHY 10-MINUTE TRAINER DOES WORK  The bottom line— if you want results  you have to work for them. With 10-Minute Trainer  I found a way to fit a lot of work... into just 10 minutes. The spor ...,0.04242658333333333 BTC,USA,,4.94/5,
RichDadPoorDad,Info/eBooks/Relationships/Sex,BEACHBODY Brazil Butt Lift Workout,BEACHBODY Brazil Butt Lift Workout  GET SUPERMODEL SEXY IN 60 DAYS  You know that look? The one you used to get all the time? Worried that it's gone forever?  Well  what if there were a super-f ...,0.06374647777777777 BTC,USA,,4.94/5,
RichDadPoorDad,Info/eBooks/Relationships/Sex,BEACHBODY INSANITY MAX:30 Workout,BEACHBODY INSANITY MAX:30 Workout  GOT 30 MINUTES TO GET IN THE BEST SHAPE OF YOUR LIFE?  SERIOUSLY—A HALF HOUR A DAY IS ALL IT TAKES.  Real people have lost up to 33 lbs. in 60 days using abso ...,0.08506637111111112 BTC,USA,,4.94/5,
RichDadPoorDad,Info/eBooks/Relationships/Sex,BEACHBODY P90X Workout,BEACHBODY PX90 WORKOUT  P90X is a revolutionary system of 12 life-changing workouts. You also get a comprehensive 3-Phase Nutrition Plan  a detailed Fitness Guide  a P90X Calendar and tracking work ...,0.08506637111111112 BTC,USA,,4.94/5,
RichDadPoorDad,Info/eBooks/Relationships/Sex,BEACHBODY BODY BEAST Workout,BEACHBODY BODY BEAST Workout  WANT TO TURN SOME HEADS?  Go from Regular Joe to JACKED... Ho-Hum to HOTTIE in 90 Days Flat!  Body Beast® is the PRO'S program to burn fat  carve lean  defined mu ...,0.08506637111111112 BTC,USA,,4.94/5,
Chroncentrates,Info/eBooks/Relationships/Sex,straight monkey business.,here you go kid. .,0.10621233199999999 BTC,,,5.00/5,
RichDadPoorDad,Info/eBooks/Relationships/Sex,BEACHBODY FOCUS T25 WORKOUT,"BEACHBODY FOCUS T25 WORKOUT  ""COME ON  IT'S 25 MINUTES. I KNOW YOU CAN DO THIS.""  I know you're busy. But anybody can find 25 minutes in their day to work out. And with FOCUS T25  that's all you' ...",0.08506637111111112 BTC,USA,,4.94/5,
captainkirk,Info/eBooks/Relationships/Sex,The Game: Penetrating the Secret Society of Pickup Artists,Nearly every major city in the world has them: hidden underground seduction lairs where men gather to trade the most devastatingly effective techniques ever invented to seduce women. This is not fic ...,0.00409784419354839 BTC,Internet,Everywhere,4.981/5,
captainkirk,Info/eBooks/Relationships/Sex,Everything You Know About Sex Is Wrong,Orgasms  sexual inventions  spirituality  high-tech porn  gender-blending  hustling  masturbation  politics  airplane sex  disabilities  sex magick  biblical erotica  advertising  first times  sex in ...,0.003841548947368422 BTC,Internet,Everywhere,4.981/5,
captainkirk,Info/eBooks/Relationships/Sex,The Science of Influence: How to Get Anyone to Say Yes,"Get customers  clients  and co-workers to say ""yes!"" in 8 minutes or less This revised second edition by a leading expert of influence continues to teach a proven system of persuasion. Synthesizing  ...",0.003940029512195122 BTC,Internet,Everywhere,4.981/5,
captainkirk,Info/eBooks/Relationships/Sex,Pocket Sex Guide,The author of The Ultimate Sex Book presents a fully illustrated portable manual containing sexual techniques and tips on foreplay  safe lovemaking  varied positions  contraception  and other topics. ...,0.0040822888461538465 BTC,Internet,Everywhere,4.981/5,
captainkirk,Info/eBooks/Relationships/Sex,The Way of the Superior Man,The Way of the Superior Man: A Spiritual Guide to Mastering the Challenges of Women  Work  and Sexual Desire What is your true purpose in life? What do women really want? What makes a good lover? If ...,0.004075748421052631 BTC,Internet,Everywhere,4.981/5,
captainkirk,Info/eBooks/Relationships/Sex,Why Your Life Sucks,The in-your-face  no-hype guide to getting happy…  Your life sucks if… • You routinely make someone or something more important than you • The life you are living on the outside doesn’t match who ...,0.003845948518518518 BTC,Internet,Everywhere,4.981/5,
TheDigital,Services/Advertising,100 000 Leads Sample + Adult/Porn/Sex related TARGETED emails,100 000 Leads Sample + Adult/Porn/Sex related TARGETED emails,0.25 BTC,,,4.777/5,
TheDigital,Services/Advertising,50 000 Leads Sample + Adult/Porn/Sex related TARGETED emails,50 000 Leads Sample + Adult/Porn/Sex related TARGETED emails,0.125 BTC,,,4.777/5,
EbookShop,Info/eBooks/Relationships/Sex,Lesbian Sex Bible,Lesbian Sex Bible - D Cage Modern sex instruction for the contemporary lesbian  bisexual  bicurious  and transfemale is here. Lesbian Sex Bible is a fresh  inclusive and informed look at lesbian sex ...,0.00372936 BTC,Torland,,~5/5,
EbookShop,Info/eBooks/Relationships/Sex,The Happy Hooker's Guide To Sex,The Happy Hooker's Guide To Sex - X Hollander Bestselling sexpert"" Xaviera Hollander's first how-to guide—on how to have mind-blowing sex. Xaviera Hollander may not have invented sex  but she is ce ...",0.00372936 BTC,Torland,,~5/5,
EbookShop,Info/eBooks/Relationships/Sex,Incredible Sex,Incredible Sex - M Perks  W Wilson Millions of us want to lose weight  find romance  look like models  kick start our careers and ditch the stress...and still have time for great sex. And when we do ...,0.00372936 BTC,Torland,,~5/5,
EbookShop,Info/eBooks/Relationships/Sex,The Sexy Book of Sexy Sex,The Sexy Book of Sexy Sex - K Schaal Sex is a subject that simultaneously captivates and mortifies our culture. Thankfully  a book was recently released that gleefully tears apart our conflicting fe ...,0.00372936 BTC,Torland,,~5/5,
EbookShop,Info/eBooks/Relationships/Sex,Sex Positions Illustrated,"Sex Positions Illustrated - D Evans I found this to be a good read. There were some humorous descriptions and titles for the positions presented  yet it was all very entertaining! There's no ""techni ...",0.00372936 BTC,Torland,,~5/5,
EbookShop,Info/eBooks/Relationships/Sex,Connoisseur's Sex Guide,Connoisseur's Sex Guide - A Hooper Following in the footsteps of the bestselling Great Sex Guide and Kama Sutra  the Connoisseur''s Sex Guide if the perfect manual for couples looking for new ideas  ...,0.00372936 BTC,Torland,,~5/5,
EbookShop,Info/eBooks/Relationships/Sex,The New Naked,The New Naked - H Fisch In The New Naked  Dr. Fisch brings you the ultimate sex education for grown-ups. This indispensable guide: Helps couples master bedroom basics they were never taught in any  ...,0.00372936 BTC,Torland,,~5/5,
EbookShop,Info/eBooks/Relationships/Sex,Finding and Revealing Your Sexual Self,Finding and Revealing Your Sexual Self - L Bennett  G Holczer Finding and Revealing Your Sexual Self integrates case studies and 'Sexercises' designed to enhance the information in each chapter. The ...,0.00372936 BTC,Torland,,~5/5,
EbookShop,Info/eBooks/Relationships/Sex,Sexercise,Sexercise - B Cummings All  sex  provides  some  form  of  exercise   whether  it’s  little  more  than  a  gentle stretch of the inner thigh muscles for her with a quick blast of the glutes and hip ...,0.00372936 BTC,Torland,,~5/5,
EbookShop,Info/eBooks/Relationships/Sex,Oral Sex She'll Never Forget,Oral Sex She'll Never Forget - S Borg The book uses both hand drawn pictures and color photos to illustrate different positions. The book spends most of the time describing different places you can  ...,0.00372936 BTC,Torland,,~5/5,
EbookShop,Info/eBooks/Relationships/Sex,Body language for Dummies,Body Language for Dummies - E Kuhnke The complete guide to mastering the art of effective body language Body Language For Dummies is your ideal guide to understanding other people  and helping them ...,0.003778733333333334 BTC,Torland,,~5/5,
EbookShop,Info/eBooks/Relationships/Sex,Lick by Lick,Lick by Lick How to Go Down on a Woman and Have Her Begging for More. It is a well known fact that oral sex is extremely pleasurable for a man. The irrefutable evidence permeates our society from s ...,0.00372936 BTC,Torland,,~5/5,
EbookShop,Info/eBooks/Relationships/Sex,Oral Sex for Every Body,Oral Sex for Every Body - T Robbins With clear and direct language  Oral Sex for Every Body is a practical  uninhibited guide to making your sexual relations more imaginative and pleasurable. Oral  ...,0.00372936 BTC,Torland,,~5/5,
EbookShop,Info/eBooks/Relationships/Sex,Sexopedia,Sexopedia - A Hooper The new erotic encyclopedia from the world's best-selling sex writer. Do people in different cultures approach sex differently? Why have certain sexual techniques survived for m ...,0.00372936 BTC,Torland,,~5/5,
EbookShop,Info/eBooks/Relationships/Sex,How To Have Sex How To Please Your Woman,How To Have Sex How To Please Your Woman - J Meelsig You have stumbled upon the only guide you will ever need when it comes to improving your sex life with women. You see  there is a secret you need ...,0.00372936 BTC,Torland,,~5/5,
EbookShop,Info/eBooks/Relationships/Sex,The Field Guide to F-cking,The Field Guide to F*cking - E Dubberley The act of copulation has long attracted keen scholars eager to understand its secrets. Psychologists  neurologists  and doctors have all sought to explain t ...,0.00372936 BTC,Torland,,~5/5,
captainkirk,Info/eBooks/Relationships/Sex,How To Start A Conversation And Make Friends,Small-talk expert Don Gabor has completely revised and updated this definitive guide  showing how to combine essential techniques in the art of conversation with necessary skills for communicating in ...,0.0037795152380952386 BTC,Internet,Everywhere,4.982/5,
captainkirk,Info/eBooks/Relationships/Sex,Get Inside Her: Dirty Dating Tips And Secrets,One night  I sat up late reading email after email from attractive  witty guys who were single and ready to date  and instead of being impressed and enraptured  I began to wonder what on earth was go ...,0.0037712649999999998 BTC,Internet,Everywhere,4.982/5,
EbookShop,Info/eBooks/Relationships/Sex,Urban Tantra - Sacred Sex for the 21st Century,Urban Tantra: Sacred Sex for the Twenty-First Century - B Carrellas If you think sexual and spiritual bliss can'­t be found in today'­s fast-paced world  you haven'­t experienced Urban Tantra. With  ...,0.00372936 BTC,Torland,,~5/5,
EbookShop,Info/eBooks/Relationships/Sex,Kama Sutra,Kama Sutra - N Lacroix Sex expert Nitya Lacroix brings an energetic new take to ancient sex techniques and positions in Kama Sutra. This lively and inspirational text offers new and exciting insight ...,0.00372936 BTC,Torland,,~5/5,
EbookShop,Info/eBooks/Relationships/Sex,The Lowdown on Going Down,The Lowdown on Going Down - M Michaels It’s nothing to be ashamed of.  When it comes to performing oral sex  most people fall somewhere between fumbling and clueless.  But now  in The Lowdown on Goi ...,0.00372936 BTC,Torland,,~5/5,
EbookShop,Info/eBooks/Relationships/Sex,Blow Him Away,Blow Him Away - M Michaels It’s nothing to be ashamed of.  When it comes to performing oral sex  most people fall somewhere between fumbling and clueless. But now  in Blow Him Away you’ll find pract ...,0.00372936 BTC,Torland,,~5/5,
EbookShop,Info/eBooks/Relationships/Sex,Sex and the Perfect Lover,Sex and the Perfect Lover - M Iam Your dreams of sexual pleasure are about to come true. No age  time  place  or body constraints can prevent you from becoming the lover you desire to be. A bestsell ...,0.00372936 BTC,Torland,,~5/5,
EbookShop,Info/eBooks/Relationships/Sex,Tantric Sex for Men,Tantric Sex for Men - D Richardson A revolutionary approach to male sexuality offers the keys to achieving sexual fulfillment • Teaches how to retain semen for increased vitality and longer lovemak ...,0.00372936 BTC,Torland,,~5/5,
EbookShop,Info/eBooks/Relationships/Sex,The Ultimate Guide to Oral Sex,The Ultimate Guide to Oral Sex - J Merrill Women want to know if they are good at giving a man oral sex  and how to give more pleasure through this intimate act. Men want to know how to ask for this ...,0.00372936 BTC,Torland,,~5/5,
EbookShop,Info/eBooks/Relationships/Sex,The Good in Bed Guide to Orally Pleasuring a Woman,The Good in Bed Guide to Orally Pleasuring a Woman - M Coriddi As with any art form  the underlying principles need to be understood before the real enjoyment can begin. Unfortunately  many men do n ...,0.00372626 BTC,Torland,,~5/5,
EbookShop,Info/eBooks/Relationships/Sex,Hot Games for Mind-Blowing Sex,Hot Games for Mind-Blowing Sex - L Speiser The naughty schoolgirl. The hot-to-trot cop. The boss with orders galore. The maid with a mind of her own.          No matter what—or who—you crave  Hot G ...,0.00372936 BTC,Torland,,~5/5,
EbookShop,Info/eBooks/Relationships/Sex,The Best Oral Sex Ever,"The Best Oral Sex Ever - Y Fulbright Just because she's going down doesn't mean he's having all the fun. ""Sexpert"" author Yvonne K. Fulbright gets real with women in this bold book on giving and get ...",0.00372936 BTC,Torland,,~5/5,
EbookShop,Info/eBooks/Relationships/Sex,Sex Talk,Sex Talk - C Altman All the communication tools couples need to take their sex life to a new level.There you are  in the throes of passion  when suddenly  your partner shifts  just a tiny bit. Inste ...,0.00372936 BTC,Torland,,~5/5,
EbookShop,Info/eBooks/Relationships/Sex,The Joy of Sex,The Joy of Sex - A Comfort Since 1972  more than 8 million people have come to this wise  witty  and uninhibited bestselling guide to lovemaking and found all they wanted to know about achieving gre ...,0.00372936 BTC,Torland,,~5/5,
EbookShop,Info/eBooks/Relationships/Sex,Men's Sexual Health,Men's Sexual Health - B McCarthy  M Metz Men's Sexual Health is a breakthrough book about vital and satisfying male sexuality. It presents a new model of male and couple sexuality  which establishes ...,0.00372936 BTC,Torland,,~5/5,
Mistergoodeal,Info/eBooks/Relationships/Sex,French seduction-21 ebook,21 e book sur la séduction à la française    French language only   any questions ? des questions?    envoyez / SEND  PM thanks   best regards from MisterGooDeal,0.00753407 BTC,World,,~5/5,
klicka,Info/eBooks/Relationships/Sex,100 Hot Sex Position - PICTURES,Hi and thanks for stepping by!  This guide will teach you 100 hot sex position. I have tried over twenty of them and the girls LOVE it. This ebook is a MUST HAVE for every person in the world!!   ...,0.011412553333333334 BTC,,,5.00/5,
captainkirk,Info/eBooks/Relationships/Sex,Do Not Open: Encyclopedia of the World's Best Kept Secrets,From weird mysteries  freaky facts  and cool coincidences  Do Not Open explores what lies between the known and the unknown. Discover lost worlds  unravel secret codes  marvel at mysterious places an ...,0.003800913235294118 BTC,Internet,Everywhere,4.982/5,
EbookShop,Info/eBooks/Relationships/Sex,Slow Sex - The Path to Fulfilling Sexuality,Slow Sex: The Path to Fulfilling and Sustainable Sexuality - D Richardson A revolutionary practice for couples to enhance sexuality and reach higher states of consciousness • How to make sex a cons ...,0.00372936 BTC,Torland,,~5/5,
EbookShop,Info/eBooks/Relationships/Sex,Don't Put That in There!,"Don't Put That in There! - A Carroll  R Vremman People have more access to medical information than ever before with an abundance of printed and online resources  and yet we still believe ""facts"" ab ...",0.00372936 BTC,Torland,,~5/5,
EbookShop,Info/eBooks/Relationships/Sex,Fifty Shades of Oral Pleasure,Fifty Shades of Oral Pleasure - M Bennett In a time when taboo erotica novels are replacing the books on our coffee tables  it's no wonder that couples are exploring the naughtiest sides of sex  fro ...,0.00372936 BTC,Torland,,~5/5,
captainkirk,Info/eBooks/Relationships/Sex,How to Sell Yourself: Winning Techniques,How many people do you know who have a knack for connecting with others? Very few of us are born with it. The rest of us need to learn it. This book explains in clear  simple  easy-to-understand  com ...,0.0037792200000000007 BTC,Internet,Everywhere,4.982/5,
