,x,y,id,label
0,-6.7728252,-19.803843,0,1
1,-21.546146,-0.12907286,1,4
2,-14.278992,1.5021322,2,3
3,-6.8714104,-19.902308,3,1
4,-0.66149855,-8.038978,4,2
5,-6.525645,-19.556347,5,1
6,-11.069166,-12.80527,6,1
7,-21.026705,-0.8591244,7,4
8,8.662026,-4.762419,8,1
9,-10.530373,-10.653467,9,1
10,14.672282,-2.9182715,10,0
11,-10.665681,-11.21498,11,1
12,-7.0159593,-20.046768,12,1
13,14.852132,-1.4819744,13,0
14,1.9390916,-11.01575,14,2
15,4.0191593,4.513476,15,3
16,-20.901468,-0.88918185,16,4
17,0.5098341,22.785357,17,4
18,2.4458168,-10.972763,18,2
19,3.1996818,4.605605,19,3
20,-14.242574,1.7112792,20,3
21,4.3495727,4.271285,21,3
22,8.229356,-4.9242616,22,1
23,8.277769,-5.064406,23,1
24,14.373543,-2.3748558,24,0
25,8.589669,-5.131606,25,1
26,3.9225583,4.6276073,26,3
27,3.065007,4.487475,27,3
28,14.199099,-4.2405243,28,0
29,-0.67323303,-8.404218,29,2
30,-1.1512991,-8.271982,31,2
31,14.741998,-2.3192322,32,0
32,14.565774,-1.6456401,33,0
33,-10.5414915,-10.8651495,34,1
34,4.8232517,3.7408094,35,3
35,-15.477692,0.6419926,36,3
36,-0.93085295,-8.169178,37,2
37,-21.503359,-0.19174388,38,4
38,13.216412,-4.098715,39,0
39,3.0553787,-11.3365755,40,2
40,31.595133,10.954314,41,0
41,-11.0144415,-12.278245,42,1
42,13.436651,-4.3148108,43,0
43,0.23589665,22.511423,44,4
44,3.998011,-12.416311,45,2
45,-10.799113,-11.590979,46,1
46,-15.30117,1.096056,47,3
47,31.453999,10.813167,48,0
48,2.876448,-11.217008,49,2
49,3.8523374,-12.462324,50,2
50,3.5833712,-11.878521,51,2
51,3.844279,-11.671383,52,2
52,-21.4485,-0.27577278,53,4
53,1.0195795,23.294928,54,4
54,0.26623437,22.541739,55,4
55,3.3786583,-11.591927,56,2
56,4.9859023,3.5590155,57,3
57,4.818228,3.7460642,58,3
58,-10.32079,-10.954139,59,1
59,-20.842548,-1.2095449,60,4
60,13.38316,-4.208706,61,0
61,-10.888802,-13.007552,62,1
62,-13.97987,1.6539092,63,3
63,2.1803937,-11.28872,64,2
64,-11.221207,-12.645589,65,1
65,-11.065696,-12.363248,66,1
66,31.397326,10.756498,68,0
67,3.8929083,-12.560417,69,2
68,-1.079463,-7.953398,70,2
69,31.607258,10.966421,71,0
70,5.1119065,3.4271796,72,3
71,-14.984097,1.2462664,73,3
72,14.420586,-3.9268327,74,0
73,14.4509535,-2.81658,75,0
74,-14.631326,1.4265568,76,3
75,0.43650496,22.712013,77,4
76,-6.4072766,-19.437872,78,1
77,-14.56451,1.5953094,79,3
78,4.271696,4.3957696,80,3
79,-0.6363685,-8.553973,81,2
80,3.2769966,4.6967382,82,3
81,1.9833012,-10.953046,83,2
82,14.68615,-1.6828284,84,0
83,-6.759841,-19.790672,85,1
84,-10.860019,-11.579629,86,1
85,4.424077,4.1918187,87,3
86,0.93258876,23.207867,88,4
87,-21.110651,-1.001053,89,4
88,-21.32384,-0.4583194,90,4
89,-0.7338801,-8.534808,91,2
90,1.8066422,-11.073749,92,2
91,31.305807,10.664983,93,0
92,13.653103,-4.440865,94,0
93,8.481322,-4.831476,95,1
94,0.90450907,23.179834,96,4
95,-15.4858,0.7909441,97,3
96,-15.348008,0.7246331,98,3
97,14.489852,-4.377524,99,0
