,topic_lda,bag_words,sa_score,events
46,3.0,"['think', 'today', 'irony', 'fact', 'evil', 'soviet', 'empire', 'weapon', 'tactic', 'spray']",-1,[]
56,3.0,"['rip', 'hair', 'guess', 'african', 'teach', 'lesson', 'beat', 'stab', 'shoot', 'drinking', 'draino', 'set', 'fire', 'rape']",-1,[]
62,3.0,"['police', 'death', 'person', 'enemy', 'clinton', 'death', 'inevitable']",-1,[]
70,3.0,"['common', 'lie', 'medium', 'mafia', 'hitler', 'hitler', 'criminal', 'arrest', 'formal', 'charge', 'investigation', 'place', 'evidence', 'arrest', 'place', 'hitler', 'give', 'order', 'prisoner', 'cost', 'order', 'result', 'death', 'german', 'citizen', 'shortage', 'hospital', 'bed', 'medical', 'supply', 'prisoner', 'result', 'death', 'german', 'citizen', 'medical', 'care', 'need', 'hitler', 'put', 'stop', 'german', 'gun', 'law', 'return', 'gun', 'right', 'german', 'citizen', 'lie', 'stand', 'cut']",-1,[]
77,3.0,"['stretch', 'call', 'medium', 'outlet', 'fake', 'news', 'news', 'propaganda', 'fake', 'news', 'call', 'propaganda', 'outlet']",-1,[]
