,Unnamed: 0,Term,Fq-0,Fq-1,Fq-2,Fq-3,Fq-4,Tfidf-0,Tfidf-1,Tfidf-2,Tfidf-3,Tfidf-4,Prob-0,Prob-1,Prob-2,Prob-3,Prob-4
58,french,french,2,3,1,1,6,0.14924787458108785,0.17187677582883246,0.1407466252922465,0.05645881538238329,0.23538183012007524,0.017679814249277115,0.025868965312838558,0.007887877523899078,0.005676025524735451,0.04862851276993752
76,image,image,0,4,0,0,0,0.0,0.4809369518547224,0.0,0.0,0.0,0.008111884817481041,0.024439193308353424,0.00011524096771609038,5.887628140044399e-05,4.611548865796067e-05
153,rescue,rescue,2,2,0,0,0,0.2526986180515333,0.19400845226554764,0.0,0.0,0.0,0.017562266439199448,0.016907943412661552,8.709635585546494e-05,3.9972710510483005e-05,3.619584094849415e-05
68,group,group,0,1,0,0,1,0.0,0.09700422613277382,0.0,0.0,0.0664226803371409,5.799135396955535e-05,0.016543306410312653,8.515467197867109e-05,3.9893799112178385e-05,0.004519002046436071
183,twitter,twitter,0,2,0,2,2,0.0,0.16104454088103518,0.0,0.15870179013012045,0.11027364977213636,6.856460095150395e-05,0.015539493411779404,0.00010360204760218039,0.013013211078941822,0.011953791603446009
184,view,view,0,2,0,0,0,0.0,0.2404684759273612,0.0,0.0,0.0,6.263350223889574e-05,0.015510489232838154,8.823966345516965e-05,4.10164357163012e-05,3.912069223588333e-05
71,hand,hand,1,1,0,1,1,0.08822948971145035,0.06773787239155693,0.0,0.06675247449764188,0.04638283530476292,0.006620096508413553,0.0092124966904521,8.701466140337287e-05,0.0056329015642404565,0.004474157467484474
109,militant,militant,1,1,0,1,1,0.08822948971145035,0.06773787239155693,0.0,0.06675247449764188,0.04638283530476292,0.0071578361093997955,0.00866658054292202,8.642384636914358e-05,0.005650711245834827,0.004527793731540442
179,tourist,tourist,1,1,0,0,0,0.12634930902576666,0.09700422613277382,0.0,0.0,0.0,0.006917907856404781,0.007949485443532467,8.382967644138262e-05,3.859146454487927e-05,3.578216637833975e-05
74,hostage,hostage,0,1,0,1,7,0.0,0.08052227044051759,0.0,0.07935089506506023,0.3859577742024773,0.008144402876496315,0.0075000105425715455,0.00011089783947682007,0.0057027474977076045,0.03914880007505417
