,text,doc_id,events
48,"An AK works very well in CQC, but so does an AR-10. The AR-10 works great out to 500 yards (further for some folks) but not an AK (some super humans claim to be able to get hits at long range with an AK, but everyone else can not, the limit is less than 200 yards for most). An AK is cheap, the ammo is cheap, works great at short range. Much more likely to take a hit at short range. You decide. I bought an AR-10. Who would you bet on?  A whole lot of Muds armed with short range rifles, or a few White Marksmen armed with long range rifles, at long range.",48,[]
49,"Finally the chant of """"USA, USA, USA"""" goes up, and it is appropriate. This political movement and Trump really do represent the USA. White Americans can make America great again!",49,[]
50,"It was a great speech! Trump spoke the truth.  There is nothing that the Jew fears more than a man who speaks the truth in public. He does not side step any issues, he does not beat around the bush, he does not speak one message for one group and a different message for a different group, he has one message, and it is a good message. Trump has the support of white America and he is unstoppable! Let's make America great again.",50,[]
51,"Massachusetts? Liberal progressive anti-conservative Massachusetts? This proves how fed up white America is with the anti-white trend in America. If Trump can pack them in there, then he can pack them in anywhere!",51,[]
63,I am glad she has erased her own future. Her descendants will be blacks or browns and will have no say in the future of white folks. She will be gone and forgotten as if she had never existed at all.,63,[]
68,"Alex Jones repeats the same lies about Hitler, Nazis, and WW II, that the majority of normal every day White Men in America already believe. The average White Man in America hates Hitler, the SS, the Gestapo, the Third Reich, and Nazis. That is why when an individual shows up waving a Nazi flag, they drive normal White Men away from joining the White Nationalist cause. White Family Men supporting a Future for White Children should be the most natural thing on Earth. Why haven't the majority of White Family Men joined us?  Nazi flags.",68,['ww_ii']
79,"Trump Owns CNN Reporter Big Time! Trump calmly speaks the truth, tomorrow the Jewish media will rant and rave and call for his murder!",79,[]
18,Alex Jones reported that Deutsche Bank is on the verge of failure.  That information would be from some financial source and not from Jones himself.,18,[]
90,Great job! Always take pride in everything you do.,90,[]
