,Unnamed: 0,Term,Fq-0,Fq-1,Fq-2,Fq-3,Fq-4,Tfidf-0,Tfidf-1,Tfidf-2,Tfidf-3,Tfidf-4,Prob-0,Prob-1,Prob-2,Prob-3,Prob-4
394,news,news,0,0,0,1,1,0.0,0.0,0.0,0.05908505784691544,0.07616615132946405,1.0352910067013001e-05,1.4293735148385169e-05,1.2775801224051975e-05,0.0017642194870859387,0.009443894028663635
257,great,great,2,0,2,0,3,0.07677614197952386,0.0,0.08073934583838686,0.0,0.1896743579203414,0.0036204594653099775,0.0002993208181578666,0.008033865131437778,0.00024056631082203242,0.008823188953101635
23,ally,ally,0,0,0,0,1,0.0,0.0,0.0,0.0,0.09440598135580038,1.0084654604725074e-05,1.3918031072535086e-05,0.0020249690860509872,0.0005236467695795,0.0077607822604477406
252,government,government,3,2,0,0,2,0.11516421296928578,0.10505020200114602,0.0,0.0,0.12644957194689427,0.0068863225169479856,0.004715876188129187,1.3408794984570704e-05,0.0012755002826452255,0.0073534040711820126
93,carry,carry,1,0,0,0,1,0.04624565475761943,0.0,0.0,0.0,0.07616615132946405,0.003415609011426568,0.0001378746092086658,0.00020163752196822318,0.000250159646384418,0.007278388366103172
505,save,save,0,0,0,0,2,0.0,0.0,0.0,0.0,0.18881196271160075,1.0289973033650313e-05,1.4264375749917237e-05,0.0009602974751032887,0.00022149033611640331,0.006543060299009086
25,america,america,2,1,4,0,1,0.06458651103196109,0.04418577083663742,0.13584096611926774,0.0,0.05318668314769555,0.005196584388613701,0.002179513685405255,0.013544677756726742,0.00017658194701652974,0.006003284826874733
464,race,race,0,0,0,0,1,0.0,0.0,0.0,0.0,0.09440598135580038,9.959601811715402e-06,1.3848124581272714e-05,1.2551548934425227e-05,1.2006494216620922e-05,0.0059969332069158545
633,war,war,0,0,0,0,1,0.0,0.0,0.0,0.0,0.09440598135580038,1.003788838715991e-05,1.385108316753758e-05,1.2569708815135527e-05,1.2062489986419678e-05,0.0059950719587504855
87,call,call,0,0,0,1,1,0.0,0.0,0.0,0.05908505784691544,0.07616615132946405,1.005064677883638e-05,1.4177496268530375e-05,1.2778701602655929e-05,0.0017649793298915026,0.005993608385324478
