,topic_lda,bag_words,sa_score,events,rank
4495,3.0,"['white', 'event', 'start', 'today', 'north_texas', 'irish_festival', 'fair', 'park', 'place', 'cotton', 'bowl', 'giant', 'farris', 'wheel', 'state', 'fair', 'state', 'fair', 'update', 'schedule', 'north_texas', 'irish_festival', 'headliner', 'altan', 'play', 'festival', 'sunday']",1,['texas_irish_festival'],0.019439694
346,3.0,"['race_traitor', 'help', 'south', 'african', 'white', 'minority', 'serve', 'innocent_white', 'folk']",1,[],0.019439694
10530,3.0,"['rich', 'white', 'people', 'race']",1,[],0.019439694
1189,3.0,"['police_officer', 'reading', 'support', 'police', 'support', 'law', 'order', 'support', 'civilization', 'police', 'force', 'white_man', 'hire', 'quota', 'hire', 'skip', 'promotion', 'officer', 'qualification', 'color', 'work', 'supervisor', 'position', 'color', 'blue', 'promotion', 'support', 'department', 'support', 'white', 'officer', 'support', 'color', 'white', 'police_officer', 'target', 'criminal', 'department', 'work', 'white', 'hero', 'uniform', 'stay', 'safe', 'stay', 'white']",1,[],0.019439694
2038,3.0,"['simple', 'jewish_leaders', 'world_wide', 'genocide', 'white_children', 'reason', 'mulatto', 'central_african', 'cousin', 'white']",1,[],0.019439694
3625,3.0,"['individual', 'asian', 'culture', 'black', 'culture', 'white', 'culture', 'superior', 'asian', 'african', 'white_nation', 'stay']",1,[],0.019439694
2362,3.0,"['support', 'white', 'survival', 'white_folks', 'world', 'sink', 'stone', 'age', 'level', 'white_folks', 'pull']",1,[],0.019439694
185,3.0,"['niggros', 'special', 'treatment', 'special', 'right', 'special', 'privilege', 'special', 'consideration', 'special', 'fact', 'niggros', 'white', 'christian', 'society', 'ant', 'place', 'niggros', 'fit', 'central_africa', 'niggro', 'peace', 'set', 'free', 'natural_homeland', 'africa']",1,[],0.019439694
3536,3.0,"['chimera', 'rat', 'life', 'parasite', 'cockroach', 'hyena', 'flock', 'black', 'bird']",1,[],0.019069351000000002
2986,3.0,"['carry', 'machine_gun', 'drop', 'african', 'sight']",1,[],0.013397497
3669,3.0,"['african', 'african', 'africa', 'african', 'find', 'happiness']",1,[],0.013397497
11172,3.0,"['african', 'rest', 'african', 'home']",1,[],0.013397497
2858,3.0,"['white_woman', 'give', 'number', 'stranger', 'beast', 'slap', 'african', 'trip', 'african', 'film', 'laugh']",1,[],0.013397497
2776,3.0,"['african', 'clean', 'environment']",1,[],0.013397497
4394,3.0,"['tell', 'majority', 'white_folks', 'non-whites', 'white_folks', 'non-whites']",1,[],0.010382246999999999
7436,3.0,"['ramzpaul', 'jamie', 'foxx', 'killin', 'white_folks', 'great']",1,[],0.010382246999999999
6554,3.0,"['mike', 'lee', 'free', 'people']",1,[],0.008675064
8759,3.0,"['people', 'bank', 'bank', 'people']",1,[],0.008675064
10388,3.0,"['great', 'people']",1,[],0.008675064
74,3.0,"['custom', 'people', 'free', 'men', 'rally', 'leader', 'present', 'leader', 'rally']",1,[],0.008675064
1016,3.0,"['republic', 'people', 'folk', 'walk', 'life', 'texan', 'walk', 'life', 'age', 'group', 'care', 'walk', 'texan', 'texan', 'independent', 'free', 'think', 'marxist', 'propaganda', 'decider', 'clown', 'washington_d.c', 'texas', 'country', 'republic', 'sign', 'word', 'grass', 'root', 'green', 'yellow', 'tred', 'flag', 'man', 'wear', 'felt', 'cowboy', 'hat', 'harley', 'davidson', 't-shirt', 'girl', 'hold', 'small', 'federal', 'flag', 'wear', 'home', 'top', 'symbol', 'turn', 'direction', 'form', 'life', 'rune', 'marxist', 'peace', 'symbol', 'stone', 'work', 'exterior', 'nation', 'capitol', 'texas', 'stone', 'work', 'texas', 'german', 'germany', 'texas', 'german', 'craftsmanship', 'german', 'sausage', 'german', 'beer', 'german', 'woman', 'god', 'bless_texas']",1,[],0.008675064
8167,3.0,"['real', 'jew', 'christian', 'caution', 'foul', 'mouth', 'jew']",1,['real_relationship'],0.008629364
1649,3.0,"['neocon', 'jewish_communists', 'pretend', 'conservative', 'jew', 'control', 'democratic_party', 'communist', 'pretend', 'socialist', 'platform', 'party', 'sound', 'action', 'communist_party', 'american', 'voter', 'choice', 'choice', 'communist', 'neocon', 'control', 'republican', 'candidate', 'communist', 'control', 'candidate', 'party', 'system', 'fraud', 'party', 'half', 'control', 'jewish_bankers', 'control', 'international_jewish', 'communism']",1,[],0.008629364
3191,3.0,"['lincoln', 'burn', 'letter', 'true', 'jew', 'action', 'time', 'letter', 'true']",1,[],0.008629364
5436,3.0,"['sugar', 'lime', 'blue', 'road', 'texas', 'texas', 'white_man', 'paradise', 'good', 'mind', 'mexican', 'find', 'home', 'mexico', 'road', 'texas']",1,[],0.007647325799999999
2452,3.0,"['law_abiding', 'white_man', 'carry']",1,[],0.007647325799999999
2325,3.0,"['white_man', 'strongman', 'bad']",1,[],0.007647325799999999
