,topic_lda,bag_words,sa_score,events
32,2.0,"['somali', 'stab']",-1,[]
62,2.0,"['police', 'death', 'person', 'clinton', 'death', 'inevitable']",-1,[]
77,2.0,"['stretch', 'call', 'medium', 'outlet', 'fake', 'news', 'news', 'jewish_propaganda', 'fake', 'news', 'jewish_propaganda', 'outlet']",-1,[]
198,2.0,"['holder', 'incompetent', 'crime', 'obama', 'crime', 'syndicate']",-1,[]
218,2.0,"['statute', 'limitation', 'murder', 'murder']",-1,[]
230,2.0,"['mestizo', 'disease']",-1,[]
243,2.0,"['california', 'ban', 'mexican', 'communist']",-1,[]
274,2.0,"['family', 'guess', 'son', 'goat', 'eye', 'son', 'home', 'brother', 'murder', 'girlfriend', 'goat', 'option', 'left', 'true', 'love', 'rape', 'dead', 'body']",-1,[]
313,2.0,"['bad', 'race_mixing', 'whore']",-1,[]
315,2.0,"['race_mixing', 'whore', 'dead', 'innocent', 'child', 'stole', 'child', 'father', 'death', 'punishment', 'mom', 'boyfriend', 'slaughter', 'child', 'relationship', 'defund.com']",-1,[]
321,2.0,"['race_mixer', 'dead', 'shot', 'head', 'de', 'boy', 'frin', 'claim', 'game', 'russian', 'roulette', 'wid', 'holdin', 'da', 'gun', 'da', 'face', 'bad', 'police', 'russian', 'roulette', 'lead', 'middletown', 'shoot', 'www.journal-news.com']",-1,[]
337,2.0,"['race_mixer', 'african', 'shake', 'month', 'white', 'baby', 'girl']",-1,[]
341,2.0,"['month', 'girl', 'rap', 'mestizo']",-1,[]
343,2.0,"['race_traitor', 'slut', 'high_school']",-1,[]
357,2.0,"['american', 'race_mixing', 'child', 'molester', 'murder', 'austria', 'black', 'boyfriend', 'cheat', 'arab', 'boy', 'kill', 'country', 'arrest', 'switzerland']",-1,[]
368,2.0,"['race_mixer', 'help', 'african', 'white_man', 'white_man', 'attack', 'tie', 'burn', 'african', 'whore', 'stupidity', 'nuttall', 'murder', 'christopher', 'rossing', 'bringmethenews.com']",-1,[]
371,2.0,"['race_mixer', 'drove', 'car', 'drive', 'shoot', 'murder', 'jail']",-1,[]
374,2.0,"['race_mixer', 'help', 'muslim', 'boyfriend', 'murder', 'mother', 'time', 'value', 'child', 'danish', 'teen', 'lisa', 'borch', 'murder', 'mother', 'watch', 'isi', 'beheading', 'video', 'mail_online']",-1,[]
394,2.0,"['gun_control', 'work', 'government', 'pas', 'law', 'murder']",-1,[]
495,2.0,"['african', 'attempt', 'armed_robbery', 'dead']",-1,[]
513,2.0,"['african', 'beat', 'white_woman', 'liveleak.com', 'criminal', 'smile', 'court', 'kick', 'face', 'woman']",-1,[]
549,2.0,"['african_murders', 'woman', 'home_invasion']",-1,[]
574,2.0,"['religious', 'term', 'leftist_atheists', 'born', 'communist', 'pc', 'religion']",-1,[]
575,2.0,"['anti-white', 'agenda', 'anti-whites', 'control', 'population', 'damage', 'world', 'target', 'civilized_white', 'nation', 'destruction']",-1,[]
622,2.0,"['level', 'helmet', 'ach', 'mich', 'cut', 'bulletproofme.com', 'body_armor', 'gunfighter', 'combat', 'helmet', 'ach', 'mich', 'cut']",-1,[]
650,2.0,"['white_man', 'bed']",-1,[]
672,2.0,"['real', 'situation', 'africa', 'secret', 'farm', 'murder', 'black', 'white', 'violence', 'black', 'invasion', 'discrimination', 'folk', 'nation']",-1,[]
703,2.0,"['houston', 'ihop', 'resturants']",-1,[]
708,2.0,"['houston', 'paramedic', 'fire', 'fighter', 'daniel', 'groover', 'house', 'fire', 'burning', 'house', 'search', 'trap', 'person', 'white_man', 'white', 'houston', 'fire', 'department', 'rookie', 'risk', 'left', 'widow', 'child', 'city', 'houston', 'hire', 'white_man', 'white_man', 'dy', 'city', 'houston', 'fire', 'department', 'firefighter', 'dy', 'injury', 'kingwood', 'house', 'fire', 'abc13.com']",-1,[]
774,2.0,"['dead', 'mexican', 'choice', 'dead', 'mexican']",-1,[]
799,2.0,"['dallas', 'modern', 'cosmopolitan', 'city', 'real', 'texan', 'hate', 'dallas', 'god', 'place', 'dallas', 'city', 'city', 'pimple', 'uranus']",-1,[]
812,2.0,"['home', 'remedy', 'flu', 'baking', 'soda']",-1,[]
823,2.0,"['texas', 'gun_shows', 'texas', 'gun_shows', 'website', 'directory', 'gun_shows']",-1,[]
900,2.0,"['waco', 'biker', 'shoot', 'matt', 'clendennen', 'arrest']",-1,[]
914,2.0,"['federal_government', 'texas']",-1,[]
931,2.0,"['idiot', 'white_nation']",-1,[]
1028,2.0,"['berlin', 'wall', 'die', 'government', 'nation', 'communist_mass', 'murderer']",-1,[]
1029,2.0,"['berlin', 'wall', 'dead', 'murder', 'escape', 'communism', 'communist', 'nation', 'nation', 'fence', 'citizen/slaves', 'escape']",-1,[]
1050,2.0,"['communist', 'idiot', 'race_traitors', 'counter', 'attack']",-1,[]
1065,2.0,"['hanoi', 'jane', 'north', 'vietnamese', 'communist', 'time', 'jane', 'fonda', 'idiot', 'international_jewish', 'communism', 'hearing', 'real']",-1,[]
1088,2.0,"['federal_military', 'anthrax', 'accident', 'accident']",-1,[]
1093,2.0,"['german', 'government', 'war']",-1,['war']
1098,2.0,"['lord', 'rothschild', 'situation', 'wwii']",-1,['wwii']
1105,2.0,"['general', 'start', 'kill', 'russian']",-1,[]
1122,2.0,"['news_item', 'mestizo', 'drunk', 'assault', 'cause', 'public', 'disturbance', 'leave', 'scene', 'accident', 'drag', 'crime', 'want']",-1,[]
1192,2.0,"['judge', 'arab']",-1,[]
1393,2.0,"['disaster', 'chernobyl', 'disaster', 'part', 'youtube']",-1,[]
1454,2.0,"['black_panther', 'arrest', 'pipe', 'bomb', 'firearm']",-1,[]
1546,2.0,"['genocide', 'death', 'stop_white', 'genocide']",-1,[]
1547,2.0,"['hateful_violent', 'blood_thirsty', 'zionist', 'attack']",-1,[]
1551,2.0,"['jew', 'scam', 'v=ffn7_0x5m6o']",-1,[]
1591,2.0,"['jew', 'dr', 'noel', 'ignatiev', 'white', 'supremacist', 'social_construct', 'white_race']",-1,[]
1613,2.0,"['jewish_communist', 'mass_murder', 'news', 'mor-sqnes2.jpg']",-1,[]
1627,2.0,"['art', 'war', 'religion', 'religion', 'fake', 'religion', 'ideology', 'enemy', 'holy', 'book', 'theory', 'war', 'crush', 'enemy', 'chinese', 'art', 'war', 'blood_thirsty', 'god', 'islam', 'allah', 'lie', 'murder', 'loot', 'rape', 'conquest', 'plan', 'plan', 'action', 'jew', 'black_african']",-1,[]
1693,2.0,"['genocide', 'death']",-1,[]
1717,2.0,"['muslim', 'terrorist', 'radical', 'muslim', 'terrorist', 'murder', 'hundred', 'anniversary']",-1,[]
1797,2.0,"['jewish_communist', 'anti-white_propaganda', 'jew', 'hate', 'normal', 'people']",-1,[]
1824,2.0,"['people', 'kill', 'start', 'ukraine', 'crisis']",-1,[]
1836,2.0,"['white_children', 'kill']",-1,[]
1858,2.0,['white_man'],-1,[]
1951,2.0,"['register', 'firearm', 'canada', 'steal', 'register', 'owner', 'owner']",-1,[]
1967,2.0,"['white_woman', 'white_man', 'woman', 'white_woman', 'white_woman', 'weapon', 'men', 'white_woman']",-1,[]
1981,2.0,"['preview', 'race_war']",-1,['race_war']
2060,2.0,"['gun', 'ammo', 'dick', 'metcalf', 'hater']",-1,[]
2444,2.0,"['federal', 'law', 'prison']",-1,[]
2533,2.0,"['mestizo', 'african']",-1,[]
2544,2.0,"['arab', 'torture', 'murder', 'african']",-1,[]
2556,2.0,"['adult', 'african', 'mestizo', 'boy']",-1,[]
2585,2.0,"['steve_lee', 'knob', 'creek', 'machine_gun', 'shoot']",-1,[]
2619,2.0,"['loony_leftists', 'indian', 'reservation', 'indian', 'white_folks', 'community', 'white_folks']",-1,[]
2658,2.0,"['poor', 'neighborhood', 'white_neighborhood', 'crime', 'rate', 'neighborhood', 'jew', 'black', 'brown', 'class', 'rich', 'neighborhood', 'crime', 'rate', 'high', 'violent_crimes', 'sort', 'contrast', 'white', 'neighborhood', 'crime', 'rate', 'jew', 'idiot', 'race_traitors', 'dance', 'comment']",-1,[]
2740,2.0,"['african_thug', 'punch', 'wrong', 'girl']",-1,[]
2744,2.0,"['african', 'capital', 'murder', 'paris', 'texas', 'town', 'black', 'suspect', 'capital', 'murder', 'black']",-1,[]
2747,2.0,"['african', 'stone', 'butchering', 'rival', 'african', 'machete', 'wrong', 'language', 'carry', 'machete', 'african', 'stone', 'ate', 'mob', 'congo', 'stone', 'man', 'eats', 'corpse', 'act', 'revenge', 'rebel', 'attack', 'video']",-1,[]
2754,2.0,"['african', 'murder', 'miss']",-1,[]
2805,2.0,"['murder', 'girl', 'lock', 'girl', 'apartment', 'night', 'twenty', 'wind', 'chill', 'forty', 'child']",-1,[]
2824,2.0,"['african', 'grandmother', 'abuse', 'grand', 'daughter', 'v=j9clzftubn0']",-1,[]
2825,2.0,"['african', 'female', 'burn', 'woman', 'v=joxvanaxxym']",-1,[]
2852,2.0,"['african', 'murder', 'grandmother', 'great', 'grandmother', 'bond', 'man', 'grandmother', 'great-grandmother', 'youtube']",-1,[]
2862,2.0,"['african', 'violence', 'african', 'violence']",-1,[]
2872,2.0,"['separate', 'africans_commit', 'murder']",-1,[]
2894,2.0,"['african', 'murder']",-1,[]
2898,2.0,"['african', 'attempt', 'armed_robbery', 'shot_dead']",-1,[]
2902,2.0,"['african', 'murder', 'white_man']",-1,[]
2962,2.0,"['gang', 'banger', 'murder', 'witness', 'trial', 'dead', 'courtroom']",-1,[]
3013,2.0,"['african', 'hate_crime', 'eve', 'white', 'couple', 'attack', 'home', 'eve']",-1,[]
3016,2.0,"['abu', 'dhabi', 'murderer', 'security', 'video', 'murderer', 'contact', 'authority', 'murderer', 'abu', 'dhabi', 'age', 'race', 'gender', 'unknown', 'capture', 'security', 'video', 'mother', 'rest', 'room', 'crime', 'unknown', 'murderer', 'victim', 'victim', 'female', 'american_citizen', 'age', 'race', 'update', 'victim', 'white_woman', 'murderer', 'female', 'arab', 'terrorist']",-1,[]
3024,2.0,"['wild', 'africans_attempt', 'beat', 'white_man']",-1,[]
3025,2.0,"['savage', 'african', 'white_girl', 'arm', 'arm', 'sell', 'black_african', 'witch', 'doctor', 'savage']",-1,[]
3027,2.0,"['white', 'marine', 'black', 'restaurant', 'wild', 'african', 'african', 'claim', 'gangbanger', 'thug', 'michael', 'brown', 'shot', 'attack', 'police_officer', 'marine', 'meal', 'waffle', 'house', 'restaurant', 'black', 'crowd', 'wild', 'african', 'threat', 'left', 'huddle', 'house', 'restaurant', 'wild', 'african', 'arm', 'drew', 'handgun', 'result', 'brain', 'damage']",-1,[]
3047,2.0,"['mob', 'black_thugs', 'attack', 'white_folks', 'v=z6ay6rbnx58']",-1,[]
3060,2.0,"['african', 'car', 'jack', 'white_man', 'liveleak.com', 'business', 'owner', 'wrong', 'carjacker']",-1,[]
3067,2.0,"['black_lives', 'murder', 'terrorist', 'arrest']",-1,[]
3098,2.0,"['mestizo', 'rap', 'boy']",-1,[]
3105,2.0,"['african', 'murderer', 'release', 'kill', 'white_man']",-1,[]
3117,2.0,"['detroit', 'african_murders', 'white_woman']",-1,[]
3119,2.0,"['african', 'murder', 'white', 'police_officer']",-1,[]
3162,2.0,"['start', 'panzer', 'video', 'post8134426']",-1,[]
3184,2.0,"['statistic', 'tv', 'gun', 'crime', 'shot', 'fire', 'gun', 'time', 'violent_crime', 'average', 'twenty-two', 'second', 'twenty', 'hour', 'day']",-1,[]
3197,2.0,"['sick', 'individual', 'spin', 'doctor']",-1,[]
3271,2.0,"['white_folks', 'america', 'asian_savage', 'set_foot', 'white_folks', 'white_homeland', 'attack', 'asian_savages', 'white_folks', 'asian_savages', 'blood_thirsty', 'asian_savages', 'attack', 'innocent_white', 'folk', 'asian_savages', 'time', 'attack', 'asian_savages', 'blood_thirsty', 'asian_savages', 'jamestown', 'colony', 'asian_savages', 'neighbor', 'tribe', 'asian_savages', 'leave', 'survivor', 'finish', 'torture', 'savage', 'savage', 'savage']",-1,[]
3337,2.0,"['invader', 'protest', 'protest']",-1,[]
3352,2.0,"['cruz', 'homeland', 'cuba', 'obama', 'kenya', 'stop', 'white_nations', 'russia']",-1,[]
3364,2.0,"['hollywood', 'movie', 'attendance', 'time', 'jewish_hollywood', 'produce', 'anti-white_propaganda', 'stand', 'pay', 'money']",-1,[]
3382,2.0,"['stampede', 'shanghai', 'eve', 'dead', 'souvenir', 'currency', 'crowd', 'trample', 'grab', 'die', 'body', 'dead', 'street']",-1,"[""year's_eve_-""]"
3398,2.0,"['white_children', 'miss', 'easter', 'rabbi', 'ritual', 'murder']",-1,[]
3477,2.0,"['drug_cartel', 'cause', 'death', 'destruction', 'walk']",-1,[]
3583,2.0,"['thread', 'cancer', 'cancer', 'vitamin', 'deficiency', 'cancer', 'industry']",-1,[]
3699,2.0,"['texas', 'fight', 'election_fraud', 'stop', 'election_fraud', 'hang', 'law', 'demand', 'rope', 'election_fraud']",-1,[]
3720,2.0,"['gun_confiscation', 'arrest', 'congress']",-1,[]
3758,2.0,"['think', 'brick', 'fine', 'cqc', 'close_quarters', 'combat', 'stoved', 'criminal', 'head', 'brick', 'kill', 'black', 'criminal', 'neighborhood', 'pistol', 'hit', 'chest', 'time', 'point_blank', 'criminal', 'kill', 'mexican']",-1,[]
3777,2.0,"['criminal', 'invasion']",-1,[]
3822,2.0,"['skin', 'head']",-1,[]
3875,2.0,"['public', 'school', 'teacher', 'todd', 'henry', 'murder', 'black', 'student', 'murder', 'safe', 'clean', 'white', 'school', 'tyler', 'texas', 'degenerate', 'mess', 'savage', 'black', 'beast', 'resume', 'crime_spree', 'release']",-1,[]
3887,2.0,"['official', 'government', 'hoist', 'high']",-1,[]
3907,2.0,"['watch', 'tv', 'good', 'show', 'shooting_usa', 'cowboy', 'cowboy', 'single_action', 'shooting_sports', 'impossible', 'shot', 'american_rifleman', 'gun', 'ammo', 'shooting_gallery', 'pursuit', 'thousand', 'yard', 'hunt', 'mm', 'magnum', 'rifle']",-1,[]
3910,2.0,"['terrorist', 'government']",-1,[]
3959,2.0,"['african', 'theft', 'murder', 'murder', 'object', 'know', 'object', 'leave', 'lie', 'foot', 'african', 'object', 'today', 'african', 'leave', 'air', 'jordan', 'foot', 'murder', 'victim', 'shoe', 'fit']",-1,[]
4086,2.0,"['leftist', 'jewish_communist', 'master', 'hate', 'wrong']",-1,[]
4253,2.0,"['lesbian', 'lure', 'male', 'sex', 'trap', 'murder', 'exchange', 'text', 'message', 'beat', 'dead', 'body', 'stole', 'car', 'car', 'abandon', 'shift', 'blame', 'crime', 'relative', 'sentence', 'year', 'month', 'couple', 'kill', 'man', 'lure', 'beach', 'sex']",-1,[]
4257,2.0,"['mass', 'knife', 'attack']",-1,[]
4294,2.0,"['brown', 'power', 'jew', 'power', 'jewish_communist', 'program', 'idiot', 'race_traitors', 'hateful_anti-white', 'program', 'mortal', 'child', 'future_generations', 'race_traitor', 'threat', 'murder', 'white_children', 'cry', 'justice']",-1,[]
4410,2.0,"['anti-american', 'government', 'washington_d.c', 'devil', 'carnate', 'aircraft', 'carrier', 'isralie_empire', 'sub', 'jew', 'sell', 'communist_chinese', 'buddy', 'push', 'carrier', 'usn', 'carrier', 'chinese_communist', 'clutch']",-1,[]
4442,2.0,"['jew', 'hebrew', 'theft', 'extortion', 'kidnapping', 'fraud', 'blackmail', 'murder']",-1,[]
4464,2.0,"['serial', 'killer', 'marxism']",-1,[]
4493,2.0,"['situation', 'president', 'danger', 'jewish_communists', 'international_jewish', 'communist', 'adviser', 'comrade', 'kissinger', 'offer', 'president', 'non-harmful', 'isralie_empire', 'alternative', 'scold', 'communist', 'utopia', 'jet', 'demand', 'attack', 'sub', 'house', 'missile', 'attack', 'sub', 'month']",-1,[]
4524,2.0,"['african', 'lesbian', 'rape', 'girl']",-1,[]
4526,2.0,"['mestizo', 'honduras', 'murder', 'mestizo', 'girlfriend', 'mestizo', 'capture', 'release', 'border', 'murder', 'louisiana', 'capture', 'murder', 'kidnapping', 'mestizo', 'child', 'primitive', 'creature', 'act', 'primitive', 'manner', 'white_nation', 'exclusive', 'release', 'alien', 'border', 'crisis', 'murder', 'kidnapping']",-1,[]
4540,2.0,"['african', 'rap', 'murder', 'white_woman', 'murder', 'multiple', 'victim', 'serial_killer', 'kill', 'normal', 'african_behavior']",-1,[]
4547,2.0,"['african', 'attempt', 'armed_robbery', 'dead', 'robber', 'shot', 'victim', 'miami', 'nbc', 'south', 'florida']",-1,[]
4550,2.0,"['africans_attempt', 'business']",-1,[]
4553,2.0,"['african', 'mall', 'riot']",-1,[]
4572,2.0,"['niggro', 'murderer', 'remorse', 'kill', 'white', 'victim', 'niggro', 'family', 'remorse', 'scream', 'white_family', 'member', 'hate', 'mini', 'video', 'player', 'jsonline']",-1,[]
4573,2.0,"['savage', 'attack', 'frenchman', 'security', 'camera', 'record', 'attack', 'muslim', 'attack', 'cartographer', 'train', 'station', 'grenoble', 'france', 'beating', 'stab', 'wound', 'puncture', 'lung', 'left', 'young', 'man', 'comma', 'wake', 'comma', 'doubt', 'racist', 'hate_crime', 'white', 'stranger', 'official', 'announcement', 'arrest', 'turn', 'arrest', 'article=287823']",-1,[]
4574,2.0,"['niggros', 'open', 'fire', 'arrowhead', 'mall', 'muskogee', 's=12289607', 'dead', 'niggros', 'shoot', 'dead', 'victim', 'target', 'niggro']",-1,[]
4575,2.0,"['come', 'america', 'farm', 'murder', 'africa']",-1,[]
4605,2.0,"['mestizo', 'serial_killer']",-1,[]
4607,2.0,"['mestizo', 'shoot', 'police_officer', 'officer', 'list', 'condition', 'gerald', 'marcus', 'villabrille', 'san', 'jose', 'california', 'mestizo', 'criminal', 'history', 'pull', 'simple', 'traffic', 'stop', 'stop', 'mestizo', 'back', 'police', 'car', 'shot', 'officer', 'spot', 'minute', 'shoot', 'situation', 'shot', 'police_officer', 'house', 'attempt', 'police_officer', 'set', 'house', 'tear', 'gas', 'canister', 'burning', 'house', 'kill', 'homeowner', 'dog', 'mestizo', 'body', 'scene', 'unknown', 'burn', 'fire', 'die', 'gunshot', 'wound', 'house', 'set', 'suspect', 'shoot', 'fremont', 'officer', 'dy', 'ktvu', 'fremont', 'police', 'dead', 'suspect', 'patch']",-1,[]
4609,2.0,"['st', 'louis', 'african_shot', 'month', 'son', 'dead', 'child', 'mother', 'arm', 'mom', 'want', 'parole', 'violation', 'father', 'kill', 'son', 'surrender', 'police', 'q13', 'fox', 'news']",-1,[]
4612,2.0,"['african', 'film', 'murder', 'innocent', 'stupid']",-1,[]
4616,2.0,"['african', 'scar', 'racist', 'threat', 'racist', 'criminal']",-1,[]
4619,2.0,"['chicago', 'black', 'mob', 'violence']",-1,[]
4624,2.0,"['u.s', 'black', 'black', 'year', 'stats', 'count', 'white', 'black', 'crime', 'brown', 'mestizo', 'white', 'drive', 'white', 'crime', 'number']",-1,[]
4627,2.0,"['increase', 'african', 'gun', 'crime', 'ring', 'bang']",-1,[]
4634,2.0,"['african_shot', 'african', 'cop', 'dead']",-1,[]
4635,2.0,"['family', 'african', 'thief']",-1,[]
4639,2.0,"['african', 'fight', 'peace', 'shoot', 'gun']",-1,[]
4655,2.0,"['mexican', 'attempt', 'armed_robbery', 'shotgun', 'mexican', 'dead']",-1,[]
4664,2.0,"['criminal_aliens', 'murder']",-1,[]
4671,2.0,"['guru', 'charge', 'rape', 'witness', 'murder']",-1,[]
4694,2.0,"['chinese', 'shoplifter', 'murder', 'young', 'girl']",-1,[]
4695,2.0,"['africans_attempt', 'parent', 'r-violent.html']",-1,[]
4707,2.0,"['african', 'police_officer', 'arrest', 'girl', 'sex', 'face', 'money']",-1,[]
4802,2.0,"['brexit', 'anti', 'eu', 'protest']",-1,[]
4817,2.0,"['dallas', 'massacre', 'white']",-1,['war_on_whites']
4885,2.0,"['milk', 'jug', 'yard', 'bernal']",-1,[]
4914,2.0,"['dick', 'dale', 'del', 'tone', 'misirlou']",-1,[]
5027,2.0,"['junior_brown', 'wife', 'think', 'dead']",-1,[]
5182,2.0,"['tweet', 'day', 'paris', 'attack', 'hour', 'paris', 'attack', 'twitter', 'account', 'post', 'death', 'injury', 'toll', 'paris', 'terror', 'attack']",-1,['paris_terror_attack']
5218,2.0,"['megan', 'elisabeth', 'sin', 'ad', 'mccarthy', 'european', 'woman', 'leftist', 'lie']",-1,[]
5454,2.0,"['warlord', 'theatre', 'war']",-1,[]
5543,2.0,"['samuel', 'dickson', 'crisis', 'white_race']",-1,[]
5562,2.0,"['hand', 'cop', 'kill', 'stop', 'hate', 'separate']",-1,[]
5584,2.0,"['brick', 'shooter', 'destruction', 'motion']",-1,[]
5610,2.0,"['joanne', 'shaw', 'taylor', 'depression']",-1,[]
5631,2.0,"['terrorist', 'federal', 'category', 'potential', 'terrorist']",-1,[]
5638,2.0,['death'],-1,[]
5711,2.0,"['bob_whitaker', 'real', 'american', 'indian', 'history', 'savage', 'share']",-1,[]
5772,2.0,"['federal', 'tax', 'dollar', 'support', 'isi', 'terrorist', 'kill', 'federal', 'tax', 'dollar', 'support', 'iraqi', 'federal', 'spending']",-1,[]
5822,2.0,"['leatham', 'shoot', 'stay', 'target']",-1,[]
5845,2.0,"['operation', 'choke', 'point', 'federal', 'program', 'firearm', 'ownership']",-1,[]
5881,2.0,"['war', 'wrong']",-1,[]
5931,2.0,"['gun', 'registration', 'ny', 'state']",-1,[]
5965,2.0,"['utah', 'nsa', 'spy']",-1,[]
5971,2.0,"['mercyful', 'fate', 'metalica', 'curse', 'pharos', 'year']",-1,[]
6013,2.0,"['disillusion', 'anarchist', 'burning', 'homeboy', 't-shirt', 'evil']",-1,[]
6038,2.0,"['ukraine', 'imf', 'trade', 'war', 'cold', 'war', 'war', 'putin', 'cut', 'gas', 'flow', 'europe', 'cut', 'cash', 'flow', 'russia']",-1,"['trade_war', 'cold_war']"
6147,2.0,"['anti', 'racist', 'codeword', 'anti', 'white', 'v=xrbqlr2jnyo']",-1,[]
6170,2.0,"['handgun', 'registration', 'murder', 'v=qd48vot68r4']",-1,[]
6209,2.0,"['austrian', 'death', 'machine', 'jingle']",-1,[]
6220,2.0,"['fear', 'city']",-1,[]
6232,2.0,"['loony_leftist', 'gun', 'gun', 'zone']",-1,[]
6273,2.0,"['japan', 'communist_chinese', 'war']",-1,['provoke_war']
6324,2.0,['civil_war'],-1,['civil_war']
6386,2.0,"['ghost', 'ghost']",-1,[]
6395,2.0,"['fly', 'reaper']",-1,[]
6400,2.0,"['reaper', 'candle', 'holder', 'scroll', 'project']",-1,[]
6545,2.0,"['ennio', 'morricone', 'good', 'bad']",-1,[]
6559,2.0,"['steve_lee', 'time', 'time', 'steve_lee', 'youtube']",-1,[]
6641,2.0,"['obama', 'arm', 'syrian', 'rebel', 'rebel', 'committed_mass', 'murder', 'christian', 'war_crime', 'terrorist', 'obama', 'arm', 'terrorist', 'america']",-1,[]
6712,2.0,"['europa', 'europa', 'love', 'anti-whites', 'hate', 'youtube']",-1,[]
6713,2.0,"['give', 'al_ciada', 'sarin', 'gas', 'federal_agent', 'order', 'government', 'murder', 'trail', 'arm', 'deal', 'supply', 'al_ciada', 'al_ciada', 'sarin', 'gas', 'government', 'blame', 'government', 'syria', 'attack', 'agent', 'al_ciada', 'al_ciada', 'sarin', 'gas', 'possession', 'government', 'blame', 'government', 'syria', 'attack']",-1,[]
6715,2.0,"['riot', 'sydney', 'australia', 'v=kpzwpeequle']",-1,[]
6726,2.0,"['friday', 'saturday', 'night', 'account', 'riot']",-1,[]
6740,2.0,"['loony_leftists', 'attack', 'gathering', 'normal', 'folk', 'gather', 'anti-white', 'loony_leftist', 'attack', 'loony_leftists', 'hateful_violent', 'thug', 'normal', 'natural', 'surround', 'freak', 'jewish_communists']",-1,[]
6827,2.0,['weak_volume'],-1,[]
6883,2.0,"['fat', 'sick', 'dead', 'movie']",-1,[]
7004,2.0,"['irish', 'bastard', 'irish', 'washer', 'woman', 'irish', 'bastard', 'irish', 'washer', 'woman', 'youtube']",-1,[]
7057,2.0,"['gun', 'manufacturer', 'refuse', 'government', 'sale', 'protest']",-1,[]
7098,2.0,"['communist', 'dictator', 'hugo', 'chavez', 'dead', 'communist', 'dictator', 'chavez', 'step', 'amoral', 'african', 'warload', 'obama']",-1,[]
7146,2.0,"['iraq', 'war', 'protest']",-1,['iraq_war_protests_around_the_world']
7173,2.0,"['duty', 'african', 'police_officer', 'knife', 'attack']",-1,[]
7222,2.0,"['citizen', 'die']",-1,[]
7296,2.0,"['stop', 'massacre', 'stop', 'massacre', 'youtube']",-1,[]
7591,2.0,"['wolf', 'bad', 'grandmother', 'mind', 'grandma', 'ax']",-1,[]
7656,2.0,"['reason', 'obama', 'term', 'failure']",-1,[]
7728,2.0,"['larry', 'pratt', 'gun_owners', 'america', 'treaty', 'batman', 'shooter']",-1,[]
7747,2.0,"['worst', 'u.s', 'drought']",-1,[]
7770,2.0,"['government', 'funding']",-1,[]
7793,2.0,"['chicago', 'shot', 'night', 'dead', 'media_mafia', 'sound', 'african', 'kill', 'poor', 'african', 'kill', 'african', 'rich', 'african', 'murder', 'african', 'poor', 'african']",-1,[]
7794,2.0,"['ge', 'nuclear_power', 'plant', 'ge', 'nuclear_power', 'plant', 'union']",-1,[]
7808,2.0,"['ron_paul', 'supporter', 'suspect', 'terrorist']",-1,[]
7827,2.0,"['hedge', 'fund', 'fraud']",-1,[]
7835,2.0,"['home', 'drone', 'war']",-1,['drone_war']
7855,2.0,"['white_woman', 'bumpski', 'bump', 'fire', 'stock', 'lady', 'shoot', 'bumpski', 'defendar-15', 'aa2', 'bump', 'fire', 'stock', 'youtube']",-1,[]
7861,2.0,"['media_mafia', 'african', 'crime', 'african', 'leader', 'african', 'crime', 'victim']",-1,[]
7863,2.0,['operation'],-1,[]
7864,2.0,"['nra', 'wayne_lapierre', 'latest']",-1,[]
7865,2.0,"['monsanto', 'evil', 'corporation']",-1,[]
7888,2.0,"['jew', 'rally', 'protest', 'police', 'violence', 'state', 'israel', 'police', 'counter-protested', 'beating', 'protester']",-1,[]
7937,2.0,"['crime', 'dark']",-1,[]
8039,2.0,"['bill_clinton', 'call', 'obama', 'pot', 'call', 'kettle', 'black', 'obama', 'call', 'bill_clinton', 'ditto']",-1,[]
8080,2.0,"['stop', 'santa', 'head', 'start', 'class', 'st', 'peter', 'joe', 'kimball', 'thu', 'dec', 'pm']",-1,[]
8133,2.0,"['texas', 'congressman', 'poe', 'holder', 'african', 'defense', 'holder', 'obama', 'find', 'break', 'oath', 'office', 'constitution', 'break', 'international', 'gun', 'law', 'break', 'federal', 'gun_sales', 'regulation', 'law', 'murder', 'justice', 'mirror', 'find', 'criminal']",-1,[]
8134,2.0,"['suicide', 'bomber', 'kill', 'shiite', 'religious', 'observance']",-1,[]
8187,2.0,"['red', 'blue', 'character', 'white', 'armor', 'kill', 'voice', 'sound', 'shout', 'die', 'cracker', 'die', 'honky', 'character', 'black', 'armor', 'shout', 'kill']",-1,[]
8263,2.0,"['business', 'tax_dollars', 'goal', 'steal', 'tax_dollars', 'block', 'investigation']",-1,[]
8266,2.0,"['richard', 'dawkins', 'war', 'feminist', 'war', 'feminist', 'call', 'anti-semite']",-1,[]
8322,2.0,"['british', 'flag', 'fly', 'britain', 'offensive', 'flag', 'white_nation', 'offensive', 'enemy', 'white_nations']",-1,[]
8325,2.0,"['napolitano', 'lie', 'oath']",-1,[]
8328,2.0,"['high', 'radioactivity', 'fish', 'vegetable', 'nuclear_power', 'air', 'water', 'drink', 'food', 'nuclear_power', 'insanity']",-1,[]
8332,2.0,"['arm', 'raid', 'farm', 'fork', 'picnic', 'dinner', 'american', 'farmer']",-1,[]
8567,2.0,"['county', 'disaster', 'area', 'usda', 'inalmaps11.pdf']",-1,[]
8603,2.0,"['wayne_lapierre', 'atf', 'coverup']",-1,[]
8619,2.0,"['dave', 'workman', 'coverup', 'attorney', 'general', 'american_law', 'phrase', 'criminal', 'incompetence', 'phrase', 'accessory', 'capital', 'crime']",-1,[]
8648,2.0,"['protest', 'session', 'super', 'congress', 'fix', 'government', 'dissolve', 'federal_government']",-1,[]
8658,2.0,['voice'],-1,[]
8690,2.0,"['sheriff', 'richard', 'mack', 'federal', 'crime', 'love', 'obama', 'banker', 'give', 'tax_dollars', 'corporation', 'tax', 'free', 'earnings', 'communist', 'criminal_alien', 'invader', 'black', 'racist']",-1,[]
8711,2.0,"['fluoride', 'poison']",-1,[]
8734,2.0,"['m60', 'gun', 'test', 'fire']",-1,[]
8742,2.0,"['chernobyl', 'accident', 'accident', 'nuclear_power', 'plant', 'nuclear_power', 'insanity']",-1,[]
8805,2.0,"['black', 'gangbangers', 'arrest', 'hate_crime', 'roundup', 'target', 'white']",-1,[]
8827,2.0,"['martial_law', 'drill', 'child', 'fema', 'stadium', 'step', 'fake', 'terror', 'step', 'kid', 'step', 'mom', 'dad', 'area', 'area', 'hold', 'cell', 'family', 'superdome', 'astrodome', 'soccer', 'stadium', 'army', 'mass_murder', 'irish', 'family']",-1,[]
8830,2.0,"['dial', 'die']",-1,[]
8843,2.0,"['arnie_gundersen', 'talk', 'chain', 'reaction', 'april', 'nuclear_power', 'insanity']",-1,[]
8866,2.0,"['solyndra', 'scandal', 'downfall', 'racist', 'obama', 'color', 'qualification']",-1,[]
8882,2.0,"['larry', 'pratt', 'executive', 'gun_owners', 'america', 'operation', 'gunrunner', 'obstruction', 'justice', 'perjury', 'impeachment', 'proceeding', 'goa', 'larry', 'pratt', 'atf', 'laboratory', 'alex', 'jones', 'tv', 'youtube', 'goa', 'larry', 'pratt', 'atf', 'laboratory', 'alex', 'jones', 'tv', 'youtube', 'ted_nugent', 'gun_owners', 'america', 'youtube']",-1,[]
8892,2.0,"['communist', 'revolution', 'work', 'revolution', 'communist', 'revolution', 'mass_murder', 'victim', 'idiot', 'offer', 'resistance', 'wise', 'turn', 'revolution', 'sheep', 'put', 'sleep', 'lie', 'distraction', 'potential', 'oligarch', 'worst', 'nightmare']",-1,[]
8917,2.0,"['nigel_farage', 'obama', 'nation', 'crisis', 'tyranny', 'libya', 'china', 'russia', 'fly', 'zone', 'rain', 'democracy', 'washington_dc']",-1,[]
8921,2.0,"['south_carolina', 'string_band', 'kill', 'yankee', 'soldier']",-1,[]
8962,2.0,"['house', 'traitor', 'threat', 'suicide', 'nation', 'attack']",-1,[]
8979,2.0,"['iceland', 'death_penalty']",-1,[]
9022,2.0,"['gatlin', 'brother', 'johnny_cash', 'dead']",-1,[]
9046,2.0,['liberal'],-1,[]
9140,2.0,"['dick', 'tombstone', 'mile']",-1,[]
9204,2.0,"['damage', 'jhp', 'shoot']",-1,[]
9268,2.0,"['time', 'struggle', 'savage', 'greed', 'drive', 'primitive', 'lust', 'constant', 'remains']",-1,[]
9288,2.0,"['complaint', 'real', 'slave', 'trade', 'asia', 'today']",-1,[]
9311,2.0,"['girl', 'grandfather', 'step-father']",-1,[]
9320,2.0,"['isralie', 'spy', 'death', 'sentence']",-1,[]
9326,2.0,"['north', 'korean', 'news', 'agency', 'radio', 'north_korea', 'kill', 'american', 'die', 'population', 'estimate', 'kill', 'population', 'north_korea', 'kill', 'american', 'north_korea', 'small']",-1,[]
9346,2.0,"['irony', 'chaos', 'black_lives', 'murder', 'protest', 'police_officer', 'arrest', 'black_thug', 'crime', 'murder', 'rioter', 'rioter', 'today', 'scream', 'hate', 'dem', 'po-lese']",-1,[]
9411,2.0,"['garland', 'day', 'labor', 'center', 'minuteman', 'defense', 'corp', 'criminal_alien', 'bandit', 'ture_full.html']",-1,[]
9505,2.0,"['police_officer', 'range', 'aim', 'shoot', 'problem', 'police_officer', 'shot', 'dog', 'fire', 'bad', 'shot', 'dog', 'worse', 'shoot', 'human', 'incompetence', 'good', 'job', 'african', 'criminal', 'hit']",-1,[]
9555,2.0,"['quote', 'figure', 'hitler', 'escape', 'true', 'fact', 'surround', 'fake', 'suicide', 'adolf_hitler']",-1,[]
9661,2.0,"['hockey', 'coach', 'fire', 'evil', 'nazi', 'message', 'clear', 'nazi', 'ctv', 'vancouver', 'nazi', 'sympathizer', 'fire', 'ctv', 'news']",-1,[]
9664,2.0,"['italy', 'top', 'court', 'rule', 'victim', 'sue', 'germany', 'nazi', 'war_crime', 'nazi', 'guilt', 'nazi', 'child', 'grand', 'child', 'great_grand', 'child', 'italy', 'top', 'court', 'rule', 'victim', 'sue', 'germany', 'nazi', 'war_crime', 'ria', 'novosti']",-1,[]
9670,2.0,"['tragedy', 'man', 'english', 'trailer']",-1,[]
9683,2.0,"['nazi', 'publication', 'bound']",-1,[]
9699,2.0,"['bank', 'fire', 'employee', 'hooker', 'dutch', 'banker', 'conchita', 'van', 'waal', 'fire', 'expose', 'dominatrix', 'prostitute', 'mail_online', 'conchita', 'van', 'waal', 'la', 'banquera', 'era', 'una', 'prostituta', 'fotos']",-1,[]
9748,2.0,"['appropriation', 'imperative', 'african', 'africa']",-1,[]
9762,2.0,"['issue', 'wrong']",-1,[]
9789,2.0,"['merkel', 'accessory', 'immigration', 'invasion', 'accessory', 'rape', 'accessory', 'theft', 'accessory', 'arson', 'accessory', 'treason', 'planning', 'implement', 'program', 'people']",-1,[]
9829,2.0,"['stockton', 'california', 'mystery', 'hole', 'cloud', 'california', 'expert', 'baffle', 'conspiracy', 'theorist', 'claim', 'work', 'alien']",-1,[]
9839,2.0,"['ukraine', 'citizen', 'devil', 'follower']",-1,[]
9874,2.0,"['mulatto', 'light', 'skin', 'niggro', 'dark', 'niggro', 'attempt', 'complex', 'crime', 'black', 'niggro', 'crime', 'niggro', 'crime', 'murder', 'torture', 'kidnapping', 'rape', 'child_rape', 'push', 'drug', 'stuff', 'niggro']",-1,[]
9946,2.0,['black'],-1,[]
9949,2.0,"['official', 'word', 'syrian', 'nuffin', 'group', 'savage', 'victim', 'bad', 'head']",-1,[]
9961,2.0,"['palestinian', 'fake', 'dead', 'child', 'bit', 'pretend', 'dead', 'photo', 'walk', 'thousand', 'murder', 'time', 'real']",-1,[]
10026,2.0,"['history', 'jew', 'nation', 'people', 'nation', 'feel', 'outrage', 'jew', 'demand']",-1,[]
10170,2.0,"['criminal', 'mexican', 'african', 'mexican_bandits', 'white', 'criminal', 'hight', 'weight', 'driver', 'license', 'meaning', 'creature', 'alien', 'invader', 'list', 'address', 'criminal', 'rent', 'murderer', 'accessory', 'murder']",-1,[]
10256,2.0,"['criminal', 'farmer', 'branch', 'nation', 'apartment', 'mean', 'jail', 'criminal', 'dollar', 'property', 'damage', 'property', 'theft', 'mention', 'human', 'violent_crimes', 'horde', 'illegal_alien', 'criminal', 'crime', 'rape', 'murder', 'ton', 'drug', 'thug', 'criminal_aliens', 'time', 'apartment', 'build', 'house', 'law_abiding', 'tax', 'pay', 'human', 'lock', 'kick']",-1,[]
10257,2.0,"['human', 'criminal', 'cause', 'moment', 'beast', 'cause', 'moment', 'damage', 'stop', 'commission', 'crime', 'beast', 'offensive', 'limited', 'height', 'limited', 'intelligence', 'limited', 'imagination', 'limited', 'achievement', 'mayhem', 'harm', 'cause', 'express', 'beast', 'black', 'deed', 'black', 'hearted', 'villain', 'politician', 'employ', 'politician', 'oath', 'office', 'committed_treason', 'aid', 'criminal_aliens', 'commission', 'crime', 'pursuit', 'justice', 'matter', 'black', 'hearted', 'criminal', 'domestic']",-1,[]
10305,2.0,"['hillary', 'prison', 'cell', 'liberal']",-1,[]
10321,2.0,"['jew', 'prison', 'work', 'camp', 'debt', 'germany', 'jew', 'acceptance', 'responsibility', 'imprisonment', 'willingness', 'debt', 'officer', 'prison', 'work', 'camp', 'work', 'compliance', 'release', 'german', 'society', 'prisoner', 'release', 'prison', 'work', 'camp', 'program', 'release', 'prisoner', 'death', 'camp']",-1,[]
10330,2.0,"['anti-white', 'rioter', 'murder', 'white_nationalist', 'joel', 'bjurstr', 'almgren', 'anti-white', 'leftist', 'principle', 'start', 'riot', 'young_white', 'nationalist']",-1,[]
10338,2.0,"['islam', 'african', 'slavery']",-1,[]
10341,2.0,"['black', 'nation', 'brown', 'nation', 'place', 'white_nation', 'place', 'brown', 'white_nation']",-1,[]
10365,2.0,"['tarahumara', 'kill', 'aztec']",-1,[]
10395,2.0,"['terrorist', 'arrest', 'los', 'angeles', 'photo', 'display', 'save', 'host', 'site', 'display']",-1,[]
10415,2.0,"['black', 'queen', 'puffer', 'fish', 'guy', 'poison', 'gland', 'remove']",-1,[]
10474,2.0,"['lawsuit', 'block', 'federal', 'aid', 'israel']",-1,[]
10504,2.0,"['practice', 'christianity', 'hate_crime', 'satan', 'child', 'jew']",-1,[]
10611,2.0,"['tsa', 'grope', 'young', 'lady', 'bikini', 'paw', 'personal', 'property']",-1,[]
10620,2.0,"['government', 'military', 'loot', 'ally', 'criminal', 'black', 'soldier', 'rape', 'murder', 'french', 'child', 'government', 'military', 'ally', 'enemy', 'enemy', 'nation', 'military', 'loot', 'nation', 'enemy', 'tax_dollars', 'enemy', 'nation']",-1,[]
10655,2.0,"['african', 'kill', 'jordan', 'shoe', 'left', 'scene', 'wrong', 'size', 'dead', 'african']",-1,[]
10669,2.0,"['globalists', 'doom', 'failure', 'pepe', 'sleep']",-1,[]
10684,2.0,"['high', 'maintenance', 'wrong', 'moment', 'quick', 'heat']",-1,[]
10724,2.0,"['trump', 'dig', 'coal', 'bad', 'news', 'wynne', 'canadian', 'view', 'america', 'coal', 'industry']",-1,[]
10736,2.0,"['channel', 'gun', 'ammo', 'classic', 'weapon', 'shooting_sports', 'product', 'review', 'american_rifleman', 'history', 'weapon', 'product', 'cowboy', 'shooter', 'rifle', 'shotgun', 'cowboy', 'action', 'shoot', 'western', 'shooting_gallery', 'technique', 'shooting_sports', 'tv', 'shoot', 'instruction', 'defensive', 'info', 'dog', 'bird', 'dog', 'bird', 'hunt', 'history_channel', 'wild', 'west', 'tech', 'real', 'event', 'person', 'jewish_communist', 'anti-white_propaganda', 'record', 'house', 'slander']",-1,[]
10737,2.0,"['crime', 'primitive', 'african', 'savage', 'mexican', 'invader', 'america', 'safe', 'place', 'asian', 'respect', 'asian', 'asia', 'good']",-1,[]
10772,2.0,"['bad', 'news', 'government', 'give', 'israel', 'evil', 'earth', 'f-35', 'jet']",-1,[]
10791,2.0,"['communist', 'coward', 'attack', 'trump', 'supporter']",-1,[]
10796,2.0,"['trump', 'hater', 'expose']",-1,[]
10798,2.0,"['america', 'union', 'warp', 'rainbow', 'flag', 'cry', 'mascara', 'face']",-1,[]
10866,2.0,"['hillary', 'hate', 'christian', 'isi', 'christian']",-1,[]
10880,2.0,['trump'],-1,[]
10886,2.0,"['trump', 'cnn', 'propagandist', 'fake', 'news']",-1,[]
10967,2.0,"['palin', 'impeachment', 'border', 'crisis']",-1,[]
11164,2.0,"['jewish_media', 'mafia', 'blackout', 'plan', 'false_flag', 'attack', 'medium', 'cover', 'turk', 'planning', 'false_flag', 'syria', 'war', 'youtube']",-1,['syria_war_-_youtube']
11179,2.0,"['woman', 'march']",-1,[]
11182,2.0,"['leftist', 'violence']",-1,[]
11190,2.0,"['arab', 'male', 'fake', 'hate_crime']",-1,[]
11192,2.0,"['m', 'obama', 'michael', 'insult']",-1,[]
11203,2.0,"['race_mixing', 'whore', 'torture', 'skin', 'african', 'pet']",-1,[]
11248,2.0,"['brown', 'race', 'factor', 'mestizo', 'murder', 'african', 'murder', 'mestizo', 'reply']",-1,[]
11264,2.0,"['question', 'radical_feminists']",-1,[]
11436,2.0,"['diversity', 'rise', 'cop', 'killing', 'police_officer', 'diversity', 'anti-white', 'law', 'police_officer', 'white', 'civil_right', 'killing']",-1,[]
11516,2.0,"['banker', 'real', 'terrorist', 'military', 'terrorist', 'bank', 'office']",-1,[]
11697,2.0,"['kill', 'baby', 'dolphin']",-1,[]
11731,2.0,"['israel', 'war', 'space', 'program']",-1,[]
11775,2.0,"['dollar', 'plumet', 'dead', 'mid_east', 'unrest', 'plan']",-1,[]
11784,2.0,"['american', 'marine', 'norwegian', 'white', 'death', 'ski', 'troop']",-1,[]
11791,2.0,"['government', 'hate', 'white_children']",-1,[]
11801,2.0,"['government', 'bee', 'kill', 'pesticide']",-1,[]
11858,2.0,"['imperial', 'military', 'war']",-1,['eternal_war']
11919,2.0,"['basic', 'feminist', 'hypocrisy', 'loony_leftist', 'agenda', 'root', 'lie', 'deceit']",-1,[]
11931,2.0,"['kill', 'honey', 'bee']",-1,[]
11958,2.0,"['fund', 'transfer', 'attack', 'criminal', 'attack', 'accessory', 'mass_murder', 'criminal', 'german', 'technology', 'expose', 'zionist', 'crime', 'bush', 'family', 'crime', 'organization']",-1,[]
12180,2.0,"['glenn', 'spencer', 'mexican-american', 'war']",-1,['mexican-american_war']
12244,2.0,"['murder', 'mccook', 'nebraska']",-1,[]
12245,2.0,"['anti-government', 'protester', 'shot_dead', 'albania']",-1,[]
12256,2.0,"['debt', 'drag', 'union']",-1,[]
12259,2.0,"['garden', 'miami', 'florida', 'miami', 'clean', 'modern', 'city', 'savage', 'move', 'city', 'soil']",-1,[]
12261,2.0,"['moscow', 'airport', 'domodedovo', 'suicide', 'bomber', 'suspect', 'dead', 'wound']",-1,[]
12269,2.0,"['obama', 'clinton', 'bush', 'fund']",-1,[]
12300,2.0,"['food', 'crisis', 'come', 'america', 'expert', 'list', 'reason', 'america', 'food', 'crisis', 'food', 'production', 'drop', 'reason', 'bad', 'weather', 'farm', 'death', 'bee', 'gm', 'crop', 'disaster', 'shortage', 'drive', 'price', 'dollar', 'food', 'crisis', 'spark', 'revolution']",-1,['food_crisis']
12323,2.0,"['communism', 'jewish_communists', 'murder', 'revolution']",-1,[]
12392,2.0,"['obama', 'fraud']",-1,[]
12396,2.0,"['east', 'jew', 'burn', 'christian', 'holocaust', 'jew', 'murder', 'christian', 'child', 'hundred', 'million']",-1,[]
12410,2.0,"['tower', 'terrorist', 'attack', 'control', 'demolition']",-1,[]
12426,2.0,"['gerald', 'celente', 'depression', 'revolution', 'cyber', 'war', 'backyard', 'garden']",-1,[]
12456,2.0,"['jew', 'fdr', 'mass_murder', 'pearl_harbor', 'attack']",-1,[]
12476,2.0,"['bird', 'kill', 'fish', 'kill', 'arkansas', 'firework', 'oxygen', 'air', 'fish', 'hit', 'head', 'fall', 'bird', 'bird', 'fish', 'die']",-1,[]
12499,2.0,"['bill', 'cooper', 'hoax', 'alien', 'invasion', 'plan', 'nwo', 'bill', 'cooper', 'murder', 'program']",-1,[]
12570,2.0,"['fbi', 'arrest', 'man', 'sell', 'bomb', 'recruitment', 'center', 'fbi', 'victim', 'victim', 'recruit', 'victim', 'sell', 'victim', 'bomb', 'arrest', 'victim', 'tax_dollars', 'work']",-1,[]
12622,2.0,"['robert', 'stinnett', 'day', 'deceit', 'pearl_harbor']",-1,[]
12645,2.0,"['austrian', 'death', 'machine', 'clothes', 'boot', 'motorcycle']",-1,[]
12659,2.0,"['austrian', 'death', 'machine', 'jingle']",-1,[]
12681,2.0,"['katyn', 'massacre', 'communist_mass', 'murder']",-1,[]
12761,2.0,"['max_keiser', 'imf', 'terror', 'machine', 'ireland']",-1,[]
12768,2.0,"['empire', 'bankrupt', 'america']",-1,[]
12770,2.0,"['arrow', 'savage']",-1,[]
12809,2.0,"['ron_paul', 'bernanke', 'krugman', 'dollar', 'money', 'black', 'magic', 'debt', 'tax_payers', 'real', 'money', 'american_citizens', 'work', 'labor']",-1,[]
12910,2.0,"['james', 'buck', 'case', 'search', 'seizure', 'firearm']",-1,[]
12963,2.0,['deutschland'],-1,[]
13079,2.0,"['ron_paul', 'empire', 'war', 'conquest', 'american_citizens']",-1,[]
13092,2.0,"['deaths_head', 'iron', 'war_machine']",-1,[]
13118,2.0,"['glenn_beck', 'america']",-1,[]
13162,2.0,"['rebel', 'son', 'kill', 'king']",-1,[]
13164,2.0,"['walk', 'dead', 'zombie', 'economy']",-1,[]
13195,2.0,"['austrian', 'death', 'machine', 'organism']",-1,[]
13266,2.0,"['kill', 'switch', 'daily', 'news', 'edition', 'july', 'america', 'cashier', 'reek', 'money', 'african']",-1,[]
13269,2.0,"['austrian', 'death', 'machine', 'clothes', 'boot', 'motorcycle']",-1,[]
13305,2.0,"['austrian', 'death', 'machine', 'kill']",-1,[]
13310,2.0,"['murder', 'economy']",-1,[]
13319,2.0,"['race', 'religion']",-1,[]
13367,2.0,"['white_house', 'doj', 'black', 'racist', 'american_law']",-1,[]
