,topic_lda,bag_words,sa_score,events
10,0.0,"['scientificamerican.com', 'weekly', 'review', 'october']",0,[]
13,0.0,"['handgun', 'snub']",0,[]
24,0.0,"['f', 'c', 'case']",0,[]
28,0.0,"['adam', 'tapper', 'draw', 'strip', 'tapper', 'demur', 'humor', 'fan', 'art']",0,[]
31,0.0,"['equatorial', 'land', 'year', 'season', 'world']",0,[]
38,0.0,"['obama', 'homo']",0,[]
40,0.0,"['normal', 'muslim', 'begin', 'slaughter', 'white', 'folk', 'germany', 'reach', 'pocket', 'pull', 'handgun', 'shoot']",0,[]
47,0.0,"['field', 'fire', 'ar-10', 'god', 'eugene', 'stoner', 'father', 'shoot', 'original', 'ar-10', 'adoption', 'm-16', 'thought', 'rifle', 'world', 'felt', 'rifle', 'communism', 'pentagon']",0,[]
69,0.0,"['texe', 'marrs', 'fake', 'jew', 'stole', 'israel', 'alex', 'jones', 'open', 'alex', 'jones', 'hate', 'hitler', 'hitler', 'national', 'socialist', 'blame', 'job', 'national', 'socialism']",0,[]
72,0.0,"['jew', 'white', 'girl', 'public', 'jew', 'quake']",0,[]
73,0.0,"['canada', 'guess', 'talk', 'video', 'evalion', 'video', 'white', 'suggestion', 'white', 'nationalism', 'national', 'socialism', 'vids']",0,[]
82,0.0,['caliber'],0,[]
91,0.0,"['chance', 'restaurant', 'block', 'charge', 'customer', 'day']",0,[]
92,0.0,"['fire', 'show', 'work', 'day', 'hire', 'white', 'man', 'place']",0,[]
97,0.0,"['time', 'white', 'man', 'stop', 'world', 'slave', 'work', 'support', 'world', 'savage', 'earth', 'savage', 'home', 'build', 'food', 'drive', 'car', 'build', 'white', 'man', 'benefit', 'labor']",0,[]
