,topic_lda,bag_words,sa_score,events,rank
3744,0.0,"['firearm', 'fit', 'basic', 'common', 'caliber', 'smart', 'specialty', 'round', 'folk', 'common', 'caliber', 'cover', 'inverse', 'ammo', 'effectiveness', 'ammo', 'bullet', 'damage', 'bullet', 'savage', 'fire', 'bleeding', 'diversity']",0,['new_year'],0.015457381000000001
11049,0.0,"['time', 'inventory', 'supply', 'extra', 'powder', 'buy', 'bullet', 'match', 'powder', 'extra', 'bullet', 'buy', 'powder', 'powder_charge', 'weight', 'bullet', 'chosen', 'simple', 'math', 'short', 'powder', 'grain', 'pound', 'powder', 'time', 'divide', 'grain', 'weight', 'powder_charge', 'equal', 'cartridge', 'load', 'powder', 'pound', 'powder', 'x', 'grain', 'pound', 'grain', 'divide', 'grain', 'compare', 'bullet', 'powder', 'match', 'powder', 'amount', 'bullet', 'amount', 'primer']",0,[],0.015457381000000001
4347,0.0,"['build', 'scope', 'hash', 'mark', 'bullet', 'drop', 'compensator', 'match', 'load', 'sight', 'yard', 'hash', 'mark', 'yard']",0,[],0.015457381000000001
4025,0.0,"['black_powder', 'cartridge', 'load', 'firearm', 'cartridge', 'black_powder', 'smokeless_powder', 'black_powder', 'smokeless_powder', 'today', 'cowboy', 'action', 'shoot', 'load', 'cartridge', 'revolver', 'lever_action', 'rifle', 'shotshell', 'shotgun', 'black_powder', 'cartridge', 'firearm', 'brass', 'primer', 'cast', 'lead', 'bullet', 'stay', 'business', 'smokeless_powder', 'smokeless_powder', 'pound', 'black_powder']",0,[],0.015457381000000001
986,0.0,"['laser', 'handgun', 'advantage', 'handgun', 'training', 'training', 'laser', 'point', 'shoot', 'trigger_control', 'range', 'point', 'shooter', 'place', 'fight', 'spending', 'ammo', 'point', 'shoot', 'laser', 'point', 'shoot', 'training', 'laser', 'turn', 'handgun', 'ready', 'range', 'target', 'foot', 'distance', 'point', 'handgun', 'move', 'handgun', 'turn', 'laser', 'check', 'aim', 'practice', 'land', 'inch', 'spot', 'aim', 'point', 'time', 'brain', 'session', 'night', 'sleep', 'brain', 'challenge', 'organic', 'change', 'demand', 'point', 'true', 'time', 'practice', 'skill', 'point', 'shoot', 'brain', 'organic', 'change', 'limit', 'ability', 'demand', 'brain', 'ability', 'ability', 'time', 'aim', 'sight', 'perfect', 'sight', 'alignment', 'poor', 'trigger_control', 'firearm', 'target', 'bullet', 'find', 'mark', 'laser', 'work', 'type', 'training', 'ammo', 'high', 'dollar', 'laser', 'save', 'money', 'shoot', 'ammo', 'trigger_control', 'figure', 'handgun', 'point', 'object', 'keep', 'laser', 'target', 'action', 'pull', 'worry', 'damage', 'firing_pin', 'action', 'snap', 'cap', 'firing_pin', 'keep', 'laser', 'target', 'pull', 'full_length', 'pull', 'dot', 'move', 'pull', 'folk', 'pull', 'handgun', 'target', 'trigger_pull', 'push', 'handgun', 'target', 'human', 'anatomy', 'finger', 'move', 'muscle', 'palm', 'contract', 'tendon', 'muscle', 'pull', 'push', 'handgun', 'grip', 'effect', 'palm', 'hand', 'pull', 'trigger', 'finger', 'simple', 'body', 'mechanic', 'simple', 'solution', 'grip', 'bulge', 'palm', 'push', 'handgun', 'laser', 'dot', 'movement', 'palm', 'push', 'firearm', 'practice', 'grip', 'grip', 'run', 'trigger_control', 'drill', 'regular', 'sight', 'laser', 'laser', 'defensive', 'tool', 'training', 'tool', 'good_luck', 'good_shooting']",0,[],0.015457381000000001
3760,0.0,"['european', 'fear', 'hurl', 'bullet', 'reply', 'insult', 'wait', 'free_speech', 'worry', 'body', 'lie', 'cold', 'graf', 'horde', 'tire', 'rap', 'body', 'drive', 'sea', 'homeland', 'white', 'people', 'call', 'place', 'east', 'ireland', 'land']",0,[],0.015457381000000001
9490,0.0,"['cartridge', 'cartridge', 'pocket', 'pistol', 'amp', 'w', 'revolver', 'shot', 'open', 'top', 'style', 'action', 'revolver', 'cartridge', 'pressure', 'light', 'army', 'cartridge', 'revolver', 'sell', 'ammo', 'fifty', 'round', 'cartridge', 'shoot', 'lead', 'bullet', 'pocket', 'pistol', 'shot', 'good', 'accuracy', 'quick', 'shot', 'recoil', 'article', 'cartridge']",0,[],0.015457381000000001
2094,0.0,"['call', 'bullet', 'fly', 'fps', 'semi_auto', 'ar-10_chambered', 'barrel', 'twist']",0,[],0.015457381000000001
10999,0.0,"['american_rifleman', 'magazine', 'test', 'nosler', 'tip', 'bullet', 'grain', 'fps', 'gelatin', 'inch', 'penetration', 'expansion', 'quarter', 'good', 'penetration', 'good', 'expansion', 'medium', 'price', 'bullet', 'performance']",0,[],0.015457381000000001
3410,0.0,"['ammo', 'good', 'variant', 'shot', 'kill', 'head', 'shot', 'yard', 'meter', 'report', 'short', 'barrel', 'heavy', 'bullet', 'barrel', 'twist', 'good', 'hit', 'ar', 'good', 'shot', 'good', 'hit', 'ak', 'miracle', 'worker', 'communist', 'atheist', 'tactic', 'spray', 'volume', 'ak', 'accuracy', 'large', 'pistol', 'shoot', 'cartridge', 'pistol', 'caliber', 'high', 'pistol', 'caliber']",0,[],0.015457381000000001
11019,0.0,"['handgun_ammo', 'dollar', 'plat', 'handgun', 'bullet', 'jacket', 'plat', 'ten', 'cent', 'cast', 'lead', 'handgun', 'bullet', 'find', 'jacket', 'handgun', 'bullet', 'thirteen', 'cent', 'twenty', 'cent', 'area', 'powder', 'load', 'round', 'handgun_ammo', 'loading', 'powder', 'dollar', 'dollar', 'shipping', 'hazmat', 'thousand', 'primer', 'dollar', 'forty', 'dollar', 'caliber', 'round', 'factory_ammo', 'dollar', 'brass', 'rescue', 'abandonment', 'range', 'ten', 'cent', 'bullet', 'powder', 'primer', 'seventeen', 'cent', 'lee', 'dy', 'work', 'hornady', 'lock-n-load', 'collar', 'hold', 'dy', 'hornady', 'press', 'start', 'load', 'handgun_ammo', 'range', 'trip', 'snub_nose', 'yard', 'pistol', 'range', 'yard', 'maximum', 'distance', 'shoot', 'yard', 'hit', 'range', 'save', 'brass', 'rescue', 'tail', 'gaiter', 'bumper', 'sticker', 'shoot', 'good_luck', 'good_shooting']",0,[],0.015457381000000001
3359,0.0,"['cleaning', 'battlefield', 'condition', 'shoot', 'moly', 'coat', 'bullet', 'bother', 'moly', 'coat', 'bullet', 'moly', 'coat', 'bullet', 'military', 'customer', 'field', 'good', 'accuracy', 'barrel', 'stop', 'cleaning', 'side', 'wet', 'patch', 'dry', 'patch', 'finish', 'shoot', 'range', 'run', 'side', 'wet', 'patch', 'come', 'leave', 'wet', 'bore', 'solvent', 'soak', 'home', 'finish', 'cleaning', 'rifle', 'stay', 'wet', 'hoppes', 'copper', 'deposit', 'finish', 'cleaning', 'shoot', 'great', 'clean', 'copper', 'deposit', 'gun', 'powder', 'run', 'hoppes', 'rifle', 'handgun', 'soak', 'clean', 'feed', 'extract']",0,[],0.015457381000000001
1911,0.0,"['brick', 'wall', 'wall', 'hit', 'spot', 'dig', 'hole', 'hit', 'spot', 'brick', 'wall', 'heavy', 'bullet', 'grain', 'brick', 'wall', 'brick', 'wall', 'dig', 'repeat', 'hit', 'spot']",0,[],0.015457381000000001
11052,0.0,"['growth', 'brass', 'check', 'length', 'case', 'set', 'trim', 'trim', 'time', 'case', 'trim', 'shot', 'tire', 'trim', 'case', 'start', 'measure', 'sort', 'trim', 'trim', 'case', 'longer', 'shot', 'full_length', 'suspect', 'case', 'bullet', 'put', 'work', 'load', 'brass', 'fire', 'test', 'theory', 'remington', 'brass', 'case', 'length', 'load', 'separate', 'shot', 'shot', 'brass', 'separate', 'brass', 'full_length', 'clean', 'pocket', 'measure', 'length', 'case', 'longer', 'trim', 'length', 'advantage', 'bullet', 'test', 'load', 'brass', 'shoot', 'trim', 'case', 'contrast', 'remington', 'brass_cases', 'standard', 'factory', 'load', 'length', 'fire', 'suspect', 'load', 'grain', 'grain', 'bullet', 'separate']",0,[],0.015457381000000001
11087,0.0,"['army', 'study', 'bullet', 'short', 'bullet', 'bullet', 'distance', 'shot', 'bullet', 'tumble', 'damage', 'photo', 'bullet', 'gr', 'bt', 'boat_tail', 'long_distance', 'size', 'shot', 'bullet', 'gr', 'fb', 'flat', 'base', 'varmint', 'bullet', 'tumble', 'damage', 'bullet', 'push', 'velocity', 'give', 'tumble', 'bullet', 'leaf', 'dr', 'fackler', 'point', 'thought', 'bullet', 'tumble', 'fly', 'direction', 'point', 'bullet', 'ball', 'kite', 'tale', 'tie', 'throw', 'ball', 'kite', 'tail', 'tail', 'trail', 'point', 'bullet', 'heavy', 'bullet', 'air', 'offer', 'wind', 'resistance', 'tumble', 'bullet', 'communist', 'offer', 'resistance', 'bullet', 'bullet', 'energy', 'tumble', 'exit', 'bullet', 'energy', 'left', 'tumble', 'straight', 'leave', 'wound', 'cavity', 'study', 'twist', 'rate', 'bullet', 'shot', 'twist', 'barrel', 'speed', 'fly', 'straight', 'yaw', 'fly', 'give', 'tendency', 'tumble', 'hit', 'yaw', 'bullet', 'fly', 'straight', 'yaw', 'curve', 'ball', 'result', 'yaw', 'bullet', 'range', 'fire', 'bullet', 'twist', 'barrel', 'range', 'bullet', 'good', 'short_range', 'work', 'nato', 'study', 'short', 'bullet', 'tumble', 'hit', 'auto', 'glass', 'sheetrock', 'commie', 'car', 'door', 'plywood', 'brick', 'furniture', 'soldier', 'lung', 'shot', 'shot', 'length', 'bullet', 'sniper', 'head', 'shot', 'heavy', 'bullet', 'great', 'penetrator', 'heavy', 'cover', 'grain', 'caliber', 'bullet', 'stop', 'fragment', 'fps', 'stop', 'tumble', 'stop', 'tumble', 'longer', 'grain', 'tumble', 'short_range', 'folk', 'shoot', 'anytime', 'heavy', 'cover', 'bullet', 'bullet', 'heavy', 'cover', 'tumble', 'bullet', 'tumble', 'shoot', 'wind', 'condition']",0,[],0.015457381000000001
11089,0.0,"['load', 'case', 'shot', 'bull_barrel', 'part', 'regular', 'remington', 'case', 'lake_city', 'case', 'winchester', 'nato', 'case', 'shot', 'powder_charge', 'contrast', 'headstamps', 'federal', 'shoot', 'powder_charge', 'charge', 'headstamps', 'federal', 'case', 'save', 'case', 'rescue', 'abandon', 'brass', 'grain', 'hp', 'bullet', 'fly', 'great', 'barrel', 'result', 'ammo', 'test', 'run', 'test']",0,['winchester_nato'],0.015457381000000001
11098,0.0,"['varget', 'good', 'choice', 'cartridge', 'pressure', 'number', 'varget', 'powder', 'cartridge', 'bullet', 'data', 'hodgdon', 'importer', 'australian', 'varget', 'powder', 'max', 'charge', 'list', 'bullet', 'grain', 'powder', 'compress', 'load', 'compress', 'varget', 'bullet', 'large', 'pressure', 'list', 'work', 'pressure', 'begin', 'charge', 'grain', 'work', 'load', 'pressure', 'midway', 'range', 'grain', 'work', 'load', 'pressure', 'powder', 'compress', 'state', 'free', 'space', 'cartridge', 'case', 'compress', 'accuracy', 'cartridge', 'rifle', 'general', 'reloaders', 'true', 'maximum', 'safe', 'work', 'load', 'pressure', 'cartridge', 'cup', 'lee', 'reloading_manual', 'varget', 'yield', 'velocity', 'bullet', 'good_luck', 'good_shooting']",0,[],0.015457381000000001
3310,0.0,"['shoot', 'bull_barrel', 'ar', 'flat', 'top', 'good', 'scope', 'burris', 'mm', 'plex', 'scope', 'bipod', 'barrel', 'bullet', 'velocity', 'expanding_gas', 'time', 'push', 'bullet', 'bull_barrel', 'stay', 'cool', 'shot', 'heat', 'accuracy', 'flat', 'top', 'scope', 'level', 'cheek', 'weld', 'shoot', 'plex', 'mil', 'dot', 'type', 'scope', 'crank', 'scope', 'knob', 'windage', 'distance', 'hold', 'steady', 'shot', 'good', 'bipod', 'free', 'float', 'tube', 'good_luck', 'good_shooting']",0,[],0.015457381000000001
11142,0.0,"['shinny', 'brass', 'theory', 'brass', 'brass', 'difference', 'brass', 'show', 'sign', 'case_head', 'separation', 'separate', 'crack', 'mouth', 'crack', 'body', 'problem', 'case_head', 'separation', 'head', 'separate', 'bullet', 'brass', 'plug', 'bullet', 'cork', 'bottle', 'open', 'guess', 'expanding_gas', 'head', 'bad', 'day', 'people', 'safe', 'rifle', 'case_head', 'separation', 'separate', 'body', 'area', 'head', 'pressure', 'expanding_gas', 'fire', 'brass', 'stretch', 'length', 'girth', 'rifle', 'chamber', 'ruff', 'brass', 'ruff', 'spot', 'brass', 'stretch', 'length', 'stretch', 'area', 'head', 'rifle', 'chamber', 'clean', 'slick', 'brass', 'clean', 'slick', 'spot', 'stretch', 'head', 'length', 'body', 'form', 'head', 'shoulder', 'stretch', 'limited', 'head', 'area', 'area', 'stretch', 'body', 'length', 'head', 'area', 'preserve', 'combination', 'clean', 'slick', 'rifle', 'chamber', 'clean', 'shinny', 'preserve', 'brass', 'extra', 'loading', 'case_head', 'separate', 'fire', 'show', 'shinny', 'ring', 'area', 'brass_case', 'picture', 'witness', 'case_head', 'separation', 'brass', 'goal', 'load', 'ammo', 'rifle', 'shoot']",0,[],0.015457381000000001
136,0.0,"['turn', 'bullet', 'time']",0,[],0.015457381000000001
11055,0.0,"['trim', 'brass_cases', 'short', 'boredom', 'fatigue', 'brass', 'work', 'station', 'full_length', 'trim', 'chamfer', 'primer_pocket', 'cleaning', 'case', 'tumble', 'switch', 'form', 'station', 'neglect', 'check', 'trim', 'length', 'trim', 'case', 'check', 'twenty', 'thousandth', 'short', 'trim', 'crimp', 'lee', 'factory_crimp', 'die', 'shot', 'reach', 'crimp', 'surface', 'brass', 'scrap', 'point', 'book', 'scrap', 'brass', 'standard', 'minimum', 'length', 'time', 'rcbs', 'trim', 'brass', 'short', 'x', 'die', 'rcbs', 'factory', 'rep', 'tv', 'program', 'shooting_usa', 'trim', 'brass', 'short', 'purpose', 'cat', 'ate', 'canary', 'ballistics', 'source', 'guideline', 'rcbs', 'trim', 'standard', 'minimum', 'length', 'rcbs', 'safe', 'load', 'crimp', 'case', 'bullet', 'purchasing', 'x', 'die', 'perfect', 'brass', 'factory_crimp', 'die', 'put', 'crimp', 'collar', 'motion', 'squeeze', 'form', 'crimp', 'shell', 'holder', 'press', 'die', 'look', 'shell', 'holder', 'die', 'crimp', 'die', 'need', 'shell', 'holder', 'bench', 'grinder', 'material', 'extra', 'shell', 'holder', 'work', 'crimp', 'short', 'case', 'short', 'shell', 'holder', 'authority', 'brass', 'short', 'scrap', 'rcbs', 'brass', 'look', 'fine', 'brass', 'tell', 'put', 'information', 'purpose', 'advice', 'check', 'trim', 'case', 'batch', 'trim']",0,[],0.015457381000000001
3308,0.0,"['olympic_arms', 'cost', 'work', 'fine', 'shoot', 'government', 'surplus', 'commercial', 'ammo', 'brand', 'ammo', 'rifle', 'shot', 'hand', 'load', 'hit', 'dime', 'yard', 'barrel', 'barrel', 'rifle', 'olympic_arms', 'lifetime', 'guarantee', 'break', 'fix']",0,[],0.014764693
3219,0.0,"['dakota', 'minnesota', 'scandinavian', 'anti-white', 'scandinavian', 'white', 'indian', 'side', 'indian', 'viking', 'indian', 'craig', 'cobb', 'disaster', 'local', 'invite', 'road', 'trip', 'north_dakota', 'nazi', 'hunt', 'rifle', 'decline', 'time', 'nazi', 'hat', 'white', 'population', 'eye', 'open', 'start', 'slip', 'conversation', 'stormfront', 'hearing', 'idiot', 'nazi', 'nazi', 'drive', 'ordinary', 'white_folks', 'white_nationalism', 'normal', 'white_folks', 'hitler', 'kill', 'white_children', 'hitler', 'worship', 'young', 'innocent_white', 'child', 'attack', 'kill', 'forced_integration', 'hitler', 'worship', 'white_nationalist', 'end', 'forced_integration', 'white_genocide', 'nation', 'posterity', 'hitler', 'worship', 'craig', 'cobb', 'disaster', 'nazi', 'flag', 'white', 'population', 'north_dakota', 'town', 'invite', 'dreg', 'indian', 'reservation', 'march', 'hop', 'riot', 'nazi', 'ww_ii', 'national_socialism', 'hitler', 'respect', 'nation', 'war', 'nazi', 'hat', 'utmost', 'contempt', 'white_folks', 'hate', 'white', 'nazi', 'blood_thirsty', 'savage', 'indian']",0,['ww_ii_national_socialism'],0.014764693
4204,0.0,"['gang', 'alien', 'mexican', 'invader', 'black', 'savage', 'arm', 'ak-47', 'carbine', 'shot', 'range', 'weapon', 'black', 'brown', 'horde', 'attack', 'superior', 'number', 'short_range', 'weapon', 'superior', 'number', 'sound', 'plan', 'superior', 'number', 'superiority', 'gain', 'longer', 'range', 'weapon', 'black', 'brown', 'horde', 'distance', 'rifle', 'superiority', 'semi_auto', 'scope', 'bipod', 'kevlar_helmet', 'body_armor', 'trauma', 'plate', 'handy']",0,[],0.014764693
4171,0.0,"['anti-white', 'washington_government', 'step', 'boundary', 'law', 'land', 'bear_arms', 'provision', 'make', 'arm', 'arm', 'limited', 'firearm', 'arm', 'knife', 'sword', 'grenade', 'bomb', 'canon', 'rifle', 'handgun', 'mortar', 'scope', 'regulation', 'beast', 'american_law', 'organized_criminal', 'conspiracy', 'rule', 'law', 'freedom']",0,[],0.014764693
4089,0.0,"['standard', 'firearm', 'amp', 'w', 'cop', 'bad', 'handloads', 'blowing', 'handgun', 'factory', 'load', 'shoot', 'ammo', 'rat', 'true', 'proof', 'factory', 'turn', 'bad', 'handgun', 'sako', 'reputation', 'rifle', 'manufacturer', 'batch', 'rifle', 'supplier', 'supply', 'wrong', 'grade', 'steel', 'batch', 'recall']",0,[],0.014764693
3764,0.0,"['gun_show', 'today', 'texas', 'ptr-91', 'sell', 'list', 'sell', 'price', 'high', 'price', 'semi_auto', 'rifle', 'sell']",0,[],0.014764693
3985,0.0,"['accurate_rifle', 'scope', 'bore', 'poor', 'shape', 'sell', 'rifle', 'scope', 'worth', 'p.s', 'full', 'day', 'rifle_range', 'break', 'barrel', 'cleaning', 'finish', 'break', 'day', 'rifle', 'idea']",0,[],0.014764693
3828,0.0,"['dpms', 'rifle', 'young', 'soldier', 'leave', 'dpms', 'supply', 'troop', 'complaint', 'rifle', 'supply', 'caliber', 'rumor', 'dpms', 'combat']",0,[],0.014764693
3789,0.0,"['guy', 'stand', 'hold', 'rifle', 'hand', 'open', 'sight', 'yard', 'kill', 'white', 'tail', 'deer', 'caliber', 'work', 'track', 'wound', 'deer', 'knock', 'stand']",0,[],0.014764693
4287,0.0,"['lug', 'rifle', 'field', 'military', 'unit', 'sniper', 'rifle', 'sniper', 'position', 'crawl', 'high_capacity', 'semi_auto', 'carbine', 'range', 'engagement', 'multiple', 'adversary', 'gun', 'drag', 'bag', 'tether', 'sniper', 'drag', 'bag', 'drag', 'crawl', 'position', 'sniper', 'unit', 'sniper', 'spotter', 'spotter', 'care', 'carbine', 'sniper', 'caries', 'gun', 'theory', 'hit', 'run', 'snip', 'unit', 'men', 'multiple', 'position', 'fire', 'multiple', 'shot', 'escape', 'route', 'multiple', 'fall', 'position', 'route', 'case', 'counter', 'pursuit', 'position', 'cover', 'concealment', 'unit', 'multiple', 'target', 'concealment', 'pursuit', 'left']",0,[],0.014764693
4343,0.0,"['mexican_bandits', 'start', 'move', 'crime', 'stole', 'gun', 'resale', 'start', 'scratch', 'safe', 'mount', 'floor', 'wall', 'begin', 'gun', 'semi_auto', 'rifle', 'figure', 'tack', 'driver', 'bolt_action', 'rifle', 'semi_auto', 'project', 'ar-15', 'shot', 'eight', 'yard', 'ar-10', 'shoot', 'inch', 'yard', 'start', 'common', 'tack', 'driver', 'bolt', 'action', 'market', 'shoot', 'choice', 'combat', 'rifle', 'semi', 'automatic']",0,[],0.014764693
6837,0.0,"['plasma', 'rifle', 'prototype', 'work', 'model', 'power', 'range', 'laboratory', 'foot', 'inventor', 'claim', 'scale', 'power', 'distance', 'study', 'open', 'door', 'plasma', 'weapon', 'zen-haven', 'love', 'hope', 'courage']",0,[],0.014764693
4298,0.0,"['guarantee', 'shoot', 'cartridge', 'shoot', 'work', 'kaboom', 'rifle', 'handle', 'rifle', 'ammo', 'design', 'manufacturer', 'ammo', 'faith', 'construction', 'firearm', 'today']",0,[],0.014764693
9354,0.0,"['shoot', 'bow', 'accuracy', 'rifle', 'muscle', 'shoot', 'bow', 'breath', 'control', 'speed', 'reflex', 'shoulder', 'pain', 'bow', 'increase', 'muscle', 'strength', 'shoulder', 'joint', 'support', 'shoulder', 'wear', 'tear', 'shoulder', 'component', 'program', 'shot_show', 'laser', 'bow', 'fun', 'lb', 'bow', 'beginner', 'start', 'weight', 'hurt', 'shoulder', 'shoulder', 'lb', 'bow', 'hunt', 'love', 'browning', 'aluminum/wood', 'compound', 'bow', 'arrow', 'length', 'draw', 'arm', 'length', 'custom', 'cut', 'length', 'archery', 'shop', 'shoot', 'bow', 'good', 'fun', 'good', 'sight', 'shoot', 'bow', 'good', 'archery', 'target', 'start', 'work', 'time']",0,['shot_show'],0.014764693
12485,0.0,"['magpul', 'pt', 'm4', 'full_auto', 'electric', 'airsoft', 'rifle', 'youtube', 'airsplat', 'demand', 'magpul', 'pt', 'm4', 'electric', 'airsoft', 'rifle', 'review', 'episode']",0,[],0.014764693
11171,0.0,"['action', 'auto', 'bad', 'rifle', 'difference', 'good', 'shoot', 'auto', 'run', 'empty', 'put', 'mag', 'gun', 'empty', 'mag', 'remove', 'mag', 'insert', 'chamber', 'lever_action', 'ammo', 'add', 'shot', 'shooter', 'run', 'dry', 'lever', 'action', 'buckhorn', 'sight', 'fast', 'target', 'acquisition', 'lever_action', 'shot', 'model', 'carbine', 'semi_auto', 'semi', 'auto', 'jam', 'action', 'jam', 'lever_action', 'lighter', 'maneuver', 'semi', 'auto', 'put', 'bb', 'lever_action', 'daisy', 'lever_action', 'model', 'point', 'arm', 'think', 'marlin', 'cowboy', 'model', 'lever_action']",0,['model_1892'],0.014764693
11134,0.0,"['guy', 'load', 'max', 'load', 'rifle', 'bad', 'idea', 'powder', 'manufacturer', 'load', 'rifle', 'evidence', 'photo', 'hreadid=147092']",0,[],0.014764693
11037,0.0,"['model', 'sale', 'texas', 'good', 'rifle', 'kit', 'kit', 'rifle', 'part', 'kit', 'part', 'strip', 'part', 'serial', 'number', 'treat', 'rifle', 'government', 'ship', 'dealer', 'official', 'ffl', 'government', 'rifle', 'kit', 'ship']",0,[],0.014764693
11009,0.0,"['fine', 'manufacturer', 'ar-15', 'rifle', 'olympic_arms', 'produce', 'factory', 'barrel', 'high', 'dollar', 'custom', 'barrel', 'lifetime', 'guarantee', 'rock', 'river', 'arm', 'good', 'accuracy', 'chamber', 'opinion', 'trigger', 'mechanism', 'bushmaster', 'product', 'military', 'buying', 'dpms', 'product', 'sell', 'military', 'stag', 'arm', 'left', 'hand', 'ar-15', 'rifle', 'charge', 'extra', 'rifle', 'ar-15', 'manufacturer', 'produce', 'part', 'rifle', 'in-house', 'colt', 'sell', 'full_auto', 'm-4', 'rifle', 'military', 'price', 'sell', 'auto', 'civilian', 'version', 'price', 'colt', 'anti-civilian', 'attitude', 'armalite', 'manufacturer', 'owner', 'license', 'company', 'good', 'product', 'charge', 'product', 'amp', 'wesson', 'begin', 'make', 'ar-15', 'rifle', 'target', 'police', 'sale', 'product', 'model', 'sale', 'texas', 'ar-15', 'upper', 'sell', 'rifle', 'kit', 'kit', 'part', 'good', 'product', 'charge', 'part', 'government', 'part', 'federal_government', 'serial', 'number', 'manufacturer', 'sell', 'knowledge', 'product', 'shooter']",0,[],0.014764693
11004,0.0,"['sniper', 'shot', 'sniper', 'shot', 'report', 'form', 'afghanistan', 'soldier', 'shot', 'afghan', 'man', 'machine_gun', 'distance', 'yard', 'afghan', 'afghan', 'machine_gun', 'sniper', 'afghan', 'shot', 'distance', 'yard', 'distance', 'range', 'range', 'finder', 'measure', 'gps', 'range', 'l115a3', 'rifle', 'range', 'sniper', 'caliber', 'variant', 'metric', 'designation', 'mm', 'standard', 'issue', 'scope', 'rifle', 'variable', 'power', 'mm', 'dpms', 'chamber', 'rifle', 'pressure', 'cartridge', 'velocity', 'hotshot', 'sniper', 'one-and-a-half', 'mile', 'kill', 'time', 'l115a3', 'rifle', 'british', 'army', 'website']",0,[],0.014764693
10995,0.0,"['m16a1', 'rifle', 'operation', 'preventive', 'maintenance', 'technical', 'manual', 'comic', 'book', 'format', 'issue', 'troop', 'comic', 'problem', 'treat', 'lady']",0,[],0.014764693
8467,0.0,"['armalite', 'ar-15', 'heavy', 'barrel', 'rifle', 'heavy', 'barrel', 'thick', 'heavy', 'bull_barrel']",0,[],0.014764693
35,0.0,"['rifle', 'ammo', 'rifle']",0,[],0.014764693
7870,0.0,"['length', 'shotgun', 'rifle']",0,[],0.014764693
7716,0.0,"['blackout', 'm4', 'rifle']",0,[],0.014764693
7589,0.0,"['henry', 'boy', 'lever_action', 'rifle']",0,[],0.014764693
2655,0.0,"['dpms', 'rifle']",0,[],0.014764693
5546,0.0,"['men', 'rifle', 'munich', 'issf', 'world', 'cup']",0,['issf_world_cup'],0.014764693
5028,0.0,"['steel', 'plate', 'mile', 'yard', 'shot', 'hcr', 'cheytac', 'texas', 'hill', 'country', 'rifle']",0,[],0.014764693
4406,0.0,"['accuracy', 'test', 'rifle', 'brand', 'ammo', 'buy', 'stuff', 'cost', 'thought', 'rim', 'cartridge', 'variation', 'brand', 'stripper_clips', 'mil_spec', 'surplus_ammo', 'sell', 'lake_city', 'stripper_clip', 'rifle', 'buy']",0,[],0.014764693
2664,0.0,"['leftist', 'excuse', 'african', 'marksmanship', 'firearm', 'ammo', 'white_human', 'shoot', 'straight', 'racism', 'whitey', 'keepin', 'dem', 'garland', 'texas', 'primitive', 'african', 'ak', 'assault', 'rifle', 'shot_dead', 'white', 'guy', 'hand', 'gun', 'primitive', 'african', 'savage', 'white_man']",0,[],0.014764693
13478,0.0,"['gunblast.com', 'fnar', 'semi-auto', 'rifle', 'mm']",0,[],0.014764693
916,0.0,"['salado', 'creek', 'mexican', 'army', 'brig', 'gen', 'rafael', 'squez', 'raid', 'san_antonio', 'march', 'texan', 'volunteer', 'gather', 'city', 'launch', 'raid', 'mexico', 'release', 'repatriation', 'texan', 'santa', 'fe', 'expedition', 'prisoner', 'gesture', 'good', 'mexican', 'government', 'cause', 'president', 'sam', 'houston', 'sanction', 'plan', 'incursion', 'diplomat', 'vision', 'month', 'mexican', 'army', 'carry', 'scale', 'squez', 'raid', 'fall', 'brig', 'gen', 'adri', 'n', 'woll', 'french', 'soldier', 'fortune', 'serve', 'mexican', 'army', 'cross', 'rio', 'grande', 'regular', 'infantry', 'irregular', 'cavalry', 'piece', 'artillery', 'september', 'san_antonio', 'response', 'volunteer', 'gonzales', 'seguin', 'colorado', 'river', 'settlement', 'march', 'capt', 'mathew', 'caldwell', 'east', 'bank', 'salado', 'creek', 'mile', 'san_antonio', 'capt', 'john', 'c', 'hay', 'fourteen', 'man', 'ranger', 'company', 'city', 'woll', 'approach', 'caldwell', 'wish', 'precipitate', 'fight', 'attack', 'mexican', 'san_antonio', 'dispatch', 'hay', 'men', 'town', 'sunrise', 'september', 'draw', 'woll', 'lure', 'open', 'prairie', 'caldwell', 'reason', 'texan', 'give', 'account', 'fine', 'defensive', 'position', 'bed', 'salado', 'creek', 'horse', 'texan', 'camp', 'fit', 'duty', 'men', 'bexar', 'decoy', 'hay', 'henry', 'e', 'mcculloch', 'william', 'bigfoot', 'wallace', 'robert', 'gillespie', 'texan', 'mile', 'city', 'ten', 'morning', 'dismount', 'ambush', 'hay', 'mcculloch', 'remount', 'men', 'venture', 'mile', 'taunt', 'mexican', 'cavalry', 'fight', 'hay', 'hop', 'forty', 'fifty', 'mexican', 'cavalryman', 'chase', 'salado', 'woll', 'preparation', 'caldwell', 'hay', 'mcculloch', 'appearance', 'woll', 'force', 'cavalry', 'saddle', 'give', 'chase', 'woll', 'person', 'drive', 'texian', 'wolf', 'bush', 'force', 'mexican', 'resident', 'bexar', 'texan', 'attack', 'caldwell', 'position', 'hay', 'mcculloch', 'dozen', 'companion', 'approach', 'texan', 'hiding', 'ambush', 'hay', 'order', 'mount', 'fall', 'ranger', 'fell', 'mesquite-covered', 'prairie', 'caldwell', 'position', 'comrade', 'cottonwood', 'cedar', 'oak', 'creek', 'bottom', 'mile', 'texan', 'advantage', 'lead', 'mile', 'reach', 'mexican', 'cavalry', 'difficulty', 'horse', 'capture', 'woll', 'eleventh', 'begin', 'jade', 'mount', 'ranger', 'mexican', 'gain', 'ground', 'texan', 'blanket', 'hat', 'raincoat', 'horse', 'load', 'mcculloch', 'command', 'rear', 'guard', 'ten', 'men', 'press', 'heel', 'ranger', 'race', 'reverend', 'z', 'n', 'morrell', 'earnest', 'mexican', 'desperate', 'effort', 'hay', 'passing', 'flank', 'mcculloch', 'mexican', 'courier', 'mile', 'urge', 'hay', 'timber', 'timber', 'reach', 'mcculloch', 'man', 'creed', 'taylor', 'target', 'mexican', 'mile', 'range', 'shot', 'fire', 'run', 'ball', 'man', 'horse', 'men', 'camp', 'slaughter', 'beef', 'morning', 'cooking', 'hay', 'men', 'dash', 'mexican', 'cavalry', 'texan', 'ruse', 'desire', 'effect', 'join', 'terrain', 'texan', 'man', 'post', 'ready', 'action', 'cross', 'salado', 'mile', 'bennet', 'position', 'east', 'a.m', 'woll', 'entire', 'command', 'estimate', 'men', 'form', 'fire', 'recall', 'n', 'b', 'burkett', 'account', 'distance', 'pay', 'deal', 'attention', 'caldwell', 'call', 'side', 'fear', 'men', 'settlement', 'vow', 'hold', 'position', 'paint', 'invite', 'texan', 'sport', 'opportunity', 'neighbor', 'whip', 'ground', 'prisoner', 'hurra', 'texas', 'day', 'caldwell', 'men', 'circle', 'position', 'make', 'fight', 'force', 'number', 'day', 'skirmish', 'artillery', 'small_arms', 'fire', 'mexican', 'left', 'wing', 'attack', 'leave', 'clear', 'field', 'fire', 'open', 'center', 'cannon', 'whip', 'fifteen', 'minute', 'burkett', 'shoot', 'twenty', 'step', 'line', 'slain', 'vicente', 'c', 'rdova', 'leader', 'rebellion', 'thomas', 'jefferson', 'green', 'woll', 'persuasion', 'men', 'charge', 'texians', 'purpose', 'texian', 'rifle', 'steady', 'nerve', 'night', 'fire', 'cease', 'woll', 'field', 'day', 'fight', 'mexican', 'sixty', 'men', 'kill', 'wound', 'texan', 'kill', 'twelve', 'wound', 'texas', 'volunteer', 'eager', 'counterattack', 'free', 'prisoner', 'woll', 'line', 'texan', 'arm', 'success', 'salado', 'tragedy', 'woll', 'invasion', 'capt', 'nicholas', 'dawson', 'raise', 'man', 'company', 'march', 'la', 'grange', 'caldwell', 'line', 'eighteenth', 'intercept', 'column', 'irregular', 'mexican', 'cavalry', 'support', 'battery', 'field', 'piece', 'spirit', 'resistance', 'command', 'cut', 'artillery', 'fire', 'dawson', 'men', 'begin', 'surrender', 'texan', 'mexican', 'fire', 'escape', 'fifteen', 'march', 'perote', 'prison', 'men', 'texas', 'dawson', 'massacre', 'texan', 'rain', 'fell', 'day', 'advance', 'midnight', 'texan', 'mexican', 'camp', 'sport', 'woll', 'steal', 'trick', 'george_washington', 'book', 'burning', 'camp', 'fire', 'city', 'cover', 'darkness', 'mexican', 'begin', 'retreat', 'texan', 'halt', 'night', 'cross', 'medina', 'river', 'san_antonio', 'contact', 'retreat', 'mexican', 'woll', 'cross', 'hondo', 'river', 'hay', 'company', 'mile', 'caldwell', 'main', 'army', 'press', 'p.m', 'ranger', 'woll', 'rear', 'guard', 'position', 'support', 'battery', 'command', 'road', 'north', 'knowledge', 'artillery', 'presence', 'hay', 'charge', 'mexican', 'rear', 'guard', 'drive', 'woll', 'main', 'force', 'overrun', 'gun', 'fire', 'dozen', 'round', 'boldness', 'charge', 'mexican', 'army', 'surprise', 'save', 'hay', 'command', 'casualty', 'hay', 'horse', 'men', 'wound', 'woll', 'ranger', 'support', 'infantry', 'artillery', 'rally', 'recapture', 'battery', 'texan', 'fell', 'dry', 'creek', 'bed', 'caldwell', 'main', 'body', 'join', 'begin', 'position', 'anticipation', 'mexican', 'attack', 'texan', 'officer', 'heat', 'difference', 'opinion', 'practicability', 'attack', 'caldwell', 'council', 'war', 'time', 'situation', 'mcculloch', 'front', 'call', 'volunteer', 'judge', 'john', 'hemphill', 'urge', 'importance', 'attack', 'john', 'holland', 'jenkins', 'lethargy', 'fall', 'command', 'retard', 'progress', 'night', 'approach', 'texan', 'rank', 'water', 'madness', 'delay', 'harmony', 'leader', 'morning', 'woll', 'hustle', 'troop', 'hondo', 'force', 'march', 'rio', 'grande', 'point', 'pursuit', 'texan', 'abandon', 'fall', 'river', 'san_antonio', 'rio', 'grande', 'experience', 'flow', 'command', 'harassment', 'retreat', 'mexican', 'arrival', 'squad', 'company', 'volunteer', 'army', 'bennet', 'woll', 'army', 'reach', 'mexican', 'soil', 'caldwell', 'volunteer', 'return', 'hondo', 'showdown', 'fight', 'woll', 'command', 'mile', 'road', 'san_antonio', 'vanguard', 'edward', 'burleson', 'reinforcement', 'green', 'spoke', 'army', 'general', 'burleson', 'tactician', 'sense', 'term', 'rule', 'win', 'battle', 'minutia', 'drill', 'rule', 'salado', 'creek', 'handbook', 'online|', 'texas_state', 'association', 'tsha']",0,[],0.014764693
2109,0.0,"['ar-10', 'trick', 'free', 'float', 'tube', 'dpms', 'piece', 'tube', 'short', 'mount', 'turn', 'mount', 'sling', 'swivel', 'position', 'rifle', 'need', 'ground', 'time', 'bipod', 'leg', 'bipod', 'leg', 'rifle', 'range', 'degree', 'degree', 'aluminum', 'thread', 'gun', 'oil', 'gun', 'grease', 'turn', 'smooth']",0,[],0.014764693
1107,0.0,"['gun_show', 'rent', 'booth', 'sell', 'individual', 'price', 'rifle', 'brass', 'price', 'pay', 'gun_shows']",0,[],0.014764693
1151,0.0,"['order', 'aka', 'government', 'perfect', 'buffalo', 'rifle', 'kradmelder', 'gun_show']",0,['world_order'],0.014764693
1462,0.0,"['colt', 'claim', 'true', 'mil_spec', 'manufacturer', 'military', 'buy', 'manufacturer', 'colt', 'fn', 'supply', 'small_arms', 'military', 'knight', 'manufacturing', 'florida', 'dpms', 'defense', 'procurement', 'manufacturing', 'service', 'lewis', 'machine', 'tool', 'company', 'olympic_arms', 'rumor', 'supply', 'rifle', 'military']",0,[],0.014764693
201,0.0,"['gun_shows', 'gun', 'talk', 'person', 'show', 'people', 'show', 'area', 'check', 'gun', 'shop', 'gun', 'shop', 'price', 'local_gun', 'shop', 'charge', 'dollar', 'gun', 'sale', 'gun', 'good', 'price', 'gun', 'buy', 'order', 'ship', 'license', 'gun', 'dealer', 'federal', 'regulation', 'anti-white_washington', 'government', 'buy', 'buy', 'number', 'bolt_action', 'rifle', 'close_quarters', 'combat', 'auto', 'rifle']",0,[],0.014764693
930,0.0,"['sight', 'rifle', 'spring', 'load', 'pin', 'sight', 'turn', 'press', 'pin', 'press', 'hand', 'punch', 'pin', 'sight', 'screw', 'sight', 'screw', 'design', 'front_sight', 'turn', 'increment', 'rear', 'peep', 'sight', 'windage', 'elevation']",0,[],0.014764693
1904,0.0,"['mention', 'military', 'auto', 'sniper', 'system', 'm110', 'sas', 'mention', 'notice', 'photo', 'man', 'sniper', 'team', 'team', 'man', 'team', 'run', 'kill', 'mention', 'military', 'sniper', 'kill', 'iraqi', 'sniper', 'sniper', 'rifle', 'dead', 'american', 'sniper', 'team', 'run', 'kill', 'm110', 'sas', 'sniper', 'team']",0,[],0.014764693
1907,0.0,"['news_item', 'russia', 'cost', 'factory', 'american', 'dollar', 'produce', 'produce', 'produce', 'magazine', 'ak', 'ammo', 'ammo', 'full', 'power', 'rifle', 'ammo', 'fire', 'power', 'practice', 'rifleman', 'guy', 'spray', 'carbine', 'carry', 'round', 'battle', 'rifleman', 'ammo', 'aim', 'shot', 'spray', 'method', 'ammo', 'short', 'order', 'practice', 'rifleman', 'accurate_rifle', 'ammo', 'battlefield', 'rifleman', 'win', 'ammo', 'hold', 'custer', 'men', 'win', 'ammo', 'cqb', 'side', 'guy', 'win', 'side', 'heavy', 'loss', 'side', 'survivor', 'winner']",0,[],0.014764693
1916,0.0,"['publication', 'american_rifleman', 'magazine', 'review', 'kel-tec', 'bull', 'pup', 'rifle', 'market', 'list', 'price', 'kel-tec', 'website']",0,[],0.014764693
1927,0.0,"['american_rifleman', 'tv', 'springfield', 'make', 'white', 'feather', 'tribute', 'hathcock', 'marine', 'sniper', 'man', 'team', 'sniper', 'carry', 'bolt_action', 'winchester', 'remington', 'spotter', 'carry', 'm-14', 'springfield', 'offering', 'synthetic', 'stock', 'semi_auto', 'm1a', 'rifle', 'rail', 'side', 'mount', 'scope', 'attachment', 'scope', 'rail', 'mount', 'hold', 'side', 'mount', 'bedding', 'accuracy', 'recoil', 'cost', 'springfield', 'm1a', 'folk', 'love', 'm1a', 'model']",0,[],0.014764693
202,0.0,"['hand', 'ar-10_chambered', 'caliber', 'pile', 'sks', 'rifle', 'owner', 'problem', 'find', 'place', 'store', 'battlefield', 'pick']",0,[],0.014764693
2086,0.0,"['berlin', 'wall', 'rumor', 'spread', 'berlin', 'gate', 'open', 'open', 'crowd', 'people', 'present', 'gate', 'hey', 'gate', 'open', 'gate', 'open', 'border', 'cross', 'guard', 'citizen', 'demand', 'hey', 'full', 'auto', 'full_auto', 'rifle', 'god']",0,[],0.014764693
45,0.0,"['fn', 'plant', 'america', 'run', 'advertisement', 'supply', 'small_arms', 'military', 'soldier', 'leave', 'weapon', 'issue', 'fn', 'colt', 'percentage', 'barrett', 'alexander', 'arm', 'supply', 'small_arms', 'sas', 'rifle', 'colt', 'supply']",0,[],0.014764693
229,0.0,"['lever_action', 'rifle', 'drop', 'ground', 'sell', 'gun', 'steal', 'mexican_bandits', 'lever', 'gun', 'colt', 'colt', 'rifle', 'drop', 'cartridge', 'ammo', 'experience', 'cartridge', 'work', 'action_rifle', 'import', 'rossi', 'model', 'saddle', 'ring', 'carbine']",0,[],0.014764693
2039,0.0,"['umc', 'ammo', 'cheep', 'import', 'ammo', 'arkansas', 'white_folks', 'remington', 'umc', 'function', 'purchase', 'box', 'price', 'round', 'price', 'hurt', 'box', 'pay', 'check', 'pistol', 'ammo', 'rock', 'carbine', 'ammo', 'club', 'spear', 'outfit', 'bayonet']",0,[],0.011019428999999999
12366,0.0,"['gunblast.com', 'kahr', 'p45', 'cw45', 'semi-automatic', 'pistol']",0,[],0.011019428999999999
9143,0.0,"['jerry_miculek', 'pistol', 'slow-mo']",0,[],0.011019428999999999
9137,0.0,"['strauss', 'pistol']",0,[],0.011019428999999999
4116,0.0,"['carbine', 'giant', 'pistol', 'bull', 'pup', 'beretta', 'pistol', 'mag', 'pistol', 'caliber', 'w', 'caliber', 'model', 'short', 'light', 'handy', 'change', 'hand', 'left', 'hand', 'tool', 'cleaning', 'quick', 'simple', 'beretta', 'cx4', 'storm']",0,[],0.011019428999999999
2474,0.0,"['remington', 'r1', 'pistol', 'review', 'hold', 'group', 'yard', 'sell']",0,[],0.011019428999999999
10174,0.0,"['folk', 'idea', 'range', 'today', 'firearm', 'firearm', 'optic', 'good', 'optic', 'firearm', 'range', 'time', 'today', 'military', 'caliber', 'mention', 'range', 'owner', 'good', 'day', 'today', 'folk', 'glad', 'yesterday', 'yesterday', 'brass', 'folk', 'range', 'regular', 'family', 'neighbor', 'today', 'white_children', 'kid', 'shoot', 'firearm', 'time', 'range', 'guy', 'tear', 'silhouette', 'pistol', 'range', 'talk', 'neighborhood', 'place', 'place', 'white', 'white', 'vandalism', 'worse', 'section', 'move', 'absolute', 'ghetto', 'thug', 'neighborhood', 'move', 'houston', 'houston', 'run', 'place', 'drive', 'shooting', 'yea', 'drive', 'bys', 'niggros', 'mexican', 'communist', 'surrender', 'communist', 'jew', 'media_mafia', 'paint', 'picture', 'reality', 'texan', 'reality', 'jew', 'deception', 'personal', 'experience', 'folk', 'range', 'today', 'family', 'friend', 'texas']",0,[],0.011019428999999999
12222,0.0,"['gunblast.com', 'kel-tec', 'pmr-30', 'magnum', 'semi-auto', 'pistol']",0,[],0.011019428999999999
11652,0.0,"['multi', 'pistol', 'shoot']",0,[],0.011019428999999999
10187,0.0,"['man', 'carry', 'pistol', 'holster', 'idiot', 'handgun', 'property', 'mind', 'white_man', 'chl', 'handgun', 'license', 'idiot', 'subject', 'license', 'amendment', 'patriotic_ancestors', 'shed', 'blood', 'strait', 'north_texas', 'area', 'outfit', 'mandatory', 'training', 'class', 'test', 'real', 'texan', 'born', 'gun', 'hand', 'shoot', 'point', 'idiot', 'class', 'test', 'test', 'question', 'dance']",0,[],0.011019428999999999
8547,0.0,"['car', 'salesman', 'media_mafia', 'stooge', 'police_officer', 'auto', 'pistol', 'backup', 'gun', 'knife', 'call', 'citizen', 'defense', 'criminal']",0,[],0.011019428999999999
9152,0.0,"['ruger', 'mark', 'iv', 'barrel', 'length', 'ruger', 'mark', 'iv', 'hunter', 'rimfire', 'pistol', 'model', 'mark', 'iv', 'rimfire', 'pistol']",0,[],0.011019428999999999
8516,0.0,"['today', 'tree', 'branch', 'inch', 'diameter', 'rope', 'tree', 'branch', 'swing', 'spin', 'move', 'target', 'splinter', 'pistol', 'fun']",0,[],0.011019428999999999
3344,0.0,"['hitman', 'love', 'giant', 'alucard', 'carry', 'people', 'love', 'function', 'fit', 'hand', 'point', 'stop', 'hit', 'people', 'love', 'hold', 'ammo', 'felt', 'want', 'ammo', 'stopping_power', 'amp', 'w', 'cal', 'amp', 'p', 'light_weight', 'auto', 'loader', 'hold', 'round', 'w', 'cartridge', 'accessory', 'rail', 'factory', 'night_sights', 'feed', 'fire', 'magazine', 'gunsmithing', 'add', 'light', 'laser', 'lasermax', 'integral', 'unit', 'pistol']",0,[],0.011019428999999999
2676,0.0,"['glocks', 'cartridge', 'fine', 'girlie', 'gun', 'sound', 'fair', 'pistol', 'turn', 'need', 'replacement', 'part', 'part', 'large', 'volume', 'mass', 'produce', 'glocks', 'mention', 'pull', 'revolver', 'good', 'girlie', 'gun', 'pull', 'pistol', 'revolver', 'shooter', 'shoot', 'pistol', 'range', 'buy', 'good', 'deal', 'glock', 'girlie', 'gun', 'ar-15', 'serve', 'girlie', 'gun', 'good_luck', 'good_shooting']",0,[],0.011019428999999999
2792,0.0,"['african_home', 'invader', 'shoot', 'white', 'home', 'owner', 'african', 'miss', 'pistol', 'white', 'home', 'owner', 'ar-15', 'reply', 'home_defense', 'time', 'arm', 'thug', 'quick-thinking', 'homeowner', 'crouch', 'hold', 'video', 'theblaze.com']",0,[],0.011019428999999999
3531,0.0,"['amp', 'p', 'version', 'full_sized', 'case', 'notice', 'safety', 'laser', 'max', 'guide', 'rail', 'option', 'crimson', 'trace', 'strap', 'great', 'jam', 'oil', 'grease', 'spring', 'pistol', 'magazine', 'lifetime', 'night_sights', 'work', 'p.s', 'pull', 'mention', 'bother', 'left', 'pistol', 'stock', 'alteration']",0,[],0.011019428999999999
10911,0.0,"['criminal', 'wear', 'body_armor', 'black_panther', 'mexican', 'gangbangers', 'jewish_communists', 'guess', 'mafia', 'business', 'mexican', 'south', 'american', 'drug', 'lord', 'info', 'read', 'typical_american', 'body_armor', 'stop', 'cal', 'move', 'fps', 'range', 'fps', 'fps', 'round', 'brick', 'wall', 'stop', 'body_armor', 'stop', 'steel', 'core', 'hunk', 'fly', 'metal', 'soviet', 'pistol', 'kevlar_helmet', 'vest']",0,['black_panthers'],0.011019428999999999
6695,0.0,"['semi-automatic', 'pistol']",0,[],0.011019428999999999
8662,0.0,"['genocide', 'crime', 'remedy', 'genocide', 'hang', 'civilian', 'death', 'rope', 'break', 'hang', 'death', 'fire', 'squad', 'military', 'personnel', 'death', 'squad', 'miss', 'mark', 'hit', 'mark', 'volley', 'fire', 'result', 'death', 'jewdicial_system', 'crime', 'genocide', 'jewdicial', 'decision', 'jewdicial', 'decision', 'criminal', 'immune', 'prosecution', 'american', 'european', 'law', 'justice', 'power', 'earth', 'justice']",0,[],0.010546804
8101,0.0,"['fire', 'congress']",0,[],0.010546804
8737,0.0,"['fire', 'start', 'start', 'fire', 'cotton', 'ball', 'grease', 'vaseline', 'striker', 'sound', 'video', 'good']",0,[],0.010546804
2801,0.0,"['african', 'attack', 'female', 'female', 'target', 'victim', 'drag', 'car', 'male', 'african', 'employ', 'fire', 'fighter', 'arrest', 'strike']",0,[],0.010546804
7360,0.0,"['swedish', 'fire', 'torch']",0,[],0.010546804
6653,0.0,"['fire', 'team', 'basic', 'flank']",0,[],0.010546804
4925,0.0,"['magnum', 'xsteel', 'torso', 'target', 'fire', 'hand', 'amp', 'w', 'magnum', 'combination', 'device', 'portable', 'canon', 'flame', 'thrower']",0,[],0.010546804
1728,0.0,"['merkel', 'race_traitor', 'follower', 'international_jewish', 'communism', 'angela', 'merkel', 'fire', 'communist', 'link', 'uniform', 'release', 'mail_online']",0,[],0.010546804
6842,0.0,"['chemical', 'fertilizer', 'plant', 'fire', 'explosion', 'west', 'texas', 'home', 'west', 'fest', 'czech', 'sausage', 'chemical', 'fertilizer', 'need', 'production', 'fluoride', 'add', 'city', 'water', 'farm', 'food', 'chemical', 'tragedy', 'greed', 'est-waco-video']",0,[],0.010546804
1522,0.0,"['ramzpaul', 'anthony', 'cumia', 'attack', 'fire', 'display', 'primitive', 'behavior', 'snow', 'cold', 'rain', 'wet', 'nature', 'beast', 'start', 'african', 'return', 'party', 'israel', 'discus', 'problem']",0,[],0.010546804
13252,0.0,"['reflexive', 'fire', 'training']",0,[],0.010546804
760,0.0,"['chemical', 'fertilizer', 'plant', 'fire', 'explosion', 'west', 'texas', 'home', 'west', 'fest', 'czech', 'sausage', 'chemical', 'fertilizer', 'need', 'production', 'fluoride', 'add', 'city', 'water', 'farm', 'food', 'chemical', 'tragedy', 'greed', 'texas', 'plant', 'explosion', 'town', 'west', 'waco']",0,[],0.010546804
8560,0.0,"['fema', 'cause', 'texas', 'fire', 'debacle']",0,[],0.010546804
2142,0.0,"['point', 'work', 'hate', 'speech', 'hate', 'repeat', 'call', 'hate', 'speech', 'felony', 'tie', 'ban', 'convict', 'felon', 'fire', 'touch', 'ammunition', 'segment', 'population', 'felon', 'segment', 'offer', 'resistance', 'felon', 'hold', 'job', 'headway', 'issue', 'hold', 'right']",0,[],0.010546804
3297,0.0,"['men', 'nut', 'basis', 'lawsuit', 'file', 'feminist', 'men', 'fee', 'inferior', 'put', 'nut', 'point', 'job', 'full', 'pay', 'pay', 'job', 'job', 'year', 'job', 'year', 'job', 'fire', 'lawsuit', 'funny', 'america', 'gut', 'wrong']",0,[],0.010546804
12158,0.0,"['jordan', 'king', 'fire', 'entire', 'government', 'american_citizens', 'king', 'america', 'fire', 'government']",0,[],0.010546804
10882,0.0,"['president', 'elect', 'trump', 'rally', 'orlando', 'fl', 'voter', 'trump', 'fire', 'marshal', 'thousand', 'left']",0,[],0.010546804
2031,0.0,"['steel', 'challenge', 'match', 'stage', 'target', 'stage', 'fast', 'competitor', 'run', 'stage', 'add', 'stage', 'score', 'shooter', 'finish', 'stage', 'time', 'add', 'draw', 'fire', 'target', 'second', 'normal', 'human', 'shooter']",0,['steel_challenge'],0.010546804
3990,0.0,"['shoot', 'non-corrosive', 'ammo', 'stop', 'shoot', 'corrosive', 'ammo', 'corrosive', 'ammo', 'corrosion', 'shot', 'fire', 'corrosive', 'ammo', 'set', 'long_term', 'storage', 'clean', 'rust', 'shooter', 'put', 'coat', 'oil', 'firearm', 'coat', 'run', 'time']",0,[],0.010546804
820,0.0,"['texas', 'wildfire', 'wildfire', 'yesterday', 'estimate', 'home', 'fema', 'fight', 'fire', 'government']",0,[],0.010546804
1004,0.0,"['texas', 'free', 'photo', 'south', 'step', 'national', 'capital', 'texas', 'gathering', 'patriot', 'sign', 'texas', 'free', 'amendment', 'gentleman', 'foreground', 'blue', 'flag', 'view', 'patriot', 'bronze', 'statue', 'texan', 'clear', 'message', 'employee', 'fire']",0,['amendment'],0.010546804
4220,0.0,"['russian', 'semi_auto', 'fire', 'look', 'svt-40', 'dead', 'shot', 'distance', 'chance', 'fire', 'range', 'target', 'sight', 'graduate', 'meter', 'shot', 'recol', 'firearm', 'recol']",0,[],0.010546804
818,0.0,"['texas', 'wild', 'fire', 'year', 'acre', 'burn', 'fire', 'home', 'wild', 'fire', 'austin', 'san_antonio', 'houston']",0,[],0.010546804
10357,0.0,"['great', 'weather', 'hit', 'ice', 'cold', 'fire', 'hose']",0,[],0.010546804
3387,0.0,"['elbow', 'give', 'elbow', 'normal', 'position', 'elbow', 'bend', 'increase', 'muzzle', 'climb', 'point', 'elbow', 'muzzle', 'climb', 'people', 'shoot', 'move', 'shot', 'technique', 'move', 'recoil', 'point', 'elbow', 'joint', 'shoulder', 'joint']",0,[],0.01049208
2783,0.0,"['african', 'shoot', 'cop']",0,[],0.01049208
7468,0.0,"['christmas', 'think', 'place', 'texas', 'present', 'white_children', 'present', 'father', 'training', 'son', 'proficiency', 'firearm', 'gift', 'shoot', 'secret', 'pass', 'father', 'son']",0,['amendment_christmas'],0.01049208
6717,0.0,"['shoot', 'caracas', 'present', 'federal', 'diplomat', 'diplomat', 'attack']",0,[],0.01049208
8341,0.0,"['aac', 'silencer', 'shoot']",0,[],0.01049208
3389,0.0,"['show', 'chanel', 'video', 'youtube', 'site', 'stuff', 'train', 'professional', 'nut', 'common', 'sense', 'good', 'dvd', 'free', 'info', 'shoot', 'range', 'facility', 'firearm', 'training', 'class', 'gun', 'gun', 'safety', 'website', 'place', 'join', 'magazine', 'subscription', 'membership', 'shootingusa', 'nra', 'sponsor', 'tv', 'program', 'website']",0,[],0.01049208
11403,0.0,['shoot'],0,[],0.01049208
44,0.0,"['pound', 'pound', 'shoot', 'hit', 'punch', 'cover', 'vest']",0,[],0.01049208
6844,0.0,"['jerry_miculek', 'ar15', 'speed', 'shoot']",0,[],0.01049208
10520,0.0,"['genseric', 'exchange', 'antiwhite', 'journalist', 'tom', 'polansek', 'laura', 'general', 'exchange', 'genseric', 'anti-white', 'journalist', 'tom', 'polansek', 'bob', 'interview', 'cnn', 'genseric', 'silence', 'question', 'polansek', 'attention', 'daniel', 'genseric', 'daniel', 'contact', 'group', 'white_genocide', 'twitter', 'account', 'reach', 'people', 'tweet', 'tom', 'story', 'angle', 'q', 'daniel', 'genseric', 'basic', 'movement', 'genocide', 'talk', 'people', 'movement', 'work', 'join', 'group', 'group', 'meeting', 'rally', 'join', 'moment', 'event', 'dylann', 'roof', 'george', 'zimmerman/trayvon', 'martin', 'shoot', 'group', 'event', 'person', 'white_genocide', 'movement', 'people', 'conflict', 'police', 'ferguson', 'baltimore', 'movement', 'law_enforcement', 'contact', 'post', 'manifesto', 'dylann', 'roof', 'white_nationalist', 'moment', 'post', 'comment', 'action', 'feel', 'tom', 'law_enforcement', 'bother', 'contact', 'movement', 'adherent', 'violence', 'i.e', 'genocide', 'purview', 'law_enforcement', 'responsibility', 'day', 'crime', 'cease', 'genocide', 'victim', 'white_children', 'heresy', 'european', 'american', 'build', 'semblance', 'community', 'offline', 'nation', 'resolution', 'article', 'ii', 'state', 'program', 'intent', 'ethnic', 'group', 'fit', 'bill', 'genocide', 'bother', 'read', 'link', 'dylann', 'roof', 'white_supremacist', 'white_genocide', 'movement', 'ethos', 'separatist', 'non-violent', 'concept', 'white_genocide', 'journalist', 'citizen', 'elect', 'fact', 'purpose', 'livelihood', 'dependent', 'veneer', 'program', 'facilitator', 'force', 'non-black', 'immigration', 'force', 'assimilation', 'i.e', 'intermarriage', 'status', 'quo', 'anti-racist', 'sex', 'warfare', 'wag', 'scream', 'program', 'racist', 'nazi', 'supremacist', 'research', 'genocidal', 'maniac', 'force', 'non-chinese', 'china', 'force', 'chinese', 'minority', 'country', 'latino', 'latin', 'america', 'genocide', 'people', 'europid', 'white', 'people', 'liberal', 'conservative', 'heretic', 'racistwhitesupremacistwhowantstokillblacks', 'holy', 'anti-white', 'church', 'political_correctness', 'bible', 'anti-racist', 'genocide', 'minion', 'white_genocide', 'indiscretion', 'evil', 'anti-racists', 'program', 'white', 'gumdrop', 'rainbow', 'sprinkle', 'diversity', 'multiculturalism', 'inclusion', 'normalization', 'mind', 'control', 'guru', 'anti-white', 'anti-racist', 'code', 'word', 'anti-white', 'behalf', 'european', 'american', 'daniel', 'genseric', 'daniel', 'law_enforcement', 'contact', 'curiosity', 'tom', 'tom', 'response', 'law_enforcement', 'contact', 'thought', 'land', 'carolina', 'base', 'illinois', 'dylann', 'roof', 'story', 'goal', 'link', 'white_genocide', 'movement', 'dylann', 'roof', 'black', 'panther', 'party', 'member', 'threat', 'majority-white', 'nurseries/daycare', 'center', 'retaliation', 'ame', 'church', 'shoot', 'research', 'wewillshootback', 'hash', 'anti-white', 'terrorist', 'burn', 'nineteen', 'year-old', 'jessica', 'chamber', 'fifteen', 'year-old', 'desirae', 'jones', 'december', 'wall_street', 'medium', 'coverage', 'anti-white', 'atrocity', 'exercise', 'free_speech', 'right', 'behalf', 'europid', 'white', 'saddle', 'silence', 'holy', 'anti-white', 'church', 'political_correctness', 'priest-class', 'diversity', 'gospel']",0,[],0.01049208
6778,0.0,"['shoot', 'woman']",0,[],0.01049208
9347,0.0,"['mass', 'shoot', 'stop', 'citizen', 'tell', 'life', 'save', 'killing-vegas/']",0,[],0.01049208
1903,0.0,"['yard', 'sprint', 'yard', 'shoot', 'video', 'link', 'post8235581']",0,[],0.01049208
3765,0.0,"['folk', 'shoot', 'corrosive', 'ammo', 'quick', 'alternative', 'method', 'magazine', 'cleaning', 'page=2']",0,[],0.01049208
6328,0.0,"['ac/dc', 'shoot', 'thrill', 'duke', 'hazzard']",0,[],0.01049208
8582,0.0,"['houston', 'armory', 'aac', 'silencer', 'shoot']",0,[],0.01049208
10216,0.0,"['quanell', 'x', 'evidence', 'quanell', 'x', 'black', 'quanell', 'x', 'travel', 'texas', 'black', 'criminal', 'ply', 'trade', 'criminal', 'profession', 'quanell', 'x', 'travel', 'texas', 'white', 'crime', 'victim', 'shot', 'white', 'criminal', 'quanell', 'x', 'right', 'white_person', 'white', 'crime', 'victim', 'quanell', 'x', 'issue', 'moral', 'issue', 'evidence', 'clear', 'quanell', 'x', 'hold', 'ghetto', 'tradition', 'keep', 'young', 'boy', 'da', 'hood', 'texas', 'tradition', 'shoot', 'aim', 'criminal', 'force', 'man', 'joe', 'horn', 'governor', 'texas', 'guy', 'office']",0,[],0.01049208
3972,0.0,"['small', 'scope', 'shoot', 'scope', 'mm', 'image', 'scope', 'light', 'gathering', 'lens', 'image', 'browning', 'scope', 'small', 'light_weight', 'light', 'reticle', 'young', 'guy', 'sharp', 'eye', 'scope', 'reticle', 'life']",0,['browning_35'],0.01049208
9908,0.0,"['practice', 'stand', 'foot', 'put', 'strain', 'feel', 'stand', 'hand', 'foot', 'weight', 'foot', 'people', 'stand', 'foot', 'shoot', 'move', 'target']",0,[],0.01049208
4578,0.0,"['aafia', 'siddiqui', 'paki', 'neuroscientist', 'train', 'qualified_white', 'child', 'shove', 'room', 'savage', 'anti-white', 'university', 'agenda', 'shoot', 'american', 'interrogator', 'attempt', 'murder', 'commit_mass', 'murder', 'chemical', 'attack', 'jew', 'york_city', 'quote', 'verdict', 'come', 'israel', 'america', 'fair', 'trail', 'jew', 'jury']",0,[],0.01049208
1825,0.0,"['ukraine', 'support', 'shoot', 'russian', 'aircraft', 'turkey']",0,[],0.01049208
34,0.0,"['whitey', 'shoot', 'rap', 'show', 'school', 'homework', 'passing', 'grade', 'african', 'bed', 'work']",0,[],0.01049208
836,0.0,"['operation_gunwalker', 'report', 'newspaper', 'el_paso', 'texas', 'atf', 'agent', 'batfe', 'agent', 'operation_gunwalker', 'firearm', 'american', 'union', 'mexico', 'license', 'federal', 'firearm', 'dealer', 'green', 'light', 'sell', 'large', 'quantity', 'firearm', 'mexican', 'national', 'know', 'firearm', 'mexico', 'order', 'mexican', 'national', 'act', 'firearm', 'mexico', 'release', 'gun', 'run', 'government', 'mexico', 'city', 'operation_gunwalker', 'agent', 'mexican', 'federal_government', 'expose', 'operation_gunwalker', 'post', 'goal', 'operation_gunwalker', 'crisis', 'death', 'toll', 'firearm', 'mexico', 'operation_gunwalker', 'assault', 'constitution', 'goal', 'law_abiding', 'american', 'armed_citizens', 'mexican', 'press', 'operation_gunwalker', 'cleanupatf.org', 'forum']",0,[],0.0101833055
907,0.0,"['partnership', 'sinaloa', 'drug', 'cartel', 'cia', 'drug', 'america', 'batfe', 'give', 'gun', 'dea', 'friend', 'sinaloa', 'drug', 'gang', 'south']",0,[],0.0101833055
168,0.0,"['update', 'solution', 'gun', 'oil', 'cleaning', 'gun', 'barrel', 'solution', 'hoppes', 'bore', 'solvent', 'copper', 'deposit', 'corrosion', 'problem', 'harm', 'plastic', 'part']",0,[],0.0101833055
987,0.0,"['whitey', 'young', 'black', 'male', 'handgun', 'government', 'da', 'master', 'da', 'federal', 'plantation', 'convict', 'felon', 'ta', 'play', 'wid', 'dem', 'gun', 'dem', 'boy', 'convict', 'felon', 'interest', 'takeover', 'government', 'government', 'enemy']",0,[],0.0101833055
167,0.0,"['update', 'work', 'problem', 'clean', 'pocket', 'knife', 'dy', 'gun', 'oil', 'storage', 'work']",0,[],0.0101833055
10025,0.0,"['perfect', 'sense', 'stay', 'washington_government', 'list', 'government', 'list', 'real', 'surprise', 'government', 'criminal_conspiracy', 'gun', 'fix', 'find', 'gun', 'fix', 'gunsmith', 'gun', 'sell', 'gun', 'worth', 'work', 'gun']",0,[],0.0101833055
6026,0.0,"['covert', 'gun', 'mount']",0,[],0.0101833055
7790,0.0,"['reason', 'federal_agent', 'arrest', 'patriot', 'federal_agent', 'government', 'release', 'patriot', 'federal_agent', 'gun', 'ammo', 'tool', 'evidence', 'owner', 'property', 'owner', 'demand', 'return', 'property', 'federal_agent', 'hate', 'citizen', 'infernal', 'lawyer', 'force', 'law', 'life', 'liberty', 'property', 'government', 'thomas', 'piatek', 'hutaree', 'militiaman', 'gun', 'ammunition', 'police']",0,[],0.0101833055
1810,0.0,"['gun', 'gun_owners', 'estimate', 'gun_owners', 'traitor', 'government']",0,[],0.0101833055
2967,0.0,"['washington_d.c', 'devil', 'carnate', 'lair', 'beast', 'den', 'snake', 'gun', 'rule', 'regulation', 'support', 'constitution', 'rule', 'regulation', 'child', 'deo', 'vindice']",0,[],0.0101833055
2103,0.0,"['eagle', 'arm', 'ar-10', 'gun', 'blast', 'review', 'quinn']",0,[],0.0101833055
3514,0.0,"['leftist', 'gun', 'point']",0,[],0.0101833055
3605,0.0,"['interest', 'bianchi', 'cup', 'handgun', 'competition', 'team', 'glock', 'competitor', 'production', 'class', 'stock', 'production', 'gun', 'time', 'challenge', 'glock', 'barrel', 'glock', 'trigger', 'accuracy', 'aim']",0,['bianchi_cup'],0.0101833055
2096,0.0,"['fal', 'firearm', 'rifle_range', 'surprise', 'guy', 'verity', 'firearm', 'fal', 'problem', 'solution', 'simple', 'common', 'part', 'gun', 'shop', 'local', 'source', 'common', 'fal', 'part', 'mail', 'order', 'california', 'part', 'dealer', 'gun_laws', 'worse', 'drop', 'sombrero', 'equivalent', 'ar-10', 'part']",0,[],0.0101833055
3880,0.0,"['gun', 'work', 'work', 'guy', 'gun', 'treat', 'poison', 'ivy', 'immune', 'effect', 'gun', 'stick', 'lotion']",0,[],0.0101833055
4098,0.0,"['pocket', 'gun', 'pocket', 'size', 'handgun', 'pocket', 'gun', 'gun']",0,[],0.0101833055
4316,0.0,"['gun', 'part', 'stag', 'arm', 'jewish_owned', 'manufacturer', 'immune', 'circumstance']",0,[],0.0101833055
4319,0.0,"['discharge', 'space', 'automobile', 'result', 'degree', 'permanent', 'hearing', 'loss', 'automobile', 'ear', 'friend', 'family', 'gun', 'ear', 'muzzle', 'firearm', 'open', 'window']",0,[],0.0101833055
4129,0.0,"['hanoi', 'jane', 'flirt', 'north', 'vietnamese', 'man', 'anti-aircraft', 'gun', 'target', 'american', 'aircraft']",0,[],0.0101833055
7076,0.0,"['counsel', 'victim', 'pop', 'tart', 'gun', 'loony_leftists', 'screw', 'fear', 'reality']",0,[],0.0101833055
5964,0.0,"['girl', 'girl', 'girl', 'gun']",0,[],0.0101833055
11251,0.0,"['glock', 'aka', 'plastic', 'gun', 'design', 'beretta', 'design', 'polymer', 'pistol_caliber', 'carbine', 'cx4', 'storm']",0,[],0.0101833055
7117,0.0,"['gun', 'tip']",0,[],0.0101833055
500,0.0,"['african', 'child', 'school', 'bus', 'adult', 'african', 'african', 'school', 'child', 'school', 'bus', 'cold', 'february', 'morning', 'gun', 'point', 'africa', 'driver', 'vehicle', 'african', 'child', 'shoe', 'hoodie', 'child', 'walk', 'home', 'cold', 'african', 'detroit', 'winter', 'detroit', 'boy', 'walk', 'home', 'detroit', 'detroitnews.com']",0,[],0.0101833055
11990,0.0,"['ammo', 'recall', 'federal', 'american', 'eagle', 'auto', 'propellant', 'charge', 'lot', 'number']",0,[],0.008860121
10018,0.0,"['fourteen', 'background', 'check', 'run', 'firearm', 'purchase', 'estimate', 'fourteen', 'round', 'ammo', 'purchase', 'component', 'supply', 'firearm', 'ammo', 'reach', 'demand']",0,[],0.008860121
6478,0.0,['ammo'],0,[],0.008860121
3991,0.0,"['work', 'government', 'supply', 'ammo', 'auto', 'auto', 'full', 'auto', 'cost', 'ban', 'full', 'auto', 'citizen', 'view', 'offense', 'defense', 'fear', 'government']",0,[],0.008860121
803,0.0,"['reading', 'shot', 'stop', 'data', 'handgun_ammo', 'data', 'shot', 'stop', 'police', 'slice', 'swiss', 'cheese', 'hole', 'folk', 'ammo', 'texas', 'magnum', 'stopping_power']",0,[],0.008860121
4712,0.0,"['kradmelder', 'like', 'inverse', 'extra', 'fancy', 'ammo', 'performance', 'gain', 'fancy', 'ammo', 'performance', 'gain', 'fancy', 'stuff', 'bang', 'buck']",0,[],0.008860121
2037,0.0,"['problem', 'ship', 'carrier', 'firearm', 'manufacturer', 'firearm', 'box', 'show', 'shipping', 'insurance', 'fly', 'firearm', 'folk', 'time', 'rule', 'terminal', 'baggage', 'check', 'folk', 'ammo', 'shipping', 'container', 'hunter', 'hunt', 'ammo', 'shooting_sports', 'competitor', 'carry', 'hundred', 'round', 'call', 'airline', 'rule', 'fee']",0,[],0.008860121
2582,0.0,"['time', 'white_nations', 'american_citizens', 'small_arms', 'ammo', 'military', 'official', 'campaign', 'american_citizens', 'eve']",0,[],0.008860121
4377,0.0,"['thousand', 'song', 'ipod', 'complaint', 'ipod', 'cost', 'load', 'song', 'cd', 'music', 'white_nationalist', 'band', 'time', 'load', 'cd', 'music', 'band', 'info', 'data', 'base', 'itunes', 'free', 'program', 'load', 'music', 'cd', 'white_nationalist', 'cd', 'info', 'type', 'song', 'title', 'band', 'cd', 'info', 'database', 'info', 'rip', 'cd', 'time', 'song', 'cd', 'cd', 'rip', 'music', 'mp3', 'player', 'head', 'phone', 'straight', 'computer', 'song', 'drive', 'computer', 'wire', 'home', 'stereo', 'computer', 'cd', 'player', 'music', 'load', 'hunt', 'cd', 'itunes', 'software', 'let', 'search', 'song', 'title', 'band', 'cd', 'title', 'music', 'ipod', 'search', 'play', 'song', 'band', 'cd', 'band', 'song', 'ipod', 'shuffle', 'play', 'song', 'set', 'cd', 'fm', 'transmitter', 'fit', 'ipod', 'signal', 'car', 'fm', 'radio', 'fm', 'radio', 'song', 'sixty', 'gig', 'size', 'cash', 'ipod', 'mp3', 'player', 'zune', 'blue', 'tooth', 'blue', 'tooth', 'headset', 'computer', 'blue', 'tooth', 'signal']",0,[],0.008058461999999999
10978,0.0,"['drum', 'magazine', 'fine', 'load', 'load', 'work', 'eitemid=139904']",0,[],0.008058461999999999
10202,0.0,"['white', 'event', 'tomorrow', 'st._patrick', 'parade', 'show', 'boot', 'find', 'pot', 'gold', 'rainbow', 'trading', 'gun_show', 'truck', 'load', 'lead']",0,[],0.008058461999999999
13239,0.0,"['american', 'police_officer', 'training', 'military', 'east', 'police', 'national_guard', 'military', 'troop', 'train', 'house', 'house', 'firearm', 'american_citizens']",0,[],0.007736665699999999
11026,0.0,"['firearm', 'manual']",0,[],0.007736665699999999
7467,0.0,"['marine', 'jail', 'possession', 'firearm']",0,[],0.007736665699999999
3223,0.0,"['amendment', 'criminal_conspiracy', 'bear_arms', 'limited', 'firearm', 'arm', 'cover', 'simple', 'blanket', 'statement', 'bureaucracy', 'bear_arms', 'action']",0,[],0.007736665699999999
9264,0.0,"['commie', 'jew', 'mean', 'free', 'citizen', 'firearm', 'scare', 'hell', 'commie', 'good']",0,[],0.007736665699999999
8429,0.0,"['tell', 'call', 'racist', 'racist', 'history', 'math', 'science', 'computer', 'vehicle', 'road', 'firearm', 'technology', 'ocean', 'river', 'mountain']",0,[],0.007736665699999999
3687,0.0,"['ferguson', 'area', 'firearm', 'sale', 'volume']",0,[],0.007736665699999999
3932,0.0,"['ptsd', 'firearm', 'right', 'vet', 'good']",0,[],0.007736665699999999
7720,0.0,"['cyber', 'security', 'firearm', 'magazine', 'capacity', 'round']",0,[],0.007736665699999999
4346,0.0,"['change', 'criminal', 'mafia', 'bank', 'machine', 'machine', 'machine', 'blank', 'finish', 'simple', 'hand', 'tool', 'power', 'drill', 'lower', 'lower', 'finish', 'firearm', 'firearm', 'part', 'unmachined', 'blank', 'horizontal', 'mill', 'finish', 'serial', 'number', 'manufacturer', 'change']",0,[],0.007736665699999999
4725,0.0,"['work', 'hour', 'overtime', 'week', 'firearm', 'savage', 'shortcut', 'mexican', 'store', 'ft', 'worth', 'drove', 'vehicle', 'store', 'store', 'owner', 'thought', 'left', 'wreck', 'vehicle', 'police', 'steal']",0,[],0.007736665699999999
11874,0.0,"['agent', 'shot', 'dead', 'drug_cartel', 'military', 'vehicle', 'military', 'weapon', 'military', 'uniform', 'military', 'men', 'military', 'checkpoint', 'moral', 'mexico', 'border']",0,[],0.0074296854
12606,0.0,"['sling', 'shot', 'flechettes']",0,[],0.0074296854
11451,0.0,"['golf', 'trick', 'shot']",0,[],0.0074296854
2632,0.0,"['joe', 'horn', 'shot', 'criminal', 'neighbor', 'home', 'turn', 'illegal_aliens', 'black', 'trouble', 'maker', 'texas', 'fuss', 'pasadena', 'texas', 'ordinary', 'citizen', 'joe', 'black', 'trouble', 'maker', 'turn', 'texas']",0,[],0.0074296854
769,0.0,"['aluminum', 'nano_particles', 'cross', 'blood-brain', 'barrier', 'poor', 'richard', 'white', 'news', 'march', 'researcher', 'precaution', 'nano_particles', 'nano_particles', 'cross', 'blood-brain', 'barrier', 'bbb', 'bbb', 'body', 'defense', 'mechanism', 'brain', 'disease', 'toxin', 'nano_particles', 'defeat', 'defense', 'aluminum', 'high', 'amount', 'brain', 'patient', 'mechanism', 'transfer', 'aluminum', 'bbb', 'mystery', 'aluminum', 'reach', 'brain', 'bbb', 'researcher', 'aluminum', 'nano_particles', 'cross', 'bbb', 'mechanism', 'aluminum', 'cross', 'bbb', 'disease', 'process', 'disease', 'living', 'death', 'patient', 'great', 'patient', 'friend', 'family', 'condition', 'epidemic', 'america', 'condition', 'year', 'life', 'friend', 'family', 'constant', 'care', 'person', 'burden', 'person', 'family', 'tax_payers', 'medical', 'profession', 'rise', 'mystery', 'disease', 'process', 'mystery', 'ability', 'aluminum', 'cross', 'bbb', 'mystery', 'aluminum', 'nano_particles', 'cross', 'bbb', 'researcher', 'risk', 'exposure', 'aluminum', 'nano_particles', 'time', 'aluminum', 'present', 'product', 'market', 'arm', 'deodorant', 'suspect', 'source', 'aluminum', 'cross', 'bbb', 'patient', 'aluminum', 'nano_particles', 'present', 'product', 'exposure', 'suspect', 'aluminum', 'contamination', 'brain', 'patient', 'chemtrails', 'federal_agent', 'spray', 'north_america', 'chemtrails', 'aluminum', 'nano_particles', 'federal', 'employee', 'aluminum', 'nano_particles', 'cross', 'bbb', 'federal_agent', 'spread', 'spray', 'aluminum', 'nano_particles', 'evidence', 'federal', 'criminal', 'activity', 'evidence', 'federal', 'criminal', 'activity', 'text', 'federal', 'website', 'state', 'aluminum', 'nano_particles', 'cross', 'blood-brain', 'barrier', 'text', 'screen', 'shot', 'text']",0,[],0.0074296854
770,0.0,"['austin', 'shot']",0,[],0.0074296854
2927,0.0,"['chicago', 'boy', 'kill', 'shot', 'hour', 'african', 'african', 'change', 'chicongo', 'white_human', 'medical', 'emergency', 'hospital', 'flow', 'black', 'gunshot', 'wound']",0,[],0.0074296854
2937,0.0,"['african', 'shot', 'sharpton', 'marxist', 'care']",0,[],0.0074296854
3122,0.0,"['african', 'murder', 'white_child', 'free', 'school', 'white_folks', 'african', 'african', 'african', 'baby', 'point_blank', 'range', 'eye', 'mother', 'shot', 'head', 'close_range']",0,[],0.0074296854
2207,0.0,"['comparison', 'shot', 'pattern', 'buckshot', 'defense', 'distance', 'yard', 'saw', 'shotgun', 'nineteen', 'inch', 'barrel', 'cylinder', 'bore', 'barrel', 'choke', 'photo', 'target', 'shot']",0,[],0.0074296854
3324,0.0,"['wait', 'turn', 'shot', 'teach', 'loony_leftists', 'loony']",0,[],0.0074296854
1936,0.0,"['special', 'breed', 'coward', 'trouble', 'shot', 'set', 'witness', 'world_wide', 'genocide', 'white_children', 'white_genocide']",0,[],0.0074296854
1914,0.0,"['small', 'target', 'yard', 'revolver', 'hit', 'shot', 'ak', 'revolver', 'hit', 'target', 'postcount=5771']",0,[],0.0074296854
1912,0.0,"['today', 'day', 'day', 'range', 'shot', 'group', 'dpms', 'postcount=6006']",0,[],0.0074296854
4909,0.0,"['shot', 'word']",0,[],0.0074296854
5503,0.0,"['jerry_miculek', 'barrett', 'shot', 'motion', 'replay']",0,[],0.0074296854
5767,0.0,"['zak', 'dorn', 'break', 'world', 'record', 'mph', 'shot']",0,[],0.0074296854
7304,0.0,"['winter', 'trick', 'shot']",0,[],0.0074296854
7364,0.0,"['progressive', 'effort', 'american', 'shot', 'afghan', 'female']",0,[],0.0074296854
7882,0.0,"['anders', 'breivik', 'letter', 'russian', 'colleague', 'dear', 'russian', 'colleague', 'anders', 'behring', 'breivik', 'postboks', 'ster', 'oslo/b', 'rum', 'dear', 'russian', 'brother', 'true', 'work', 'pan-european', 'prison', 'network', 'process', 'contact', 'beate', 'zsch', 'pe', 'uwe', 'mundlos', 'uwe', 'bornhardt', 'group', 'nsu', 'underground', 'kill', 'peter', 'mangs', 'shot', 'kill', 'malmo', 'beate', 'peter', 'convict', 'doubt', 'trial', 'innocent', 'contact', 'norwegian', 'brother', 'denmark', 'process', 'time', 'issue', 'positive', 'case', 'medium', 'coverage', 'result', 'letter', 'patriot', 'country', 'contact', 'key', 'individual', 'job', 'network', 'contact', 'detail', 'gain', 'permission', 'de-legitimize', 'fake', 'report', 'struggle', 'time', 'trial', 'start', 'april', 'july', 'time', 'prison', 'network', 'estimate', 'prisoner', 'western-europe', 'year', 'work', 'work', 'share', 'contact', 'address', 'leader', 'english', 'network', 'regime', 'contact', 'prisoner', 'cripple', 'policy', 'glad', 'bypass', 'europe', 'problem', 'western_europe', 'muslim', 'prison', 'prisoner', 'muslim', 'european', 'prisoner', 'convert', 'islam', 'convert', 'islam', 'prisoner', 'country', 'halal', 'meat', 'prison', 'authority', 'serve', 'brother', 'denmark', 'prize', 'head', 'set', 'muslim', 'ethnic', 'dane', 'segregate', 'wing', 'prison', 'violence', 'problem', 'increase', 'decade', 'europe', 'asian', 'african', 'immigrant', 'goal', 'pan-european', 'prison', 'network', 'european', 'martyr', 'prisoner', 'goal', 'support', 'organisation', 'european', 'martyr', 'long_term', 'goal', 'network/organisation', 'brother', 'brotherhood', 'prison', 'offer', 'protection', 'muslim', 'attack', 'prison', 'brother', 'sister', 'focus', 'general', 'education', 'english', 'cross', 'border', 'communication', 'essay', 'skill', 'pen', 'goal', 'organisation', 'fundament', 'wife', 'child', 'martyr', 'network', 'aryan', 'brotherhood', 'decade', 'time', 'building', 'network', 'case', 'task', 'ignorance', 'study', 'russian', 'hero', 'nikolai', 'korolev', 'korolev', 'person', 'leader', 'talent', 'communication', 'diplomacy', 'work', 'network', 'begin', 'shape', 'leader', 'russian', 'network', 'russian', 'brother', 'korolev', 'person', 'honour', 'privilege', 'pleasure', 'english', 'play', 'role', 'nikolai', 'korolev', 'plan', 'btw', 'initiative', 'work', 'work', 'western_europe', 'effort', 'russian', 'hero', 'people', 'anna', 'work', 'international', 'support', 'orenburg', 'city', 'problem', 'letter', 'russian', 'oslo', 'police', 'give', 'time', 'contact', 'english', 'btw', 'drawing', 'poem', 'russian', 'hero', 'alexis', 'kostrachenkova', 'artem', 'prokhorenko', 'nikolai', 'pavlenko', 'andrew', 'konakova', 'dmitry', 'erofeev', 'yaroslav', 'vorobyov', 'sergei', 'rumyantsev', 'roman', 'orlov', 'evgeny', 'zakalistogo', 'andrew', 'malyugina', 'group-borovikova', 'vojvodina', 'call', 'datsik', 'slavic', 'union', 'hospital', 'st', 'petersburg', 'area', 'escape', 'year', 'release', 'institution', 'man', 'eugene', 'dyankandu', 'uzbekistan', 'freelance', 'journalist', 'slavic', 'union', 'atm', 'risk', 'institution', 'drug', 'lawyer', 'case', 'scenario', 'treatment', 'lobotomized', 'weekly', 'anti-psychotic', 'drug', 'function', 'work', 'judge', 'find', 'convict', 'imprisonment', 'contact', 'address', 'permission', 'individual', 'structure', 'network/organization', 'decision', 'time', 'network', 'limited', 'fact', 'thatmilitant', 'orient', 'nationalist', 'militant', 'orient', 'organization', 'western_europe', 'european', 'world.to', 'skinhead', 'northern', 'europe', 'russian', 'militant', 'nationalist', 'average', 'western', 'european', 'militant', 'nationalist', 'representative', 'western_europe', 'self-driven', 'independent', 'attack', 'cell', 'tradition', 'militant', 'nationalist', 'network', 'knight', 'templar', 'network', 'embrace', 'al_qaeda', 'method', 'theory', 'focus', 'spectacular', 'attack', 'glorification', 'martyrdom', 'call', 'shock', 'suicide', 'attack', 'people', 'network', 'contact', 'today', 'time', 'show', 'time', 'mind', 'average', 'western', 'european', 'militant', 'nationalist', 'russian', 'brother', 'share', 'input', 'structure', 'mind', 'suggestion', 'point', 'struggle', 'compendium', 'network', 'right', 'activist', 'anti-marxists', 'anti-islamist', 'individual', 'primary', 'group', 'western_europe', 'national_socialists', 'national', 'conservative', 'devou', 'christian', 'militant', 'christian', 'group', 'western_europe', 'militant', 'gain', 'ground', 'fast', 'western_europe', 'militant', 'identity', 'chosen', 'identity', 'decision', 'meaning', 'identity', 'network', 'crusader', 'nationalism', 'identity', 'christianity', 'identity', 'odinistic', 'identity', 'identity', 'identity', 'narrow', 'group', 'problem', 'brother', 'identity', 'show', 'clear', 'defiance', 'balance', 'combine', 'factor', 'right', 'christian', 'identity', 'odinistic', 'principle', 'symbol', 'lesson', 'muslim', 'brotherhood', 'al-qaeda', 'revolutionary', 'movement', 'addition', 'arab', 'league', 'islam', 'arab', 'supremacist', 'ideology', 'christendom', 'nordic', 'ethnocentrism', 'tradition', 'god', 'odinism', 'information', 'nordicism', 'search', 'madison', 'grant', 'wikipedia', 'tribe', 'nordicism', 'russian', 'national_socialism', 'name', 'identity', 'suggestion', 'nordic', 'league', 'european', 'league', 'russian', 'contra-jihadists', 'nordic/european/christian', 'contra-jihadists', 'russian', 'anti-communists', 'nordic/european/christian', 'anti-communists', 'brotherhood', 'european', 'brotherhood', 'christian', 'brotherhood', 'holy', 'league', 'christian', 'alliance', 'lead', 'john', 'sobieski', 'vienna', 'knight', 'templar', 'defense', 'league', 'defense', 'force', 'russian', 'human', 'right', 'human', 'right', 'russian', 'human', 'right', 'watch', 'human', 'right', 'watch', 'european', 'defense', 'league', 'european', 'defense', 'force', 'nordic', 'defence', 'league', 'nordic', 'defense', 'force', 'christian', 'defence', 'league', 'christian', 'defense', 'force', 'support', 'aryan', 'aryan', 'brotherhood', 'future-oriented', 'odinist', 'name', 'link', 'national_socialism', 'people', 'feel', 'work', 'western_europe', 'work', 'vice', 'versa', 'rush', 'brother', 'suggestion', 'building', 'network', 'year', 'name', 'clear', 'label', 'scare', 'people', 'share', 'thought', 'awareness', 'network', 'progress', 'btw', 'conviction', 'room', 'militant', 'militant', 'national', 'conservative', 'crusader', 'nationalist', 'n', 'europe', 'russia', 'failure', 'western', 'european', 'country', 'decade', 'demonization', 'medium', 'western_europe', 'rich', 'unemployment', 'incentive', 'establishment', 'people', 'n', 'western_europe', 'national', 'conservative', 'ideology', 'national', 'conservatism', 'nationalism', 'western_europe', 'fight', 'ideology', 'term', 'ideology', 'wing', 'party', 'policy', 'individual', 'policy', 'call', 'ideology', 'ideology', 'n', 'aspect', 'policy', 'state', 'ideology', 'japan', 'south', 'korea', 'support', 'ethnic', 'protectionism', 'ethnic', 'group', 'people', 'northern', 'europe', 'deportation', 'islam', 'europe', 'anti-marxism', 'opposition', 'feminism', 'revolution', 'support', 'patriarchy', 'woman', 'secondary', 'professional', 'role', 'japan', 'south', 'korea', 'asian', 'african', 'european', 'people', 'nordic', 'people', 'nordic', 'reality', 'support', 'israel', 'struggle', 'jihad', 'minority', 'israeli', 'jew', 'share', 'ideology', 'nationalism', 'foreigner', 'country', 'zionist', 'true', 'national_socialism', 'negative', 'policy', 'national_socialism', 'expansionistic', 'nature', 'isolationist', 'nature', 'jew', 'jew', 'anti-christian', 'nature', 'christendom', 'reform', 'militant', 'christendom', 'enlightenment-reforms', 'militant', 'nationalist', 'nationalist', 'socialist', 'banner', 'ideology', 'label', 'flag', 'banner', 'policy', 'doctrine', 'banner', 'banner', 'flag', 'conserve', 'positive', 'policy', 'discard', 'ideology', 'military', 'power', 'country', 'goal', 'reach', 'goal', 'adaptation', 'creator', 'islam', 'mohammed', 'war', 'deceit', 'brother', 'war', 'deceit', 'time', 'time', 'ideology', 'national', 'conservatism', 'ethnic', 'protectionism', 'core', 'ideology', 'vladimir', 'putin', 'friend', 'worst', 'enemy', 'embrace', 'ethnic', 'protectionism', 'european', 'russia', 'empire', 'support', 'policy', 'jew', 'jew', 'western_europe', 'western_europe', 'france', 'europe', 'western_europe', 'problem', 'liberal', 'marxist', 'time', 'jew', 'russia', 'situation', 'compendium', 'western_europe', 'russian', 'translation', 'version', 'circumstance', 'good', 'mind', 'manifesto', 'draft', 'finish', 'product', 'stand', 'exception', 'hearing', 'brother', 'anders', 'behring', 'breivik']",0,"['norway_oslo/b&#230;rum', 'battle_of_vienna)']",0.0074296854
8360,0.0,"['steve', 'reichert', 'mile', 'sniper', 'shot']",0,[],0.0074296854
8491,0.0,"['make', 'noise', 'shotgun', 'hurt', 'fun', 'handle', 'flash', 'mob', 'shot', 'aim', 'ankle']",0,[],0.0074296854
8731,0.0,"['steve', 'reichert', 'hathcock', 'yard', 'vc', 'general', 'shot', 'yard', 'head', 'shot']",0,[],0.0074296854
10258,0.0,"['illegals', 'immigrant', 'criminal', 'zionist/bolshevik/neocon', 'medium', 'invading_army', 'immigrant', 'immigrant', 'idea', 'criminal', 'invasion', 'zionist/bolshevik/neocon', 'medium', 'propaganda', 'label', 'clear', 'language', 'twist', 'pervert', 'language', 'invader', 'immigrant', 'criminal', 'label', 'anti-american', 'anti-european', 'army', 'criminal', 'school', 'medical', 'care', 'hospital', 'housing', 'assistance', 'area', 'food', 'stamp', 'star', 'card', 'social', 'security', 'soil', 'soil', 'politician', 'invading_army', 'criminal_aliens', 'land', 'soil', 'high', 'treason', 'recourse', 'high', 'treason', 'right', 'recourse', 'exercise', 'employer', 'hire', 'criminal_aliens', 'jail', 'right', 'recourse', 'exercise', 'basic', 'anglo', 'saxon', 'trespasser', 'shot', 'sight', 'invading_army', 'criminal_aliens', 'trespass', 'recourse', 'exercise', 'armed_forces', 'duty', 'u.s', 'armed_forces', 'duty', 'recourse', 'exercise', 'channel', 'kid', 'glove', 'criminal_aliens', 'ten', 'time', 'request', 'public', 'official', 'duty', 'law', 'land', 'kind', 'hearted', 'law_abiding', 'people', 'kid', 'glove', 'remove', 'criminal_aliens', 'remove', 'force', 'party', 'aid', 'invasion', 'justice', 'child', 'heritage', 'law', 'land', 'pay']",0,[],0.0074296854
11033,0.0,"['stay', 'quiet', 'full', 'info', 'save', 'shot', 'primer', 'stop', 'throw', 'primer', 'white', 'substance', 'strike', 'match', 'method', 'longer', 'caution', 'cleaning', 'shot', 'primer', 'dust', 'lead', 'wear', 'dust', 'mask', 'glove', 'dimple', 'cup', 'firing_pin', 'impact', 'condition', 'pin', 'punch', 'hammer', 'info']",0,[],0.0074296854
7303,0.0,"['manager', 'fpsrussia', 'keith', 'ratliff', 'murder', 'ratliff', 'tie', 'chair', 'shot', 'robbery', 'motive', 'manager', 'fpsrussia', 'keith', 'ratliff', 'murder', 'infosalvo', 'news']",0,[],0.0074296854
