,Unnamed: 0,Term,Fq-0,Fq-1,Fq-2,Fq-3,Fq-4,Tfidf-0,Tfidf-1,Tfidf-2,Tfidf-3,Tfidf-4,Prob-0,Prob-1,Prob-2,Prob-3,Prob-4
4393,government,government,34,15,12,60,484,0.026553800585862927,0.03655178686722799,0.032439391020084245,0.05570860051123836,0.366296214711684,0.00030700694,0.0008653242,0.0005295577,0.00064538897,0.01921336
1839,child,child,9,25,7,71,245,0.007028947213904892,0.06091964477871331,0.018922978095049142,0.06592184393829872,0.18541853843876566,0.00011095633999999998,0.0011768049000000001,0.00024586965,0.0016253357000000001,0.011668739
7897,people,people,40,13,6,88,193,0.03123976539513285,0.03167821528493092,0.016219695510042122,0.08170594741648292,0.14606439966808885,0.0003664174,0.00044937254000000003,5.1467974000000005e-05,0.0037362529999999997,0.009575001
319,american,american,23,15,28,37,204,0.01796286510220139,0.03655178686722799,0.07569191238019657,0.03435363698193032,0.15438931363880892,0.00057393574,0.0002906578,0.0028071553,0.00045495218,0.008541401
317,america,america,9,4,8,88,216,0.007028947213904892,0.00974714316459413,0.02162626068005616,0.08170594741648292,0.16347103797050358,8.059138000000001e-05,0.00030022537,0.00066431484,0.0029217564000000003,0.00853816
7137,muslim,muslim,3,13,4,15,102,0.002342982404634964,0.03167821528493092,0.01081313034002808,0.01392715012780959,0.07719465681940446,0.00018919776999999998,0.0014782931,0.0,0.0,0.008271081
7193,nation,nation,3,4,7,87,211,0.002342982404634964,0.00974714316459413,0.018922978095049142,0.08077747074129563,0.1596869861656308,1.8020264000000001e-06,0.00034200435,0.00034389214,0.0022505815,0.008149842
10153,state,state,19,3,19,54,209,0.014838888562688102,0.0073103573734455965,0.05136236911513339,0.050137740460114516,0.15817336544368168,0.00013523908,0.00012704136000000002,0.0011174679,0.0014378248000000001,0.007910968
161,african,african,28,78,19,192,256,0.021867835776593,0.19006929170958556,0.05136236911513339,0.17826752163596274,0.1937434524094857,0.00043449303,0.0031053831,0.0005479286,0.0048240670000000005,0.0069808685
4866,hillary,hillary,13,2,8,7,68,0.010152923753418176,0.004873571582297065,0.02162626068005616,0.006499336726311142,0.051463104546269636,0.0016411792999999999,0.0,0.0,0.0,0.0066175903
