,topic_lda,bag_words,sa_score
26,2.0,"['ar-10', 'rifle', 'today']",1
33,2.0,"['surprise', 'surprise']",1
197,2.0,['glad'],1
302,2.0,"['open_carry', 'group', 'pick', 'litter', 'phrase', 'police', 'neighborhood', 'cleaning', 'street', 'god', 'good_luck']",1
480,2.0,"['ground', 'man', 'god_bless', 'god_bless', 'texas']",1
537,2.0,"['white', 'great_grand', 'mother', 'african_home', 'invader']",1
658,2.0,"['sound', 'marxist', 'atheist', 'heaven']",1
1048,2.0,"['good', 'patriot', 'freedom', 'halloween', 'adl', 'office', 'racism', 'hate', 'god_bless', 'freedom']",1
1722,2.0,"['jew', 'pet', 'african', 'jew', 'heiress', 'kate', 'rothschild', 'hip', 'hop', 'african', 'jay', 'electronica']",1
1955,2.0,"['re-educational', 'system', 'call', 'lie', 'lincoln', 'great', 'emancipator']",1
2019,2.0,"['free', 'program', 'convert', 'format', 'start', 'great', 'free', 'youtube', 'downloader', 'free', 'software', 'review', 'cnet', 'download.com']",1
2170,2.0,"['talk', 'win']",1
2325,2.0,"['white_man', 'strongman', 'bad']",1
2420,2.0,[],1
2715,2.0,"['africa', 'farm', 'land', 'growing_season', 'continent', 'rich', 'natural', 'resource', 'coastline', 'river', 'model', 'super', 'power']",1
2986,2.0,"['carry', 'machine_gun', 'drop', 'african', 'sight']",1
3130,2.0,"['african', 'italy']",1
3603,2.0,"['mulatto', 'world', 'win/win', 'situation', 'nation', 'support', 'mulatto', 'inhabitant', 'world', 'nation', 'superior', 'mulatto', 'love']",1
3759,2.0,"['obama', 's', 'grab', 'african', 'crowd', 'supporter', 'chop', 'serve', 'fry', 'chicken', 'obama', 'african', 'crowd', 'praise', 'african', 'love', 'white']",1
3800,2.0,"['russian', 'general', 'call', 'obama', 'support', 'isi', 'obama', 'fight', 'terrorism', 'spread', 'terrorism']",1
3854,2.0,"['speech', 'winner']",1
3902,2.0,"['olympic_arms', 'carbine', 'price', 'amp', 'wesson', 'ar', 'price', 'drop']",1
3980,2.0,"['america', 'great', 'president', 'american', 'president', 'john', 'rutledge', 'nation', 'south_carolina', 'nation', 'london_government', 'jefferson_davis', 'elect', 'confederate', 'state', 'america', 'god_bless', 'independence', 'tyranny', 'federal_government', 'secession', 'freedom']",1
4063,2.0,"['today', 'weather']",1
4064,2.0,"['minnesota', 'ren', 'faire', 'fair', 'festival', 'minneapolis', 'mn', 'family', 'entertainment', 'renaissance', 'festival']",1
4085,2.0,"['propaganda', 'democrat', 'republican', 'sound', 'difference', 'action', 'discredit', 'illusion', 'party', 'system', 'reality', 'party', 'system', 'banking_families']",1
4117,2.0,"['jamie', 'radio', 'show', 'tonight', 'play', 'play', 'ron_paul', 'interview', 'merry_christmas', 'santa', 'victory']",1
4138,2.0,"['impression', 'lady', 'union', 'role', 'support', 'husband']",1
4193,2.0,"['endurance', 'training', 'super', 'set', 'training', 'burst', 'energy', 'result', 'great', 'exertion', 'second', 'man', 'competition']",1
4262,2.0,"['asian', 'makeup', 'actress', 'whiteness', 'beauty']",1
4419,2.0,"['trump', 'win', 'michigan', 'win']",1
4486,2.0,"['congratulation', 'win']",1
4795,2.0,"['shoot', 'patriot', 'flintlock', 'freedom']",1
4987,2.0,"['irish', 'people', 'love']",1
5164,2.0,"['oz', 'silver', 'bar', 'free']",1
5184,2.0,"['rich', 'life', 'stuff']",1
5285,2.0,"['shooter', 'winner']",1
5353,2.0,"['poem', 'feature', 'stormfront', 'radio', 'hour', 'mm', 'rudyard', 'kipling', 'head', 'dream', 'dream', 'master', 'heap', 'winning', 'talk', 'crowd', 'virtue']",1
5424,2.0,"['gmo', 'food', 'arctic', 'granny', 'smith', 'apple', 'arctic', 'delicious', 'apple', 'red', 'variety', 'artic', 'apple', 'j.r', 'simplot', 'company', 'supplier', 'potato', 'product', 'cut', 'french', 'fry', 'fast', 'food', 'chain', 'gmo', 'potato', 'fda', 'gmo', 'apple', 'potato', 'modern', 'farmer']",1
5580,2.0,"['sister', 'saint', 'nicholas']",1
5775,2.0,"['gary', 'moore', 'emerald', 'love']",1
5831,2.0,"['automatic', 'glock', 'fun']",1
5952,2.0,"['red', 'volkaert', 'cindy', 'cashdollar', 'love']",1
6036,2.0,"['dude', 'perfect', 'nerf', 'sport', 'edition']",1
6049,2.0,"['hero', 'race']",1
6227,2.0,"['duck', 'dynasty', 'free_speech']",1
6289,2.0,"['hawkwind', 'love', 'space']",1
6450,2.0,"['progressive', 'gynocentric', 'positive', 'discrimination', 'men', 'responsibility', 'right', 'woman', 'privilege', 'responsibility', 'man', 'radical', 'feminist']",1
6706,2.0,"['walmart', 'federal', 'welfare', 'federal', 'program', 'walmart', 'pay', 'living', 'employee', 'profit', 'high']",1
6781,2.0,['mother'],1
6914,2.0,"['birthday', 'twin']",1
7064,2.0,"['trust', 'news', 'medium']",1
7252,2.0,"['gun', 'rich']",1
7565,2.0,"['turkey', 'mortar', 'free', 'missile', 'defense', 'shield', 'cost', 'tax_payers', 'union', 'billion']",1
7566,2.0,"['african', 'eats', 'dog', 'k2', 'african', 'african']",1
7685,2.0,"['large', 'hand', 'large', 'hand', 'youtube']",1
7759,2.0,"['truth', 'satire', 'mark', 'zuckerberg', 'award', 'cia', 'surveillance', 'medal']",1
8020,2.0,"['jethro', 'tull', 'god', 'rest', 'ye', 'gentleman']",1
8029,2.0,"['reindeer', 'laugh', 'call', 'name']",1
8792,2.0,"['hickock45', 'way', 'pumpkin', 'halloween']",1
8860,2.0,"['egyptian', 'citizen', 'democracy', 'israeli', 'embassy', 'government', 'egyptian', 'israeli', 'time', 'egyptian', 'freedom', 'stand', 'israeli', 'government', 'stand', 'freedom']",1
9136,2.0,"['universe', 'infrared', 'view', 'wise', 'sky', 'wide-field', 'infrared', 'survey', 'explorer', 'wise', 'all-sky', 'data', 'release', 'nasa']",1
9283,2.0,"['hair', 'girth', 'feminism']",1
9332,2.0,"['commie', 'salute', 'goose', 'step', 'feminazis', 'commie', 'nazi']",1
9379,2.0,"['kevlar_helmet', 'great', 'flag', 'emblem', 'flag', 'nation', 'texas']",1
9402,2.0,"['virtue', 'white_humans', 'die', 'virtue', 'cling', 'virtue', 'favorite', 'prize', 'possession', 'great', 'hero', 'virtue', 'weakness', 'time', 'time', 'chosen', 'mortal', 'enemy', 'kind', 'virtue', 'good', 'white_humans', 'found', 'civilization', 'content', 'meadow', 'hill', 'side', 'contentment', 'joy', 'good', 'white_humans', 'invader', 'land', 'root', 'beggar', 'share', 'truth', 'white_humans', 'fruit', 'labor', 'accordance', 'fruit', 'labor', 'poverty', 'condition', 'creation', 'great', 'love', 'virtue', 'white_humans', 'white_humans', 'help', 'great', 'love', 'virtue', 'white_humans', 'turn', 'back', 'kind', 'help', 'poor', 'invader', 'white_human', 'founder', 'chinese', 'culture', 'virtue', 'life', 'lack', 'virtue', 'virtue', 'worth', 'life', 'child', 'place', 'high', 'virtue', 'child', 'living', 'space', 'child', 'safe', 'white_human', 'founder', 'chinese', 'culture']",1
9605,2.0,"['folk', 'thanksgiving', 'federal_school', 'post9759541']",1
9710,2.0,"['modern', 'female', 'white_woman']",1
9754,2.0,"['read', 'question', 'choice', 'nuke', 'multiple', 'warhead', 'narrow', 'man', 'portable', 'ar-10_chambered', 'rifle', 'man', 'stop', 'caliber', 'god', 'bless_texas']",1
9790,2.0,"['india', 'pakistan', 'shell', 'love', 'loony_leftist']",1
9996,2.0,"['survivor', 'good', 'supply', 'food', 'survivor']",1
10084,2.0,"['poll', 'show', 'fifty', 'percent', 'republican', 'secession', 't-of-the-union', 'liberal', 'folk', 'liberty', 'like', 'secession', 'freedom']",1
10114,2.0,"['texas', 'hero', 'tnb']",1
10585,2.0,"['white_neighborhood', 'white', 'neighbor', 'clean', 'quiet', 'kind', 'neighbor', 'white', 'neighbor']",1
10659,2.0,"['dress', 'figure', 'dress', 'guy']",1
10690,2.0,"['handgun', 'caliber', 'w', 'magnum', 'pistol_caliber', 'carbine', 'magnum', 'lever_action', 'rifle', 'cool', 'ar-15', 'manufacturer', 'olympic_arms', 'produce', 'carbine', 'w', 'glock', 'mag', 'caliber', 'carbine', 'shoot', 'velocity', 'longer', 'barrel', 'length', 'caliber', 'pistol_caliber', 'magnum']",1
10830,2.0,"['trump', 'nobel', 'peace', 'prize']",1
10900,2.0,"['tank', 'peace', 'mission', 'mexico', 'city', 'let']",1
10912,2.0,"['rumor', 'russian', 'body_armor', 'check', 'source']",1
11040,2.0,"['barnes', 'bullet', 'bullet', 'good']",1
11620,2.0,['hole'],1
11798,2.0,"['heroic', 'act', 'star_wars', 'hero', 'give', 'ruling', 'galacy', 'life', 'life', 'son', 'true', 'hero', 'star_wars']",1
12145,2.0,"['skrewdriver', 'blood', 'honour']",1
13055,2.0,"['great', 'ed', 'mcgivern']",1
13119,2.0,"['super', 'human']",1
13148,2.0,['body'],1
