,topic_lda,bag_words,sa_score,events
18,2.0,"['alex', 'jones', 'report', 'deutsche', 'bank', 'verge', 'failure', 'information', 'source', 'jones']",0,[]
29,2.0,"['world', 'medical', 'professional', 'wrong', 'ebola', 'magic']",0,[]
30,2.0,[],0,[]
36,2.0,"['federal', 'reserve', 'hack', 'million', 'dollar', 'steal', 'redact', 'document', 'freedom', 'information', 'act', 'board', 'governor', 'federal', 'agency', 'subject', 'foia', 'request', 'evidence', 'hack', 'expose', 'heavy', 'redaction', 'full', 'disclosure', 'hack', 'extent', 'million', 'dollar', 'steal', 'document', 'show', 'evidence', 'hack', 'event', 'instance', 'dollar', 'steal', 'information', 'board', 'governor', 'document', 'federal', 'reserve', 'bank', 'subject', 'freedom', 'information', 'request', 'eserve-breach/']",0,['freedom_of_information_act']
39,2.0,"['german', 'men', 'nation', 'left', 'merkel', 'office', 'leave', 'merkel', 'traitor', 'government', 'germany', 'child', 'die', 'hand', 'merkel', 'pet']",0,[]
44,2.0,"['work', 'yard', 'pound', 'build', 'pound', 'shoot', 'hit', 'punch', 'cover', 'vest']",0,[]
48,2.0,"['ak', 'work', 'cqc', 'ar-10', 'ar-10', 'work', 'great', 'yard', 'folk', 'ak', 'super', 'human', 'claim', 'hit', 'range', 'ak', 'limit', 'yard', 'ak', 'ammo', 'work', 'great', 'short', 'range', 'hit', 'short', 'range', 'ar-10', 'bet', 'lot', 'mud', 'arm', 'short', 'range', 'rifle', 'white', 'marksman', 'arm', 'range', 'rifle', 'range']",0,[]
49,2.0,"['chant', 'usa', 'usa', 'usa', 'movement', 'trump', 'usa', 'white', 'american', 'america', 'great']",0,[]
50,2.0,"['great', 'speech', 'trump', 'spoke', 'jew', 'fear', 'man', 'public', 'side', 'step', 'issue', 'beat', 'bush', 'message', 'group', 'message', 'group', 'message', 'good', 'message', 'trump', 'support', 'white', 'america', 'america', 'great']",0,[]
51,2.0,"['massachusetts', 'liberal', 'progressive', 'anti-conservative', 'massachusetts', 'prof', 'fed', 'white', 'america', 'anti-white', 'trend', 'america', 'trump', 'pack', 'pack']",0,[]
55,2.0,"['find', 'article', 'today', 'glass', 'beading', 'carry', 'handle', 'mount', 'ar-15', 'carry', 'handle', 'optic', 'mount', 'emounting.html']",0,[]
63,2.0,"['glad', 'future', 'descendant', 'black', 'brown', 'future', 'white', 'folk']",0,[]
67,2.0,[],0,[]
68,2.0,"['alex', 'jones', 'repeat', 'lie', 'hitler', 'nazi', 'ww', 'ii', 'majority', 'normal', 'day', 'white', 'men', 'america', 'average', 'white', 'man', 'america', 'hate', 'hitler', 's', 'gestapo', 'reich', 'nazi', 'individual', 'show', 'wave', 'nazi', 'flag', 'drive', 'normal', 'white', 'men', 'join', 'white', 'nationalist', 'white', 'family', 'men', 'support', 'future', 'white', 'child', 'natural', 'earth', 'majority', 'white', 'family', 'men', 'join', 'nazi', 'flag']",0,['ww_ii']
79,2.0,"['trump', 'cnn', 'reporter', 'time', 'trump', 'tomorrow', 'medium', 'rant', 'rave', 'call', 'murder']",0,[]
81,2.0,"['milwaukee', 'chief', 'police', 'tell', 'fed', 'spout']",0,[]
89,2.0,"['cd', 'amp', 'x=5', 'amp', 'y=3']",0,[]
90,2.0,"['great', 'job', 'pride']",0,[]
