,Unnamed: 0,Term,Fq-0,Fq-1,Fq-2,Fq-3,Fq-4,Tfidf-0,Tfidf-1,Tfidf-2,Tfidf-3,Tfidf-4,Prob-0,Prob-1,Prob-2,Prob-3,Prob-4
647,white,white,2,1,9,5,0,0.06458651103196109,0.04418577083663742,0.3056421737683524,0.20629493519199896,0.0,0.01600273698568344,0.004982694052159786,0.0147430170327425,0.015415829606354238,0.0004462783690541983
493,rifle,rifle,1,0,1,3,0,0.03838807098976193,0.0,0.04036967291919343,0.14713780615385566,0.0,0.0017705115024000406,1.5178441572061276e-05,0.003656030632555485,0.0110739478841424,8.63735840539448e-05
166,document,document,0,0,0,2,0,0.0,0.0,0.0,0.14646881251421465,0.0,1.0091696822200902e-05,1.3935296919953545e-05,1.2677141057793053e-05,0.00759925926104188,0.000993952387943864
564,stop,stop,0,0,1,2,0,0.0,0.0,0.04863286714763409,0.11817011569383087,0.0,7.331479719141498e-05,0.00017095381917897612,0.00038451518048532307,0.007275251671671867,2.419035263301339e-05
264,hack,hack,0,0,0,1,0,0.0,0.0,0.0,0.07323440625710732,0.0,9.972308362193871e-06,1.3922943253419364e-05,1.2610424164449796e-05,0.007126388605684042,0.001606399193406105
207,federal,federal,0,2,1,1,2,0.0,0.08837154167327484,0.033960241529816936,0.041258987038399794,0.1063733662953911,0.0010524534154683352,0.009581930004060268,0.0014554361114278436,0.00707885529845953,0.0035429839044809346
267,handgun,handgun,2,0,1,1,0,0.07677614197952386,0.0,0.04036967291919343,0.04904593538461855,0.0,0.007124408148229122,0.0001364074560115114,0.0024106537457555532,0.00696044322103262,0.0008579656714573503
312,jew,jew,0,0,3,2,0,0.0,0.0,0.14589860144290226,0.11817011569383087,0.0,0.0005896245129406452,0.00012128419621149077,0.005165114067494868,0.006323066540062428,2.183899414376356e-05
259,grizzly,grizzly,0,0,0,1,0,0.0,0.0,0.0,0.07323440625710732,0.0,2.794393003568985e-05,2.0500092432484962e-05,1.2496571798692454e-05,0.006248518824577332,1.7717020455165766e-05
53,bear,bear,0,1,0,1,0,0.0,0.06327636748482147,0.0,0.05908505784691544,0.0,2.7445134037407115e-05,0.002074012067168951,1.2639537089853548e-05,0.006247675511986017,1.783252810128033e-05
