,text,doc_id
76,"If we had an army of Tom Metzger's, I know that the Africans would be in Africa, the Mexicans in Mexico, the Asians in Asia, and we would have our White Homeland!",76
11,"Many of the Bloated HolyCo$t Industry """"facts"""" sound so outlandish that they should be verified before acceptance.  If the """"facts"""" will not bear the scrutiny of Math, Science, or Logic, then they are not """"facts"""".",11
64,Gay Teen Activist Honored By Obama Charged With Sex Crimes Of Minor,64
41,"Air Soft Training I like to train with an Air Soft replica of my concealed carry handgun. Since there is no recoil, firing an Air Soft is a lot like dry firing a real firearm. Except for being a bit lighter, the feel of the Air Soft is very close to the real thing. Lining up sights for a well placed shot is hand-eye coordination, and the more you practice the better you get, and must continue to practice to stay that way. The more often you practice lining up the sights, the faster you are able to line up the sights. Hitting what you are aiming at is mostly trigger control, the more trigger time you get, the better that control. It is easy to shoot an Air Soft every day, but not nearly as easy to go down to the range every day, and there is a very large difference in the price between the two. The better you shoot your Air Soft handgun, the better you will shoot your Self Defense handgun! Train with the same grip and stance that you use for a real handgun. This photo shows a side by side comparison of my real Concealed Carry Pistol and my Air Soft training pistol. Also included are some of my favorite targets with an Air Soft plastic round pellet for a comparison of the relationship between the size of the target and the size of the ammo.  I can hit these targets nearly every shot at 7 feet. Paper target shot rapid fire at 30 feet with my concealed carry pistol.",41
93,"This is a very interesting video. RT sent a Ukrainian from America to openly investigate the truth in Crimea. Has the Jewish Mass Media been lying to us about Ukraine and Crimea?  That is all they do! The Russians in Crimea cried with joy when they left the Ukrainian government behind. In Crimea they already have Russian passports and Russian healthcare. Where do you think that the Ukrainian cemetery is located in Crimea? In was in Crimea that Hitler lost WW II.  That little diversion gave the Communist Red Army the breathing space it needed to survive, and murdered a half million or more German soldiers who had to camp in the open in summer uniforms during a brutal Russian winter. Crimea is a land of heroes and patriots, only a fool would attack them. In 1956 the Ukrainian, Khrushchev, was a powerful Communist in Russia, he """"gave"""" Crimea to Ukraine as a gift.  Wow what a guy. When the Soviet Union fell, the Russians in Crimea voted for secession in 1991, but Ukraine claimed """"you can't take back our gift"""". The Russians were suppressed in Crimea as a conquered people by the Ukrainian government. The people, the spirit, the history, the heritage, the language, and the culture of Crimea is Russian. The Russians in Crimea see themselves as liberated from Ukrainian tyranny. Good luck to the Republic of Crimea, and may the Ukrainians be satisfied to live in Ukraine.",93
