,topic_lda,bag_words,sa_score,events,rank
4161,0.0,"['time', 'real', 'possibility', 'race_traitors', 'congress', 'jew', 'congress', 'assault', 'weapon', 'ban', 'assault', 'weapon', 'counter', 'assault', 'weapon', 'time', 'supplier', 'hold', 'warehouse', 'full', 'rifle', 'ban', 'semi', 'automatic', 'rifle', 'bit', 'time', 'ban']",-1,[],0.014764693
3827,0.0,"['buying', 'thousand', 'rifle', 'warehouse', 'full']",-1,[],0.014764693
5,0.0,"['shooter', 'recoil', 'cartridge', 'fire', 'shoot']",-1,[],0.010546804
8412,0.0,"['fire', 'attorney', 'general', 'eric', 'holder', 'holder', 'criminal', 'imprisioned', 'crime']",-1,[],0.010546804
8334,0.0,"['jessie', 'abbate', 'dry', 'fire', 'caution', 'dry', 'fire', 'rimfire', 'antique', 'firearm']",-1,[],0.010546804
4516,0.0,"['mestizo', 'murder', 'wife', 'child', 'set', 'fire', 'crime', 'immigrant', 'mass_murder', 'syndrome', 'hispanic', 'man', 'murder', 'young', 'child', 'month', 'year', 'set', 'shed', 'vdare.com']",-1,[],0.010546804
3198,0.0,"['good', 'chance', 'barack_hussein', 'obama', 'jr', 'riot', 'america', 'kenya', 'black', 'savage', 'riot', 'reason', 'black', 'savage', 'riot', 'elect', 'count', 'ballot', 'black', 'savage', 'riot', 'elect', 'count', 'ballot', 'black', 'savage', 'riot', 'black', 'riot', 'forecast', 'scatter', 'fire', 'assault', 'murder']",-1,[],0.010546804
3225,0.0,"['revelation', 'court', 'criminal', 'washington_government', 'agent', 'withholding', 'evidence', 'evidence', 'evidence', 'situation', 'criminal', 'agent', 'murder', 'boy', 'wood', 'position', 'concealment', 'full_auto', 'machine_gun', 'boy', 'killer', 'hit', 'return', 'fire', 'boy', 'hunt', 'companion', 'adult', 'child', 'shot', 'criminal', 'agent', 'criminal', 'agent', 'murder', 'boy', 'hit', 'submachine', 'gun', 'fire', 'criminal', 'agent', 'hit', 'submachine', 'gun', 'fire', 'hit', 'submachine', 'gun', 'fire', 'withholding', 'evidence', 'murder', 'boy', 'filing', 'report', 'perjury', 'court', 'criminal', 'behavior', 'criminal', 'agent', 'criminal', 'washington_government', 'child', 'beast', 'deo_vindice']",-1,[],0.010546804
4638,0.0,"['student', 'plan', 'mass', 'shoot', 'campus', 'student', 'sakamoto', 'asian', 'mixed_race']",-1,[],0.01049208
10730,0.0,"['mass', 'shoot', 'stop', 'dead', 'garland', 'texas', 'shoot', 'muhammad', 'contest']",-1,[],0.01049208
3131,0.0,"['african', 'film', 'shoot', 'white_humans', 'african', 'video', 'reporter', 'cameraman', 'die', 'white_woman', 'surgery', 'report', 'arm', 'police_officer', 'african_shot', 'lee', 'flanagan', 'fast', 'fact', 'heavy.com', 'tv', 'reporter', 'camera', 'crew', 'murder', 'air']",-1,[],0.01049208
2840,0.0,"['african', 'shotgunned', 'victim', 'african', 'shooter', 'shotgun', 'shell', 'arm', 'leg', 'arrest', 'police', 'suspect', 'shoot', 'nc', 'wal-mart', 'man', 'shotgun', 'shell', 'fox', 'news']",-1,[],0.01049208
2793,0.0,"['white_man', 'shot', 'man', 'parking', 'lot', 'leave', 'grocery', 'store', 'savage', 'african', 'savage', 'shot', 'dead', 'body', 'shopping', 'spree', 'beast', 'capture', 'shoot', 'result', 'action', 'cage', 'release', 'resume', 'criminal', 'activity', 'kill', 'hate_crime', 'meridian', 'm']",-1,[],0.01049208
4033,0.0,"['law_abiding', 'citizen', 'criminal', 'gun', 'crime', 'teetotaler', 'drive', 'vehicle', 'drive', 'gun_control', 'law', 'effect', 'criminal', 'criminal', 'law', 'criminal', 'crime', 'firearm', 'law', 'criminal']",-1,[],0.0101833055
5882,0.0,"['finnish', 'lahti', 'anti', 'tank', 'gun']",-1,[],0.0101833055
7351,0.0,"['trust', 'government', 'gun']",-1,[],0.0101833055
8440,0.0,"['holder', 'operation', 'gun', 'runner', 'deputy', 'attorney', 'general', 'david', 'ogden', 'obama', 'holder', 'criminal', 'activity', 'statement', 'batfe', 'agent', 'operation', 'gun', 'runner', 'holder', 'obama', 'murder', 'treason', 'carry', 'death_penalty', 'court', 'law']",-1,[],0.0101833055
4463,0.0,"['idiot', 'gun_laws', 'violence', 'gun', 'crime', 'african', 'gun', 'gun', 'crime', 'mexican', 'invader', 'gun', 'criminal', 'law']",-1,[],0.0101833055
5954,0.0,"['criminal', 'federal', 'agent', 'ban', 'import', 'ammo']",-1,[],0.008860121
1647,0.0,"['jew', 'katie', 'couric', 'anti-gun', 'propaganda', 'program', 'expose', 'katie', 'couric', 'jewish_communist', 'trick', 'anti-gun', 'propaganda', 'program', 'people', 'faith', 'amendment', 'acceptance', 'gun_control', 'time', 'america', 'flood', 'savage', 'firearm', 'communist', 'marxist', 'race_traitors', 'kill']",-1,[],0.007736665699999999
2867,0.0,"['shot', 'memorial', 'day', 'weekend', 'poor', 'innocent', 'gorilla', 'kill']",-1,[],0.0074296854
8500,0.0,"['marine', 'condition', 'police', 'assault', 'occupy_wall', 'street', 'shot', 'head', 'projectile', 'weapon', 'range']",-1,[],0.0074296854
