,text,doc_id,events
8924,"911 is Business as Usual for the Federal Government The old Pearl Harbor was a set up planned way in advance, and so was the new Pearl Harbor, 911. The Gulf of Tonkin incident never happened, it was a totally fabricated event that sent our young Boys off to bleed for the Oligarchs. There is no evidence that the Spanish blew up the USS Maine, but when that ship sank, it was used as an excuse to begin a Corporate War for control of the Philippines and Hawaiian island chains. The Lusitania (a passenger ocean liner) was loaded with weapons of war, then sent undefended without escort, and when it was sank (as the Federal Government expected it to be) that was the excuse to enter into a Corporate War to loot the European Nations not under control of the Oligarchs. The evidence against Iraq was fabricated to initiate that Corporate War. The CIA set up a base in Pakistan which they named al Qaeda (al CIAda) then the Federal Government announced that we must invade Afghanistan to fight al Qaeda, which was still in Pakistan. Global Warming evidence was fabricated, and a way to entrench the One World Government ruled by the Oligarchs. The political fights between the Republicans and Democrats are fabricated because both sides serve the agenda of the Oligarchs, there is no real conflict between them. Why do they do it? Debt = Control Lies = Control War = Control Dependence = Control The Oligarchs will never GIVE us our Homeland back, we will have to TAKE it back!",8924,"['corporate_war', 'corporate_war', 'control_war']"
10985,"Africans are given every advantage in America. Many Africans are arrested 20 times before they finally get sent to prison, in prison they receive early release.  When they violate their probation they are just given double or triple probation instead of serving their jail time. No African is so stupid or lazy that it can't be given a job and a promotion over a hard working white man who actually deserved and earned that job and promotion. A white man pays many thousands of dollars for a university education, then gets passed over in favor of an African with no job skills and no work ethic, and the white man with no job still owes all those thousands of dollars even though he will never get a job from all his time and hard work at the university. An African gets to go to a high priced university for free, and will be admitted over a qualified white man.  The white man will always have to pay full price for his education. Africans get free housing, free food, and a free living allowance.  A white man with no rent money gets to be homeless, if he starves to death or dies from exposure, then so what? Africans are allowed to say and do hateful things to white folks, any white man who behaved like that would be expelled from school, fired from work, or arrested for """"assault"""". Africans are spotted points on exams because they are all stupid and not able to compete without the system cheating for them in their favor. Africans are given every advantage, then when they fail anyway they say that it is all Whitey's fault. Africans are so dishonest that they even lie to themselves about the cause of all their problems.  They are too lazy and too dumb to advance themselves, which is why they demand special assistance and special privileges. No African will ever say """"thank you mister white man for all your help"""".",10985,[]
10820,"Obviously they are lying about Trump, I wonder if they lied about Hitler too?",10820,[]
8767,"BATFE Operation Gunwalker was never a sting operation. The BATFE story that it was a failed sting operation was a flat out lie. From the start it was nothing more than a Federal Conspiracy to infringe our Second Amendment Rights, which would result in disarming American Citizens. That is what we suspected, and now the Truth has surfaced. The Truth will always make itself known! Read the evidence here: Gunwalker bombshell--""""there never was a 'sting'"""" - National Conservative | Examiner.com God bless the Patriot who brought forth this crucial evidence!",8767,[]
10881,The lying mass media lied about Trump,10881,[]
2277,"The """"anti-racists"""" proclaim boldly that anyone who displays any Pride in anything that any White Human has ever done, is a RACIST! Those same """"anti-racists"""" boldly proclaim that it is wonderful and highly commendable when any black displays black pride, or any brown displays brown pride, but not so when a White displays White Pride. The """"anti-racists"""" are RACISTS;  they are Anti-White Racists! The facts don't lie, but the """"anti-racists"""" do!",2277,[]
9481,"Water Ice on Mars European Space Agency, not lying NASA.",9481,[]
1621,"Obama's Jewish brother says that Obama lied  Obama's Jewish brother has written a book in order to set the record straight. Obama did not tell the truth in his book, now his Jewish brother says that he will. Jews keep pushing race mixing, so I guess Jewish women are going to race mix. The Jewish mother of Obama's brother,  the 3rd wife of Obama's father.",1621,[]
10797,"Trump responds to lying Ted, crooked Hillary, and jihadi Oboma",10797,[]
1300,"Lying Lincoln's Phony Emancipation Proclamation Time and time again, Lying Lincoln said he was fighting his ILLEGAL WAR against Dixie in order to &#147;Save the Union&#148;. When The London Government fought their WAR OF INVASION against the former English Colonies, they did so in order to &#147;Save the Empire&#148;. So Lying Lincoln fought for the same goal and to the same end as the London Government; to oppose LIBERTY, and to prevent SELF DETERMINATION! God bless Dixie! Deo Vindice!",1300,[]
440,"From The H.P. Lovecraft Archive: The Necronomicon or Al Azif of Abdul Alhazred One of Lovecraft&#146;s best-known creations, he refers to the Necronomicon or Al Azif in no less than 18 of his stories. The original Arabic title of this manuscript was Al Azif, being a reference to the nocturnal sound of insects believed to be the howling of demons. Alhazred lived in Damascus, where the Necronomicon was written. In 738 A.D., he was set upon by an invisible monster who devoured him publicily in broad daylight. The Al Azif was translated into Greek by Theodorus Philetas of Constantinople, who gave it the name Necronomicon. Olaus Wormius then made a Latin translation in 1228. In 1232, shortly after Wormius&#146; translation, Pope Gregory IX banned both the Greek and Latin versions of the volume. Wormius indicates that the original Arabic text was lost by this time. Dr. John Dee made a translation into English, but only fragments of that version remain. At present, a 15th century Latin translation exists in the British Museum, and 17th century editions exist at the Biblioth&#232;que Nationale in Paris, the Widener Library at Harvard, the University of Buenos Aires, and the Miskatonic University at Arkham. Understandably, all these copies remain under lock and key. The first appearance of the Necronomicon was in Lovecraft&#146;s &#147;The Hound&#148; (September 1922), although Abdul Alhazred, the book&#146;s author, was mentioned earlier in &#147;The Nameless City&#148; (January 1921). It was in this latter tale that the best-known quote from The Necronomicon first appeared: That is not dead which can eternal lie, And with strange aeons even death may die. One of the longest and more powerful quotes from the Necronomicon is from &#147;The Dunwich Horror&#148;:",440,[]
9255,"Liberal Race Traitors usually live in a White Flight Area. Why? The Liberal Race Traitors insist that blacks are just like everyone else. The rent in a White Flight Area is Expensive. The rent in a black ghetto is Cheap. Why are Liberal Race Traitors wasting good money to live in a White Flight Area when they could save a lot of cash living with the Niggros. Why waste all that cash? Why won&#146;t Liberal Race Traitors just shut their lying mouths and save some cash by living in the ghetto with them Niggros that are just like them?  (Just like a Liberal Race Traitor, you can&#146;t trust a Niggro either.)",9255,[]
4192,"Jews are lousy at war. Their Arab adversaries could not out fight the Girl Scout, but the Jews, with the tactical superiority supplied by trillions of American Tax Payer Dollars, could not defeat the childish Arabs. What we can learn from the Jews is that a third world primitive savage armed with the White Man's Technology is still a third world primitive savage!",4192,[]
10911,"Criminals are wearing body armor, especially Black Panthers and Mexican Gangbangers, supplied by Jewish Communists I would guess.  (The Jewish Mafia is in business with the Mexican and South American Drug Lords.) The info I have read is that typical American made body armor will stop a rifle round that is .30 cal or less if it is moving at 2,000 FPS or less. At close range a .223 is nearly 3,000 FPS, and a .308 is about 2,600 FPS. Also the rounds that are basically unstoppable by brick walls, such as a 45-70 will not be stopped by such body armor. It will stop a handgun round, unless it is steel core, but the new .460 and .500 might go through, they are big hunks of flying metal. And that little Soviet Pistol Round will go through a Kevlar helmet, so I guess it will penetrate a vest as well.",10911,['black_panthers']
4087,"The fact that a white man plainly speaking obvious facts which white nationalists have been telling white folks about for years, and Americans in general accepting these views, discredit totally all Cuckservatives!",4087,[]
6353,Countering the American Szamizdat,6353,[]
3884,"The Russian answer to the very effective American 30-06 round is the Russian 7.62 X 54R. There is something very ironic about the Russian round. It is used in a bolt action, which is of no use in CQC, and in a semi auto sniper rifle, which I had always assumed would work ok in CQC being a light weight semi auto rifle, but it turns out that the reason it is so light is because the receiver is too thin for rapid fire.  According to what I have read about that rifle recently is that rapid fire of 50 rounds is enough to warp the receiver. So the Russians built a shot range bolt action, and a long range semi auto for that caliber. There was also some of the semi auto type that were made full auto for use against strafing aircraft flying at 500 feet or less - still limited to less than 50 rounds of fire.  The Russian rule was that permission had to be requested of and granted by an Officer before a Russian Soldier was allowed to fire that type weapon in full auto.",3884,[]
8662,"Genocide is a well defined crime. The Legal Remedy for Genocide is well defined and well known: DEATH by hanging for Civilians; and that is DEATH! If the rope breaks or they only strangle a bit and revive, then they hang again and again, for any many times as DEATH requires. DEATH by firing squad for Military personnel; and that is DEATH! If the squad misses its mark, or even if they hit their mark, volleys will be fired until the result is DEATH. Why then is the Jewdicial System in America and Europe upholding the Crime of Genocide in Jewdicial Decision after Jewdicial Decision? What is the REASON that those CRIMINALS expect to be immune from prosecution of American and European LAW? Justice can be delayed, but no power upon this Earth can prevent Justice!",8662,[]
11233,"White Mummy found in Spirit Cave White Folks inhabited North America for thousands of years before the first non-white invader set foot here. I know for a fact that when a certain event happened, which was 10,800 years ago, not a singe non-white had ever been to our White Homeland in North America. Not all of the White Folks in North America were murdered by those blood thirsty savages, and not all of the survivors left North America. There are today White Folks in America who are actual Native North Americans, those invading Asian savages are not!",11233,[]
4371,"USA Freedom Act voted down by Senate Needed 60 votes, got 57. It would have stopped a small portion of NSA spying on Americans. USA Freedom Act fails as senators reject bill to scrap NSA bulk collection | US news | The Guardian",4371,[]
5134,Why does the Republican party hate Trump? Because Trump represents normal everyday Americans.,5134,[]
3849,Stock Market Headed for a Fall? Billionaires are dumping their stock in major American companies.,3849,[]
3814,Saudi Arabia building border fence Saudi Arabia is controlled by wealthy Jews in Israel. Jews in the USA claim that we should not have a border fence to defend the union. Jews in Israel built a border fence with US Tax Dollars. I suspect that Americans are paying for the Saudi fence as well. Where is our border fence? Why is the US border open? Why are there millions of invaders in the USA? The Great Wall Of Arabia&#8212;Saudis Build Mega Fence to Block Unfriendly ISIS Neighbors | VDARE.COM,3814,['great_wall_of_arabia&#8212;saudis_build_mega_fence']
4412,"Not a lot of progress in Europe in the last 3500 years. After we finally got the Indians to stop attacking us (that took over 200 years) Americans went from horses for transportation to men on the moon in less than 80 years.  My grandfather lived to see the entire transformation to a technological society within his lifetime. Europe can keep their backward ideologies, just don't bring them here.",4412,[]
3786,"The Jewish Media Mafia tells us that """"Hitler was a gun grabber"""". All of the gun grabbers in the Federal Government are led by Jewish Communists/Zionists/Neocons. Just what were the Nazi firearms laws really like, and how were they enforced? Here is an eyewitness account from a Jewish National Socialist living in the Third Reich: A Typically Astonishing Excerpt from 'Nazi Terror' (pp. 13-16)  The next anti-Jewish measure was the Arier paragraph, which eliminated non-Aryans from all government positions. Everybody with one quarter or more Jewish background was considered non-Aryan.  Exempt from this law were all Jews who had fought for Germany in the World War or had lost sons during that war or who already held government positions before that war. Certain exemptions for meritorious individuals could be granted.  All non-Aryans in government positions had to be retired (not fired!) with their pensions forthcoming. Businesses, large or small, were not affected; doctors could continue their practices but were not compensated for treating patients insured under the government-run health plan. Many, many - including high party officials - stayed with their Jewish family doctors who had treated them for a long time.  The number of university students of three-quarter or all-Jewish ancestry were limited to the percentage of their numbers in the populace. Still pretty good, when compared with the experience of deserving whites under Jewish-imposed affirmative action in America. Students with one-half or less Jewish ancestry were under no restrictions at all, and even had, at a later date, to join the nationalist student organization. They were not permitted to join the SA or SS. Joining a nationalist organization became, in effect, obligatory for all Aryan students.  The immediate effect on the private lives of most Jews was in the beginning only minimal. Some personal experiences will show this.  Since my early teens I had been an avid gun lover. In Austria, where we lived at the time, there were in effect no restrictions on the possession of handguns or rifles. If there were, they certainly were not enforced. At the age of fifteen, I could walk into one of the finest gunshops in Vienna and purchase any weapon in the store, as long as I had the necessary money.  Unfortunately I didn't, but after some time I had scraped together a sufficient amount to start my modest collection by acquiring three low-priced handguns. Shortly thereafter, in 1929, we moved to Berlin.  In Germany, under the Weimar Republic, one had to register each gun with the police. There were no restrictions on possession except if you wanted to carry them. In this case you had to have a hunting licence which required a lengthy course in gun handling, marksmanship, game laws and the handling of bagged game.  The police had absolutely no say or power to refuse you the ownership of your guns when you came to register. It was a purely bureaucratic measure which enabled the police to trace a gun involved in a criminal action.  My guns were registered in the name of my (Jewish) mother, who had contributed the money for their original purchase, because I was only fifteen years old and could not own firearms until I reached maturity (21 years).  After Hitler came to power, nothing was changed in the existing gun regulations; nobody had to turn in the registered guns - period. My mother still had them on the day of her immigration to the US (May 1941) and gave them to a friend of mine because importation of firearms was prohibited under US law.  The laxness with which the firearm laws were enforced was clearly demonstrated in the days after the Reichstag fire, when most people feared an imminent Communist uprising. Suddenly, untold numbers of veterans or members of patriotic organizations were seen walking around, proudly displaying their wartime military Mausers or Parabellums strapped to their sometimes paunchy bellies. After a while, after the communist threat had been eliminated, they were politely reminded that carrying of firearms in public was against the law and the guns were put back into drawers at home. The sale of ammunition was never restricted.  Suddenly a long-time dream of mine promised to come true: the ownership of a genuine Parabellum in good condition. One of my friends had heard of a deal whereby members of the many existing nationalist party organizations could purchase retired army pistols in lots of one hundred at a price of fifteen marks per gun. The price of a new Parabellum was one hundred and fifty marks in those days, which was about the monthly income of a lowly worker, if he had a job.  My search for prospective customers was frantic. By charging an extra mark for my services I had to sell only fifteen guns to earn sufficient money for the purchase of a gun for myself!  Alas, my plan was of short duration. Some envious or overzealous citizen felt obliged to inform the authorities of my dreamy deal. It was followed by the famous knock on the door, and on opening I faced three agents of the secret police (Gestapo). No hands in the pockets groping for hidden arms, no shouted orders or threats, only showing of identifications and the polite question if I had any firearms at home and if they could see them.  I asked them in, got my guns and asked my mother to show the registration receipts. The disappointment of the rather mild-mannered gentlemen at the measly display was obvious and they asked about the whereabouts of the one hundred Parabellums I was suspected of harbouring. My heart sank and I told them about my, now surely aborted, hoped-for big deal, which as yet had not been completed. They looked greatly relieved and the man in charge said that a perfunctory search of our premises was in order. No drawers were ripped out and emptied, nothing was displaced or damaged - only a short look under beds, into armoires and storage cabinets.  When they were ready to leave the man in charge spotted a letter on the table with a Jewish-sounding name of the sender and being obviously informed about my mother's racial background he very kindly admonished her that because of the new conditions prevalent to be especially careful and not to break any of the existing laws. With that they apologized for the inconvenience they had caused and left. My loaded guns remained on the table.  In order fully to appreciate this story you must remember that the Parabellum was at that time still the most powerful and sophisticated military handgun on the European market. Today's equivalent would be a fully automatic MP5 or Ingram. Just imagine somebody informing the """"democratic"""" American government that I was stocking one hundred of those, possibly intending to sell them to some shady characters harbouring racist or otherwise non-PC views.  Can't you just hear Janet Reno screaming and ordering her trigger-happy minions into action? The roar of armoured trucks loaded with SWAT teams in full battledress would be deafening and reinforced by the clatter of helicopter-gunships hovering overhead, in case any difficulties should develop. The headlines would shout: Gun Crazy Rightist Has Arsenal Endangering His Neighbourhood! Governor Might Call In National Guard!  Remember the recent actions of the American government in the case of a man who sold a shotgun, allegedly one quarter inch shorter than the law permits, to an undercover agent, which resulted in the deaths of a mother holding a baby in her arms, one unarmed child, the family dog and a marshal. (The Ruby Ridge tragedy - ed)  Or the one involving a religious nut who could have been arrested any day by a single cop while the former attended to his shopping in the local supermarket. Result: about eighty people, mostly women and children, incinerated alive. I think my imagined scenario above is an understatement.  My next run-in with the authorities of the Third Reich happened about three years later and was a little more ominous. I had just received the notification that my application for voluntary service in the newly-recruited army had been definitely denied and I was understandably very bitter because service in the armed forces was considered an honour and privilege, not an onerous duty. Instead of swallowing my badly injured pride I complained to everybody who would listen to me, ending my complaints with the caustic question: """"Why me, when even the top general of the Luftwaffe, Erhard Milch, had a Jewish father?"""" Well it didn't take very long for the knock at the door...  Comment  From JB Campbell  jb_campbell@yahoo.com  Jeff -  I'm so glad that someone sent you this excerpt from my friend's memoirs.  In 1994, I urged my dear friend, Heinz Weichardt of Pebble Beach, Calfiornia, to make his experiences in Germany and America available to everyone. Heinz was half-Jewish and had taught me the realities of that side of his heritage along with the truth of National Socialist Germany. He was trained as a scientist and became a manager at IBM's electron-optics division in this country. He was also a college professor in later years.  He did write his memoirs in the form of a letter to Louis Beam, a friend of mine and someone Heinz had always wanted to meet. Louis came out to see me in Carmel and we went over to Heinz' house. Louis agreed that he'd like to learn about Heinz' life, so Heinz wrote the memoir and I edited it, putting it in more understandable English than his German syntax allowed.  The memoir was entitled, """"Under Two Flags,"""" and was first printed by George Dietz' Liberty Bell Magazine in 1994. It comprised the whole magazine and became the most popular issue of all. It had to be reprinted, so great was the demand for it. Heinz died soon after the second printing, but he was very gratified at the reception of his life story. In his first version, he'd neglected to tell the story that you reprinted today and I said that Americans really needed to know the truth about German gun control. Everyone is surprised to learn that the Nazis did not disarm the people, as we are constantly told ad nauseum, but in fact relaxed several gun laws that had been in effect before they came to power. And that Jews owned guns, just as everyone else did.  In 2000 a man in England called me and said he wanted to publish Heinz's story over there. I helped him with it and it was finally published under the sarcastic title, """"Nazi Terror,"""" which is what your piece is called. I encourage everyone to get this 80-page book and learn the truth about the worst thing that ever happened to humanity - the Anglo-American Struggle to Save Communism (World War II).  Bruce Campbell",3786,"['world_war', 'world_war_ii']"
4734,"This issue, right here, right now, of obeying ILLEGAL ORDERS is the most important issue that faces American Citizens and the American Military! The men in the American Military are going to be given ILLEGAL ORDERS, that day is coming. The response of those Military Men will decide the fate of America.",4734,[]
3553,"As mentioned above, the AK-47 fits into the Russian swarming tactic, like ants swarming from an ant hill.  The AK is reliable, but short ranged, intended for poorly trained troops. American tactics resemble German tactics. In the battle to take Berlin, the Russians swarmed with who knows how many troops? The Germans defended with 10,000?  (That number might have been revised, as all numbers are revised in Historical review, except for Jewish HolyCo$t numbers.) The Russians swarmed and the Germans defended. Half to one third (unknown numbers captured) of the Germans survived that battle. About 300,000 Russians swarmed to their death. The Germans were only making a fighting retreat, to delay the Communists as their Women and Children escaped Communist rape, torture, and murder. I side with the long range tactics!",3553,[]
3722,"Some people might exaggerate and say that there is zero percent support for nazism in America. It is probably more like 0.000000000000000000000000000000001% support in America. Socialism is the opposite of the founding principle of America--  self reliance. No form of socialism will ever gain public support in America. Socialism is a European disease, don't spread the European disease in America! America will continue to be the free world, and Europeans will continue to cry that it is not fair that America is a prosperous nation while all the socialist nations of Europe suffer from their limited production and limited earnings. What do you pay 2 lazy socialists who are half way doing the job of one hard working American?  Not much.",3722,[]
11238,John de Nugent - Ancient Americans were White!,11238,[]
156,"Anyone who looks at the Reality of Communism, and ignores the Propaganda of Communism, will see that the Citizens of all Communist Nations are treated as Slaves. The Citizen/Slaves are exploited, and so is the Wealth of the Nation, for the benefit of a small Communist Elite. Just like every Jewish System, every Communist System, is a Mafia System;  the Citizen/Slaves sacrifice, and the Elite benefit. Ignore the Jewish Propaganda, and look at the Jewish Reality:  Communism and Zionism are one in the same! Israel has the greatest per capita wealth on Earth, the Israeli Government is subsidized by American and European Tax Payers, yet the majority of the Citizen/Slaves live in poverty. The continuation of the Slave State is a continuation of the Marxist belief that Slavery is a great benefit to the prosperity of the world, and that the wealth of the world belongs to the Communist Elite.",156,[]
12984,"The American Breed - Bend Me, Shape Me",12984,[]
485,There is only the American Freedom Party. Last election most states did not even allow AFP on the ballot.,485,[]
591,The Federal Government has become nothing more than a corruption of American Law. Federal Agents ignore American Law and American Morality. The very thing which was created to be our protector has become our worst enemy.,591,[]
12035,Ron Paul - Congress Robs American Taxpayers to Bribe Dictators Congress handed Egypt about 90 BILLION TAX DOLLARS and the Dictator has about 70 BILLION TAX DOLLARS in his personal account?,12035,[]
10392,"White Folks will not start a race war, but the Jewish Communists and La Razza intend to. The Jewish Communists armed the black panthers, but nothing ever became of that, no surprise, what has a black ever done? Now the Jewish Communists have turned to the Mexican and South American bandits to do what they fear to attempt themselves, murder all the White Children in America. The Mexicans have attacked America many times, and at least two attempted Jewish Communist Revolutions have been attempted right here in Texas within the last hundred years, by the Jewish Communists arming hateful evil Mexican bandits. It will happen again, soon. The Jews and the Mexicans both always over reach and fail.",10392,[]
1252,"The US economy is near the bottom, and now there is deflation?  Why? US dollars are worth more today?  I don't think so! Why would the Jewish International Bankers deflate US Dollars? What does deflation do? It puts a stop to exports and encourages Americans to buy cheap Chinese goods--  the final process in bringing down the American economy?",1252,[]
9681,"Our Founding Fathers had respect for the great thinkers and great politicians of the past--  Greeks, Romans, and other foreigners. But they dressed and acted as AMERICANS!",9681,[]
11776,"Gadhafi orders Air Strikes on Protesters? When American Pilots are ordered to carry out air strikes against American Citizens, will they follow those illegal orders to commit mass murder?",11776,[]
1338,"When Southern Patriots freed the American Colonies, and the Colonies formed into 13 Independent Nations, they formed a Confederacy, hence the original Articles of Confederation. Later that Confederacy was legally broken, and a new Union was formed. For our Confederacy to secede from that Union was perfectly legal, just as breaking the original Confederacy was perfectly legal. Our Southern Patriots who defended our Confederacy in the Second American Revolution were the very sons and grandsons of the Patriots who freed the American Colonies.",1338,['second_american_revolution']
2661,"It costs many billions of tax dollars to support criminal invaders, even the ones locked up in American prisons, so by deporting them the cost of the wall becomes a drop in a buck compared to what the illegals are costing us now. And that is only just the financial cost. Entire families have been murdered by illegals, the assaults, the vandalism, the theft, and the lives destroyed by illegal Mexican drugs--  that cost is far beyond the financial cost. Deport the illegals. Build the wall.",2661,[]
10647,"Does she have a red headed attractive sister who is single? She is right that National Socialism is the opposite of the American core values of Personal Property (all rights derive from property rights) Personal Liberty, and being Self Sufficient. Dixie has nothing in common with New England and succession is inevitable. Many Europeans oppose White Nationalism because they are Nationalists for their nation only, and not for White Folks in general, just like Hitler.",10647,[]
10652,While the Washington government was keeping Russia alive during WW II the Russian communists keep some of our boys as POW's even though we were allies with Russia. I have heard that some of them were never released while they were still alive.   The Russians also keep some USAF pilots as POW's during the cold war. Our ally China also took some Americans and held them as POW's during WW II. None of that was ever made public until around the year 2000.  That was back when I still watched TV and I saw it as a news item on TV. The federal government acts as if they don't want them to come back home.,10652,"['ww_ii', 'cold_war', 'ww_ii']"
10428,"Someone asked about this. In white nations a lot of the farmland that we have has a short growing season. Part of Africa has a year round growing season--  no winter. With more farmland and a better climate, backward primitive black African savages can not even feed themselves, but white men can grow so much under much worse conditions that we export rice to Asia and even export food to the communist utopias of China and North Korea. Plus we feed the starving savages in Africa and the rest of the third world. We are not all the same, they are not like us.",10428,[]
9880,"The black Africans are an unnatural species, and the lowest form of life on Earth. What would we lose is Africans ceased to exist? Nothing at all!",9880,[]
5951,Bob Whitaker on Archeology White Human Remains in America predate black Africans in Africa,5951,[]
10553,"100% of the black Africans were born into the wrong sex bodies, same with their Jewish cousins. Switch them to what they really are, and all our problems with Jews and their black cousins will be ended. Peace for the world!",10553,[]
10624,"Farrakhan and his black African followers can hate anything they want to hate, just as long as they don't sneak into a White Neighborhood causing trouble. Farrakhan wants a separate African homeland, let him have it, in his natural homeland of Central Africa. Deliver the Central Africans back to their homeland in Central Africa where they can stop living like children """"looking to the White Man"""" and grow up.",10624,[]
4716,"According to the anti-white Jewish Media Mafia and the anti-white Federal Government, no one represents White Folks. Any black African who shouts """"black power"""" is called a """"black leader"""" but no one is ever called a White Leader. If we will not defend our own White Children, then who will?",4716,[]
11254,"It has been called Black Friday for a long time, but now it is large groups of primitive violent black Africans chimping out, so they got the name right long before it became what it is today. I went shopping today, for groceries, got a nice apple pie on sale, never saw an African at all.",11254,['black_friday']
11269,"Before Egypt was a multicultural society, it was a White Nation. Back when it was a White Nation, it was one of the greatest, richest, most admired nations on Earth. The presence of black Africans did not take long to reduce that nation to ruins. The destruction of Egypt by unwanted immigration should be a lesson for all.",11269,[]
3834,A black African savage Picks A Victim At Random And Burns Them Alive http://www.nytimes.com/2011/12/18/ny...evator.html?hp,3834,[]
3307,"Jews are a lot like their black African cousins, yet they both hate each other.",3307,[]
3747,They should shoot the movie in Sweden so they could use black African Swedes for all of the roles; that would be a huge hit in Sweden. Just don't show the movie anywhere else!,3747,[]
11267,Jews eat their Easter bunnies the say way that their black African cousins eat their bunnies--  shop lifted!,11267,[]
10275,"The Federal Government encouraged the black African rape of all Europeans, whether male, female, or child. The Federal Military fully supported that program, and threated to shoot any White Man who interfered with that program of White Genocide. Besides the Jewish International Bankers, the Federal Government is the greatest proponent of White Genocide. Secession is the only solution!",10275,[]
4223,Hitler did not dismantle German Democracy! Germans lived under the tyranny of the evil Asiatic Jews; Hitler set the German People Free! Then the vile Jews declared War on Germany.,4223,[]
9845,"Why do persons with low IQ's get upset if they hear the word """"white""""? I'm white, the reason that I am is because both my parents were white, so were my grand parents, and so were my great grand parents,  and so were my great great grand parents...  Just deal with it!  I am not ashamed to be white.  Are you ashamed to be what ever it is that you are? This image was created by a loony Leftist because a girl voiced an opinion that he did not agree with, so he called her """"the new Hitler""""--  nice job loser! https://www.youtube.com/watch?v=C6kRgfBK2gQ",9845,[]
9753,"Many don't know what an Aryan is. Hitler and his followers also did not know what a Aryan is. The true meaning of that honor that was bestowed upon a small group of individuals which included my own Ancestors.  Some were what is now called Celtic, and some were what is now called Nordic.  It really only applies to that small group and their descendants, and being called Aryan is a great honor. The German People did finally quit the Middle East.  They remained behind after the huge White Flight took place, but they eventually migrated to Europe. The German People are descended from the group of people that are now called Celtic, but the German People can not truly be called Celtic; they have become their own unique people, separate from my Celtic People, and separate from the Nordic People.  The German People are a great people! There are many peoples, who when measured against the German People, come up short.",9753,[]
1164,"Germany, and especially Hitler, extended the hand of friendship to the Polish Government. The Polish Government choose to stab Germany in the back, even murdering some innocent German Civilians (yes, it really happened, the Polish Government finally admitted to their criminal act of mass murder and terrorism) in an attempt to provoke an attack from Germany, so that England would come to their aid (signed a treaty with the London Government) and exterminate the German People. The back stabbing Polish Government did provoke the attack they desired, but it came from both Germany and Russia. You may have noticed that the help from England never arrived in Poland. The back stabbing Polish Government provoked WW II and the deaths of 60,000,000 (sixty million) White Europeans.",1164,[]
9673,Now the Turkish Prime Minister has accused Israel of being worse than Hitler. Hitler and the Nazis are the world's gold standard for measuring evil. http://washington.cbslocal.com/2014/...r-did-to-them/,9673,[]
9648,"There is a nation where NS is gaining popular acceptance, Thailand. This capture is from an official government film which is shown to school children. Hitler is a super hero there. Hitler sells fried chicken there. No one throws bottles at them when they parade. Some of them are so Leftist they salute with their left hand? Thailand is the future of National Socialism, not America.",9648,[]
4245,"The very first person to know and understand that Hitler was the one man that prevented victory in North Africa (and Russia, and everywhere else) and that Hitler was killing not only Germany but Europe herself, would be the German mastermind Rommel. His sense of duty would compel him to join the assassination of Hitler, and without the backing of Rommel, such an attempt would have gained no traction in the German high command. No one on Earth wanted to kill Hitler more than the German high command did!  They were the ones who knew exactly what Hitler had done, and wanted nothing more than to preserve what was left of Germany and Europe. They hesitated too long before they finally moved to direct action; and even then, they failed to terminate Hitler or to save Germany. It was the German high command who understood the situation much better than any neo-Nazi alive today.",4245,[]
9548,Hitler in Argentina http://rense.gsradio.net:8080/rense/...per_022114.mp3 Hitler In Argentina,9548,[]
9232,"If the Jewish Media is telling you the truth, that Hitler was the worst racist in all of history, and hated all non-Germans, and wanted all non-Germans out of his Germany; then how does Hitler conquer the entire world that is filled mostly with non-Germans and also have a German Nation for Germans only? You can't do both.",9232,[]
10812,Violet leftist gets pepper sprayed for attacking a Trump supporter,10812,[]
11286,"Spaghetti &#150; Fancy Brown the meat with fancy flavored olive oil. Onion chopped. Fresh mushrooms. Lea &amp; Perrins Sauce. Balsamic vinegar. Salt. Fresh basil Fresh sage. Lime juice. Fresh cayenne pepper chopped. Paprika powder. Garlic chopped. Tomatoes chopped. Boiled Spaghetti noodles. Man, that came out tasting GREAT!",11286,[]
11283,"Hamburger Stew Bacon German sausage Onion Pickled garlic Cayenne peppers from the garden Red Bell pepper Carrots Broccoli - a lot, it was on sale! Mushrooms Sauerkraut Celery - diced small Dried beans from 10 bean soup Diced tomatoes - blended in a blender V8 Juice Vinegar:  Red, White, Malt, Apple Cider. Worcestershire Sauce Black pepper Cheese Pasta Pioneer brand ground corn meal Wheat germ No salt added, it did not need any. Can't recall any other ingredients. It came out really good!",11283,[]
8702,"Stew I know that we need to put away all the food that we possibly can this year, and next year. I got the idea that I should just cook up larger than normal pots of food and can some of that, rather than just canning ingredients from the garden. So I talked to someone who knows a lot more about canning than I do, and asked if she thought that canning up spaghetti, chili, and stew would work, or would there be a problem with that. She said, no problem, that works fine. So I canned up some spaghetti, then some chili, and I told her that it seemed to work for me as the cans have not lost their seal. She said, &#147;Really?  I didn&#146;t know that you could do that!  Did it work?&#148;  (after she had told me it would work just fine). I don&#146;t really know what I am doing, but it seems to be working, so far. I am not going to try and teach anyone my method until after I am certain that my method really does work. Today I am canning up stew.  I made a huge big pot, and I have 7 quarts in Mason jars canning right now. First I made the stew, then I added seasoning and ingredients until it tasted like stew. I started off with meat, tomatoes, onion, celery, carrots, potatoes, corn, butter, salt, black pepper, pickled peppers, and one fresh cayenne pepper.  It still needed something so I added a can of V8 juice, then two small cans of tomato juice, but it still did not taste like stew, so I finally added some asparagus, and it finally tasted like stew! This was another garden stew, as it mostly came from my garden, the corn came from a neighbors garden, local organic meat from a local butcher, the carrots were organic from a local farm, the celery, V8 juice, tomato juice, butter, salt, black pepper, and asparagus, from the grocery store. It tastes so good, I wish I had made a larger pot of stew! If you know how to can, you might want to try canning up some of your own home cooking too.",8702,[]
3881,"Guns don't murder innocent Mexicans, Mexican criminals do. P.S.  There aren't any innocent Mexicans!",3881,[]
10181,"What was passed down to me from my Ancestors is a description of how all this played out in the past, several different times, in several different lands. At each time in the past it always went the same way, so it is likely to do so again. If so, then they probably will not attack all of us at one time, it will be more likely that there will be """"trouble"""" in isolated areas, such as the 1960's Chicago Riots, followed by Florida riots, followed by LA riots, followed by Ohio riots, followed by N.O., LA riots.  The coming trouble might be just as far apart in distance, but not so distant in a time scale. Some areas of North America might be """"lost"""" as in not one single White Human left alive after the """"trouble"""". Any area where there are no White Folks there except Liberal Race Traitors who welcome the invader with open arms, and angry cowards who will not lift a finger or even utter a word of defiance, will most probably be a """"lost"""" area - NO WHITE SURVIVORS AT ALL. It will be a race to see who will attack us first, the blacks or the Mexicans, both groups of murderous criminals say it will be """"soon"""" whatever that means.",10181,[]
10174,"Lots of folks had the idea of going to the range today.  There were a lot of brand new firearms, and old firearms with brand new optics &#150; good optics! Seldom does anyone bring more than three firearms to the range at one time, for one thing, you have to clean them all, but today everyone brought three or more, and a few brought more than six.  Most everything was in a military caliber. I mentioned to the range owner that he was having a good day today, with so many folks here, and he said &#147;I am just glad yesterday is over, we were BUSY yesterday!&#148;  I guess they were, there was brass EVERYWHERE! Besides me not recognizing them, it was obvious that several of the folks had never been to this particular range before.  And some regulars had brought family and neighbors today, especially White Children, I have never seen so many kids shooting firearms at one time at any range, but right now everyone needs to be prepared! There was a guy really tearing up some silhouettes at the pistol range with a .45 and we got to talking.  He said his neighborhood was a great place to live 17 years ago when he bought his place, but it was all White back then, now it has really gone down, because it is not all White any more.  There has been lots of thieving and vandalism, and he is preparing for worse.  Section 8 has moved a lot of absolute ghetto thugs into his neighborhood, and mine too.  I told him I moved up here from Houston because Houston had really become over run, but it was a wonderful place when I was growing up there.  He said &#147;Tell me about it, I grew up in Houston too!&#148; I told him I was expecting some drive by shootings out my way, so he asked me were I live, and when I told him he said &#147;Yea, I expect some drive bys out your way too!&#148; Everyone up there was talking about Niggros, Mexicans, and Communists, and no one was talking about surrendering! The Communist Jews of the Media Mafia paint a false picture of Reality, but Texans see the actual Reality, and the Jews behind the Deception.  Everyone in Texas already knows from personal experience, you can never trust a Jew! The kind of folks that were down at the range today were exactly the type of folks who care about Family, Friends, and Texas! Remember the Alamo!",10174,[]
10302,"In the Harrisburg area of Houston, Texas, (Harrisburg used to be a separate city and was the capital of our Republic of Texas) there are classes, for Mexicans only, and the classes are paid for by us hard working white folks through our tax dollars, to educate the Mexicans on how to work the system for maximum benefit and minimum effort. The invading Mexicans forced all of the white folks out of the Harrisburg area. Houston used to be the largest white city in North America, but now invading Mexicans are driving white folks out of a lot of Houston. I want to be there when we take it back!",10302,[]
9897,You have to find a bar that plays music that Africans and Mexicans hate.,9897,[]
697,How is hiring all those invading Mexican primitives to process meat in Texas working out for you?,697,[]
7898,"Alcoholics for Newt Gingrich? The War on Drugs does not force me to not use drugs! I could choose to use illegal drugs, just like members of Congress&#65279; and millions of Mexican citizens in America do. Take away the drug profits from the Mexican Mafia and they might decide to go back home.",7898,['war_on_drugs']
10328,"I knew a Leftist high school teacher in Texas. She witnessed one of her Mexican students murder another of her students in a crowded hall way between classes. She still maintains that except for killing that other kid, he was a real good kid. She did not know if he was going to just kill that one kid, or start killing everybody, including her. So she just stood there and waited to see what happened next.",10328,[]
8475,The Mexican Federal Government&#146;s Favorite Drug Gang,8475,[]
4182,"Any Niggro, Jew, Liberal Race Traitor, or Mexican, who saw that would be on the side of the criminal, because that is what they are. They are not like us!",4182,[]
11859,Mexican Teachers At least they are in Mexico.,11859,[]
4385,"This is nothing new. According to the old history of our people, this has gone on for thousands of years. Back before the Northern Nordics had settled up there, they first attempted to settle among the Southern Nordics; and the Southern Nordics rose up to drive them out by force. It is a shame what has become of the Southern Nordics today, over run by Muslims. If the Northern Nordics do mange to destroy themselves and go extinct, it should not be looked upon as a great tragedy, it should be instead seen as a great teaching, an example held out to our children. North Dakota is settled by Scandinavians, and they think nothing at all of race mixing.  Their young blond girls are mating with Africans, Indians, Asians, Mexicans, and anything else.  None of the Scandinavians here sees anything wrong with that.  They love their little brown grandchildren.  The sooner they go extinct, the better!",4385,[]
4325,"How many times has a black that was elected to serve been removed because they represented the backs, how about the same in regard to Jews, and to Mexicans? Why are only White Men singled out? How is that Legal? It can't be Legal!!!!!",4325,[]
10821,"The reason Mexico is a third world hell hole There is nothing wrong with the air, the land, or the sea.  Mexico is rich in natural resources and has more than the USA, it has more high grade farmland than the USA, and a much better growing season than the USA. The only reason that Mexico is a failed state is because it is infested with Mexicans. California was the richest state in the federal union, but now it is the poorest, heavily in debt and bankrupt, due simply to the Mexican invasion.  No land that is infested with Mexicans can prosper. If all us white folks left the USA and went to Mexico while all the Mexicans went to the USA, then the new white nation of Mexico would become the richest most powerful nation on Earth. You can't fix what is wrong with the Mexicans, all you can do is leave them alone and let them be Mexican.",10821,[]
2168,"Any good decent person is opposed to abortion. What remains then is """"who is getting all those abortions?"""" Not good decent individuals! Loony Leftists, Africans, Mexicans (not nearly enough) Jews (I hope) and other degenerates. The acorn never falls far from the tree, and we might be much better off without that Hell spawn walking this world. All good people, raise you children with love and teach them respect, for the un-aborted children will inherit the Earth.",2168,[]
3803,"It's getting difficult to celebrate any White Heritage event, because the non-whites want to take a piece of anything we have, including our heritage. Everyone wants to be Irish on St Patrick's Day, but no one wants to be black on martin luther king day, and cinco de mayo is just a day that Mexicans get drunk and stab each other (I almost feel like celebrating that).",3803,[]
9399,"Questions on Racism  We have all heard the charge of &#147;Racist&#148; flung like a lump of wet sticky mud at some poor White soul. But never the charge of &#147;Racist&#148; against a non-White -  Why is that? Can you name one single well know black who has been labeled by the Bolshevik/Zionist/Neocon Media Mafia, as a racist? A single Mexican racist? Can you name for me one single Jewish racist? Is it even possible for a Jew to be a racist? If a Jew attempts to take any action that will preserve its own kind, then is that Jew a racist? If that Jew takes any such action that would tend to preserve its own kind, then is that Jew evil? If a Jew openly proclaims a love of its own kind, does that prove that the Jew is evil? Should Jews be prevented from congregating together? Should any and all suspected Jewish enclaves be under constant illegal investigation by FBI and ATF agents? Should Jews be discriminated against by employers? Should limits be determined by Federal Judges and enforced by the Federal Judicial System, as to what percentage of Jews should be allowed to be employed by an employer? Should Jewish children be bussed into black neighborhoods to achieve some Bolshevik/Zionist/Neocon goal? Should Jewish soil be flooded with third world primitives? Should the Jewish population be reduced to a tiny minority in their own homeland? Should third world primitives benefit as a protected species to the detriment of native born Jews? Should Jews be heavily taxed to subsidize overpopulation in the third world? Should every German devote an hour a day to spend on focused hatred of the Jews? Are the Jews a cancer on this world that should be cut out? Is it wrong to protect an endangered species? White Humans are an endangered species, should we be protected? If a declining area of wetlands has been recognized as a danger for the survival of water fowl, and in response to that wetlands have come under protection, then should the declining area of our White Homelands also come under protection? White Humans are the builders of civilizations and nations, the inventors, the explorers, the artists, and the teachers of this world;  if the current genocide directed against White Human Children is allowed to persist and White Human Kind does indeed go extent, what then is the benefit to the world?",9399,[]
4188,"Yea, them AK's are gonna be cheap and plentiful, just pick as many up off the ground as you like. A lot of them Mexicans are only gonna have one single magazine and no extra ammo though, but that is fine with me.   If the Mexicans were honest, law abiding, and peaceful, then we would not have this problem, but then I guess they just would not be Mexicans! Mexicans belong in Mexico! Repel the invader!",4188,[]
3288,Segregation is natural and normal. The girls set together at lunch. Jews live in Jewish neighborhoods and send their children to Jewish schools. Mexicans drive non-Mexicans away from their neighborhoods. Why do you accept segregation for everyone except White Folks?,3288,[]
10298,"If that Mexican is really going home, then that is the first thing it has ever said that I agreed with.",10298,[]
4658,"Mexican bicycle drive by hit The young Mexicans in Houston, Texas, do exactly the same thing. Just Mexican behavior, they start shooting and stabbing at a young age.",4658,[]
9240,"This news item has been in the local papers every day, up until it was revealed that it was a typical black crime, then it no longer remained news worthy.  The local papers never reported that she is black, they just dropped the story. If it had been a white woman then it would remain a hot news item for years to come, probably centuries. Jewish crime, black crime, Mexican crime, and other non-white crimes are not news worthy in the Jewish mass media. Any sort of white crime is extremely news worthy, even when the criminal is not actually white but only light skinned, which is what most """"white"""" crime is.",9240,[]
4684,"Detroit Gang Squad  If the Africans were in Africa,  then America would not need gang squads,  and billions of dollars worth of prisons.   Same with the Mexicans.",4684,[]
11589,News Flash - The Media Mafia News Outlets don't Report any News!,11589,[]
13155,"Paul Joseph Watson &#8211; Obama Zombies are Violent Hateful Goons! part 1 Why does the Media Mafia report just the opposite? Obama's good """"friend"""" fellow homosexual Bill Ayers was the Commie in Charge of the Weather Underground, and planned a VIOLENT BLOODY COMMUNIST REVOLUTION and estimated that TWENTY FIVE MILLION AMERICAN CITIZENS, INCLUDING CHILDREN, WOULD BE MURDERED IN REEDUCATION CAMPS FOR THE GOOD OF COMMUNISM. Why is that ok with the Jewish Communist Media Mafia?",13155,[]
1278,"The Jewish Media Mafia constantly demands that we never forget that Jews and Gypsies (what is the real difference) were rounded up for extermination, and that is why the German prison work camps were filled mostly with ethnic German Citizen criminals. Never forget the six million survivors of the HolyCo$t.",1278,[]
9387,"GENERATION Z I have heard that there is no point, we are doomed, there is nothing we can do.  That the last generation of White Humans has already been born. In their typical over-reaching fashion, the Jews of the Media Mafia have named these last three Generations of White Children Generation X, Y, and Z-  the End! There is only one thing that I can tell you for certain, and that is, if we do not Fight, we will not Win! Our Ancestors Fought and Won, that is why we are here today!",9387,[]
4436,"If an applicant for the position of """"Reporter"""" knew anything about anything at all, the Media Mafia would never hire them! Knowledge only gets in the way of their Jewish Communist Propaganda Machines!",4436,[]
3773,"Stormfront is the real news, the Jewish Media Mafia is fake.",3773,[]
8730,"So now they call them &#147;flash&#148;? The Media Mafia used to call them &#147;urban&#148; then &#147;yuths&#148;, now they are &#147;flash&#148;?",8730,[]
8801,"Dick Cheney Exposed! Only someone in the Media Mafia could be stupid enough to utter that sentence! How has America benefited from the loss of life, loss of jobs, and bankruptcy? Only the Oligarchs have benefitted!",8801,[]
2794,How do blacks deal with black criminals? Haitians Caught Stealing The Media Mafia would have us believe that crowds of Haitians are Lynching Looters. Haiti is a Land of Looters. Are Looters going to Lynch other Looters? Of course not! These photos are of Thieves who got caught stealing from their fellow Looters!,2794,[]
5730,"New Sink Hole in Siberia The sink hole is about 260 feet in diameter. The Russians are calling this a """"mysterious hole"""". All types of geologic activity are in overdrive. The Jewish Media Mafia and the Federal Government claim that this is not happening. A geologist I heard on the radio said that Oklahoma now has just as much earthquake activity as California. Volcanoes are erupting all over the globe. This heightened geologic activity will continue for years to come, and we have not reached the halfway point yet. Mysterious giant hole suddenly appears in Siberia",5730,[]
9003,"Folks don&#146;t state the obvious, and it is obvious why we don&#146;t state the obvious, but sometimes it is necessary to state the obvious: Many individuals believe that the evil Tyrannical lawless out of control Washington Government is all powerful, because it is backed up by the most powerful military on Earth. That military is composed of people, Citizens of the USA. When enough of those Armed Citizens realize that the real threat to our Republic is the Washington Government, where is their back up then? There is a tipping point, and it is near.",9003,[]
120,"There is no comparison. White Supremacists don't exist, but the Jewish Supremacists who run the NAACP are real.",120,[]
6387,"THE MIRROR CAT I was asked recently to 'draw the thing I was most afraid of when I was young'. Artists get all kinds of requests, you see, and this one was no different. This request, however, was harder than I thought it would be to fulfill, as it seems I wasn't afraid of many monsters as a child. There were movies that had me nervous about things grabbing my feet at night, to be sure, but those phases passed quickly for me. I knew they were not real. Rather, I was afraid of particular situations. I was afraid of rooms filling with water. Of being lost at sea. Of wandering with no way home. This particular situation began with a scruffy stray Siamese cat named Mr. Tee, whom we adopted. So named by my brother and I when we were around eight years old. He was a free-spirited cat who came and went as he pleased. Every adventure we had hunting tree frogs in the yard was supervised by Tee, who was never too far from us with his watchful blue-eyed gaze. One day Tee died of feline leukemia. It shattered our small world of ballet recitals and baseball practice. We were heart-broken. Afterwards, I used to see him in the mirrors. Just a glimpse in the reflection of the surface of my mirrored sliding closet door. I used to feel his warm body sleeping by my legs, as he always had. I would see him padding alongside me in the bathroom mirrors. In life, if I didn't let him in the bathroom with me when I went, he would stick his paws beneath the door to remind me he was there. I grew up and moved on with my life. Years later, I lost another beloved Siamese cat, but this time, I did not feel she lingered. When asked why I didn't feel that way by my brother, I told him it was because I felt Tee never left us back then. Much to my surprise, my brother told me he never felt that Tee left us either. I had never spoken to anyone about Tee in the mirrors, not even him. In life, my brother would call Tee and Tee would always come. Even after he died, he would call Tee, and he still felt like he came, even if he couldn't see him. Even still, I could dismiss this as an overactive imagination, a child's way of dealing with grief. Only a small few years after Tee's death, I saw another cat, just a glimpse of a gray tabby padding quickly between the bed and the dresser in the mirror of my aunt's bedroom. I had been staring off into it while she was getting ready for a date. I asked her if she ever had a tabby and she paused, finding it an odd question. She did, in fact, have a very sweet gray tabby whom I had never met, for he had been killed by the neighbor's dogs before I could ever make his acquaintance. Seeing my own cat was one thing, but seeing someone else's was entirely another. I don't see things in mirrors anymore, for those who might be wondering. A good thing, too, because my bathroom walls are covered with mirrors and I should very much like to do my business there without concerning myself with who might be gazing through the other side. It only crossed my mind as an adult that if Tee was in the mirrors, what else could be? At the time, I did not worry about this overmuch, however. He was always there, always guarding us. My fears, I realize, are of what I can't see, what I cannot prove is real. It is the creeping shadows and the hidden things that threaten me with the promise of suddenly becoming real, should I become too complacent with the rightness of the world. As for the cats? It is in their nature to show up where we least expect them and where they please. I have long since learned not to question that.",6387,[]
12543,The REAL Walt Disney - The Night Before Christmas (1933),12543,[]
1260,"The pedophile rings are real, and the evidence is very suppressed. Here is a child who was forced into one.",1260,[]
11277,"Pork chops (on sale for half price) smoked with pecan wood on the backyard grill. Baked sweet potatoes with real better. Man, that was good!",11277,[]
10394,"Police in California cover up terrorist attack and release arrested terrorists New photos taken by witnesses are now available. The official police statement is that this event never took place. While you look at these photos does it look as if it took place? In super anti-gun California, a group of Islamic terrorists armed with full auto AK assault rifles (real assault rifles, they ones that the government is so afraid for lawful citizens to own) are arrested and then released with no charges and no mention of the event in the official police logs. Shots were fired for about 2 hours.  No shooting victims?  They must shoot like sand Africans, or are the shooting victims covered up too? If you can't trusts the police, the government, and the mass media, then who can you trust? Trust us, and join us. Donate a little money to Stormfront if you can, even if you can't, we are still glad to have you here with us! https://www.superstation95.com/index.php/world/1086",10394,[]
9519,"I guess I did not notice that the Federal Beast had already reinstated slavery. It is admitted that over 17,000 are brought into the US every year. If the Federal Beast will admit to that, I wonder what the real number is? http://www.cnn.com/2008/CRIME/05/20/....ap/index.html",9519,[]
8726,"The Federal Reserve just created 2 trillion dollars out of thin air, and gave those 2 trillion dollars to other Oligarch Banks at ZERO INTEREST. Those Oligarch Banks will then use the 2 trillion dollars (that does not really exist, since it came from nowhere) as collateral to loan out 18 trillion dollars. The Oligarchs will demand payment with real money earned by real workers performing real work, of 18 trillion dollars plus interest. At some point the Oligarchs might repay that 2 trillion dollar loan, or it might just be forgiven, who can say? I say pay the Oligarchs what you really own them!",8726,[]
10516,Maybe he should try using his real name and real place of birth?,10516,[]
10489,"People believe in """"ice ages"""" but are in a panic that the global temperature might fluctuate by a few degrees. Right now, this is an Ice Age if you believe in such a thing. The sun is in the lowest output that it ever drops to (sun spots are nearly shut down) and it will remain at this output for several more years. The Jewish banking families and their useful idiots chose this time to promote their global warming scam, which highlights their real intelligence.   Ice ages don't happen.  What happens is that the poles move. The last location for the north pole was in England before it moved to its current location. Modern science says that Europe was in an """"ice age"""".  Europe was at the north pole. The famous lost island of the Nordic people, which was the highest habitable island, right next to the north pole, is under water now just off the coast of Wales, and was only habitable for the time between when the pole moved, until enough ice melted to uncover the island, and then to flood the island.",10489,[]
10707,"Here is an example of the same sort of thing, a long barrel semi-auto pistol, direct from the Beretta Factory.  And it looks real cool too!",10707,[]
2535,"There were Africans in the Federal Military, but the Indians did not fear the Africans as much as the real soldiers. They did not call the Africans soldiers, the called them buffalo soldiers, because they smelled as bad as buffalo, and have that nappy hair like a buffalo. The Indians considered the Africans to be easy to kill, not like the real soldiers. http://upload.wikimedia.org/wikipedi...o_soldiers.jpg",2535,[]
4673,"African dressed up like a Loomis Armored employee Said he was here for the pick up and a Walmart employee handed over seventy five thousand dollars. The African went outside and drove away. The real Loomis Armored employees showed up about a half hour later. Man Disguised as Armored Truck Driver Steals $75,000 from Oklahoma Walmart / Sputnik International",4673,[]
9355,"Nothing is as good as actually shooting real ammo for familiarity with your firearms operation, recoil, aiming, allowing for wind, and knowing what you absolutely need to have with you for an outing. But if you really can not afford to go to the range and shoot up your expensive ammo, there is an alternative. Dry fire your firearm. There are Snap Caps that you can use to protect your firing pin from damage, or you can just buy an extra firing pin as a back up (and I really think that everyone should buy two back up firing pins for every firearm if they think that the firearm is worth having). Dry firing is actually a good drill, and some of the top shooters say that is how they mastered shooting well.  Plus when you learn to dry fire your firearm, you are learning all the mechanics of shooting without any flinch from anticipating recoil, which is what you need to learn anyway.",9355,[]
10646,"If I could not have a firearm, I would get real proficient with a bow and arrow, and a cross bow.",10646,[]
11795,Ravenous - Questions of Existence,11795,[]
0,"Dr. David Duke, PhD. asks an important a question in this video.",0,[]
10314,"Anyone who believes the myth of the HolyCo$t, answer this question: If those were """"death camps"""" as the Jews claim them to be, then just why would SS officers in charge of those camps release thousands of Jewish prisoners? The SS was charged with keeping those prisoners alive in those camps until each one could demonstrate that it had been reformed.  SS officers released Jews when they believed them to be ready to return to society. Why would you release a prisoner from a death camp? Ran out of gas for executions?  Ran out of bullets?  Couldn't find a sharp knife?  Ran out of rope? Explain that, I dare you.",10314,[]
10701,"When a Police Officer asks you a question, the only correct answer is almost always """"No"""".",10701,[]
9711,"I try to encourage freedom of thought. Asking questions works well. What do you think?  Why do you think that? Did you know that...? What do you think we should do about that? The Zionist/Bolshevik/Neocon media attempts to suppress free speech and freedom of thought, so I work to promote freedom of speech and freedom of thought at every opportunity. The Old Man of the Mountain",9711,[]
9776,"I agree that in the past hunters and folks flying to shooting sports events have flown with their ammo, this has certainly happened thousands of times. I was wondering if that had changed, have not heard that it changed. I don't think that you can bring a firearm and ammo into the airport, I have heard that this has changed, and that firearms have to be checked at the outside baggage check.  That is the procedure here at Texas airports, and I would expect it to be the same all across America, but can't actually say that it is. The rule used to be that all luggage and containers had to be unlocked for easy inspection, did that change? The airline information line should be able to answer your questions. P.S.  The airline might require the firearm and the ammo to be in separate containers.",9776,[]
8544,The Money Masters part 9 How do Bankers become WEALTHY? By TAKING wealth from others!,8544,[]
10910,"Since the locals are using AK's (for the most part) and they can't hit a thing at 300 yards (for the most part) and our boys (the White Ones) can hit a local out to 500 yards with an M4, no, they really are not out gunned by the locals. But, I prefer the .308 round myself. And, we should not even be there! Bring our boys home and DEFEND AMERICA FOR A CHANGE!!!!!",10910,[]
3663,"I still have the same favorite pistol, the S&amp;W M&amp;P .40 caliber. It finally dawned on me why folks shoot so well with that pistol, and it is most likely due to the grip, which helps to eliminate pulling the pistol off target as the trigger is pulled (you can still pull it a bit off target if you are not careful, but the grip design does help). Simple to field strip, not picky about ammo (it feeds everything I have tried including hot and cold running reloads) dependable, accurate, has good three dot sights, three interchangeable back straps are included, two mags are included, the stock mag holds fifteen rounds, the after market mag extension gives you five more rounds (twenty rounds) it is light to carry, and a little bit cheaper than the comparable guns by the competition.  Replacement parts and mags are also available on the Internet. Don't leave home without it!",3663,[]
10746,"Colt charges extra, and claims that the reason is because they are the only rifle manufacturer that uses true Mil Spec parts. Using the big pin receivers as an example of the Colt claim: The big pin receivers are not Mil Spec. The semi auto fire control group is not Mil Spec. The barrel is probably chambered for semi auto use, if so that is not Mil Spec either. All that leaves is the Mil Spec stock, which I think that they do not manufacture, the Mil Spec buffer spring, which I think that they do not manufacture, and the Mil Spec buffer, which I think that they do not manufacture. If Colt is charging more because they are manufacturing true Mil Spec parts, but the parts on the civilian market rifles are not assembled with true Mil Spec Colt parts, then they are just charging more without delivering more.",10746,[]
1511,"77 Million US Dollars Known Counterfeited by 4 Israelis 4 Israeli Jews were arrested in America for their part in counterfeiting one hundred denomination dollar bills, at least 77 million dollars worth were produced. Were the printing plates supplied by Jews in the Federal Reserve? A Jew I worked with in Texas told me that more US Dollar bills were printed in Israel than in America, and I guess it is a well known fact among Jews. U.S. Charges 13 With Spreading $77 Million in Fake Bills - Bloomberg",1511,[]
9260,"I bought a carbine upper in .223 from them (and some other stuff) no complaints. I used to talk to their employees who do the sales at the gun shows, and they seemed just fine to me (have not seen them in about a year). They always show up with the largest selection of AR-15 uppers and other parts of anyone at the gun shows, and at a good price.",9260,[]
9426,"I heard something today that caused me to get my """"Eire"""" up. If any one ever says to you """"My country right or wrong, my country"""". Don't even hesitate to tell them to sit down and shut up. I tell you now, this is MY NATION.  And if I see that MY NATION has left the path that our Patriot Forefathers set it upon, I not only have a RIGHT to say so, I have a DUTY to say so. The BLOOD of patriots birthed this nation, and while I draw breath, no one will desecrate their sacrifice. This is MY NATION, my forefathers bequeathed it to ME.  You will not, nor will any traitorous scum, part me from MY NATION, not even if that traitorous scum happens to reside in Washington D.C.  (the Devil's Circle)  This is MY NATION, and no proclamation, no writ, no traitorous act in a rum soaked smoke filled room will change that. If there is any one any where who truly believes """"My country right or wrong"""" then get in the back of the bus, sit down and keep silent, I'll take the wheel and I'll drive, and don't even think about complaining about where we end up;  you lost the right to complain when you lost the backbone required to speak up, so set down and shut up, or else you will find out why. This is MY NATION, my Patriot Forefathers said so, and so do I. P.S.  I know that """"Eire"""" means peace, as in Eire Land means """"Land of Peace"""", but if you say something to me such as """"My country right or wrong"""" then a strong desire wells up in me to make you """"peaceful"""". The Old Man of the Mountain",9426,[]
629,"The History Channel had an odd program on about cults.  I was not watching it on purpose, but there was a Talmud-a-Vision on nearby, and I saw this portion of the program when they were talking about black gang bangers, and that usually gets funny. For a while black gang bangers were wearing bullet resistant vests, which they mostly stole from cops, such as when they gang raped one.  But since the vests are not 100% reliable anyway, and it is too hot to wear one most of the time, and they are not machine washable (so they either get destroyed in a ghetto laundry mat, or smell like a Niggro that has never ever bathed-  don&#146;t make me even think about that) they have returned to their traditional method of defeating bullets-  Voodoo! Instead of wearing a three hundred dollar vest, they are now wearing an authentic three thousand dollar Voodoo charm. One ghetto Niggro was fired upon while inside a car.  Nine bullets actually struck the car, glass and metal Shrapnel was probably flying everywhere, but the Niggro received only one single scratch on his shoulder.  The Niggro, being a typical Voodoo expert was able to show the other Niggros that the scratch was where a bullet had passed right through him without doing any more harm, due to the Voodoo charm. I will agree with him up to a point.  If that criminal Niggro was gang banging on my property and refused to surrender when I gave him that opportunity, and I fired a 180 grain jacketed hollow point directly at him, then there is a good chance that the bullet might pass right through his body, at the very least part way through. The magic of selling authentic Voodoo charms to ghetto gang bangers for thousands of dollars is that if the wearer of the charm comes to harm, it is not your fault, because you sold him an authentic Voodoo charm.  The fault was not yours.  The fault was his-  he lacked the proper faith in Voodoo.",629,[]
428,Thanks. The sad part is that they have a gun listed on there selling for a lot less than I paid for the same exact model.  Guess I should have bought it from them!,428,[]
10057,"I wish Ron Paul was running for President of our Republic of Texas, but he is not. I was hoping that Larry Kilgore, or someone better, would step up and actually run a campaign, but no such luck. If White Folks don't vote, they we turn control of our Homeland over to Jews and their black and brown cousins. There are three candidates, and you need to pick one. https://www.stormfront.org/forum/show...postcount=5582 Debra Medina - Rockwall, Texas 2-19-2010 part 9 of 9",10057,[]
