,topic_lda,bag_words,sa_score,events,rank
26,3.0,"['ar-10', 'rifle', 'today']",1,[],0.0110739478841424
2,3.0,"['hitler', 'solder', 'topic', 'document', 'book', 'texan', 'news', 'dallas', 'area', 'living']",1,[],0.00759925926104188
