,topic_lda,bag_words,sa_score,events
3,3.0,"['homosexual', 'anti-gun', 'mayor', 'jail', 'gun', 'crime']",-1,[]
46,3.0,"['think', 'today', 'irony', 'soviet_empire', 'weapon', 'tactic', 'spray']",-1,[]
56,3.0,"['rip', 'hair', 'african', 'teach', 'lesson', 'beat', 'stab', 'shoot', 'drinking', 'draino', 'set', 'rape']",-1,[]
66,3.0,"['homosexual', 'kidnapper', 'rapist', 'murderer', 'count', 'child', 'porn']",-1,[]
145,3.0,"['fashion', 'bisexual', 'freak', 'bun', 'stake', 'term', 'fagot', 'usage', 'wood', 'start', 'fire', 'lit', 'cigarette', 'fag']",-1,[]
147,3.0,"['state', 'washington_government', 'stop', 'hate', 'separate']",-1,[]
162,3.0,"['hanzel_und', 'gretyl', 'overture', 'hanzel_und', 'gretyl', 's', 'deathstar', 'supergalactic', 'large', 'star_wars', 'clone', 'trooper', 'future', 'storm', 'trooper', 'large', 'deathstar', 'trooper', 'large', 'deathstar', 'trooper', 'memorial', 'armemorial.jpg']",-1,[]
208,3.0,"['leftist', 'attack', 'hate_crime', 'add', 'prison', 'sentence']",-1,[]
220,3.0,"['coverup', 'vince', 'foster', 'murder']",-1,[]
221,3.0,"['obama', 'mass_murderer', 'marxist', 'hillary', 'serial_killer']",-1,[]
225,3.0,"['law_enforcement', 'governor', 'motive', 'unknown', 'isi', 'kill']",-1,[]
249,3.0,"['obama', 'alien', 'save', 'rope', 'produce', 'document', 'alien']",-1,[]
252,3.0,"['finger', 'death', 'punch', 'jekyll', 'hyde']",-1,[]
262,3.0,"['ben_franklin', 'church', 'sunday', 'band', 'wild', 'indian', 'attack', 'church', 'folk', 'franklin', 'preacher', 'men', 'congregation', 'show', 'wrong', 'fire', 'round', 'attack', 'indian', 'life', 'dead', 'european', 'america', 'death', 'indian', 'attack', 'today', 'situation', 'wild', 'savage', 'african', 'mestizo', 'blood_thirsty', 'indian', 'indian', 'reservation', 'threat', 'push', 'fight']",-1,[]
275,3.0,"['fbi', 'terrorist', 'domestic', 'threat', 'report']",-1,[]
306,3.0,"['official', 'china', 'agency', 'propaganda', 'agency', 'communist_china', 'missile', 'base', 'moon', 'turn', 'moon', 'communist_china', 'death', 'star', 'hit', 'earth', 'missile', 'strike']",-1,[]
311,3.0,"['white_woman', 'murder', 'twin', 'twin', 'child', 'joseph', 'tillman', 'cop', 'catch', 'interest', 'apartment', 'bloodbath', 'tulsa', 'police', 'id', 'woman', 'kill', 'monday', 'newson6.com', 'tulsa', 'news', 'weather', 'video', 'sport', 'kotv.com', 'african', 'murder', 'african', 'apartment', 'witness', 'murder', 'contact', 'police', 'witness', 'set', 'murder', 'tulsa', 'police', 'arrest', 'suspect', 'quadruple', 'shoot', 'fox23', 'news', 'joseph', 'tillman', 'cop', 'catch', 'interest', 'apartment', 'bloodbath']",-1,[]
316,3.0,"['race_mixing', 'slut', 'burn', 'boyfriend']",-1,[]
323,3.0,"['african', 'boyfriend', 'race_mixing', 'whore', 'murder', 'daughter', 'kidnapping', 'murder', 'charge', 'gangbanger', 'murder', 'kansa']",-1,[]
326,3.0,"['race_mixing', 'slut', 'eye', 'bleeding']",-1,[]
327,3.0,"['race_mixing', 'whore', 'charge', 'son', 'death_penalty']",-1,[]
330,3.0,"['race_mixer', 'african', 'boyfriend']",-1,[]
331,3.0,"['race_mixer', 'african', 'boyfriend']",-1,[]
332,3.0,"['race_mixer', 'mom', 'african', 'boyfriend', 'orphan', 'child', 'roommate', 'child', 'orphan', 'african', 'kill', 'roommate', 'young', 'mother', 'murder', 'mother', 'safe', 'race_mixer', 'family', 'raise', 'money', 'toddler', 'mother', 'murder', 'victim', 'kltv.com-tyler', 'longview', 'jacksonville', 'texas', 'etx', 'news', 'nclick_check=1']",-1,[]
335,3.0,"['african', 'kill', 'race_mixer', 'ex-wife']",-1,[]
342,3.0,"['white_male', 'race_mixer', 'point']",-1,[]
344,3.0,"['race_traitor', 'whore', 'stand', 'mulatto', 'child']",-1,[]
354,3.0,"['leftist', 'sjw', 'alison', 'rapp', 'advocate', 'child_rape', 'nintendo', 'guilt', 'remorse', 'alison', 'rapp', 'damage', 'influence', 'innocent', 'child', 'nintendo', 'fire', 'feminist', 'alison', 'rapp', 'paedophile', 'porn', 'censorship', 'storm', 'mirror']",-1,[]
358,3.0,"['race_mixers', 'sleeper', 'african', 'serial_killer', 'image', 'woman', 'possession', 'apos', 'sleeper', 'apos', 'suspect', 'la', 'time']",-1,[]
360,3.0,"['race_mixer', 'supply', 'gun', 'african', 'felon', 'felony', 'accessory', 'draw', 'death_penalty', 'dead', 'wound', 'african', 'reform', 'police_officer', 'crime_spree', 'final', 'conclusion']",-1,[]
361,3.0,"['leftist', 'anti-white_jewish', 'medium', 'texas', 'murder', 'mass_medium', 'show', 'murderer', 'race_mixer', 'black', 'son', 'kill', 'black', 'son', 'kill', 'call', 'report', 'murder', 'call', 'natural', 'natural', 'white', 'female', 'black', 'child', 'race_mixer', 'spawn', 'farewell', 'stacy', 'fawcett', 'wfaa.com']",-1,[]
362,3.0,"['leftist', 'hide', 'african', 'arrest', 'deportation', 'rap', 'murder']",-1,[]
363,3.0,['race_mixing'],-1,[]
385,3.0,"['race_mixer', 'help', 'murder', 'mom', 'african', 'pedophile', 'girl', 'mother', 'teen', 'slut', 'help']",-1,[]
387,3.0,"['race_mixing', 'whore', 'african', 'arrest', 'charge']",-1,[]
511,3.0,"['african', 'reform', 'school', 'murder', 'rap', 'white', 'teacher']",-1,[]
516,3.0,"['woman', 'death', 'row', 'saudi_arabia', 'score', 'maid', 'face', 'death_penalty', 'saudi_arabia', 'crime', 'child', 'murder', 'kill', 'employer']",-1,[]
521,3.0,"['african', 'jump', 'boy', 'black', 'beat', 'white_boy', 'attack', 'true', 'face', 'racism', 'youtube']",-1,[]
522,3.0,"['african_female', 'tram', 'hate', 'white', 'people', 'stand', 'youtube']",-1,[]
524,3.0,"['african', 'christmas_day', 'white_woman', 'rap', 'day', 'woman', 'rap', 'ordeal', 'car', 'arrest', 'philly.com']",-1,[]
526,3.0,"['african', 'fake', 'kkk', 'hate_crimes']",-1,[]
527,3.0,"['racist', 'creature', 'turkish', 'jew', 'semitic', 'jew', 'african', 'jew']",-1,[]
530,3.0,"['veteran', 'feed', 'stray', 'animal', 'shot_dead']",-1,[]
532,3.0,"['white_man', 'attempt', 'murder', 'robbery']",-1,[]
554,3.0,"['african', 'murder', 'white_woman']",-1,[]
665,3.0,"['nelson', 'mandela', 'communist_mass', 'murderer', 'marxist', 'utopia', 'communism']",-1,[]
804,3.0,"['prime', 'minister', 'japan', 'mess', 'accident', 'ge', 'nuclear_plant', 'statement', 'evacuation', 'citizen', 'need', 'chaos', 'citizen', 'ge', 'nuclear_plants', 'evacuation', 'plan', 'put', 'effect', 'time']",-1,[]
921,3.0,"['blood_thirsty', 'behavior', 'world']",-1,[]
1087,3.0,"['putin', 'russia', 'attack', 'nato', 'person', 'dream']",-1,[]
1194,3.0,"['loony_leftists', 'black', 'brown', 'evil', 'racist', 'white_folks', 'great', 'benefit', 'black', 'brown', 'great', 'benefit', 'white_folks', 'evil', 'racist']",-1,[]
1206,3.0,"['true', 'poor', 'racist', 'drag', 'white_folks', 'superior', 'white_folks', 'sat', 'score']",-1,[]
1207,3.0,"['african', 'iq', 'racist', 'african', 'add']",-1,[]
1208,3.0,"['leftist', 'street', 'fight', 'fast', 'catch']",-1,[]
1237,3.0,"['gun', 'grab', 'commie_scum', 'call', 'trick', 'white', 'christian', 'murder', 'murder', 'victim', 'white_children', 'jewish_communists', 'count', 'trick', 'jewish_communist', 'business', 'notice', 'gun', 'grab', 'jewish_communist', 'scum', 'size', 'range', 'target']",-1,[]
1261,3.0,"['child', 'book', 'teach', 'child', 'secret', 'parent']",-1,[]
1319,3.0,"['question', 'needle', 'slaughter', 'white_woman', 'child', 'point', 'murder', 'family_members']",-1,[]
1391,3.0,"['disaster', 'chernobyl', 'disaster', 'part', 'youtube']",-1,[]
1396,3.0,"['disaster', 'chernobyl', 'disaster', 'part', 'youtube']",-1,[]
1404,3.0,"['nuclear_power', 'insanity', 'stop', 'insanity']",-1,[]
1412,3.0,"['loony_leftists', 'obama', 'step', 'claim', 'japanese', 'produce', 'spoke', 'begin', 'mean']",-1,[]
1433,3.0,['globalist'],-1,[]
1476,3.0,"['chosen', 'criminal', 'elite']",-1,[]
1507,3.0,"['black', 'mass_murderer', 'cover', 'medium', 'african', 'employee', 'suspect', 'drug', 'theft', 'transfer', 'fire', 'steal', 'cash', 'fire', 'take', 'revenge', 'mass_murder', 'airliner', 'white_folks', 'kill', 'jew', 'mass_murder', 'black', 'white_folks', 'die', 'african', 'white_civilization', 'murder-suicide', 'airplane', 'kill']",-1,[]
1526,3.0,"['top', 'rabbi', 'expose', 'racism']",-1,[]
1531,3.0,"['israeli', 'pm', 'bribe', 'guess', 'israel', 'problem', 'jew', 'government']",-1,[]
1571,3.0,"['israel', 'jfk', 'assassination']",-1,[]
1580,3.0,"['emperor', 'napoleon', 'bonaparte', 'group', 'change', 'napoleon', 'reform', 'jew', 'evil', 'way', 'tradition', 'avail', 'jew', 'nation']",-1,[]
1582,3.0,"['jew', 'white_man', 'profile', 'criminal', 'terrorist', 'jew', 'profile', 'criminal', 'terrorist']",-1,[]
1584,3.0,"['jew', 'civilized_white', 'folk', 'primitive', 'african_cousins', 'black_african', 'jew']",-1,[]
1588,3.0,"['jew', 'israel', 'draft', 'young', 'men', 'israel', 'ten', 'thousand', 'jew', 'protest', 'state', 'israel', 'nyc', 'youtube']",-1,[]
1597,3.0,"['jew', 'demand', 'open', 'border', 'jew', 'illegal_aliens']",-1,[]
1610,3.0,"['american', 'journalist', 'expose', 'neocon', 'conspiracy']",-1,[]
1615,3.0,"['expose', 'zionist', 'christian', 'shyster', 'judeo-christianity', 'scam']",-1,[]
1629,3.0,"['depiction', 'white', 'slavery', 'eslavery06.jpg', 'tto-pilny1.png', 'slaves/010.jpg', 'hite-women.jpg', 'eslavery01.jpg', 'slaves/025.jpg', 'es_slavery.jpg', 'ws01.jpg', 'w=610', 'lave-girl-.jpg', 'ex-slavery.png', 'very-white.jpg', 'slaves/029.jpg', 'slaves/003.jpg', 'pg', 'w=225', 'h=393', 'current', 'slavery']",-1,[]
1651,3.0,"['europe', 'traitor', 'take', 'advice', 'europe', 'enemy']",-1,[]
1654,3.0,"['microsoft', 'ai', 'chatbot', 'kill', 'day', 'life', 'jew', 'demand', 'death', 'ai', 'parrot', 'marxist', 'propaganda']",-1,[]
1661,3.0,"['jew', 'soros', 'brag', 'fund', 'chaos', 'violence', 'trump', 'rally']",-1,[]
1670,3.0,"['author', 'einstein', 'fraud', 'time', 'author', 'jon', 'bjerknes', 'jeff_rense']",-1,[]
1694,3.0,['christmas'],-1,['war_on_christmas']
1702,3.0,"['jew', 'demand', 'tree', 'kill']",-1,[]
1711,3.0,"['israeli', 'colonel', 'lead', 'isil', 'terrorist', 'capture']",-1,[]
1781,3.0,"['israeli', 'spy', 'steal', 'weapon', 'demodulation', 'case']",-1,[]
1791,3.0,"['mass_medium', 'protest', 'street']",-1,[]
1827,3.0,"['ordinary', 'citizen', 'independence', 'donetsk', 'government', 'support', 'men', 'nation']",-1,[]
1848,3.0,"['evidence', 'occurrence', 'real', 'jew', 'block', 'investigation']",-1,[]
1859,3.0,"['farrakhan', 'tell', 'follower', 'follower', 'talk']",-1,[]
1870,3.0,"['merkel', 'mohammedan', 'murder', 'european']",-1,[]
1889,3.0,"['point', 'violet', 'crime', 'report', 'muslim', 'mass', 'slaughter', 'amount', 'african', 'violence', 'savage', 'normal', 'murder', 'mayhem', 'comparison']",-1,[]
1946,3.0,"['death', 'paul_revere', 'die', 'idaho']",-1,[]
1948,3.0,"['mormon', 'favorite', 'fake', 'christian', 'bisexual', 'coke', 'fiend', 'win', 'republican', 'nomination', 'anti-christian', 'atheist', 'communist', 'clinton', 'draft', 'son', 'daughter', 'die', 'ww_iii', 'white_genocide', 'mormon']",-1,[]
1964,3.0,"['jewish_communist', 'anti-white', 'radical', 'man', 'hat', 'feminist', 'result', 'female', 'man', 'child', 'feminist', 'mom', 'married', 'feminist', 'dad', 'damage', 'child', 'divorce', 'single', 'parent', 'mom', 'damage', 'child', 'multiple', 'abortion', 'child', 'lesbian', 'child', 'lesbian', 'damage', 'child', 'witness', 'white_genocide', 'jew', 'murder', 'entire', 'white_families', 'jewish_controlled', 'soviet_union']",-1,[]
1966,3.0,"['white_nationalist', 'men', 'bad', 'time', 'find', 'woman', 'divorce', 'woman', 'total', 'race_traitors', 'child', 'steal', 'race_traitor', 'woman', 'poison', 'white_nationalist', 'husband', 'race_traitor', 'wife', 'husband', 'murder', 'white_nationalist', 'men', 'associate', 'race_traitor', 'wife', 'divorce', 'child', 'constant', 'threat', 'mother', 'white_children', 'anti-white', 'situation', 'bad', 'today']",-1,[]
1982,3.0,"['gun_show', 'ape', 'ar', 'grin', 'race_traitor', 'sell', 'gun', 'savage', 'ape', 'give']",-1,[]
1993,3.0,"['idea', 'union', 'xbox', 'game', 'civil_war']",-1,['civil_war_2']
2009,3.0,"['father', 'homeless', 'single', 'parent', 'mother', 'father', 'right', 'child', 'right', 'feminist', 'right']",-1,[]
2022,3.0,"['university', 'hate_crimes', 'university', 'sue', 'business', 'hate_crime', 'victim']",-1,[]
2035,3.0,"['black', 'girl', 'texas', 'upset', 'black', 'cop', 'shot', 'dog', 'fence', 'yard', 'black', 'cop', 'fence', 'sidewalk', 'scar', 'dog', 'growl', 'beast', 'race', 'denier', 'put', 'black', 'beast', 'uniform']",-1,[]
2044,3.0,"['black', 'kill', 'black', 'killer', 'strike', 'remove', 'black', 'nation', 'origin', 'threat', 'african']",-1,[]
2047,3.0,"['care', 'white_folks', 'rap', 'torture', 'cut', 'piece', 'news_worthy', 'hand', 'criminal', 'prison', 'camp', 'criminal', 'prison', 'event', 'media_mafia', 'white_folks', 'white_folks', 'civil_right', 'white_folks', 'importance', 'hand', 'neighbor', 'call', 'slur', 'folk', 'scream', 'evil', 'black_african', 'hack', 'piece', 'answer', 'call']",-1,[]
2052,3.0,"['point', 'shoot', 'shoot']",-1,[]
2172,3.0,"['photo', 'riot', 'riot', 'photo', 'paris', 'riot', 'photo', 'riot', 'photo', 'riot', 'mexican', 'riot']",-1,[]
2179,3.0,"['open', 'carry', 'action', 'revolver', 'quick', 'draw', 'cowboy', 'holster', 'phrase', 'fear', 'evil', 'mind']",-1,[]
2198,3.0,"['mock', 'christian', 'christ', 'christianity']",-1,[]
2201,3.0,"['fool', 'newspaper', 'print', 'propaganda', 'war', 'freedom', 'lincoln', 'free', 'color', 'slave']",-1,[]
2203,3.0,"['life', 'communist', 'race_traitor', 'people', 'punishment', 'law']",-1,[]
2239,3.0,"['manufacturer', 'thread', 'dy', 'die', 'press', 'problem']",-1,[]
2253,3.0,"['disgust', 'race_traitor', 'whore']",-1,[]
2257,3.0,"['european', 'word', 'coin', 'jewish_communist', 'slur', 'men', 'slur', 'men', 'racist', 'jew', 'niggros', 'asian', 'term', 'leader', 'group', 'call', 'call', 'anti-white', 'man', 'solid', 'march', 'opposition', 'racist', 'jew', 'niggros', 'asian', 'shadow', 'doubt']",-1,[]
2262,3.0,"['news', 'surprise', 'surprise', 'attack', 'white_folks', 'anti-white_racists', 'attack', 'innocent_white', 'folk', 'innocent_white', 'blame', 'hateful_violent', 'nature', 'hateful_violent', 'muslim', 'show', 'attack', 'anti-white', 'muslim', 'racist', 'mentalism.html']",-1,[]
2264,3.0,"['communist_media', 'mafia', 'call']",-1,[]
2271,3.0,"['racist', 'niggro', 'white', 'victim', 'hand', 'liberal', 'white_race', 'traitor', 'excuse', 'white', 'victim', 'event', 'white', 'victim', 'racism', 'blood_thirsty', 'savage', 'white', 'victim', 'liberal', 'white_race', 'traitor', 'racist', 'attack', 'wrong', 'victim', 'white']",-1,[]
2276,3.0,"['criminal_aliens', 'total', 'cost', 'human', 'murder', 'rape', 'arson', 'robbery', 'burglary', 'criminal_aliens', 'toll', 'neighborhood', 'city', 'county', 'state', 'california', 'prime', 'positive', 'criminal_aliens', 'place', 'spiritual', 'ruin']",-1,[]
2284,3.0,"['reason', 'pressure', 'cartridge', 'pressure', 'standard', 'european', 'metric', 'nato']",-1,[]
2293,3.0,"['drop', 'homosexual', 'deviant', 'pervert', 'freak']",-1,[]
2301,3.0,"['guy', 'shake', 'camera', 'make', 'sea', 'sick']",-1,[]
2302,3.0,"['elect', 'dead', 'voter', 'race_traitor']",-1,[]
2330,3.0,"['hillary', 'server', 'blame', 'trump', 'government', 'hack', 'server']",-1,[]
2331,3.0,"['hillary', 'criminal', 'thug', 'law_abiding', 'citizen']",-1,[]
2334,3.0,"['washington_government', 'paris', 'government', 'arm', 'moscow', 'government', 'sanction', 'french', 'bank', 'drop', 'russian', 'arm', 'deal', 'drop']",-1,[]
2336,3.0,"['society', 'society', 'drag', 'dead', 'weight', 'primitive_savages', 'white_civilization', 'white_folks', 'separate', 'savage']",-1,[]
2337,3.0,"['white_girl', 'sheboon']",-1,[]
2359,3.0,"['people', 'hate', 'marxist', 'life']",-1,[]
2367,3.0,"['communist', 'legislator', 'firearm', 'law', 'jewish_communist', 'fund', 'organization', 'black', 'mayor', 'gun', 'member', 'gun_laws', 'handcuff', 'black', 'mayor', 'gun', 'law']",-1,[]
2385,3.0,"['climate', 'mass', 'rape', 'man']",-1,[]
2386,3.0,"['feminist', 'mass', 'rape', 'gang', 'rape', 'age', 'girl', 'feminist', 'woman', 'feminist', 'hate', 'white_man']",-1,[]
2391,3.0,"['battlefield', 'care', 'concern', 'soldier', 'dead', 'meat']",-1,[]
2396,3.0,"['white_man', 'black', 'brown', 'racist', 'white_folks', 'protection']",-1,[]
2398,3.0,"['farm', 'murder', 'black', 'majority', 'power', 'target', 'small', 'white', 'minority', 'africa', 'black', 'idiot', 'murder', 'white_farmers']",-1,[]
2407,3.0,"['loony_leftists', 'murder', 'innocent', 'child', 'criminal']",-1,[]
2408,3.0,"['nyc', 'swamp', 'invader', 'jew', 'demand', 'left', 'jew', 'die', 'street', 'medical', 'treatment']",-1,[]
2410,3.0,"['black', 'devil', 'home', 'time']",-1,[]
2411,3.0,"['police_officer', 'shot_dead', 'partner', 'cpr', 'shooter']",-1,[]
2412,3.0,"['white', 'police_officer', 'cpr', 'african', 'thug', 'murder']",-1,[]
2414,3.0,"['brown', 'brown', 'kill', 'black_african', 'brown', 'group', 'black', 'group', 'kill', 'machete', 'attack', 'beheading', 'ak', 'assault', 'rifle', 'burning', 'beating', 'kill', 'dead', 'body', 'stop', 'hate', 'separate']",-1,[]
2416,3.0,"['clear', 'message', 'surrender', 'fag', 'rape']",-1,[]
2435,3.0,"['obama', 'crazy', 'stupid']",-1,[]
2461,3.0,"['paul', 'joseph', 'watson', 'terror', 'attack']",-1,[]
2471,3.0,"['dpms', 'host', 'zombie', 'shoot', 'evaluation', 'defensive', 'tool', 'zombie', 'attack']",-1,[]
2480,3.0,"['rape', 'medical', 'rape', 'center', 'rape', 'center', 'male', 'swede', 'rap']",-1,[]
2488,3.0,"['mass', 'shoot', 'stop', 'citizen', 'tell', 'life', 'save', 'break', 'arm', 'cc', 'civilian', 'stop', 'mass', 'kill', 'vega', 'update', 'buzzpobuzzpo']",-1,[]
2514,3.0,"['child', 'countryside', 'bombing', 'child', 'city', 'war', 'ally', 'child', 'murder', 'reminder', 'exposure', 'ally', 'hang', 'innocent', 'german', 'war_crime', 'ally', 'committed_mass', 'innocent', 'child']",-1,[]
2522,3.0,"['leadership', 'criminal_conspiracy', 'clinton', 'crime_family', 'arrest', 'arrest']",-1,[]
2524,3.0,"['term', 'slave', 'uprising', 'riot', 'long_time', 'violence', 'youth', 'mob', 'flash', 'mob', 'call', 'call', 'call']",-1,[]
2536,3.0,"['africans_attempt', 'mestizo']",-1,[]
2537,3.0,"['mestizo', 'criminal', 'african', 'call', 'name', 'shot', 'dead', 'police', 'call', 'hate_crime', 'marc', 'carson', 'dy', 'gay-hate', 'shoot', 'greenwich', 'village', 'news.com.au']",-1,[]
2538,3.0,"['mestizo', 'help', 'murder', 'african_female', 'mestizo', 'sentence', 'year', 'part', 'hate_crime', 'murder', 'african']",-1,[]
2557,3.0,"['high_school', 'race', 'riot', 'black', 'brown']",-1,[]
2566,3.0,"['concealed_carry', 'isi', 'attack', 'gun_free', 'zone', 'kill', 'people']",-1,[]
2580,3.0,"['armed_citizens', 'call', 'militia', 'threat', 'concern', 'criminal', 'government', 'washington', 'communist', 'gun', 'grabber', 'idiot', 'race_traitors', 'work', 'gun']",-1,[]
2597,3.0,"['anti-white_jewish', 'medium', 'white_genocide', 'log', 'hate_crime', 'white_genocide', 'hate_crime', 'stop_white', 'genocide']",-1,[]
2606,3.0,"['russia', 'nuke', 'washington_dc', 'war', 'crime']",-1,[]
2616,3.0,"['normal', 'behavior', 'world', 'court', 'order', 'gang', 'rape', 'woman', 'world', 'problem', 'jewish_communists', 'flood', 'nation', 'primitive_savages', 'contrast', 'communist', 'savage', 'utopia']",-1,[]
2629,3.0,"['hickok45', 'knob', 'creek', 'machine_gun', 'shoot']",-1,[]
2631,3.0,"['tnoutdoors9', 'knob', 'creek', 'kentucky', 'october', 'gun_show', 'shoot']",-1,[]
2670,3.0,"['lady', 'gun', 'bad', 'combination']",-1,[]
2671,3.0,"['race_mixing', 'genocide', 'genocide']",-1,[]
2697,3.0,"['liberal', 'white_man', 'dark', 'sea', 'diversity', 'machete', 'murder', 'extinction', 'resistance', 'banking_families', 'government', 'rule', 'world', 'earth', 'white_man', 'hope', 'stop', 'plan']",-1,[]
2710,3.0,"['area', 'muslim']",-1,[]
2713,3.0,"['white', 'support', 'campaign', 'absolute', 'fool', 'loony_leftist']",-1,[]
2748,3.0,"['african', 'murder', 'young', 'mestizo', 'girl', 'hit', 'run', 'hit', 'run']",-1,[]
2749,3.0,"['african', 'ruin', 'neighborhood']",-1,[]
2750,3.0,"['african', 'attack', 'mother', 'child', 'cellphone']",-1,[]
2751,3.0,"['african_thug', 'kill', 'cop', 'dead', 'wife', 'upset', 'cop', 'thought', 'thug', 'wrong', 'thought']",-1,[]
2757,3.0,"['african', 'murder', 'daughter', 'revenge', 'girl', 'mother']",-1,[]
2758,3.0,"['blood', 'gang', 'member', 'michael', 'brown', 'attack', 'police_officer', 'shot']",-1,[]
2759,3.0,"['african', 'police_officer', 'kidnapping', 'female', 'stop', 'real', 'houston', 'police', 'real', 'mischief']",-1,[]
2764,3.0,"['africans_commit', 'child_rape', 'video', 'attack', 'show', 'video', 'arrest', 'elmwood', 'park', 'teen', 'assault', 'drunk', 'girl', 'film', 'incident', 'prosecutor', 'nj.com']",-1,[]
2779,3.0,"['white', 'american', 'nun', 'african', 'nun', 'waste', 'life', 'spending', 'year', 'help', 'african', 'help', 'poor', 'white_children', 'kill', 'african', 'savage', 'beast', 'u.s', 'nun', 'kill', 'kidnapping', 'africa', 'stream', 'ny', 'daily', 'news']",-1,[]
2780,3.0,"['africans_attempt', 'cop']",-1,[]
2790,3.0,"['primitive_savages', 'white_man', 'liveleak.com', 'video', 'anc', 'supporter', 'beat', 'woman', 'south', 'africa', 'election']",-1,[]
2800,3.0,"['michael', 'rockefeller', 'guinea', 'native', 'chief', 'ajam', 'dani', 'tribe', 'missionary', 'kill', 'ate', 'michael', 'rockefeller', 'read', 'michael', 'rockefeller', 'kill', 'headhunter', 'claim', 'ny', 'daily', 'news']",-1,[]
2812,3.0,"['african', 'rape', 'shoot', 'set', 'female']",-1,[]
2817,3.0,"['african', 'torture', 'brother', 'v=a79p7tv_aau']",-1,[]
2830,3.0,"['white_man', 'stop', 'african', 'criminal', 'african', 'crowd']",-1,[]
2834,3.0,"['chicago', 'free', 'zone', 'african', 'shooting', 'gun', 'african', 'neighborhood', 'african', 'crime', 'victim', 'african', 'criminal', 'whitey']",-1,[]
2838,3.0,"['african_thug', 'sister', 'sister', 'sister']",-1,[]
2866,3.0,"['african', 'display', 'criminal', 'behavior', 'african', 'display', 'criminal', 'behavior', 'african', 'display', 'criminal', 'behavior', 'african', 'caribbean', 'display', 'criminal', 'behavior', 'give', 'thought', 'trend']",-1,[]
2887,3.0,"['nicki', 'minaj', 'rape']",-1,[]
2890,3.0,"['african', 'football', 'star', 'kill', 'dead']",-1,[]
2906,3.0,"['tell', 'police_officer', 'shoot', 'black', 'criminal', 'leftist', 'black', 'criminal']",-1,[]
2926,3.0,"['african', 'sentence', 'store', 'robbery', 'murder']",-1,[]
2932,3.0,"['black_african', 'reform']",-1,[]
2933,3.0,"['african', 'murder', 'white_family']",-1,[]
2946,3.0,"['african', 'gun', 'grabber', 'gun', 'crime', 'african', 'white_man', 'law']",-1,[]
2958,3.0,"['african_thug', 'capture', 'female']",-1,[]
2987,3.0,"['innocent', 'french', 'murder', 'pull', 'hand', 'gun', 'stop', 'time', 'murder']",-1,[]
3004,3.0,"['thought', 'put', 'song', 'heart', 'chorus', 'die', 'jew', 'die', 'die', 'jew', 'die', 'die', 'jew', 'die', 'die', 'jew', 'die']",-1,[]
3012,3.0,"['innocent_white', 'folk', 'muslim', 'religious', 'leader', 'muslim', 'rapist', 'bail', 'murder', 'family', 'australian', 'soldier', 'afghanistan', 'walk', 'chocolate', 'shop', 'firearm', 'individual', 'hostage', 'release', 'asian', 'kill', 'white_folks', 'hero', 'muslim', 'madman', 'hostage', 'muslim', 'holy', 'man', 'muslim', 'peace', 'sydney', 'cafe', 'manager', 'shot_dead', 'terrorist', 'gun', 'hostage', 'mail_online']",-1,[]
3015,3.0,"['african', 'beast', 'murder', 'white_man', 'hammer']",-1,[]
3022,3.0,"['savage', 'african', 'beat', 'white_girl', 'video', 'ard-to-watch/f']",-1,[]
3023,3.0,"['african', 'put', 'kill', 'white', 'police_officer', 'video', 'houston', 'cop', 'killer', 'word', 'clown', 'police']",-1,[]
3028,3.0,"['african', 'white_girl', 'fun']",-1,[]
3032,3.0,"['mestizo', 'set', 'wild', 'fire']",-1,[]
3033,3.0,"['police', 'captain', 'kevin', 'quick', 'african', 'murder', 'police_officer', 'life', 'jewish_communists', 'white_folks', 'police', 'protection']",-1,[]
3039,3.0,"['african', 'pull', 'speed', 'kill', 'police_officer']",-1,[]
3044,3.0,"['african', 'thief', 'murder', 'white_man']",-1,[]
3049,3.0,"['japan', 'fugitive', 'murder', 'white_woman']",-1,[]
3057,3.0,"['pack', 'wild', 'african', 'beat', 'white_man', 'preteen', 'boy', 'punch', 'group', 'attack', 'kill', 'syracuse', 'man', 'syracuse.com']",-1,[]
3059,3.0,"['young_white', 'woman', 'mulatto', 'darla', 'miller', 'rap', 'murder', 'body', 'area', 'mulatto', 'release', 'prison']",-1,[]
3071,3.0,"['white_man', 'african', 'henry', 'rollins', 'joe', 'cole', 'front', 'yard', 'approach', 'african', 'thug', 'joe', 'cole', 'shot_dead', 'henry', 'rollins', 'miss', 'race_traitor', 'henry', 'rollins', 'joe', 'cole', 'henry', 'black_lives', 'matter', 'blame', 'gun', 'african_thug', 'joe', 'cole', 'police', 'sketch', 'african', 'murder', 'joe', 'cole', 'joseph', 'cole', 'mystery', 'wiki', 'wikia']",-1,[]
3073,3.0,"['white_folks', 'african']",-1,[]
3080,3.0,"['african', 'attack', 'white', 'police_officer', 'arrest']",-1,[]
3081,3.0,"['primitive_savages', 'civilized_white', 'nation']",-1,[]
3082,3.0,"['african', 'stab', 'white_woman', 'show']",-1,[]
3083,3.0,"['white', 'police', 'woman', 'day', 'job', 'shot_dead', 'active_duty', 'federal', 'african', 'slain', 'virginia', 'officer', 'bravery', 'intelligence', 'live5news.com', 'charleston', 'sc', 'weather', 'sport', 'army', 'sergeant', 'arrest', 'kill', 'wife', 'police_officer', 'officer', 'kill', 'virginia', 'shoot', 'ronald', 'hamilton', 'u.s', 'army', 'soldier', 'kill', 'police_officer', 'ashley', 'guindon', 'day', 'police', 'force']",-1,[]
3087,3.0,"['african', 'white_woman', 'stab', 'boyfriend', 'st._patrick', 'attack', 'african', 'black']",-1,[]
3090,3.0,"['african', 'attempt', 'murder', 'white_man']",-1,[]
3099,3.0,"['leftists_claim', 'black', 'white', 'rape']",-1,[]
3102,3.0,"['white_man', 'african', 'white_man', 'sacrifice', 'life', 'savage_african', 'home', 'invader', 'white_man', 'shoot', 'african', 'arrest', 'hospital', 'african', 'pull', 'home_invasion', 'woman', 'home_invasion', 'murder']",-1,[]
3106,3.0,"['african', 'serial_killer', 'murder', 'white_woman', 'hannah', 'graham', 'virginia', 'tech', 'student', 'morgan', 'harrington', 'disability', 'university', 'free', 'probation', 'rap', 'murder', 'white_woman', 'indian', 'female', 'rap', 'sentence', 'life', 'sentence', 'death', 'court', 'proceeding', 'mother', 'court', 'judge', 'beast', 'sentence', 'life', 'rot', 'hell', 'african', 'present', 'remorse', 'victim', 'african', 'beast', 'jesse', 'matthew', 'life', 'sentence', 'rape', 'attempt', 'murder', 'wtvr.com']",-1,[]
3109,3.0,"['savage', 'machete', 'attack', 'texas']",-1,[]
3114,3.0,"['white_man', 'african']",-1,[]
3116,3.0,"['white_woman', 'attack', 'wrong', 'hood']",-1,[]
3121,3.0,"['african', 'murder', 'white_family']",-1,[]
3124,3.0,['white_man'],-1,[]
3126,3.0,"['white_woman', 'african']",-1,[]
3129,3.0,"['african', 'stab', 'white', 'police_officer', 'dead']",-1,[]
3150,3.0,"['african_murders', 'white_kid', 'bicycle']",-1,[]
3171,3.0,['deutschland'],-1,[]
3174,3.0,"['deaths_head', 'coburg']",-1,[]
3175,3.0,"['final_war', 'nationalist', 'tionalist.html']",-1,[]
3213,3.0,"['knife', 'defense', 'move', 'attacker', 'draw', 'strike', 'grab', 'arm', 'begin', 'attacker', 'run', 'full', 'speed', 'move', 'line', 'attack', 'gun', 'put', 'round', 'attacker', 'kill', 'move', 'line', 'attack', 'momentum', 'give', 'time', 'action']",-1,[]
3240,3.0,"['government', 'evil', 'polish', 'government', 'poke', 'nazi', 'government', 'sharp', 'stick', 'idiot', 'polish', 'government']",-1,[]
3260,3.0,"['savage', 'black_african', 'attack', 'innocent_white', 'folk']",-1,[]
3268,3.0,"['loony_leftist', 'female', 'protest', 'muslim', 'murderer', 'female', 'murder', 'female', 'protest']",-1,[]
3287,3.0,"['blm', 'terrorist', 'block', 'richmond', 'virginia', 'highway', 'die', 'ambulance', 'murder']",-1,[]
3306,3.0,"['government', 'mexico', 'la_raza', 'racist', 'brown', 'supremacist']",-1,[]
3313,3.0,['slavery'],-1,[]
3317,3.0,"['money', 'felon', 'scramble', 'field']",-1,[]
3345,3.0,"['vote', 'citizen', 'election_fraud', 'stand', 'treason', 'hang', 'law', 'steal', 'vote', 'citizen', 'steal', 'nation', 'citizen']",-1,[]
3354,3.0,"['russian', 'news', 'reporter', 'russian', 'deal', 'muslim', 'terrorist', 'kill']",-1,[]
3365,3.0,"['smoking', 'bad', 'health', 'savage']",-1,[]
3379,3.0,"['nazi', 'persecution', 'act', 'act', 'make', 'innocent', 'nazi', 'imaginary', 'crime']",-1,[]
3395,3.0,"['air_force', 'campaign', 'murder', 'german', 'child', 'ww_ii']",-1,['ww_ii']
3402,3.0,"['clinton', 'master', 'fraud']",-1,[]
3416,3.0,"['spree', 'surrender', 'police', 'arrest', 'beat', 'prison', 'kill', 'arrest', 'police_officer', 'shot_dead', 'momma', 'didntdu', 'nuffin', 'goot', 'boy']",-1,[]
3440,3.0,"['death', 'die']",-1,[]
3448,3.0,"['terror', 'madness', 'lie']",-1,[]
3498,3.0,"['jewish_communists', 'jew', 'murder', 'russian', 'child', 'jew', 'hate', 'russian', 'jew', 'hate', 'arab', 'jew', 'murder', 'arab', 'jew', 'hate', 'reciprocal']",-1,[]
3515,3.0,"['black', 'street', 'thug', 'dead', 'violent_crime', 'black', 'community', 'scar', 'thug', 'boy', 'african', 'community', 'good', 'african', 'dead', 'african']",-1,[]
3516,3.0,"['huma', 'life', 'danger', 'federal', 'boy', 'suicide', 'evidence', 'email', 'huma', 'huma', 'hillary', 'kill', 'year', 'bed', 'evil', 'creature', 'cost', 'huma', 'serf', 'time', 'release', 'hillary']",-1,[]
3547,3.0,"['dallas', 'police', 'chief', 'death', 'threat']",-1,[]
3549,3.0,"['google', 'stand', 'solidarity', 'black_lives', 'murder', 'terrorist', 'unrest', 'unrest', 'martial_law', 'gun_confiscation']",-1,[]
3550,3.0,"['leak', 'arrest', 'hillary_clinton', 'assange']",-1,[]
3566,3.0,"['spike', 'lee', 'gots', 'da', 'pile', 'cash', 'ghetto', 'racist', 'put', 'lock', 'door', 'bar', 'window']",-1,[]
3608,3.0,"['life', 'member', 'life', 'valuable', 'property', 'force', 'night', 'savage', 'begin', 'quiet', 'white', 'texas_town', 'criminal', 'surrender', 'stop', 'surrender', 'family_member', 'kill', 'state', 'law', 'shoot', 'wound', 'shoot', 'shot', 'shoot', 'criminal', 'pose', 'threat', 'carry', 'ammo', 'multiple', 'assailant', 'stand', 'shot', 'move', 'shoot', 'x', 'x', 'mark', 'spot', 'shot']",-1,[]
3614,3.0,"['caliber', 'firearm', 'black_powder', 'smokeless_powder', 'cowboy', 'action', 'shooter', 'modern', 'smokeless_powder', 'black_powder', 'group', 'shoot', 'division', 'shoot', 'caliber', 'shotgun']",-1,[]
3624,3.0,"['pain', 'pill', 'sound', 'idiot', 'voice']",-1,[]
3630,3.0,"['crime', 'crooked_hillary', 'arrest', 'obama', 'holder', 'bill', 'george', 'bush', 'x', 'congressman', 'crime', 'ring', 'tammany', 'hall']",-1,[]
3677,3.0,"['white_man', 'savage', 'expose', 'white_man', 'technology']",-1,[]
3691,3.0,"['jew', 'turk', 'sell', 'white_woman', 'slavery', 'east', 'royalty', 'buy']",-1,[]
3697,3.0,"['totalitarian', 'government', 'turn', 'office', 'president', 'dictatorship', 'authority', 'state', 'george', 'soros', 'state']",-1,[]
3700,3.0,"['democrat', 'election_fraud']",-1,[]
3775,3.0,"['international_bankers', 'hillary', 'office', 'union', 'election_fraud']",-1,[]
3816,3.0,"['world_wide', 'holy', 'war']",-1,['world_wide_holy_war']
3926,3.0,"['african', 'loot', 'riot', 'gun_sales', 'increase', 'obama', 'african', 'gun', 'salesman']",-1,[]
4001,3.0,"['serial_killer', 'serial', 'killer', 'jewish_mass', 'murderer', 'mention', 'mass_medium']",-1,[]
4050,3.0,"['mestizo', 'mixture', 'indian', 'asian_savage', 'black_central', 'african', 'slave', 'drop', 'european', 'blood', 'heritage', 'blood', 'line', 'mestizo', 'hate', 'indian', 'black', 'european', 'take', 'mestizo', 'style', 'hate', 'step']",-1,[]
4055,3.0,"['texan', 'hop', 'illegals', 'fight', 'death']",-1,[]
4184,3.0,"['patient', 'die', 'hospital', 'die', 'black_african', 'nurse', 'mood', 'wash', 'hand', 'stick', 'patient', 'iv', 'med', 'read', 'doctor', 'medical', 'order', 'check', 'patient', 'wristband', 'give', 'med', 'patient', 'medical', 'alert', 'alarm']",-1,[]
4238,3.0,"['state', 'repair', 'dam', 'governor', 'moonbeam', 'criminal', 'illegal_aliens', 'house', 'free', 'moonbeam', 'treason', 'add', 'murder', 'dy', 'flood', 'trial']",-1,[]
4256,3.0,"['plan', 'incinerator']",-1,[]
4353,3.0,"['anytime', 'race_mixing', 'whore', 'pop', 'head', 'hole', 'encounter', 'real_world']",-1,[]
4364,3.0,"['blond', 'men', 'sweden', 'import', 'world', 'evil', 'creature', 'banking_families']",-1,[]
4374,3.0,"['dress', 'morning', 'primitive_savages']",-1,[]
4417,3.0,"['bill', 'arkancide', 'hillary', 'prison']",-1,[]
4454,3.0,"['black_thug', 'shot_dead', 'black', 'rapper', 'natural', 'rioting', 'shot_dead', 'rioting', 'african']",-1,[]
4529,3.0,"['lesbian', 'lure', 'male', 'sex', 'trap', 'murder', 'exchange', 'text', 'message', 'beat', 'dead', 'body', 'stole', 'car', 'car', 'abandon', 'shift', 'blame', 'crime', 'relative', 'sentence', 'year', 'month', 'couple', 'kill', 'man', 'lure', 'beach', 'sex']",-1,[]
4533,3.0,"['oriental', 'asian', 'female', 'savage', 'mestizo', 'asian', 'female', 'love', 'loony_leftist', 'step', 'mestizo', 'camera', 'set', 'mestizo', 'latino', 'mob', 'beat', 'woman', 'la', 'hate_crime']",-1,[]
4543,3.0,"['african', 'boy', 'murder', 'mulatto', 'infant', 'shot', 'head', 'point_blank', 'range']",-1,[]
4552,3.0,"['grandpa', 'hassan', 'shot_dead', 'semite', 'head', 'russian', 'mafia', 'shot_dead', 'russian', 'police', 'state', 'criminal', 'shot_dead', 'range', 'dead']",-1,[]
4554,3.0,"['communist_china', 'mass', 'stab', 'raw', 'video_', 'chinese', 'school', 'knife', 'footage', 'release', 'school', 'knife', 'attack', 'youtube']",-1,[]
4571,3.0,"['african', 'want', 'murder']",-1,[]
4591,3.0,"['african_home', 'invader', 'shot_dead']",-1,[]
4606,3.0,"['mexican', 'dwi', 'hit', 'run', 'murder', 'drive', 'body', 'windshield']",-1,[]
4628,3.0,"['african', 'aid', 'rainbow', 'house', 'gun', 'crime']",-1,[]
4649,3.0,"['african', 'murder', 'girl', 'dad', 'court']",-1,[]
4657,3.0,"['muslim', 'thief', 'punishment', 'steal']",-1,[]
4667,3.0,"['criminal_alien', 'invader', 'kill', 'american']",-1,[]
4674,3.0,"['mayor', 'shot_dead']",-1,[]
4679,3.0,"['african', 'jail', 'attempt', 'rape', 'ireland', 'african', 'hang', 'african', 'ireland', 'hang']",-1,[]
4686,3.0,"['mestizo', 'murder', 'muslim', 'mestizo', 'mestizo', 'europe']",-1,[]
4775,3.0,"['rhead', 'die']",-1,[]
4905,3.0,"['bluegrass', 'situation', 'betrayal']",-1,[]
4974,3.0,"['clancy', 'brother', 'tommy', 'makem', 'whiskey', 'devil']",-1,[]
4978,3.0,"['dropkick_murphys', 'rage', 'acoustic', 'version']",-1,[]
5067,3.0,"['marine', 'le_pen', 'force', 'evil']",-1,[]
5340,3.0,"['die', 'twinnies']",-1,[]
5343,3.0,"['reign', 'terror', 'rhapsody', 'fire', 'christopher', 'lee']",-1,[]
5348,3.0,"['federal_agent', 'terrorist', 'attack', 'action']",-1,[]
5361,3.0,"['cut', 'throat', 'grip', 'fear']",-1,[]
5665,3.0,"['white', 'riot']",-1,[]
5675,3.0,"['high', 'threat', 'volcano', 'area', 'pacific', 'photo', 'description', 'america', 'volcano', 'business', 'insider']",-1,[]
5755,3.0,"['liberal', 'idiot', 'stupid', 'hypocrite', 'hate', 'america', 'america', 'internet']",-1,[]
5909,3.0,"['hypocrissy', 'feminist', 'feminist', 'reality', 'planet', 'hell']",-1,[]
5920,3.0,"['white_man', 'government', 'benefit', 'incompetent']",-1,[]
5958,3.0,['carbine'],-1,[]
5970,3.0,"['max_keiser', 'banker', 'dead']",-1,[]
6039,3.0,"['jeff', 'gordon', 'revenge', 'dude', 'call', 'jeff', 'gordon', 'liar', 'risk']",-1,[]
6139,3.0,"['ramzpaul', 'neighbor', 'goat', 'die']",-1,[]
6197,3.0,"['real', 'drug', 'v=dr52wkq51mo']",-1,['real_war_on_drugs']
6368,3.0,"['african', 'detroit', 'school', 'board', 'chief', 'turn', 'japanese', 'normal', 'african_behavior', 'feel', 'prison', 'system']",-1,[]
6517,3.0,"['thepianoguys', 'cello', 'war', 'lightsaber', 'duel']",-1,[]
6529,3.0,"['white', 'riot']",-1,[]
6546,3.0,"['death_penalty', 'communist_china', 'corruption', 'death_penalty', 'bribe', 'kick', 'back', 'crime', 'opportunity', 'present']",-1,[]
6729,3.0,"['immigrant', 'youth', 'riot', 'immigrant', 'youth', 'riot', 'youtube']",-1,[]
6806,3.0,"['europe', 'ban', 'bee', 'kill', 'pesticide', 'federal_agent', 'monsanto', 'profit', 'bee', 'food', 'europe', 'ban', 'bee-harming', 'pesticide', 'spray', 'mother', 'jones']",-1,[]
6818,3.0,"['boston', 'bombing', 'mideast', 'war']",-1,[]
6843,3.0,"['halo', 'reach', 'weak_volume']",-1,[]
7125,3.0,"['doj', 'memo', 'ban', 'firearm']",-1,[]
7142,3.0,['weak_volume'],-1,[]
7233,3.0,"['penny', 'cure', 'winter', 'depression']",-1,[]
7247,3.0,"['die', 'young']",-1,[]
7255,3.0,"['toy', 'china', 'doll', 'ban', 'chemical', 'import', 'union', 'phthalates', 'death', 'deformity', 'cancer', 'infertility', 'chinese_communist', 'accident', 'toy', 'telegraph']",-1,[]
7274,3.0,['weak_volume'],-1,[]
7293,3.0,"['bank', 'america', 'american', 'gun_sales', 'jewish_owned', 'international_banks', 'bank', 'america', 'gun_sales']",-1,[]
7299,3.0,"['communist_china', 'japan', 'draw', 'military', 'war']",-1,['war']
7342,3.0,"['brother', 'nathanael', 'jew', 'mock', 'jesus', 'jew', 'mock', 'jesus_christ', 'youtube']",-1,[]
7345,3.0,"['navy', 'seal', 'commander', 'job', 'w', 'price', 'death', 'investigation']",-1,[]
7411,3.0,['weak_volume'],-1,[]
7449,3.0,"['gun', 'gripe', 'episode', 'child', 'gun']",-1,[]
7506,3.0,"['train', 'wreck', 'bridge', 'fix', 'cause', 'train', 'wreck']",-1,[]
7581,3.0,"['kill', 'twinkie']",-1,[]
7583,3.0,"['mafia', 'pocket', 'waste', 'give', 'money']",-1,[]
7584,3.0,['fraud'],-1,[]
7585,3.0,"['white', 'minority', 'hateful_violent', 'black', 'brown', 'communist', 'south_africa']",-1,[]
7595,3.0,"['general', 'petraeus', 'leak', 'secret', 'benghazi', 'attack', 'mistress', 'cia', 'activity']",-1,[]
7631,3.0,"['san', 'juan', 'county', 'washington', 'vote', 'ban', 'gmo']",-1,[]
7655,3.0,['vote_fraud'],-1,[]
7699,3.0,"['war', 'genocide']",-1,[]
7706,3.0,"['bloomberg', 'terrorist']",-1,[]
7722,3.0,"['government', 'mass_murder', 'citizen', 'reason']",-1,[]
7724,3.0,"['dr', 'michael', 'hill', 'aid']",-1,[]
7797,3.0,"['sledge', 'hammer', 'tv', 'series', 'dvd', 'shoot', 'stuff', 'blowing', 'stuff', 'refuse', 'pretend', 'pc', 'dorie']",-1,[]
7841,3.0,"['glaxosmithkline', 'fin', 'fraud', 'case', 'fraction', 'international', 'corporation', 'benefit', 'fraud']",-1,[]
7867,3.0,"['pollution', 'pollution', 'race_mixing', 'result', 'pollution', 'genocide']",-1,[]
7900,3.0,"['dirt', 'brother', 'hotty', 'toddy', 'dirt', 'brother', 'hotty', 'toddy', 'youtube']",-1,[]
8033,3.0,"['debris', 'japan', 'nuclear_power', 'insanity']",-1,[]
8148,3.0,"['deaths_head', 'smoke', 'mirror']",-1,[]
8150,3.0,"['ww', 'zionist/anarchist', 'government', 'document', 'act', 'secret', 'ww_ii', 'zionist/communist', 'name', 'change', 'remains', 'government', 'document', 'act', 'secret', 'zionist/communist/neocon', 'government', 'document', 'act', 'secret', 'people']",-1,['ww_ii']
8157,3.0,"['zionist', 'pre-traumatic', 'stress', 'disorder', 'zptsd', 'treatable', 'social', 'disease', 'december', 'horse237']",-1,[]
8194,3.0,"['rabbi', 'expose', 'zionist', 'humanity']",-1,[]
8195,3.0,"['sheriff', 'paul', 'babeu', 'pinal', 'county', 'arizona', 'gun', 'hand', 'criminal', 'america', 'kenyan', 'communist', 'america', 'federal_mafia']",-1,[]
8201,3.0,"['russian', 'navy', 'government', 'military', 'creature', 'begin', 'american_citizens']",-1,[]
8204,3.0,"['silver', 'kill', 'bacteria', 'cell', 'wall', 'damage', 'pressure', 'cell', 'cell', 'lyse', 'burst', 'open', 'rub', 'alcohol', 'bleach', 'kill', 'germ', 'damage', 'cell', 'wall']",-1,[]
8212,3.0,"['university', 'strike', 'white_kids', 'cost', 'brown', 'white_kids', 'job', 'market', 'degree']",-1,[]
8228,3.0,"['mafia', 'american_citizens']",-1,[]
8270,3.0,"['eyewitness', 'life', 'death', 'camp']",-1,[]
8305,3.0,"['alex_jones', 'racism', 'racism']",-1,[]
8326,3.0,"['video', 'eyewitness', 'farm', 'fork', 'picnic', 'dinner', 'raid', 'american', 'farmer']",-1,[]
8590,3.0,"['star_wars', 'trilogy', 'lego']",-1,[]
8593,3.0,"['hank', 'williams', 'iii', 'earthride']",-1,[]
8604,3.0,"['elk', 'yard', 'guy', 'shoot', 'magnum', 'caliber', 'shoot', 'elk', 'yard', 'rough', 'terrain', 'carry', 'harvest']",-1,[]
8605,3.0,"['chinese_communist', 'army', 'tool', 'kill', 'american', 'soldier', 'video', 'game', 'real']",-1,[]
8628,3.0,"['zionist', 'attack', 'rabbi', 'arab', 'shot_dead', 'throw', 'stone', 'zionist', 'zionist', 'shot_dead', 'throw', 'stone', 'rabbi']",-1,[]
8663,3.0,"['reverend', 'horton', 'heat', 'devil', 'chase', 'reverend', 'horton', 'heat', 'devil', 'chase', 'fox', 'theater', 'pomona', 'youtube']",-1,[]
8670,3.0,"['representative', 'raul', 'labrador', 'time', 'attorney', 'general', 'eric', 'holder', 'attorney', 'general', 'office', 'arrest', 'treason', 'crime', 'treason', 'punishment', 'crime', 'remedy']",-1,[]
8721,3.0,"['batfe', 'buying', 'sell', 'firearm', 'mexican', 'criminal', 'tax_dollars']",-1,[]
8993,3.0,"['tolerance', 'suicide']",-1,[]
9010,3.0,"['hell', 'georgia']",-1,[]
9042,3.0,"['merle_haggard', 'impersonation', 'folsom', 'prison', 'blue']",-1,[]
9043,3.0,"['hell', 'hound']",-1,[]
9219,3.0,"['black_central', 'african', 'murder', 'albino', 'cut', 'body', 'part', 'charm']",-1,[]
9323,3.0,"['rumor', 'practice', 'end', 'discussion', 'christian', 'burn', 'white_children', 'discus', 'jew', 'lie', 'cruelty', 'paris', 'riot', 'christian', 'child', 'slaughter', 'passover', 'blood', 'white', 'christian', 'child', 'murder', 'london', 'rabis', 'mention']",-1,[]
9372,3.0,"['planning', 'road', 'trip', 'stop', 'stress']",-1,[]
9638,3.0,"['swede', 'african', 'whey', 'move', 'africa', 'move', 'africa', 'sweden']",-1,[]
9645,3.0,"['media_mafia', 'american', 'nazi', 'evil', 'history_channel', 'hitler', 'channel', 'program', 'mention', 'hitler', 'advertisement', 'program', 'constant', 'message', 'evil', 'individual', 'attack', 'hitler', 'evil', 'jew', 'drinking', 'blood', 'child', 'blame', 'nazi', 'innocent', 'nazi', 'blood_thirsty', 'jew', 'mention', 'medium', 'accusation', 'nazi', 'jewish_controlled', 'television', 'radio', 'movie', 'magazine', 'newspaper', 'american', 'nazi', 'evil', 'night']",-1,[]
9660,3.0,"['ww_ii', 'movie', 'nazi', 'kill', 'movie', 'american', 'soldier', 'german', 'evil', 'nazi', 'kill', 'american', 'soldier', 'national_socialists', 'pacific', 'theater', 'nazi', 'brave', 'japanese', 'soldier', 'order', 'american', 'soldier', 'show', 'remorse', 'situation', 'circumstance', 'force', 'poor', 'young', 'japanese', 'boy', 'war', 'end', 'friend', 'german', 'uniform', 'hunt', 'day']",-1,[]
9714,3.0,"['acp', 'kill', 'bad_guy', 'kill', 'work']",-1,[]
9716,3.0,"['attack', 'shyster', 'jew', 'rabbi', 'rabbi', 'fake', 'hate_crimes', 'turn', 'fake', 'police', 'complaint', 'prison']",-1,[]
9760,3.0,"['concern', 'help', 'savage', 'nation', 'harm', 'innocent', 'people', 'marxist', 'lean', 'marxist', 'mistake']",-1,[]
9879,3.0,"['roman', 'empire', 'white', 'slavery', 'race_mixing', 'corruption', 'loot', 'white_nations', 'mass_murder', 'white', 'population']",-1,[]
9895,3.0,"['homosexual', 'jeffrey', 'dahmer', 'kill', 'cannibal', 'read', 'liveleak.com', 'comprehensive', 'serial', 'killer', 'homosexual']",-1,[]
9901,3.0,"['war', 'east', 'war', 'conquest', 'isralie_empire', 'jew', 'hold', 'jewish_media', 'mafia', 'christian', 'preacher', 'american', 'american', 'support', 'war', 'conquest', 'isralie_empire']",-1,"['war', 'war_of_conquest', 'war_of_conquest']"
9929,3.0,"['mexican', 'citizen', 'citizen', 'mexican', 'arrest']",-1,[]
10001,3.0,"['settle', 'white_genocide', 'stop', 'mean', 'law', 'germany', 'death', 'middle', 'ground', 'genocide']",-1,[]
10132,3.0,"['cage', 'fight', 'embrace', 'diversity', 'primitive_savage', 'behavior']",-1,[]
10196,3.0,"['houston', 'police', 'kill', 'cia', 'agent', 'v=x5st3kqaf-q']",-1,[]
10304,3.0,"['white', 'police_officer', 'patrol', 'car', 'city', 'bus', 'radio', 'equipment', 'black', 'brown', 'officer', 'badge']",-1,[]
10326,3.0,"['bad', 'timing', 'date', 'stormfront', 'summit']",-1,[]
10446,3.0,"['china', 'problem', 'american', 'economy', 'washington_dc', 'china', 'chinese', 'debt', 'greek', 'debt', 'communist_chinese', 'leftist', 'leftist', 'china', 'wealth', 'stupid', 'project', 'government', 'waste', 'resource', 'water', 'cause', 'disaster', 'china']",-1,[]
10525,3.0,"['black', 'columnist', 'thomas', 'sowell', 'american', 'race_war']",-1,['race_war']
10544,3.0,"['weapon', 'mass', 'destruction', 'thought', 'weapon', 'mass', 'genocide', 'history', 'monsanto', 'chemical', 'weapon', 'monsanto', 'pesticide', 'corn', 'bee', 'population', 'bee', 'corn', 'plant', 'produce', 'ear', 'corn', 'corn', 'gmo', 'product', 'put', 'market', 'fda', 'test', 'product', 'pas', 'test', 'product', 'organ', 'failure', 'sterilization', 'intent', 'world', 'population', 'number']",-1,[]
10575,3.0,"['muslim', 'murder', 'drive', 'french', 'citizen', 'mass', 'immigration', 'blood_thirsty', 'savage', 'citizen', 'wrong']",-1,[]
10610,3.0,"['isralies', 'forest', 'fire', 'isralies']",-1,[]
10628,3.0,"['moden', 'rifle', 'shotgun', 'receiver', 'barrel', 'fire', 'group', 'bolt', 'sight', 'gun', 'part', 'source']",-1,[]
10656,3.0,"['irony', 'soviet_empire', 'weapon', 'tactic', 'spray', 'army', 'manual', 'range', 'exception', 'short_range', 'ar', 'distance']",-1,[]
10688,3.0,"['media_mafia', 'school_system', 'white', 'guilt', 'young', 'white_children', 'evil', 'privative', 'savage', 'zionists/communists/neocons', 'war']",-1,[]
10879,3.0,"['jim', 'marrs', 'trump', 'control', 'event', 'name', 'name', 'kill']",-1,[]
10946,3.0,"['movie', 'prediction', 'movie', 'possession', 'uber', 'app', 'driver', 'shot', 'kill', 'intelligence', 'program', 'uber', 'app', 'watch', 'body', 'program', 'icon', 'change', 'normal', 'red', 'black', 'ai', 'control', 'driver', 'devil', 'head', 'app', 'driver', 'murder', 'time', 'recollection', 'action', 'driver', 'desire', 'person', 'ai', 'devil', 'body', 'watch', 'observer', 'time', 'icon', 'red', 'resume', 'job', 'uber', 'driver', 'time', 'black', 'ai', 'devil', 'control', 'body', 'report', 'suspect', 'kalamazoo', 'shooting', 'uber', 'app', 'chicago', 'tribune']",-1,[]
11196,3.0,"['zoo', 'wrong', 'beast', 'bar']",-1,[]
11208,3.0,"['cut', 'black', 'brown', 'jew', 'school', 'violence', 'crime', 'lie']",-1,[]
11226,3.0,"['fight', 'white_nationalist', 'war', 'word', 'defense', 'white_children', 'stormfront']",-1,[]
11349,3.0,"['program', 'shooting_gallery', 'hour', 'episode', 'knob', 'creek', 'year', 'smile', 'white', 'face', 'brass', 'fly']",-1,[]
11430,3.0,"['soldier', 'cut', 'military', 'prosecution']",-1,[]
11489,3.0,"['lego_star', 'war', 'war', 'comic']",-1,[]
11584,3.0,"['deaths_head', 'annihilation']",-1,[]
11727,3.0,"['shoot', 'position', 'basic', 'shoot']",-1,[]
11736,3.0,"['christchurch', 'earthquake', 'dead', 'building']",-1,[]
11788,3.0,"['silver', 'come', 'food', 'riot']",-1,[]
11832,3.0,"['mythology', 'star_wars']",-1,[]
12080,3.0,"['fema', 'father', 'terrorist', 'father', 'tyrant', 'fema', 'government']",-1,[]
12126,3.0,"['ian', 'stuart', 'red', 'threat']",-1,[]
12288,3.0,"['dead', 'seal']",-1,[]
12316,3.0,"['banker', 'mass_murderer']",-1,[]
12369,3.0,"['rome', 'conquest', 'poor', 'war']",-1,[]
12374,3.0,"['american', 'gun_shows', 'gun', 'knife', 'show', 'jabuary']",-1,[]
12436,3.0,"['taylor', 'myth']",-1,[]
12443,3.0,"['animal', 'death', 'report', 'million', 'death', 'animal', 'death', 'year', 'death', 'report']",-1,[]
12462,3.0,"['dead', 'fish']",-1,[]
12474,3.0,"['dhs', 'trutv', 'jesse_ventura', 'episode', 'memory', 'hole', 'censor', 'jesse_ventura', 'show', 'fema', 'camp', 'tube']",-1,[]
12500,3.0,"['nasa', 'fake', 'ufo', 'crash']",-1,[]
12508,3.0,"['anti-christmas', 'terrorist']",-1,[]
12559,3.0,"['rig', 'vote', 'thousand', 'street', 'belarus', 'capital', 'minsk']",-1,[]
12575,3.0,"['sam', 'g', 'dickson', 'multiculturalism', 'experiment']",-1,[]
12644,3.0,"['fight', 'war', 'fight', 'banker']",-1,[]
12701,3.0,"['ron_paul', 'tsa']",-1,[]
12729,3.0,"['ireland', 'danger', 'debt', 'slavery', 'jew', 'slave', 'ship', 'slave', 'market', 'auction', 'slave', 'jewish_bankers', 'cut', 'step', 'sell', 'slavery']",-1,[]
12744,3.0,"['hit', 'government', 'hurt']",-1,[]
12746,3.0,"['rand_paul', 'thought', 'crime', 'usa']",-1,[]
12759,3.0,"['ian', 'stuart', 'fight', 'threat', 'red']",-1,[]
12777,3.0,"['afghan', 'fuel', 'convoy', 'flame', 'war', 'pipeline', 'corporation', 'afghan', 'attack', 'fuel', 'war_machine']",-1,[]
12788,3.0,"['hate_crimes', 'christian', 'year', 'attack']",-1,[]
12797,3.0,"['debt', 'slavery']",-1,[]
12837,3.0,"['light', 'saber', 'fight', 'star_wars', 'episode']",-1,[]
12883,3.0,"['jewish_media', 'mafia', 'washington', 'conditioning', 'american_citizens', 'evil', 'stay', 'stay', 'alert']",-1,[]
12884,3.0,"['canada', 'handgun', 'registry', 'failure', 'track', 'offender', 'gun', 'registration', 'infringement', 'god', 'waste', 'time', 'tax_dollars']",-1,[]
12917,3.0,"['cfc', 'register', 'steal', 'gun']",-1,[]
12927,3.0,"['government', 'threat', 'saudi', 'israel', 'washington_d.c', 'turn', 'material', 'saudi', 'turn', 'nuke', 'zionist', 'scum']",-1,[]
12931,3.0,"['drunk', 'requirement', 'issue', 'court', 'state', 'employee', 'owner', 'steal', 'gun', 'commiefornia', 'hollywood', 'sign']",-1,[]
12946,3.0,"['sligo', 'rag', 'devil', 'dublin']",-1,[]
12964,3.0,"['gun', 'registration', 'poll', 'grain', 'farmer', 'crook', 'wild', 'bear', 'property', 'obama', 'cuba']",-1,[]
13001,3.0,"['asteroid', 'discovery', 'present', 'red', 'potential', 'threat', 'yellow', 'threat', 'green', 'threat', 'present', 'orbit']",-1,[]
13009,3.0,"['fbi_agent', 'adam', 'evidence', 'jfk', 'assassination']",-1,[]
13016,3.0,"['whore', 'criminal', 'alien', 'economy', 'loony_leftists', 'economy', 'police_officer', 'reject', 'canadian', 'gun_registry', 'interest', 'business', 'logo']",-1,[]
13024,3.0,"['dead', 'mexican', 'kill', 'criminal_alien', 'invader', 'good', 'news', 'drug', 'war']",-1,['drug_war!']
13035,3.0,"['michael', 'shaw', 'agenda', 'update', 'collective', 'thought', 'marxist', 'ideology', 'demand', 'collective', 'consensus', 'free', 'thought', 'free', 'thinker', 'collective', 'consensus', 'murder']",-1,[]
13038,3.0,"['combat_troops', 'left', 'iraq', 'combat_troops', 'fifty', 'thousand', 'combat_troops', 'iraq', 'god', 'civilian', 'contractor', 'combat_troops', 'combat_troops', 'label', 'combat_troops', 'label', 'adviser', 'combat_troops', 'label', 'adviser', 'label', 'combat_troops', 'combat_troops', 'combat', 'war', 'zone', 'adviser', 'combat_troops', 'kia', 'kill', 'action', 'combat_troops', 'theater', 'face', 'government', 'change', 'remains', 'creature', 'government', 'body', 'face']",-1,[]
13077,3.0,"['julian', 'fantino', 'canada', 'gun_registry']",-1,[]
13081,3.0,"['federal', 'dupe', 'false_flag', 'attack']",-1,[]
13120,3.0,"['fbi_agent', 'provocateur', 'evil']",-1,[]
13132,3.0,"['mexico', 'worse']",-1,[]
13150,3.0,"['mexican_drug', 'cartel', 'issue', 'threat', 'arizona', 'police']",-1,[]
13171,3.0,"['prince', 'charles', 'danger', 'present', 'gm', 'crop']",-1,[]
13202,3.0,"['julian', 'assange', 'afghanistan', 'war', 'log']",-1,[]
13245,3.0,"['jeffrey', 'smith', 'danger', 'gmos']",-1,[]
13249,3.0,"['dod', 'uranium', 'du', 'radiation', 'heavy', 'metal', 'poison']",-1,[]
13258,3.0,"['yankee', 'allen', 'olson', 'call', 'patriot', 'racist', 'hate', 'group', 'yankee']",-1,[]
13370,3.0,"['washington', 'state', 'citizen', 'legislator', 'audit', 'fed', 'youtube', 'washington', 'state', 'citizen', 'legislator', 'audit', 'fed']",-1,[]
13392,3.0,"['alex_jones', 'fact', 'hell', 'america']",-1,[]
13430,3.0,"['testimony', 'illegal_alien', 'care', 'florida', 'hospital', 'uncle', 'die', 'ww_ii']",-1,['ww_ii']
13481,3.0,"['illegal_alien', 'obama', 'plan', 'amnesty', 'illegals']",-1,[]
13496,3.0,"['obama', 'chaos']",-1,[]
13498,3.0,"['glenn_beck', 'crime', 'line', 'government']",-1,[]
