,topic_lda,bag_words,sa_score,events
12,4.0,"['shin', 'activist', 'dr._david', 'duke', 'ability']",1,[]
489,4.0,"['woman', 'love', 'trump']",1,[]
842,4.0,"['euless', 'trinity', 'h', 'black', 'pearland', 'h', 'white', 'state', 'championship', 'football', 'game', 'pearland']",1,[]
1125,4.0,"['reach', 'harmonic', 'vibration', 'reducer']",1,[]
1127,4.0,"['bird', 'hand', 'pacifier']",1,[]
1167,4.0,"['good_luck', 'sti', 'give', 'range', 'report']",1,[]
1347,4.0,"['free', 'slave', 'slave', 'lincoln', 'union']",1,[]
1456,4.0,"['loot', 'liquor', 'store', 'social', 'justice']",1,[]
2312,4.0,"['day', 'range', 'work', 'marksmanship']",1,[]
2634,4.0,"['congratulation', 'fun', 'skill']",1,[]
3611,4.0,"['ar', 'customization', 'great', 'price', 'harris', 'bipod', 'let', 'ground', 'recall', 'ground', 'leg', 'level', 'scope', 'level', 'feature']",1,[]
3725,4.0,"['black_african', 'ape', 'ape', 'cleaner']",1,[]
3759,4.0,"['obama', 's', 'grab', 'african', 'crowd', 'supporter', 'chop', 'serve', 'fry', 'chicken', 'obama', 'african', 'crowd', 'praise', 'african', 'love', 'white']",1,[]
3807,4.0,"['normal', 'non-whites', 'pro-white', 'white_folks', 'respect', 'culture', 'indian', 'culture', 'study', 'dynasty', 'china', 'rap', 'non-whites', 'pro-white', 'culture', 'culture']",1,[]
3815,4.0,"['clinton', 'release', 'advertisement', 'tuesday', 'veteran', 'deserver', 'hillary', 'butcher', 'benghazi']",1,[]
3845,4.0,"['anti-american', 'judge', 'tax_dollars', 'america']",1,[]
3868,4.0,"['fragment', 'society', 'success', 'history', 'multiculturalism', 'great', 'empire']",1,[]
3955,4.0,"['human', 'primate', 'primate']",1,[]
3982,4.0,"['support', 'stormfront', 'membership', 'avatar', 'bonus']",1,[]
4069,4.0,"['meet', 'hang', 'white_nationalists', 'perfect', 'place', 'list', 'come', 'event', 'area']",1,[]
4074,4.0,"['festival', 'good', 'people', 'ate', 'food', 'music']",1,[]
4075,4.0,"['fargo', 'broadway', 'ave', 'free', 'parking', 'street', 'event', 'event', 'church']",1,[]
4189,4.0,"['time', 'shot', 'benelli', 'semi_auto', 'video', 'operation', 'benelli', 'shotgun', 'tom', 'knapp', 'shot', 'recoil', 'wait', 'hand']",1,[]
4262,4.0,"['asian', 'makeup', 'actress', 'whiteness', 'beauty']",1,[]
4318,4.0,"['conservative', 'professional', 'politician', 'extreme', 'respect', 'conservative', 'voter', 'loony_leftists', 'conservative', 'politician', 'leftist', 'stance', 'respect', 'leftist', 'funding', 'flow', 'banker', 'run', 'communist_party', 'scam']",1,[]
4352,4.0,"['news', 'flash', 'kardashian', 'white_folks', 'hate', 'race_traitors', 'black', 'folk']",1,[]
4474,4.0,"['girl', 'smoking', 'dope', 'cool', 'kid']",1,[]
4486,4.0,"['congratulation', 'win']",1,[]
4500,4.0,"['peace', 'spathiphyllum', 'folk', 'county', 'call', 'jack', 'pulpit']",1,[]
4518,4.0,"['muslim', 'drive', 'pedestrian', 'follower', 'peace']",1,[]
4559,4.0,"['white_girl', 'black', 'mob', 'hate_crime']",1,[]
4730,4.0,"['french', 'child', 'child', 'genocide', 'men', 'uniform', 'genocide', 'child', 'government', 'order', 'men', 'uniform', 'genocide']",1,[]
4761,4.0,"['boxcar', 'head', 'heel', 'love']",1,[]
4787,4.0,"['kenny', 'vaughan', 'walk', 'marty_stuart', 'superlative']",1,[]
4805,4.0,"['dude', 'perfect', 'blitzball', 'trick', 'shot']",1,[]
4823,4.0,"['stanley', 'brother', 'mountain', 'gal', 'love']",1,[]
4903,4.0,"['politician', 'trey', 'gowdy']",1,[]
4945,4.0,"['amp', 'friend', 'greg', 'duane', 'allman', 'amp', 'bramlett', 'amp', 'begin', 'amp', 'b', 'amp', 'friend', 'delaney', 'amp', 'home', 'amp', 'bramlett', 'duane', 'allman', 'amp', 'friend', 'eric', 'clapton', 'amp', 'friend']",1,[]
4986,4.0,"['dustbowl', 'revival', 'honey']",1,[]
4987,4.0,"['irish', 'people', 'love']",1,[]
4995,4.0,"['mahones', 'night']",1,[]
5105,4.0,"['gabriella', 'quevedo', 'merry_christmas']",1,[]
5327,4.0,"['dude', 'perfect', 'lacrosse', 'trick', 'shot']",1,[]
5501,4.0,"['bound', 'glory', 'beer', 'bottle', 'hockey', 'stick']",1,[]
5502,4.0,"['red', 'blue', 'blockbuster', 'trailer']",1,[]
5570,4.0,"['village', 'girl', 'country', 'girl']",1,[]
5636,4.0,"['halloween', 'pumpkin']",1,[]
5652,4.0,"['psycho', 'devilles', 'addict', 'love']",1,[]
5787,4.0,"['isi', 'gain', 'ground']",1,[]
5831,4.0,"['automatic', 'glock', 'fun']",1,[]
5895,4.0,"['scotty', 'bratcher', 'band', 'lotta', 'love']",1,[]
5997,4.0,"['jerry_miculek', 'glock', 'amp', 'p', 'xd']",1,[]
6049,4.0,"['hero', 'race']",1,[]
6084,4.0,"['neuter', 'social', 'justice']",1,[]
6106,4.0,"['freedom', 'rank', 'state', 'commiefornia', 'jersey', 'study', 'u.s', 'state', 'freedom', 'ben', 'swann', 'truth', 'medium']",1,[]
6174,4.0,"['ramzpaul', 'california', 'boy', 'girl', 'team', 'v=fmynf_3puza']",1,[]
6206,4.0,"['cracker', 'barrel', 'christmas', 'miracle']",1,[]
6221,4.0,['christmas'],1,[]
6359,4.0,"['mar', 'mystery']",1,[]
6425,4.0,"['paul', 'thorn', 'day', 'whup', 'as']",1,['great_day']
6761,4.0,"['country', 'sister']",1,[]
7037,4.0,"['amp', 'p', 'win']",1,[]
7064,4.0,"['trust', 'news', 'medium']",1,[]
7562,4.0,"['uk', 'cornerstone']",1,[]
7733,4.0,"['dance', 'love']",1,[]
7735,4.0,"['megadeth', 'trust']",1,[]
7741,4.0,"['yal', 'pac', 'endorsement', 'young', 'american', 'liberty']",1,[]
7936,4.0,"['mountain', 'ruckus', 'comfort', 'joy']",1,[]
7970,4.0,"['merry_christmas', 'gunblast.com']",1,[]
8108,4.0,"['rescue', 'bird', 'scottish', 'highland', 'game', 'arlington', 'texas']",1,['scottish_highland_games']
8705,4.0,"['paul', 'thorn', 'day', 'whup', 'as']",1,[]
8713,4.0,"['monsanto', 'gmo', 'corn', 'super', 'bug']",1,[]
8754,4.0,"['counterfeit', 'dollar', 'derivative', 'international_banks']",1,[]
8813,4.0,"['jew', 'congress', 'white_house', 'support', 'american_citizens', 'jew', 'support', 'israeli', 'citizen']",1,[]
9076,4.0,"['time', 'year']",1,[]
9116,4.0,"['ash', 'fun']",1,[]
9136,4.0,"['universe', 'infrared', 'view', 'wise', 'sky', 'wide-field', 'infrared', 'survey', 'explorer', 'wise', 'all-sky', 'data', 'release', 'nasa']",1,[]
9672,4.0,"['importance', 'appearance', 'experiment', 'care']",1,[]
9754,4.0,"['read', 'question', 'choice', 'nuke', 'multiple', 'warhead', 'narrow', 'man', 'portable', 'ar-10_chambered', 'rifle', 'man', 'stop', 'caliber', 'god', 'bless_texas']",1,[]
9945,4.0,"['trump', 'born', 'white', 'male', 'racist']",1,[]
10023,4.0,"['hard_working', 'employee', 'trump', 'supporter']",1,[]
10047,4.0,"['hide', 'lie', 'change']",1,[]
10084,4.0,"['poll', 'show', 'fifty', 'percent', 'republican', 'secession', 't-of-the-union', 'liberal', 'folk', 'liberty', 'like', 'secession', 'freedom']",1,[]
10114,4.0,"['texas', 'hero', 'tnb']",1,[]
10166,4.0,"['today', 'weather', 'forecast', 'tomorrow', 'sunday', 'day', 'rifle_range', 'north_texas', 'wind', 'good_luck', 'good_shooting']",1,[]
10182,4.0,"['texas', 'country', 'reporter', 'program', 'focus', 'place', 'people', 'event', 'sponsor', 'festival', 'waxahachie', 'tx', 'october', 'good', 'texan', 'texas', 'entertainer', 'craftsman', 'good', 'texas', 'folk', 'good', 'news', 'white', 'event', 'feature', 'black', 'vocal', 'group', 'draw', 'type', 'mix', 'young_white', 'texas', 'girl', 'talmud-a-vision']",1,[]
10185,4.0,"['houston', 'area', 'phone', 'service', 'work', 'today', 'friend', 'family', 'hope', 'board', 'member', 'north', 'houston', 'gathering', 'october', 'hope', 'people']",1,[]
10303,4.0,"['war', 'christian', 'muslim', 'war', 'traitor', 'jew', 'power', 'citizen', 'muslim', 'tool', 'traitor', 'jew', 'win', 'traitor', 'win', 'jew', 'muslim', 'simple', 'rain']",1,[]
10343,4.0,"['white_folks', 'treat', 'black', 'black', 'treat', 'black']",1,[]
10385,4.0,"['amp', 'w', 'accuracy', 'good', 'heavy', 'barrel', 'ar', 'shooter', 'congratulation']",1,[]
10462,4.0,"['favorite', 'knife']",1,[]
10497,4.0,"['can', 'good', 'taste', 'add', 'water', 'case', 'clean', 'water', 'short', 'supply']",1,[]
10526,4.0,"['success', 'story']",1,[]
10629,4.0,['white_children'],1,[]
10641,4.0,"['jerry_miculek', 'revolver', 'shooter', 'amp', 'w', 'favorite', 'pistol']",1,[]
10648,4.0,"['love', 'tolerent', 'left', 'riot', 'free_speech', 'berkeley', 'commiefornia']",1,[]
10809,4.0,"['roger', 'stone', 'trump', 'delegate', 'sign', 'loyalty', 'pledge']",1,[]
10814,4.0,"['g', 'edward', 'griffin', 'trump', 'phenomenon']",1,[]
10830,4.0,"['trump', 'nobel', 'peace', 'prize']",1,[]
10839,4.0,"['trump', 'hit']",1,[]
10900,4.0,"['tank', 'peace', 'mission', 'mexico', 'city', 'let']",1,[]
10906,4.0,['great'],1,[]
10912,4.0,"['rumor', 'russian', 'body_armor', 'check', 'source']",1,[]
10943,4.0,"['text', 'state', 'jerusalem', 'capital', 'gate', 'city', 'wealth', 'transfer', 'jerusalem', 'night', 'jew', 'loot', 'world', 'wealth', 'jerusalem']",1,[]
10950,4.0,"['love', 'hate', 'hobbit', 'movie', 'stand', 'scene', 'make', 'movie', 'video', 'extra', 'disk', 'hobbit', 'place', 'folk', 'slime', 'hollywood', 'movie', 'lord', 'ring', 'hobbit', 'white', 'entertainment', 'jew', 'hold', 'entertainment', 'industry', 'white_folks']",1,[]
11013,4.0,"['free', 'basic', 'information', 'lyman', 'oreloading.pdf']",1,[]
11065,4.0,"['month', 'update', 'clean', 'bolt', 'carrier', 'thread', 'picture', 'post5959206']",1,[]
11109,4.0,"['reloader', 'like', 'supplier']",1,[]
11210,4.0,"['dixie', 'single', 'thread', 'single', 'place', 'dixie', 'single', 'love', 'dixie', 'place', 'god', 'bless_dixie']",1,[]
11223,4.0,"['classic', 'anti-race', 'mix', 'symbol', 'video', 'tocharian', 'civilization', 'bearer', 'chinese', 'part', 'post5649402', 'way', 'way']",1,[]
11500,4.0,"['pope', 'innocent', 'surprise']",1,[]
11514,4.0,"['lindsey_williams', 'speak_dvd', 'international_bankers', 'fake', 'money', 'real', 'wealth', 'fruit', 'labor']",1,[]
11535,4.0,"['north_carolina', 'farmer', 'freedom', 'act', 'pass', 'bradley', 'bill', 'h.b', 'north_carolina', 'farmer', 'freedom', 'protection', 'act', 'make', 'class', 'misdemeanor', 'border', 'north_carolina', 'north_carolina', 'farmer', 'freedom', 'act', 's.510', 'food', 'freedom', 'god_bless', 'dixie']",1,[]
12012,4.0,"['jp', 'morgan', 'decline', 'bankruptcy', 'give', 'help', 'hand', 'push']",1,[]
12069,4.0,"['jack', 'lalanne', 'feel']",1,[]
12145,4.0,"['skrewdriver', 'blood', 'honour']",1,[]
12230,4.0,"['tullamore', 'song', 'robert', 'burn', 'robert', 'burn', 'day']",1,[]
12411,4.0,"['interview', 'hero', 'help', 'lee', 'loughner']",1,[]
12493,4.0,"['ex-jew', 'brother', 'nathanial', 'god_bless', 'ex-jews']",1,[]
12619,4.0,"['tony_rice', 'ricky_skaggs', 'girl']",1,[]
12715,4.0,"['roy', 'rogers', 'dale', 'evans', 'trail']",1,[]
13348,4.0,"['y2k', 'turbine', 'power', 'super', 'bike']",1,[]
13379,4.0,"['sheriff', 'richard', 'mack', 'state', 'right', 'beast', 'supreme_court', 'victory', 'secret', 'american_citizens']",1,[]
