,Unnamed: 0,Term,Fq-0,Fq-1,Fq-2,Fq-3,Fq-4,Tfidf-0,Tfidf-1,Tfidf-2,Tfidf-3,Tfidf-4,Prob-0,Prob-1,Prob-2,Prob-3,Prob-4
4412,government,government,34,154,334,77,19,0.026153534381069942,0.24160075208328516,0.3725307226129093,0.049982297245939625,0.06418440160486515,0.00011840891000000002,0.008749347,0.016870204,0.00043493704000000004,0.0013666534
10140,state,state,15,32,188,61,4,0.011538323991648504,0.050202753679643664,0.2096879516503801,0.03959636535067945,0.013512505601024242,2.0665548e-05,0.0009149115600000001,0.010611546000000001,0.0007917076600000001,7.50796e-05
10654,texas,texas,39,11,226,56,26,0.029999642378286107,0.01725719657737751,0.25207168655843565,0.03635076163341064,0.08783128640665758,0.00039580117999999997,6.785938e-05,0.007988023,0.0005522023400000001,0.0011156843
6017,law,law,8,13,128,61,5,0.006153772795545869,0.020394868682355242,0.1427662649534503,0.03959636535067945,0.0168906320012803,1.4272438e-06,0.00021141993,0.0076426924,0.0013657960999999999,0.0005945664
11008,trump,trump,2,71,79,47,5,0.0015384431988864672,0.11138735972670938,0.08811355415095759,0.030508674942326782,0.0168906320012803,3.9325955e-06,0.0045839823,0.006402954000000001,0.0019555255,0.00032446315
6979,money,money,25,16,85,21,3,0.01923053998608084,0.025101376839821832,0.09480572282065057,0.013631535612528988,0.01013437920076818,0.00026864794,0.0004012137,0.006188946,7.985851e-05,9.376488000000001e-05
1932,citizen,citizen,9,32,117,56,3,0.006922994394989102,0.050202753679643664,0.13049728905901314,0.03635076163341064,0.01013437920076818,2.4459144999999997e-05,0.0010331429,0.0059656915,0.0011437857,1.9909716e-05
9101,ron_paul,ron_paul,1,15,98,0,2,0.0009094672789732596,0.02782303025899675,0.12923415623802587,0.0,0.007988063329195006,0.0,4.288102e-05,0.0058806953000000006,0.0,0.0
7194,nation,nation,3,73,101,127,1,0.002307664798329701,0.11452503183168712,0.11265150593983185,0.08243833441862769,0.0033781264002560605,2.6911357000000003e-06,0.0037044309999999998,0.0056686415,0.0032763386,0.00022057402999999998
11754,work,work,138,25,93,90,11,0.10615258072316623,0.03922090131222161,0.10372861438024122,0.058420866910838525,0.03715939040281666,0.0041726413,0.00089394784,0.0055709174,0.0021022367,0.0022452980999999998
