,topic_lda,bag_words,sa_score,rank
42,0.0,"['president', 'emmanuel', 'macron', 'french', 'hostage', 'south', 'korean', 'villacoublay', 'paris', 'saturday', 'french', 'news', 'outlet', 'bfmtv', 'report']",0,0.017679814249277115
33,0.0,['report'],0,0.008381013758480549
38,0.0,"['park', 'border', 'burkina', 'faso', 'islamist', 'militant', 'active', 'month']",0,0.00837439764291048
