,Unnamed: 0,Term,Fq-0,Fq-1,Fq-2,Fq-3,Fq-4,Tfidf-0,Tfidf-1,Tfidf-2,Tfidf-3,Tfidf-4,Prob-0,Prob-1,Prob-2,Prob-3,Prob-4
160,share,share,0,0,0,1,0,0.0,0.0,0.0,0.11848516376511367,0.0,6.0184898757142946e-05,4.772969259647653e-05,8.79218932823278e-05,0.03548545762896538,3.898742943420075e-05
31,de,de,0,1,0,1,0,0.0,0.09700422613277382,0.0,0.09559308408243672,0.0,5.827337372465991e-05,0.006781056988984346,0.005198678933084011,0.024050146341323853,3.62126920663286e-05
183,twitter,twitter,0,2,0,2,2,0.0,0.16104454088103518,0.0,0.15870179013012045,0.11027364977213636,6.856460095150395e-05,0.015539493411779404,0.00010360204760218039,0.013013211078941822,0.011953791603446009
86,kidnapper,kidnapper,0,1,1,2,5,0.0,0.06773787239155693,0.16640776912902427,0.13350494899528376,0.2319141765238146,6.465332262450829e-05,0.007438778411597013,0.02222203463315964,0.0130059402436018,0.04171925038099289
55,france,france,0,1,0,2,1,0.0,0.08052227044051759,0.0,0.15870179013012045,0.05513682488606818,5.9117766795679934e-05,0.006794126238673925,0.0003805664018727839,0.012424459680914879,0.005194268189370632
126,operation,operation,2,0,1,2,0,0.2097626801830224,0.0,0.19781447093222654,0.15870179013012045,0.0,0.017963832244277,0.00030524999601766467,0.011307507753372192,0.01236612256616354,0.0003477323625702411
157,sahel,sahel,0,0,0,1,0,0.0,0.0,0.0,0.11848516376511367,0.0,5.691581827704795e-05,4.658847683458589e-05,0.0008192803361453116,0.011902935802936554,3.5633693187264726e-05
148,region,region,0,0,0,1,0,0.0,0.0,0.0,0.11848516376511367,0.0,5.7049066526815295e-05,4.650812843465246e-05,0.0012888031778857114,0.011490845121443272,3.562499477993697e-05
105,marine,marine,1,0,0,1,0,0.12634930902576666,0.0,0.0,0.09559308408243672,0.0,0.008205415681004524,4.92325380037073e-05,0.0019137432100251321,0.011090043932199478,3.745689173229039e-05
43,en,en,0,0,0,1,0,0.0,0.0,0.0,0.11848516376511367,0.0,5.6525917898397886e-05,4.614113640855066e-05,0.001962347188964486,0.010999019257724285,3.5363435017643496e-05
