,x,y,id,label
0,-18.104733,-8.549165,0,1
1,-9.216586,5.2217803,1,4
2,-10.650634,2.3488345,2,3
3,-18.484085,-8.168807,3,1
4,9.008273,12.882627,4,2
5,-18.159885,-8.499479,5,1
6,-8.4363165,-17.258095,6,1
7,-8.489883,4.9720206,7,4
8,0.8506592,-29.687214,8,1
9,-10.109871,-16.69063,9,1
10,10.714614,-5.4554315,10,0
11,-9.783395,-17.102962,11,1
12,-18.45355,-8.2004795,12,1
13,9.696001,-5.77281,13,0
14,10.846141,13.013581,14,2
15,-6.321798,-2.1885653,15,3
16,-8.710034,4.5753193,16,4
17,-22.14059,15.436602,17,4
18,11.451984,12.816476,18,2
19,-5.5578084,-2.3099327,19,3
20,-10.895089,2.2653215,20,3
21,-6.830873,-1.7818242,21,3
22,0.306163,-30.23703,22,1
23,0.56030303,-29.980099,23,1
24,10.417176,-5.6442056,24,0
25,0.7024937,-29.838116,25,1
26,-6.3852396,-2.0646563,26,3
27,-5.531522,-2.436442,27,3
28,-0.34706828,-11.5207815,28,0
29,9.273399,12.256565,29,2
30,8.762804,12.656482,31,2
31,10.264742,-5.3576717,32,0
32,9.732512,-5.8892493,33,0
33,-9.834409,-16.991615,34,1
34,-7.698683,-1.4266264,35,3
35,-9.53275,1.3057832,36,3
36,8.99786,12.808695,37,2
37,-8.914836,5.2131343,38,4
38,0.4017444,-12.615997,39,0
39,12.18696,12.574392,40,2
40,28.5812,-15.093327,41,0
41,-8.697384,-16.913769,42,1
42,0.06447033,-12.812977,43,0
43,-22.247152,15.510018,44,4
44,13.4067335,12.34784,45,2
45,-9.51371,-16.953709,46,1
46,-9.844968,1.5786877,47,3
47,28.410395,-14.922511,48,0
48,11.913351,12.675409,49,2
49,13.503231,12.115045,50,2
50,12.965046,12.141521,51,2
51,12.808971,12.353658,52,2
52,-9.0242815,4.915239,53,4
53,-21.705246,14.861192,54,4
54,-22.344204,15.5781765,55,4
55,12.587279,12.380567,56,2
56,-8.044572,-1.1216052,57,3
57,-7.790504,-1.1782277,58,3
58,-9.867103,-16.889994,59,1
59,-8.260081,4.465015,60,4
60,0.21624765,-12.646936,61,0
61,-8.302457,-17.277107,62,1
62,-10.949288,2.041717,63,3
63,11.062578,12.871529,64,2
64,-8.537628,-17.519785,65,1
65,-8.6357765,-17.162077,66,1
66,28.69598,-15.2081,68,0
67,13.578201,12.189289,69,2
68,8.97683,12.590605,70,2
69,28.220907,-14.733036,71,0
70,-8.02256,-1.290327,72,3
71,-10.057824,1.7827514,73,3
72,-0.12852894,-11.695985,74,0
73,10.643023,-5.395642,75,0
74,-10.589708,1.990703,76,3
75,-22.025528,15.3049135,77,4
76,-18.28637,-8.368907,78,1
77,-10.451345,2.156959,79,3
78,-6.849969,-1.9906274,80,3
79,9.038705,12.113615,81,2
80,-5.637725,-2.3988209,82,3
81,11.126208,13.126927,83,2
82,9.825032,-5.7874384,84,0
83,-18.608023,-8.0450325,85,1
84,-9.220793,-16.973207,86,1
85,-7.095575,-1.8921645,87,3
86,-21.481953,14.543837,88,4
87,-8.298327,4.671009,89,4
88,-8.760953,5.09887,90,4
89,9.130889,12.385259,91,2
90,10.817188,12.775816,92,2
91,28.585821,-15.097943,93,0
92,0.08860611,-12.354097,94,0
93,0.63119733,-29.908993,95,1
94,-21.72764,14.648732,96,4
95,-9.454276,1.2218069,97,3
96,-9.61085,1.3808064,98,3
97,-0.22802983,-11.6420555,99,0
