,topic_lda,bag_words,sa_score,events,rank
527,0.0,"['racist', 'creature', 'turkish', 'jew', 'semitic', 'jew', 'african', 'jew']",-1,[],0.009079341999999999
1584,0.0,"['jew', 'white_folks', 'primitive', 'african', 'cousin', 'pretend', 'black_african', 'jew']",-1,[],0.009079341999999999
1654,0.0,"['microsoft', 'ai', 'chatbot', 'kill', 'day', 'life', 'jew', 'demand', 'death', 'ai', 'think', 'parrot', 'marxist', 'propaganda']",-1,[],0.009079341999999999
1664,0.0,"['jew', 'banker', 'war']",-1,[],0.009079341999999999
1702,0.0,"['jew', 'demand', 'tree', 'kill']",-1,[],0.009079341999999999
1848,0.0,"['evidence', 'occurrence', 'evidence', 'real', 'jew', 'block', 'investigation']",-1,[],0.009079341999999999
1454,0.0,"['black', 'panther', 'arrest', 'pipe', 'bomb', 'firearm']",-1,[],0.008958091999999999
1951,0.0,"['register', 'firearm', 'canada', 'steal', 'register', 'owner', 'owner']",-1,[],0.008958091999999999
1971,0.0,"['real', 'terrorist', 'employ', 'government', 'london', 'government', 'mossad', 'attack', 'real', 'target', 'white', 'house', 'congress', 'pentagon', 'real', 'attack', 'time', 'court', 'parliament', 'international', 'bank']",-1,[],0.008131299
816,0.0,"['official', 'msds', 'state', 'fluoride', 'harm', 'child']",-1,[],0.0063965824
3,0.0,"['homosexual', 'anti-gun', 'mayor', 'jail', 'gun', 'crime']",-1,[],0.0057235826
5,0.0,"['shooter', 'recoil', 'cartridge', 'fire', 'shoot']",-1,[],0.0054379630000000005
262,0.0,"['ben', 'franklin', 'church', 'sunday', 'band', 'wild', 'indian', 'attack', 'church', 'folk', 'franklin', 'preacher', 'men', 'congregation', 'show', 'wrong', 'fire', 'round', 'attack', 'indian', 'life', 'day', 'dead', 'year', 'european', 'living', 'death', 'indian', 'attack', 'today', 'situation', 'wild', 'savage', 'african', 'mestizo', 'blood_thirsty', 'indian', 'indian', 'reservation', 'government', 'threat', 'push', 'fight']",-1,[],0.0054379630000000005
