,topic_lda,bag_words,sa_score,events,rank
369,3.0,"['judge', 'outlaw', 'profile', 'home', 'invasion', 'arm', 'african', 'backstabbing', 'anti-white', 'liberal', 'husband', 'victim', 'innocent_white', 'folk', 'special', 'treatment', 'federal', 'judge', 'marshal', 'call', 'arm', 'african', 'call', 'assist', 'citizen', 'home', 'invasion', 'glad', 'liberal', 'mercy', 'savage', 'set', 'time', 'worse']",0,[],0.015530752
519,3.0,"['white_woman', 'home', 'child', 'shoot', 'african', 'home', 'invader']",0,[],0.015530752
1216,3.0,"['african', 'white_man', 'law', 'rule', 'white', 'society', 'solution', 'total', 'separation', 'african', 'repatriate', 'natural', 'homeland', 'africa', 'black']",0,[],0.015530752
1286,3.0,"['reality', 'slavery', 'plantation', 'life', 'living', 'farm', 'plantation', 'crawl', 'primitive', 'savage', 'central', 'african', 'dixie', 'favor', 'shotgun', 'good', 'fence']",0,[],0.015530752
492,3.0,"['african', 'beast', 'attempt', 'murder', 'irish', 'girl', 'brick']",0,[],0.015530752
319,3.0,"['leftist', 'protest', 'african', 'hammer']",0,[],0.015530752
318,3.0,"['race_mixer', 'african', 'murder', 'class', 'high', 'school', 'sex', 'african', 'wood', 'rap', 'african', 'claim', 'knife', 'tree', 'hit', 'neck', 'knife', 'wound', 'arm', 'attack', 'guess', 'rape', 'great', 'date', 'ohio', 'teen', 'charge', 'murder', 'woman', 'school', 'ny', 'daily', 'news', 'teen', 'custody', 'reynoldsburg', 'death', 'knife', 'victim', 'wbns-10tv', 'columbus', 'ohio', 'medium', 'blackout', 'conviction', 'hate', 'crime', 'murder', 'nj', 'girl']",0,[],0.015530752
310,3.0,"['race_traitor', 'beatin', 'def', 'african', 'boyfrin', 'african', 'black', 'boy', 'hate', 'white', 'people', 'innocent', 'steal']",0,[],0.015530752
663,3.0,"['marxist', 'hurry', 'south_africa', 'time', 'south', 'african', 'end', 'rhodesia', 'marxist', 'dream', 'reality', 'hurry']",0,[],0.015530752
283,3.0,"['prosperity', 'unemployment', 'knee', 'deep', 'pakis', 'indian', 'cash', 'drain', 'diversity', 'strength', 'work', 'welfare', 'african', 'love', 'public', 'servant', 'white', 'house', 'federal', 'congress', 'good', 'let', 'entire', 'federal_government', 'average', 'caput', 'income', 'good', 'queen', 'person', 'poor', 'subject', 'increase', 'tax']",0,[],0.015530752
267,3.0,"['american', 'federal_union', 'mexican', 'african', 'territory', 'territory', 'point', 'demand', 'nation', 'land', 'force', 'america', 'american', 'mexican', 'african', 'repatriate', 'homeland', 'expatriate', 'resource', 'america']",0,[],0.015530752
1449,3.0,"['african', 'lie', 'cousin']",0,[],0.015530752
506,3.0,"['african', 'crime', 'front', 'donut', 'shop']",0,[],0.015530752
520,3.0,"['info', 'white_woman', 'child', 'shoot', 'african', 'home', 'invader']",0,[],0.015530752
525,3.0,"['african', 'trample', 'african', 'show', 'hurry', 'leave', 'stadium', 'dead', 'african', 'child']",0,[],0.015530752
536,3.0,"['dat', 'african', 'skoolin', 'dem', 'yungins']",0,[],0.015530752
547,3.0,"['african', 'mestizo', 'give', 'da', 'muney', 'dat', 'baby', 'brown', 'love']",0,[],0.015530752
659,3.0,"['marxist', 'utopia', 'sweden', 'marxist', 'utopia', 'african', 'muslim', 'white', 'boy', 'blue', 'eye', 'swedish', 'boy', 'assault', 'blue', 'eye']",0,[],0.015530752
657,3.0,"['white', 'african', 'european', 'wilderness', 'area', 'farm', 'european', 'begin', 'farm', 'wilderness', 'africa', 'european', 'begin', 'farm', 'leftist', 'european', 'america', 'africa', 'leftist', 'european', 'white_nation', 'left', 'european']",0,[],0.015530752
2054,3.0,"['snowfall', 'cover', 'body', 'cold', 'miss', 'african', 'mamma']",0,[],0.015530752
140,3.0,"['mass_medium', 'african', 'rape', 'murder', 'grand', 'daughter', 'medium', 'mogul']",0,[],0.015530752
96,3.0,"['ally', 'france', 'bombing', 'campaign', 'kill', 'french', 'ally', 'save', 'french', 'survivor', 'rap', 'french', 'child', 'buy', 'ally', 'african', 'ally', 'turkish', 'troop', 'rape', 'pillage', 'asian', 'russian', 'rape', 'gang', 'save']",0,[],0.015530752
76,3.0,"['army', 'tom', 'metzger', 'african', 'mexican', 'mexico', 'asian', 'asia', 'homeland']",0,[],0.015530752
1120,3.0,"['african', 'scene', 'chant', 'hand', 'shoot', 'white', 'guy', 'shot', 'shock']",0,[],0.015530752
1118,3.0,"['real', 'liberal', 'thomas', 'jefferson', 'type', 'term', 'brain', 'dead', 'loony', 'leftist', 'commie', 'call', 'lean', 'progressive', 'liberal', 'commie', 'term', 'liberal', 'mean', 'free', 'thinker', 'read', 'book', 'liber', 'loony_leftists', 'reading', 'book', 'drug', 'craze', 'stupor', 'class', 'separation', 'separation', 'real', 'world', 'term', 'black', 'white_folks', 'white', 'kid', 'safe', 'birth', 'accident', 'alcoholic', 'mother', 'retardation', 'public', 'school', 'surround', 'black', 'liberal', 'real', 'world', 'condition', 'advantage', 'black', 'remove', 'black', 'advantage', 'savage', 'aptitude', 'doctor', 'professional', 'remove', 'world', 'progress', 'savage', 'brown', 'desire', 'separation', 'tribe', 'type']",0,[],0.012700546000000002
849,3.0,"['integration', 'child', 'texas', 'town', 'white', 'neighborhood', 'local', 'grade', 'school', 'white', 'taxpayer', 'white_children', 'school', 'parade', 'small', 'minority', 'white_children', 'history', 'culture', 'pride', 'anti-white', 'federal', 'judge', 'government', 'jew', 'pay', 'full', 'interest', 'demand']",0,[],0.012700546000000002
937,3.0,"['act', 'federal', 'tax', 'status', 'start', 'fund', 'church', 'sanctuary', 'soup', 'kitchen', 'day', 'care', 'poor', 'white_folks', 'meeting', 'hall', 'white', 'social', 'event', 'meeting', 'true', 'christian', 'church', 'church']",0,[],0.012700546000000002
1071,3.0,"['serb', 'homeland', 'raise', 'child', 'serb', 'america', 'france', 'england', 'ireland', 'australia', 'white_nations', 'state', 'black_african', 'state', 'chinese', 'asian', 'state', 'white', 'state']",0,[],0.012700546000000002
49,3.0,"['chant', 'usa', 'usa', 'usa', 'movement', 'trump', 'white', 'american', 'america', 'great']",0,[],0.012700546000000002
1201,3.0,"['white', 'american', 'citizen', 'government', 'system', 'right', 'taxation', 'representation']",0,[],0.012700546000000002
1306,3.0,"['piece', 'machinery', 'import', 'union', 'want', 'quality', 'product', 'sell', 'reason', 'yankee', 'product', 'dollar', 'item', 'estimate', 'material', 'cost', 'dollar', 'charge', 'labor', 'distribution', 'profit', 'condition', 'item', 'white', 'southerner', 'fire', 'machine', 'shop', 'shoddy', 'attention', 'detail', 'yankee', 'machinist', 'pride', 'work', 'attention', 'detail', 'call', 'finish', 'product', 'finish', 'kit', 'money', 'fell', 'place', 'issue', 'life', 'people', 'talk', 'tariff', 'lincoln', 'army', 'purpose', 'tariff', 'force', 'ancestor', 'purchase', 'shoddy', 'northern', 'good', 'dirt', 'poor', 'yankee', 'charge', 'high', 'price', 'shoddy', 'good', 'shoddy', 'northern', 'good', 'hand', 'deal', 'money', 'spark', 'departure', 'union', 'lack', 'pride', 'yankee', 'machine', 'shop', 'shoddy', 'quality', 'yankee', 'good', 'high', 'price', 'charge', 'quality', 'spark', 'american', 'revolution', 'hand', 'fight', 'deo', 'vindice']",0,['second_american_revolution'],0.012700546000000002
1340,3.0,"['president', 'history', 'president', 'history', 'office', 'time', 'doubt', 'president', 'date', 'president', 'jefferson', 'davis', 'washington', 'jackson', 'sense', 'duty', 'carter', 'sound', 'word', 'sentence', 'politician', 'president', 'jefferson', 'davis', 'state', 'south', 'want', 'left', 'life', 'raise', 'child', 'law', 'homeland', 'america', 'stand', 'scoundrel', 'lincoln', 'country', 'murder', 'citizen', 'news', 'paper', 'free', 'press', 'property', 'free', 'men', 'serve', 'soldier', 'left', 'legacy', 'tyranny', 'today', 'beast', 'homeland', 'murder', 'woman', 'white_children', 'property', 'money', 'white_man', 'property', 'trample', 'law', 'union', 'confederacy', 'combine', 'evil', 'face', 'today', 'stem', 'union_government', 'dictatorship', 'federal', 'judge', 'legacy', 'white', 'house', 'person', 'honor', 'shame', 'booth', 'shot', 'lincoln', 'government', 'occupation', 'child', 'southland', 'free']",0,[],0.012700546000000002
600,3.0,"['alex_jones', 'mafia', 'italian', 'mafia', 'hollywood', 'italian', 'mafia', 'hollywood', 'mafia', 'control', 'hollywood', 'white', 'member', 'work', 'mafia', 'race_traitors', 'race_traitor', 'proponent', 'white_genocide', 'worse', 'jew', 'work', 'good', 'people', 'mafia', 'proponent', 'white_genocide', 'remedy', 'crime', 'genocide', 'death', 'justice', 'reach', 'white', 'american', 'european', 'alex_jones', 'mafia', 'news', 'broadcast', 'world', 'wake', 'hollywood', 'media_mafia', 'degenerate', 'institution', 'planet', 'earth', 'hollywood', 'proponent', 'white_genocide', 'stop_white', 'genocide']",0,[],0.012700546000000002
1374,3.0,"['work', 'night', 'hour', 'head', 'farm', 'work', 'dollar', 'gas', 'money', 'drive', 'white', 'privilege', 'nap', 'stuff', 'farm']",0,[],0.012700546000000002
1434,3.0,"['bill', 'clinton', 'infestation', 'white', 'house', 'pardon', 'criminal', 'cash', 'obama', 'pardon', 'america', 'enemy', 'jihad', 'obama', 'arrest', 'congress', 'criminal', 'organization']",0,[],0.012700546000000002
1660,3.0,"['poison', 'mind', 'anti-whites', 'poison', 'jewish_communists', 'white_nations', 'excuse', 'call', 'white_genocide', 'anti-whites', 'corporation', 'monopoly', 'system', 'head', 'international_jewish', 'banker', 'mtv', 'propaganda', 'outlet', 'gansta', 'thug', 'life', 'drug', 'immorality', 'young', 'innocent_white', 'child', 'homosexual', 'agenda', 'jew', 'poison', 'slip', 'white', 'culture', 'jew', 'excuse', 'call', 'white_genocide', 'root', 'evil', 'find']",0,[],0.012700546000000002
1662,3.0,"['jew', 'white', 'privilege', 'white', 'people', 'kill', 'white', 'privilege']",0,[],0.012700546000000002
1782,3.0,"['book', 'expose', 'motivation', 'federal_government', 'book', 'cover', 'operative', 'nixon', 'target', 'mention', 'nsa', 'organization', 'control', 'cia', 'program', 'nature', 'nsa', 'program', 'nsa', 'manifest', 'banking', 'family', 'nixon', 'nixon', 'anti-communist', 'communist', 'program', 'globalism', 'destruction', 'nation', 'nixon', 'nationalist', 'globalist', 'white', 'house', 'congress', 'court', 'government', 'tear', 'america', 'europe', 'nation', 'globalism', 'government', 'control', 'world', 'banking', 'family', 'control', 'government', 'secession', 'solution', 'wait', 'operation', 'operation', 'nixon', 'l', 'ron', 'hubbard', 'real', 'deal', 'hubbard', 'american', 'intelligence', 'occult', 'organization', 'process', 'set', 'organization', 'real', 'purpose', 'purpose', 'cia', 'operation', 'l', 'ron', 'hubbard', 'entire', 'organization', 'member', 'experience', 'hubbard', 'organization', 'fraud', 'turn', 'fraud', 'real', 'hubbard', 'real', 'deal', 'banking', 'family', 'fear', 'enlightenment', 'earthling', 'dumbed', 'subjugation']",0,[],0.012700546000000002
1842,3.0,"['ukrainian', 'kill', 'white', 'neighbor', 'crimea', 'ukrainian', 'tatar', 'crimea', 'ukrainian', 'tatar', 'raid', 'ukraine', 'slave', 'ukrainian', 'crimea', 'independent', 'nation', 'reason', 'crimea', 'join', 'russia', 'nikita', 'khrushchev', 'moment', 'stalingrad', 'help', 'defeat', 'evil', 'nazi', 'khrushchev', 'today', 'purge', 'nazi', 'ukraine', 'khrushchev', 'mass_murder', 'advisor', 'friend', 'stalin', 'stalin', 'give', 'ukraine', 'khrushchev', 'governor', 'mass', 'murder', 'bos', 'stalin', 'die', 'nikita', 'khrushchev', 'dictator', 'soviet_union', 'ruler', 'idiot', 'start', 'ww_iii', 'put', 'missile', 'cuba', 'backfire', 'governor', 'ukraine', 'give', 'crimea', 'gift', 'ukraine', 'people', 'crimea', 'vote', 'ukraine', 'ukraine', 'ukraine', 'crimea', 'mass', 'murder', 'dictator', 'give', 'crimea', 'ukraine', 'gift', 'ukraine', 'rule', 'crimea', 'history', 'nation', 'wrong', 'ukrainian', 'crimea', 'free', 'peace', 'white', 'neighbor']",0,['ww_iii'],0.012700546000000002
1927,3.0,"['american', 'rifleman', 'tv', 'springfield', 'make', 'area', 'white', 'feather', 'tribute', 'hathcock', 'marine', 'sniper', 'man', 'team', 'sniper', 'carry', 'bolt', 'action', 'winchester', 'remington', 'spotter', 'carry', 'm-14', 'springfield', 'offering', 'synthetic', 'stock', 'semi_auto', 'm1a', 'rifle', 'rail', 'top', 'side', 'mount', 'scope', 'attachment', 'scope', 'rail', 'mount', 'hold', 'side', 'mount', 'bedding', 'accuracy', 'recoil', 'cost', 'springfield', 'm1a', 'folk', 'love', 'm1a', 'model']",0,[],0.012700546000000002
2010,3.0,"['white_families', 'raise', 'child', 'white', 'american', 'return', 'white_families', 'matter', 'normal', 'mother', 'father', 'child', 'child', 'suicide', 'shock', 'local', 'public', 'school', 'neighborhood', 'dallas', 'area', 'grader', 'attempt', 'suicide', 'sound', 'normal', 'normal']",0,[],0.012700546000000002
2011,3.0,"['hey', 'white', 'knight', 'living', 'expense', 'men', 'feminist', 'monster', 'monster', 'monster', 'divorce', 'judge', 'hand', 'home', 'pay', 'tax', 'system', 'sound', 'fair', 'find', 'homeless', 'father', 'give', 'money', 'month', 'apartment', 'bit', 'dignity', 'national', 'socialism', 'white_folks', 'situation', 'today', 'taboo', 'subject', 'jewish_mass', 'medium']",0,[],0.012700546000000002
654,3.0,"['anti-white', 'military', 'control', 'military', 'africa', 'white', 'slaughter', 'liberty', 'white', 'population']",0,[],0.012700546000000002
2067,3.0,"['die', 'die', 'beast', 'field', 'bird', 'sky', 'walk', 'crawl', 'fly', 'swim', 'die', 'action', 'preserve', 'life', 'place', 'run', 'hide', 'save', 'die', 'positive', 'action', 'preserve', 'life', 'preserve', 'life', 'child', 'entire', 'world', 'child', 'target', 'genocide', 'multitude', 'earth', 'child', 'right', 'group', 'group', 'child', 'child', 'minority', 'child', 'white_humans', 'genocide', 'murder', 'bear', 'lion', 'cub', 'tooth', 'nail', 'give', 'child', 'flag', 'future', 'flag', 'fly', 'flag', 'fight', 'future', 'future', 'stand', 'flag', 'blue', 'field', 'white', 'crayon', 'red', 'paper', 'crayon', 'red', 'paper', 'logo', 'read', 'child', 'white', 'letter', 'red', 'white', 'blue', 'heritage', 'future', 'murder']",0,[],0.012700546000000002
256,3.0,"['thought', 'rap', 'age', 'girl', 'bill', 'beat', 'bad', 'history', 'beating', 'woman', 'brain', 'injury', 'size', 'blood', 'clot', 'land', 'blood', 'vessel', 'stress', 'verge', 'prison', 'chance', 'white', 'house', 'raise', 'blood', 'pressure', 'make', 'stroke', 'reading', 'word']",0,[],0.012700546000000002
217,3.0,"['leftist', 'call', 'assassination', 'tom', 'brady', 'white_man', 'lead', 'superbowl', 'upset', 'victory', 'victory', 'white', 'supremacy', 'leftist', 'guess', 'fair', 'white_man', 'black_african', 'equality', 'social', 'justice']",0,[],0.012700546000000002
380,3.0,"['race_mixer', 'trans-racial', 'orange', 'spray', 'tan', 'afro', 'hair', 'treatment', 'president', 'local', 'naacp', 'white', 'female', 'real', 'black', 'area', 'spokane', 'woman', 'transracial', 'unz', 'review']",0,[],0.012700546000000002
309,3.0,"['stay', 'dad', 'need', 'time', 'child', 'tnb', 'hand', 'france', 'anti-white', 'washington_government', 'black', 'rape', 'murder', 'white', 'french', 'child', 'german', 'soldier', 'shot', 'kind', 'today', 'day', 'trigger', 'job', 'rifle', 'cleaning', 'magazine', 'tnb', 'stay']",0,[],0.012700546000000002
482,3.0,"['nazi', 'leftist', 'communist', 'leftist', 'nazi', 'collectivist', 'communist', 'collectivist', 'nazi', 'individual', 'communist', 'individual', 'difference', 'ideology', 'nazi', 'difference', 'communist', 'dead', 'ideology', 'white', 'nationalism', 'propaganda', 'concept', 'white', 'nationalism', 'path', 'future', 'white_children', 'world', 'path', 'white', 'nationalism', 'stray', 'path', 'invite', 'destruction']",0,[],0.012700546000000002
448,3.0,"['texas', 'style', 'bbq', 'dallas', 'area', 'sunday', 'october', 'family', 'event', 'drug', 'alcohol', 'exception', 'cook', 'dish', 'cook', 'chip', 'soda', 'snack', 'single', 'theme', 'white', 'national', 'unity', 'brotherhood', 'meet', 'white', 'national', 'door', 'location', 'pm', 'safe', 'hope', 'host', 'white', 'national', 'professional', 'north', 'texas', 'alliance', 'group', 'irish', 'scottish', 'welsh', 'english', 'scandinavian', 'german', 'polish', 'russian', 'italian', 'slave', 'french', 'european', 'spanish', 'alamo', 'bbq', 'sauce']",0,[],0.012700546000000002
572,3.0,"['white_humans', 'encounter', 'niggro', 'coexistence', 'niggro', 'civilization', 'separate', 'niggro', 'year', 'white_man', 'history', 'encounter', 'niggro', 'creature', 'primary', 'source', 'meat', 'niggro', 'niggros', 'bad', 'niggro', 'slave', 'niggro', 'slave', 'owner', 'good', 'niggro', 'slave', 'bad', 'niggro', 'slave', 'meat', 'buck', 'work', 'bad', 'buck', 'worse', 'white', 'human', 'non-bucks', 'undesirable', 'niggro', 'meat', 'bad', 'slave', 'excess', 'slaughter', 'left', 'rot', 'jew', 'control', 'brown', 'slave', 'trade', 'middle', 'east', 'jew', 'control', 'white', 'slave', 'trade', 'jew', 'black_slaves', 'market', 'jew', 'trade', 'black_slaves', 'black', 'slave', 'owner', 'trade', 'good', 'slave', 'bad', 'slave', 'slaughter', 'left', 'rot', 'trade', 'jew', 'black_slaves', 'mexico', 'america', 'bad', 'slave', 'slave', 'today', 'cousin', 'mulatto', 'slave', 'trader', 'left', 'central_africa']",0,[],0.012700546000000002
679,3.0,"['federal_government', 'show', 'russian', 'hiding', 'satellite', 'time']",0,[],0.007433768
1115,3.0,"['time', 'year', 'summer', 'food', 'garden', 'fruit', 'bread', 'meat', 'butter', 'egg', 'milk', 'spice', 'condiment', 'cake', 'plan', 'bread', 'quart', 'food', 'week', 'summer', 'goal', 'can', 'good', 'sale', 'buy', 'sale', 'garden', 'organic', 'cook', 'garden', 'stew', 'garden', 'chili', 'garden', 'spaghetti', 'buy', 'grocery', 'store', 'pizza', 'snack', 'food', 'come', 'year', 'excess', 'garden', 'produce', 'can', 'good', 'can', 'peach']",0,[],0.007433768
1258,3.0,"['menu', 'item', 'price', 'circle', 'dollar', 'dollar', 'list', 'thousand', 'dollar', 'time', 'circle', 'record', 'list', 'hundred', 'dollar', 'dollar']",0,[],0.007433768
1329,3.0,"['ray', 'day', 'range', 'ray', 'day', 'folk', 'confederate', 'hero', 'day', 'day', 'black', 'give', 'day', 'job', 'white_folks', 'good', 'reason', 'day', 'day', 'work', 'home', 'baby', 'set', 'ray', 'day', 'school', 'holiday', 'texas', 'ray', 'day', 'gun', 'range', 'ray', 'day', 'smile', 'handshake', 'salute', 'south', 'heroism', 'marksmanship', 'favorite', 'actor', 'john', 'wilks', 'booth', 'america', 'white_nation', 'rifleman', 'rifleman', 'english', 'colony', 'murder', 'existence', 'blood_thirsty', 'asian', 'savage', 'indian', 'savage', 'rifle', 'accu', 'trigger', 'want', 'buy', 'feather', 'savage', 'logo', 'rifle', 'image', 'beast', 'murder', 'worse', 'relation', 'friend', 'white_man', 'buy', 'buffalo', 'rifle', 'buffalo', 'rifle', 'buffalo', 'savage', 'rifle', 'list', 'black', 'panther', 'semi_auto', 'doubt', 'stop', 'stampede', 'charge', 'panther', 'texas', 'attack', 'blood_thirsty', 'savage', 'white_man', 'arm', 'lever', 'action', 'rifle', 'hundred', 'round', 'ammunition', 'shot', 'dead', 'savage', 'battle', 'day', 'history', 'repeat', 'battle', 'bighorn', 'people', 'talk', 'pile', 'dead', 'savage', 'soldier', 'twenty', 'fifty', 'target', 'rich', 'environment', 'end', 'savage', 'soldier', 'ammunition', 'savage', 'warrior', 'general', 'custer', 'white_man', 'kill', 'drew', 'breath', 'end', 'hand', 'hand', 'combat', 'surrender', 'account', 'day', 'savage', 'charge', 'soldier', 'fast', 'pony', 'ridge', 'shot', 'steal', 'horse', 'wound', 'single', 'wound', 'savage', 'die', 'guess', 'death', 'toll', 'american', 'hero', 'davy', 'crockett', 'die', 'battle', 'day', 'battle', 'lay', 'sick', 'bed', 'mexican', 'pile', 'dead', 'mexican', 'litter', 'texas', 'soil', 'number', 'white_man', 'alamo', 'causality', 'excess', 'mexican', 'savage', 'morning', 'battle', 'san', 'jacinto', 'mexican', 'arm', 'white_man', 'brown', 'savage', 'turn', 'tail', 'life', 'mexican', 'border', 'reason', 'firearm', 'shopping', 'list', 'firearm', 'steal', 'criminal', 'mexican', 'alien', 'life', 'time', 'worth', 'firearm', 'scratch', 'buy', 'safe', 'doubt', 'change', 'blood_thirsty', 'primitive', 'savage', 'arm', 'jewish_communists', 'attack', 'year', 'inevitable', 'attack', 'savage', 'primitive', 'savage', 'attack', 'savage', 'change']",0,"['battle_of_the_little_bighorn', 'battle_of_san_jacinto']",0.007433768
588,3.0,"['aleksandr', 'solzhenitsyn', 'aleksandr', 'solzhenitsyn', 'solzhenitsyn', 'russian', 'novelist', 'note', 'historian', 'survivor', 'stalin', 'gulag', 'gulag', 'archipelago', 'remains', 'international', 'classic', 'award', 'nobel', 'prize', 'literature', 'soviet_union', 'honor', 'university', 'west', 'life', 'solzhenitsyn', 'writing', 'light', 'day', 'west', 'year', 'essay', 'great', 'writer', 'conspiracy', 'bolshevist', 'takeover', 'oppression', 'russia', 'countryman', 'crime', 'blood', 'stain', 'hand', 'people', 'nation', 'entirety', 'human', 'history', 'bolshevism', 'human', 'slaughter', 'time', 'crime', 'proof', 'medium', 'hand', 'perpetrator']",0,[],0.007433768
450,3.0,"['version', 'great', 'ball', 'fire', 'begin', 'thought', 'play', 'wrong', 'speed', 'patron', 'voice', 'lol', 'great', 'show', 'killer', 'time']",0,[],0.007433768
1209,3.0,"['death', 'indian', 'attack', 'white_folks', 'indian', 'time', 'indian', 'murder', 'white_families', 'indian', 'murder']",0,[],0.007433768
1204,3.0,"['cold', 'bluing', 'chemical', 'layer', 'molecule', 'surface', 'steel', 'form', 'layer', 'corrosion', 'result', 'steel', 'chemical', 'bottle', 'cold', 'bluing', 'shotgun', 'barrel', 'light', 'blue', 'antique', 'revolver', 'antique', 'shotgun', 'brown', 'rust', 'brand', 'brand', 'sell', 'academy', 'sport', 'outdoors', 'time', 'call', 'academy']",0,[],0.007433768
454,3.0,"['son', 'great', 'time', 'bbq', 'great', 'people', 'glad', 'guy', 'break', 'sword', 'cd', 'handy', 'song', 'request', 'oil', 'water']",0,[],0.007433768
1357,3.0,"['aol', 'poll', 'ancestor', 'treat', 'dignity', 'compassion', 'living', 'creature', 'left', 'union', 'eventhough', 'hold', 'force', 'arm', 'union', 'time', 'separate', 'union', 'comment', 'crude', 'un-educated', 'yankee', 'kind', 'give', 'freedom', 'ancestor', 'blood']",0,[],0.007433768
1168,3.0,"['buy', 'military', 'surplus', 'local', 'outfit', 'amp', 'w', 'para', 'sti', 'produce', 'texas', 'opinion', 'brand', 'guy', 'time', 'competition', 'amp', 'w', 'zm', 'production', 'custom', 'notice', 'p', 'design', 'work', 'shooter', 'bob', 'munden', 'amp', 'w', 'split', 'play', 'card', 'work']",0,[],0.007433768
470,3.0,"['want', 'song', 'time', 'dad', 'favorite', 'song']",0,[],0.007433768
580,3.0,"['favorite', 'time', 'eu', 'parliament', 'member', 'shoot', 'bastard', 'zionist', 'debate', 'good', 'nation', 'debate', 'great', 'jew', 'mouth', 'anti-israel', 'comment', 'jew', 'israeli', 'zionist', 'bastard', 'shot', 'scholar', 'israeli', 'worse', 'nazi', 'israeli', 'worse', 'nazi', 'sight', 'target']",0,[],0.007433768
473,3.0,"['cattle', 'call', 'great', 'song', 'head', 'time']",0,[],0.007433768
1398,3.0,"['japanese', 'force', 'korea', 'buying', 'fish', 'japanese', 'government', 'claim', 'fish', 'international', 'trade', 'agreement', 'japanese', 'government', 'rice', 'rot', 'dock', 'rice', 'japanese', 'customer', 'japan', 'pressure', 'south', 'korea', 'wto', 'meeting', 'lift', 'ban', 'seafood', 'fukushima', 'prefecture', 'japan', 'time']",0,[],0.007433768
164,3.0,"['idea', 'run', 'test', 'feel', 'test', 'success', 'share', 'trouble', 'cleaning', 'type', 'bolt', 'carrier', 'bolt', 'buy', 'idea', 'clean', 'bolt', 'bolt', 'carrier', 'soak', 'solution', 'wd-40', 'cleaner', 'cost', 'dollar', 'ounce', 'wd-40', 'twelve', 'buck', 'gallon', 'add', 'oil', 'lubrication', 'full', 'add', 'clp', 'kroil', 'leave', 'bolt', 'bolt', 'carrier', 'soak', 'clean', 'rifle', 'soak', 'raise', 'bolt', 'carrier', 'fluid', 'drain', 'dip', 'repeat', 'time', 'gun', 'powder', 'carbon', 'residue', 'drain', 'fluid', 'wipe', 'excess', 'oil', 'put', 'gun', 'grease', 'move', 'surface', 'q-tip', 'feel', 'light', 'coat', 'oil', 'residue', 'stick', 'metal', 'solution', 'wash', 'particle', 'bolt', 'carrier', 'filter', 'solution', 'coffee', 'filter', 'filter', 'solution', 'wd-40', 'storage', 'feel', 'work', 'pas', 'info']",0,[],0.007433768
1079,3.0,"['traitor', 'washington', 'dc', 'russia', 'steal', 'crimea', 'military', 'force', 'crimea', 'russian', 'vote', 'secession', 'ukraine', 'majority', 'time', 'ukrainian', 'crimea']",0,[],0.007433768
479,3.0,"['revolver', 'sale', 'time', 'smith', 'wesson', 'shoot', 'special', 'ammo', 'like', 'shoot', 'revolver', 'hammer', 'revolver', 'cock', 'hammer', 'aim', 'shot', 'hammer', 'carry', 'handgun', 'hammer', 'catch', 'clothing', 'draw', 'john', 'wesley', 'hardin', 'capture', 'drew', 'pistol', 'clothing', 'seat', 'passenger', 'train', 'time', 'expert', 'handgun']",0,[],0.007433768
409,3.0,"['note', 'time', 'aryan', 'india', 'ancestor', 'call', 'aryan', 'event', 'part', 'high', 'society', 'china', 'advance', 'current', 'society', 'today', 'space', 'program', 'aryan', 'space', 'program', 'space', 'program', 'nasa', 'craft', 'discovery', 'aryan', 'india', 'human', 'nordic', 'combination', 'history', 'tell', 'society', 'china', 'nordic', 'people', 'space', 'program', 'china', 'nordic', 'full', 'history']",0,[],0.007433768
251,3.0,"['afromexicanos', 'offer', 'fact', 'single', 'afromexicanos', 'mexico', 'leave', 'mexico', 'time', 'afromexicanos', 'leave', 'america']",0,[],0.007433768
1566,3.0,"['extremist', 'hate', 'group', 'leader', 'tim', 'wise', 'tim', 'wise', 'call', 'murder', 'violence', 'innocent_white', 'folk', 'loony', 'leftist', 'follower', 'arrest', 'attack', 'weapon', 'put', 'time', 'prison', 'institution', 'tim', 'wise', 'proponent', 'white_genocide', 'remedy', 'crime', 'genocide', 'civilian', 'death', 'hang', 'te-university/']",0,[],0.007433768
483,3.0,"['war', 'genocide', 'communist', 'murder', 'white_children', 'peace', 'time', 'debt', 'compound', 'interest', 'demand']",0,[],0.007433768
1890,3.0,"['type', 'glove', 'fine', 'short', 'time', 'wash', 'hand', 'reaction', 'glove', 'wear', 'glove', 'minute', 'longer', 'chemical', 'glove', 'pair', 'cotton', 'glove', 'liner', 'soak', 'normal', 'sweat', 'hand', 'chemical', 'glove', 'dollar', 'pair', 'hardware', 'store', 'cotton', 'glove', 'sell', 'dollar', 'pair']",0,[],0.007433768
1768,3.0,"['time', 'israel', 'mistake']",0,[],0.007433768
806,3.0,"['range', 'weekend', 'red', 'dot', 'sight', 'property', 'invite', 'change', 'ammo', 'custom', 'hand', 'load', 'inch', 'caliber', 'carbine', 'sight', 'red', 'dot', 'ammo', 'point', 'impact', 'rifle', 'bear', 'mountain', 'lion', 'area', 'bullet', 'shot', 'yard', 'contour', 'land', 'yard', 'shot', 'fire', 'bipod', 'carbine', 'shoulder', 'rear', 'bag', 'rear', 'pod', 'shot', 'bottom', 'inch', 'inch', 'red', 'dot', 'moa', 'adjustment', 'dial', 'click', 'left', 'click', 'red', 'dot', 'fine', 'left', 'reason', 'dial', 'click', 'move', 'dial', 'click', 'act', 'time', 'change', 'ammo', 'fancy', 'laser', 'red', 'dot', 'movement', 'laser', 'work', 'glad', 'move', 'hope', 'boy', 'keep', 'trigger', 'finger', 'muscle', 'shape']",0,[],0.007433768
751,3.0,"['buy', 'american', 'majority', 'national', 'legislature', 'pass', 'bill', 'official', 'policy', 'product', 'texas', 'union', 'product', 'union', 'race_traitor', 'rick', 'perry', 'time', 'petition', 'recall', 'election', 'progressive', 'rick', 'perry', 'veto', 'buy', 'american', 'bill', 'texas', 'house']",0,[],0.007433768
165,3.0,"['watch', 'segment', 'gun', 'ammo', 'tv', 'topic', 'clean', 'bolt', 'shooter', 'show', 'carbon', 'build', 'need', 'scrap', 'tool', 'show', 'scrap', 'carbon', 'deposit', 'interior', 'bolt', 'carrier', 'clean', 'method', 'soak', 'bolt', 'carrier', 'unit', 'bolt', 'carrier', 'carbon', 'deposit', 'guess', 'mention', 'product', 'bolt', 'carrier', 'case', 'combination', 'wet', 'time', 'clp', 'clean', 'pump', 'spray', 'bottle', 'hoppe', 'number', 'gun', 'oil', 'squeeze', 'bottle', 'hoppe', 'number', 'oil', 'spray', 'remington', 'gun', 'oil', 'teflon', 'spray', 'gibb', 'oil', 'spray', 'local', 'product', 'call', 'sweet', 'shooter', 'metal', 'cleaner', 'treatment', 'design', 'firearm', 'main', 'sell', 'point', 'sweet', 'shooter', 'soak', 'clean', 'magazine', 'stainless', 'steel', 'tray', 'soak', 'bolt', 'carrier', 'sweet', 'shooter', 'package', 'product', 'hope', 'work', 'bolt', 'carrier', 'fire', 'time', 'dry', 'carbon', 'stick']",0,[],0.007433768
597,3.0,"['president', 'richard', 'nixon', 'april', 'america', 'leader', 'kissinger', 'time']",0,[],0.007433768
229,3.0,"['lever', 'action', 'rifle', 'drop', 'deer', 'ground', 'yard', 'sell', 'gun', 'steal', 'mexican', 'bandit', 'lever', 'gun', 'think', 'magnum', 'colt', 'colt', 'rifle', 'drop', 'magnum', 'rifle', 'cartridge', 'notice', 'experience', 'cartridge', 'work', 'lever', 'action', 'rifle', 'import', 'rossi', 'model', 'saddle', 'ring', 'carbine']",0,[],0.007314823000000001
1241,3.0,"['local', 'newspaper', 'year', 'north', 'dakota', 'budget', 'surplus', 'dollar', 'revenue', 'dollar', 'welcome', 'somali', 'mexican', 'indian', 'asian']",0,[],0.007314823000000001
844,3.0,"['item', 'people', 'alex_jones', 'mention', 'video', 'federal_agent', 'mexican', 'invader', 'texas', 'driver', 'license', 'spoke', 'english', 'excuse', 'arrest', 'citizen', 'show', 'gun_show', 'austin', 'texas', 'area', 'criminal', 'control', 'washington', 'agency', 'atf', 'batf', 'batfe', 'mood', 'criminal', 'alias', 'fed', 'convict', 'texan', 'sell', 'alien', 'texas', 'driver']",0,[],0.007314823000000001
1180,3.0,"['common', 'ground', 'mexican', 'american', 'border', 'mexican', 'immigrant', 'mexico', 'american', 'immigrant', 'mexican', 'crime', 'american', 'criminal', 'common', 'ground']",0,[],0.007314823000000001
858,3.0,"['flood', 'texas', 'mexican', 'invader', 'invader', 'vote', 'fed', 'fear', 'secession', 'federal', 'judge', 'texas', 'voter', 'id', 'law', 'attempt', 'mexican', 'citizen', 'vote', 'texas', 'independence', 'texas', 'anger', 'resistance', 'federal', 'court', 'order', 'texas', 'change', 'voter', 'id', 'law', 'november', 'wsj']",0,[],0.007314823000000001
965,3.0,"['small', 'texas', 'town', 'law', 'place', 'mexican', 'black', 'home', 'invasion', 'common', 'bounty', 'dead', 'home', 'invader', 'congratulation', 'arm', 'citizen']",0,[],0.007314823000000001
819,3.0,"['fema', 'texas', 'firefighter', 'stand', 'order', 'texas', 'burn', 'government', 'hell', 'rick', 'perry', 'texas', 'wild', 'fire', 'wild', 'fire', 'burning', 'area', 'current', 'wild', 'fire', 'burn', 'area', 'size', 'connecticut', 'total', 'texas', 'drought', 'mexican', 'force', 'leave', 'texas']",0,[],0.007314823000000001
1233,3.0,"['operation_gunwalker', 'report', 'mexican', 'newspaper', 'el', 'paso', 'texas', 'atf', 'agent', 'batfe', 'agent', 'operation_gunwalker', 'batfe', 'firearm', 'american', 'union', 'mexico', 'batfe', 'license', 'federal', 'firearm', 'dealer', 'green', 'light', 'sell', 'large', 'quantity', 'firearm', 'mexican', 'national', 'know', 'firearm', 'mexico', 'batfe', 'order', 'mexican', 'national', 'act', 'firearm', 'mexico', 'release', 'gun', 'run', 'state', 'government', 'mexico', 'city', 'operation_gunwalker', 'agent', 'mexican', 'federal_government', 'expose', 'operation_gunwalker', 'remove', 'post', 'goal', 'operation_gunwalker', 'crisis', 'death', 'toll', 'firearm', 'mexico', 'batfe', 'operation_gunwalker', 'assault', 'union', 'constitution', 'amendment', 'goal', 'law', 'american', 'arm', 'citizen', 'mexican', 'press', 'operation_gunwalker', 'cleanupatf.org', 'forum']",0,[],0.007314823000000001
682,3.0,"['white_folks', 'slavery', 'report', 'slavery', 'slave', 'israel', 'black_african', 'asian', 'asian', 'land', 'communist', 'china', 'thailand', 'philippine', 'brown', 'slavery', 'slave', 'owner']",0,[],0.0067287614
1352,3.0,"['poll', 'brent6:38amdec', 'yankee', 'simple', 'mind', 'southerner', 'white_folks', 'homeland', 'slave', 'family', 'south', 'farmer', 'evil', 'farm', 'lincoln', 'evil', 'support', 'evil', 'folk', 'harm']",0,[],0.0067287614
156,3.0,"['reality', 'communism', 'propaganda', 'communism', 'communist', 'nation', 'treat', 'slave', 'citizen/slaves', 'exploit', 'wealth', 'nation', 'benefit', 'communist', 'elite', 'system', 'communist', 'system', 'mafia', 'system', 'citizen/slaves', 'sacrifice', 'elite', 'benefit', 'propaganda', 'reality', 'communism', 'zionism', 'israel', 'caput', 'wealth', 'israeli', 'government', 'american', 'european', 'tax', 'payer', 'majority', 'citizen/slaves', 'poverty', 'continuation', 'slave', 'state', 'continuation', 'marxist', 'belief', 'slavery', 'great', 'benefit', 'prosperity', 'world', 'wealth', 'world', 'communist', 'elite']",0,[],0.0067287614
1616,3.0,"['jew', 'white_genocide', 'jewish_leaders', 'proponent', 'white_genocide', 'communist', 'zionist', 'neocon', 'word']",0,[],0.005787870400000001
610,3.0,"['communist', 'zionist', 'neocon', 'word', 'copy']",0,[],0.005787870400000001
1736,3.0,"['standard', 'america', 'border', 'total', 'travel', 'people', 'white_folks', 'white_folks', 'border', 'fence', 'state', 'israel', 'anti-racist', 'race', 'jew', 'attack', 'date', 'sight', 'racist', 'rabbi', 'jew', 'attack', 'racist', 'atheist', 'jew', 'religious', 'cult', 'religious', 'strife', 'activist', 'jewish_communist', 'radical', 'feminism', 'bad', 'family', 'activist', 'white_families', 'jew', 'profit', 'monopoly', 'system', 'worker', 'revolution', 'international_jewish', 'banker', 'fund', 'communist', 'revolution', 'russia']",0,[],0.005787870400000001
1458,3.0,"['ferguson', 'protester', 'demand', 'communist', 'revolution']",0,[],0.005787870400000001
1025,3.0,"['communist', 'mass', 'murderer', 'murder', 'victim', 'document', 'communist', 'mass', 'murderer', 'document', 'case', 'murder', 'resolve', 'murder', 'murderer', 'trial', 'conviction', 'communist', 'mass', 'murderer', 'communist', 'mass_murder', 'innocent', 'murder']",0,[],0.005787870400000001
944,3.0,"['limited', 'combat', 'firearm', 'ar-10', 'heavy', 'barrel', 'work', 'quarter', 'range', 'scope', 'red', 'dot', 'range', 'stuff', 'amp', 'w', 'p', 'pistol', 'light', 'carry', 'high', 'capacity', 'good', 'stop', 'power', 'counter', 'sniper', 'mortar', 'fire', 'concealment', 'good', 'hit', 'combat', 'exchange', 'mortar', 'shotgun', 'hunt', 'bird', 'rabbit', 'ar-10', 'fine', 'deer', 'wild', 'hog', 'work', 'elk', 'moose', 'black', 'bear', 'defense', 'brown', 'bear', 'mountain', 'lion', 'work']",0,[],0.0056926627
1980,3.0,"['savage', 'stick', 'report', 'black', 'savage', 'state', 'regular', 'target', 'practice', 'range', 'corner', 'da', 'hood', 'black', 'savage', 'behavior', 'shoot', 'area', 'target', 'practice', 'da', 'hood', 'killin', 'whitey']",0,[],0.0056926627
149,3.0,"['federal', 'tax_dollars', 'waste', 'dumbing', 'detroit', 'black']",0,[],0.0056926627
1746,3.0,"['mandate', 'israel', 'bd', 'leader', 'jew', 'black', 'takeover', 'white_nation', 'south_africa', 'black', 'south_africa', 'tear', 'state', 'israel', 'bd', 'success', 'business', 'boycott', 'israel', 'bd', 'slogan', 'shoot']",0,[],0.0056926627
1082,3.0,"['guided-missile', 'destroyer', 'black', 'sea']",0,[],0.0056926627
63,3.0,"['glad', 'future', 'descendant', 'black', 'brown', 'future', 'white_folks']",0,[],0.0056926627
689,3.0,"['dallas', 'black', 'panther', 'anti-police', 'patrol']",0,[],0.0056926627
496,3.0,"['dem', 'black', 'massas']",0,[],0.0056926627
1288,3.0,"['individual', 'claim', 'troop', 'independent_nations', 'slavery', 'individual', 'constitution', 'bill', 'right', 'vote', 'president', 'pas', 'intelligence', 'test', 'voting', 'privilege', 'vote']",0,[],0.005591065
146,3.0,"['jurisdiction', 'state', 'american', 'law', 'right', 'limit', 'law', 'jurisdiction', 'limit', 'law']",0,[],0.005591065
2020,3.0,"['niggros', 'attack', 'pack', 'white_folks', 'area', 'fed', 'niggros', 'cousin']",0,[],0.0055452017
1119,3.0,"['news', 'day', 'update', 'news', 'item', 'injun', 'shot', 'injun', 'work', 'justice', 'system', 'thread', 'update', 'story']",0,[],0.005519301999999999
155,3.0,"['start', 'congress', 'jewdicial', 'system', 'fight', 'inch', 'full', 'cabinet', 'meeting', 'yesterday']",0,[],0.005519301999999999
1544,3.0,"['jew', 'race', 'religion', 'religion', 'atheist', 'social', 'construct', 'people', 'living', 'location', 'living', 'system', 'jew', 'group', 'holyco', 'myth', 'true', 'nazi', 'genocide', 'group']",0,[],0.005519301999999999
1767,3.0,"['marxist', 'feminist', 'family', 'court', 'system', 'white_families', 'blow', 'family', 'situation', 'bad', 'male', 'victim', 'israeli', 'divorce', 'suicide', 'aliyah', 'hell', 'redress', 'information', 'analysis']",0,[],0.005519301999999999
