,topic_lda,bag_words,sa_score,events,rank
5253,4.0,"['japanese', 'hippie', 'band', 'american', 'influence', 'flute', 'player', 'chinese', 'sound', 'irish', 'people', 'child', 'nordic', 'race_mixers', 'japan', 'race_mixing', 'chance', 'people', 'hitler', 'love', 'nazi', 'white', 'european', 'view', 'white', 'european', 'potential', 'japanese', 'hippy']",1,[],0.0071571437
5436,4.0,"['sugar', 'lime', 'blue', 'road', 'texas', 'texas', 'white_man', 'paradise', 'good', 'mind', 'mexican', 'find', 'home', 'mexico', 'road', 'texas']",1,[],0.0058690109999999995
11790,4.0,"['trust', 'media_mafia']",1,[],0.005757816
5062,4.0,"['john', 'friend', 'stormfront', 'radio', 'mm', 'john', 'friend', 'website', 'realist', 'report', 'real', 'history', 'race', 'reality', 'realist', 'report', 'real', 'history', 'race', 'reality']",1,[],0.005510051
