,Unnamed: 0,Term,Fq-0,Fq-1,Fq-2,Fq-3,Fq-4,Tfidf-0,Tfidf-1,Tfidf-2,Tfidf-3,Tfidf-4,Prob-0,Prob-1,Prob-2,Prob-3,Prob-4
6061,lie,lie,2,47,17,39,27,0.0015403057569278284,0.07548840070458307,0.018453545862954803,0.02560742997015961,0.10244248401874444,2.9860674e-05,0.0041328715,0.00013686482,0.00133212,0.007508738
322,american,american,23,55,124,65,41,0.017713516204670026,0.08833749018621424,0.13460233452978798,0.042679049950266015,0.15556080906550085,8.3359395e-05,0.0039485865,0.005010549,0.0017942867000000002,0.0071571437
1027,black_african,black_african,1,4,8,46,11,0.0007701528784639142,0.006424544740815582,0.008684021582566967,0.030203635349419024,0.04173582682245144,0.0,2.7280682999999998e-05,5.4780478e-05,0.0,0.006432009399999999
4847,hitler,hitler,0,14,3,33,18,0.0,0.026585572088787226,0.003850239718774829,0.025618337011224932,0.08074663812458785,0.0,0.0010962106,1.6785156000000002e-06,0.0012786028999999999,0.006124121
7785,pepper,pepper,2,10,1,4,6,0.0015403057569278284,0.016061361852038953,0.0010855026978208707,0.002626403073862524,0.02276499644860988,0.0,0.0,0.0,0.0,0.005872238399999999
6668,mexican,mexican,7,5,66,79,20,0.0053910701492474,0.008030680926019476,0.07164317805617748,0.05187146070878485,0.07588332149536628,7.3166295e-05,0.00011740938,0.0018727152,0.0012128650999999999,0.0058690109999999995
6593,media_mafia,media_mafia,1,21,14,39,20,0.0007701528784639142,0.0337288598892818,0.01519703776949219,0.02560742997015961,0.07588332149536628,0.0,0.0008158007000000001,0.000392441,0.00037273002,0.005757816
8566,real,real,40,34,28,42,24,0.030806115138556564,0.054608630296932435,0.03039407553898438,0.0275772322755565,0.09105998579443952,0.0012383601,0.0009978716,0.0008397294400000001,0.00061645143,0.005510051
8424,question,question,12,7,6,20,18,0.009241834541566971,0.011242953296427268,0.006513016186925225,0.01313201536931262,0.06829498934582964,0.0001876184,3.08629e-05,4.6407709999999995e-06,0.00017415825,0.0054139607
7660,part,part,60,27,14,21,41,0.04620917270783485,0.043365677000505184,0.01519703776949219,0.01378861613777825,0.15556080906550085,0.0030845467,0.0014694673999999998,0.00043502127,0.00037749120000000005,0.005341729
