,11225
Liberalism is a Mental Disorder!,10484
"Longest Sniper Shot 2010 There has been a new Longest Sniper Shot reported form Afghanistan. A soldier from the UK shot an Afghan manning a machine gun at a distance of 2,707 yards.  When the first Afghan went down, a second Afghan replaced him on the machine gun, whereupon the UK Sniper proceeded to down him as well. Two Afghans with two shots, at an unheard of distance of 2,707 yards. The distance was beyond the range of a range finder, and had to be measured by GPS. It is also well beyond the intended range of the L115A3  rifle, but not beyond the range of the Sniper. The caliber used is a variant of .338 known by a metric designation 8.59 mm. The standard issue scope for that rifle is a variable power 3-12X 50 mm. Hotshot sniper in one-and-a-half mile double kill - Times Online L115A3 Long Range Rifle - British Army Website",8174
"Lego Star Wars - The Quest for R2D2 Video: ""LEGO Star Wars: The Quest for R2-D2"" | StarWars.com",3907
Chris Liepe - Carol of the Bells,4627
Homemade Speed Loader,4033
"I can spray bullets wildly into foliage, or buildings, while I pray that we get an air drop of more ammo before we burn all of ours up, and hope that the enemy will stay penned down until our air support shows up with millions of dollars wort of napalm and explosives, and that will work just fine.   But on the days that I don't have that backup, I will need an accurate rifle, because I will have to actually hit something in order to stay alive.",831
Doel Brothers - Wild Wild Woman,1982
Double-Trouble 1927 Ford,2834
Gary P. Nunn - I wanna go Home with the Armadillo,303
Halloween Pumpkins 2007,7351
Stephen Hawking - The Answers He Should Have Given,3184
Robbie Fulks - We Live a Long Time to get Old,3213
The SLIME oozing out from your TV set,3926
Daniela Andrade - Christmas Time Is Here,5371
"The Crooked Road is a regional destination covering 19 counties, four cities, and over 50 towns and communities where heritage music is celebrated year round. With nine Major Venues, over 60 Affiliated Venues and Festivals, and over 25 Wayside Exhibits, visitors have many opportunities to experience one of the richest music traditions in the world. This is where America's music was born ... and lives on!",5
"A rescued bird at the Scottish Highland Games in Arlington, Texas.",4678
"100's of Mexicans Attack 1 White Man  Some of the brown beasts can be heard shouting ""racist"" as they attack a White Man.",7855
Kagan Confirmation Hearings Are a Joke...,7797
Carrie Underwood - Have Yourself a Merry Little Christmas,4574
Criminal Federal Agent Illegally Bans Import of Ammo,2906
Trans-Siberian Orchestra - Christmas Canon Rock,2585
Hawkwind - Needlegun,2537
Johnny White Rabbit - Mantra Anthem,2052
"ISIS kill list - Texas cities targeted Obviously, these are cities were Muslims are already present. Can you spot the Muslim community that is planning to kill you? Texas: Abilene, New Braunfels, San Antonio, Wyle, Fort Hood, Bedford, Killeen",371
The Great Meme War of 2016  The fight for freedom is eternal!,5343
Portal - Making Science,3032
Rule of Law,8334
"Your Empire Is Not My Country! The Washington Government's Empire is not our Nation! The Global Empire of the Washington Government is the Enemy of everyone on Earth, including Americans! Secession now, Freedom forever!",8902
9/11 CONSPIRACY: WAS FLIGHT 175 A MILITARY PLANE?,9699
The Time Jumpers - Little Lisa Jane,325
FBI Analyst - Clinton's Guilty of Treason,5954
Steven Tyler - Santa Claus Is Coming To Town,4610
