,topic_lda,bag_words,sa_score,events,rank
1326,0.0,"['stand', 'fast', 'mississippian', 'senator', 'commission', 'army', 'war', 'today', 'senator', 'nation', 'state', 'mississippi', 'nation', 'state', 'dissolve', 'senator', 'play', 'role', 'major', 'battle', 'buena', 'vista', 'mexican-american', 'war', 'senator', 'jefferson', 'davis', 'men', 'command', 'shout', 'stand', 'fast', 'mississippian', 'face', 'cavalry', 'men', 'foot', 'stop', 'mexican', 'cavalry', 'charge', 'turn', 'tide', 'battle', 'senator', 'washington', 'd.c', 'today', 'stand', 'face', 'cavalry', 'charge', 'stand', 'face', 'charge', 'court', 'law', 'battle', 'field', 'rifle', 'carry', 'battle', 'model', 'whitney', 'mississippi', 'rifle', 'day', 'senator', 'jefferson', 'davis', 'regiment', 'mississippi', 'rifle', 'monterrey', 'hero', 'real', 'hero', 'men', 'great', 'deed', 'valor', 'hero', 'phony', 'word', 'stand', 'fast', 'mississippian', 'southerner', 'struggle', 'end', 'field', 'victory', 'deo', 'vindice']",0,['battle_of_buena_vista'],0.017520953
621,0.0,"['light', 'weight', 'plate', 'level', 'bulletproofme.com', 'body_armor', 'rifle', 'plate', 'ultra-light', 'level', 'iii', 'ceramic', 'polyethylene']",0,[],0.017520953
2093,0.0,"['ar-10', 'rifle', 'camouflage', 'spray', 'paint', 'blade', 'grass']",0,[],0.017520953
1926,0.0,"['remake', 'combat', 'rifle', 'world', 'm110', 'sas', 'ar-10', 'true', 'combat', 'rifle', 'accuracy', 'knock', 'range', 'reliability', 'true', 'combat', 'rifle']",0,[],0.017520953
1915,0.0,"['tsra', 'service', 'rifle', 'championship', 'percentage', 'guess', 'main', 'battle', 'rifle', 'texas', 'state', 'rifle', 'association', 'service', 'rifle', 'championship', 'postcount=5798']",0,[],0.017520953
1904,0.0,"['mention', 'military', 'semi_auto', 'sniper', 'system', 'm110', 'sas', 'mention', 'notice', 'photo', 'man', 'sniper', 'team', 'team', 'man', 'team', 'run', 'kill', 'iraq', 'reason', 'mention', 'military', 'sniper', 'kill', 'iraqi', 'sniper', 'sniper', 'rifle', 'hand', 'dead', 'american', 'sniper', 'team', 'run', 'kill', 'm110', 'sas', 'sniper', 'team']",0,[],0.017520953
1447,0.0,"['curse', 'darkness', 'light', 'candle', 'path', 'join', 'nra', 'gun', 'owner', 'america', 'texas', 'state', 'rifle', 'association', 'join', 'bitch']",0,[],0.017520953
1151,0.0,"['world', 'order', 'aka', 'world', 'government', 'perfect', 'buffalo', 'rifle', 'kradmelder', 'gun_show', 'day']",0,['world_order'],0.017520953
1042,0.0,"['american', 'rifleman', 'favorite', 'magazine', 'annual', 'membership', 'worth', 'price', 'magazine', 'subscription', 'nra', 'help', 'fund', 'shoot', 'organization', 'state', 'rifle', 'association', 'battle', 'state', 'court']",0,[],0.017520953
1008,0.0,"['man', 'dream', 'shot', 'chest', 'dream', 'true', 'shot', 'dream', 'metal', 'plate', 'neck', 'spot', 'shot', 'dream', 'plate', 'book', 'shooter', 'unknown', 'man', 'high', 'power', 'rifle', 'shot', 'dream']",0,[],0.017520953
1006,0.0,"['tale', 'vietcong', 'sniper', 'battle', 'vietcong', 'sniper', 'station', 'snipe', 'hill', 'vietnam', 'week', 'soldier', 'wound', 'sniper', 'give', 'position', 'soldier', 'vc', 'sniper', 'mm', 'rifle', 'afterlife', 'replacement', 'vc', 'sniper', 'turn', 'begin', 'replacement', 'vc', 'sniper', 'escort', 'meet', 'predecessor', 'mm', 'rifle', 'vc', 'sniper', 'guy', 'hit', 'fire', 'daily', 'twenty', 'round', 'score', 'hit', 'give', 'position', 'mm', 'rifle', 'vc', 'sniper', 'soldier', 'permission', 'fire', 'point', 'kill', 'guy', 'sniper', 'guy', 'shoot', 'straight', 'vc', 'sniper']",0,[],0.017520953
966,0.0,"['ar-15', 'ar-10', 'rifle', 'magazine', 'feed', 'suspect', 'feed', 'lip', 'magazine', 'magazine', 'rifle', 'feed', 'fine', 'problem', 'mini', 'feed', 'fault', 'magazine', 'rifle', 'buy', 'good', 'quality', 'magazine', 'good', 'quality', 'ammo', 'true', 'dollar', 'rifle', 'dollar', 'magazine', 'dollar', 'rifle', 'time', 'magazine', 'quality', 'magazine']",0,[],0.017520953
897,0.0,"['man', 'fly', 'confederate', 'battle', 'flag', 'ban', 'flag', 'flag', 'show', 'call', 'battle', 'flag', 'year', 'buy', 'rifle', 'ammo', 'figure', 'quick']",0,[],0.017520953
696,0.0,"['track', 'point', 'rifle']",0,[],0.017520953
2095,0.0,"['ar-10', 'favorite', 'rifle', 'range', 'semi', 'auto', 'rifle', 'range', 'garand', 'rifle', 'semi', 'auto', 'group', 'ar']",0,[],0.017520953
189,0.0,"['rifleman', 'good', 'rifle', 'post8104263']",0,[],0.017520953
257,0.0,"['poster', 'time', 'buy', 'factory', 'mag', 'mini-14', 'ar-15', 'buy', 'mini-14', 'buy', 'factory', 'mag', 'market', 'mag', 'feed', 'ar-15', 'rifle', 'price', 'mini-14', 'cost', 'ruger', 'factory', 'mini-14', 'mag', 'sell', 'price', 'ar-10', 'mag', 'piece', 'advice', 'give', 'research', 'rifle', 'mind', 'shoot', 'buy', 'choice']",0,[],0.017520953
45,0.0,"['fn', 'plant', 'america', 'run', 'advertisement', 'supply', 'small', 'arm', 'military', 'talk', 'soldier', 'leave', 'weapon', 'issue', 'fn', 'colt', 'percentage', 'barrett', 'alexander', 'arm', 'supply', 'small', 'arm', 'sas', 'rifle', 'supply', 'colt', 'supply']",0,[],0.017520953
115,0.0,"['price', 'firearm', 'gun', 'price', 'rifle', 'good', 'high', 'quality', 'magazine', 'ammo', 'ar-10', 'king', 'semi', 'auto', 'thread']",0,[],0.017520953
1577,0.0,"['secret', 'agenda', 'high', 'level', 'freemasonry', 'great', 'work', 'mason', 'jerusalem', 'center', 'world', 'true', 'kingship', 'mean', 'israel', 'rule', 'world', 'rothschild', 'jew', 'house', 'david', 'throne', 'world', 'world', 'order', 'secret', 'order', 'rule', 'mason', 'organization']",0,[],0.009079341999999999
1556,0.0,"['faith', 'god', 'god', 'god', 'god', 'oral', 'tradition', 'jew', 'atheist', 'ancient', 'text', 'religious', 'text', 'major', 'religion', 'rabbi', 'regard', 'talmud', 'rabbi', 'law', 'talmud', 'religious', 'document', 'document']",0,[],0.009079341999999999
1535,0.0,"['time', 'jew', 'claim', 'white_children', 'birthright', 'white_nation']",0,[],0.009079341999999999
1533,0.0,"['hillary', 'american', 'committee', 'organization', 'jew', 'hillary']",0,[],0.009079341999999999
1742,0.0,"['white', 'person', 'slave', 'professor', 'jew', 'white_man', 'slavery', 'statement', 'government', 'japan', 'today', 'slavery', 'white_folks', 'hold', 'japan', 'asian', 'nation', 'level', 'white_nation', 'white_folks', 'superior', 'earth', 'population', 'professor', 'white', 'people', 'mass', 'suicide', 'social', 'memo', 'u.s', 'slam', 'japan', 'sex', 'traffic', 'force', 'labor', 'japan', 'time']",0,[],0.009079341999999999
1517,0.0,"['ramzpaul', 'marvel', 'turn', 'anne', 'frank', 'muslim', 'jew', 'marvel', 'bet', 'burka', 'black', 'muslim', 'homosexual', 'male', 'pretend', 'girl', 'sick']",0,[],0.009079341999999999
393,0.0,"['movie', 'rabbi', 'black', 'jew', 'banker', 'accountant', 'doctor', 'hollywood', 'type', 'kiss', 'foot', 'black', 'rabbi']",0,[],0.009079341999999999
1596,0.0,"['jew', 'sarkozy', 'call', 'white_genocide', 'anti-white', 'jew', 'sarkozy', 'white_genocide', 'race', 'problem', 'white_folks', 'race', 'problem', 'jew', 'problem', 'sarkozy', 'call', 'white_genocide', 'youtube']",0,[],0.009079341999999999
1516,0.0,"['dance', 'jew', 'murder', 'woman', 'child', 'jew', 'black_african', 'cousin']",0,[],0.009079341999999999
1753,0.0,"['jew', 'fear', 'protester', 'control', 'jew']",0,[],0.009079341999999999
1793,0.0,"['usa', 'today', 'trump', 'potential', 'court', 'nominee', 'white', 'male', 'red', 'state', 'comment', 'lie', 'medium', 'article', 'people', 'praise', 'pick', 'merrick', 'garland', 'white', 'male', 'white', 'identity', 'fourth', 'jew', 'court', 'trump', 'white', 'male', 'protestant', 'court', 'white', 'protestant', 'majority', 'country', 'white', 'protestant', 'jew', 'make', 'population', 'representation', 'court', 'garland', 'jew', 'anti-white', 'communist', 'protestation', 'contrary', 'title', 'article', 'point', 'usa', 'anti-white', 'communist', 'medium', 'progressive', 'genocide', 'christian', 'european', 'descent', 'ultimate', 'animus', 'decade', 'feel', 'progress']",0,[],0.009079341999999999
1362,0.0,"['jew', 'idiot', 'hour', 'word', 'ar/84', 'c9511421']",0,[],0.009079341999999999
1733,0.0,"['lie', 'jew', 'teach', 'innocent_white', 'child', 'race', 'social', 'construct', 'born', 'white', 'slavery', 'kill', 'strength', 'gender', 'gender', 'social', 'construct', 'born', 'white', 'male', 'female', 'award', 'border', 'people', 'free', 'travel', 'defensive', 'fence', 'israel', 'state', 'jewish_bankers', 'finance', 'communist', 'russian', 'revolution', 'call', 'finance', 'ww_ii', 'death', 'innocent', 'woman', 'child', 'burn', 'bit', 'jew', 'survivor']",0,['ww_ii'],0.009079341999999999
1619,0.0,"['jew', 'home', 'cost', 'housing', 'increase', 'delay', 'shekel', 'pay']",0,[],0.009079341999999999
1605,0.0,"['government', 'media_mafia', 'university', 'system', 'israel', 'loony', 'leftist', 'race_traitors', 'echo', 'strength', 'loony_leftists', 'white_children', 'die', 'savage', 'condition', 'question', 'jew', 'savage', 'strength', 'savage', 'white_nation', 'innocent_white', 'child', 'murder', 'boston', 'marathon', 'bombing', 'victim']",0,[],0.009079341999999999
1712,0.0,"['zealot', 'travel', 'africa', 'convert', 'savage', 'primitive', 'black_african', 'real', 'jew', 'abraham', 'father', 'jew', 'ashkenazi', 'pretender', 'pretend', 'convert', 'join', 'real', 'jew', 'gain', 'wealth', 'power', 'ashkenazi', 'jew', 'black_african', 'jew', 'jew']",0,[],0.009079341999999999
1626,0.0,"['jihad', 'proof', 'doubt', 'current', 'world_wide', 'jihad', 'israeli', 'mossad', 'english', 'language', 'israeli', 'secret', 'intelligence', 'service', 'operation', 'israel', 'action', 'isi', 'action', 'nato', 'nation', 'action', 'obama', 'action', 'erdogan', 'action', 'saudi', 'arabia', 'support', 'jihad', 'action', 'plan', 'jew', 'route', 'plan', 'result', 'world', 'government', 'control', 'banking', 'family', 'banking', 'family', 'ruling', 'world', 'world', 'jihad', 'victory', 'white_genocide', 'america', 'place', 'invasion', 'america', 'major', 'white_nations', 'control', 'germany', 'france', 'canada', 'lessor', 'white_nations', 'government', 'action', 'support', 'jihad', 'mass_medium', 'support', 'jihad', 'evidence', 'action', 'lie', 'propaganda', 'shadow', 'doubt']",0,[],0.009079341999999999
1630,0.0,"['gate', 'smith', 'wesson', 'fell', 'control', 'shotgun', 'manufacturing', 'plant', 'turkey', 'boost', 'turkish', 'economy', 'american', 'economy', 'level', 'support', 'jihad', 'white_nations', 'nation', 'backstabbing', 'shyster', 'worship', 'christian', 'fund', 'tax_dollars', 'traitor', 'government', 'freedom', 'jew', 'paradise', 'remove', 'saboteur', 'machine', 'run']",0,[],0.009079341999999999
1667,0.0,"['white_man', 'stand', 'attack', 'jew', 'jew', 'mort', 'zuckerman', 'owner', 'publisher', 'york', 'daily', 'news']",0,[],0.009079341999999999
1668,0.0,"['muslim', 'branding', 'white_children', 'white_children', 'steal', 'muslim', 'pirate', 'sell', 'sex', 'slave', 'today', 'muslim', 'shade', 'black', 'weird', 'freak', 'liberal', 'white_man', 'slavery', 'slave', 'ownership', 'white_folks', 'common', 'brown', 'white_folks', 'set', 'slave', 'free', 'brown', 'chain', 'beat', 'torture', 'rap', 'murder', 'ate', 'white_children', 'treat', 'slave', 'muslim', 'slave', 'million', 'control', 'slave', 'market', 'guilt', 'slavery', 'history', 'fall', 'jew']",0,[],0.009079341999999999
1673,0.0,"['jew', 'guatemalan', 'town']",0,[],0.009079341999999999
1681,0.0,"['jew', 'fear', 'religion', 'peace']",0,[],0.009079341999999999
1687,0.0,"['marxism', 'communist', 'propaganda', 'race', 'race', 'social', 'construct', 'gender', 'gender', 'social', 'construct', 'true', 'black', 'brown', 'jew', 'homosexual', 'bull', 'dyke', 'radical', 'feminist', 'race', 'race', 'gender', 'feminism', 'homosexuality']",0,[],0.009079341999999999
1698,0.0,"['jew', 'zukerburg', 'free', 'speech', 'news', 'invasion', 'censor', 'jew', 'fear', 'white_folks']",0,[],0.009079341999999999
1700,0.0,"['menorah', 'symbol', 'genocide', 'jew', 'genocide', 'greek', 'white', 'syrian', 'syria', 'genocide', 'race_traitors', 'greek', 'syrian', 'child', 'year', 'jew', 'mideast', 'genocide', 'government', 'celebration', 'dr', 'david', 'duke', 'dr', 'patrick', 'slattery', 'discus', 'genocide', 'mm']",0,[],0.009079341999999999
1701,0.0,"['jew', 'demand', 'america', 'arab', 'israel', 'wall', 'arab']",0,[],0.009079341999999999
1703,0.0,"['english', 'language', 'israeli', 'mossad', 'isi', 'israeli', 'secret', 'intelligence', 'service', 'watch', 'video', 'i.s.i.s', 'israeli', 'prime', 'minister', 'office', 'find', 'stand', 'israeli', 'colonel', 'lead', 'isil', 'terrorist', 'capture', 'iraq', 'farsnews', 'muslim', 'terrorist', 'jew', 'radical', 'muslim', 'terrorist', 'murder', 'hundred', 'anniversary', 'jew']",0,[],0.009079341999999999
1705,0.0,"['open', 'hearted', 'drive', 'enemy', 'territory', 'pick', 'wound', 'isi', 'solder', 'israeli', 'hospital', 'free', 'medical', 'care', 'jew', 'love', 'give', 'people', 'earth', 'thought', 'reward', 'reimbursement', 'meet']",0,[],0.009079341999999999
1311,0.0,"['mention', 'article', 'america', 'slave', 'owner', 'article', 'mention', 'large', 'number', 'slave', 'slave', 'jew', 'black', 'white_man', 'white_man', 'black', 'slavery', 'institution', 'black', 'slavery', 'begin', 'black', 'percentage', 'jew', 'black', 'small', 'percentage', 'white_man', 'jew', 'black', 'jew', 'black']",0,[],0.009079341999999999
1278,0.0,"['media_mafia', 'demand', 'jew', 'gypsy', 'real', 'difference', 'round', 'extermination', 'german', 'prison', 'work', 'camp', 'fill', 'ethnic', 'german', 'citizen', 'criminal', 'survivor', 'holyco']",0,[],0.009079341999999999
1709,0.0,"['jew', 'white_folks', 'gun_control', 'kill']",0,[],0.009079341999999999
985,0.0,"['white', 'population', 'female', 'single', 'female', 'single', 'men', 'woman', 'single', 'men', 'normal', 'white_man', 'woman', 'single', 'female', 'anti-white', 'stab', 'feminist', 'situation', 'result', 'white_genocide', 'jew', 'murder', 'white_families', 'russia']",0,[],0.009079341999999999
260,0.0,"['black', 'brown', 'nurse', 'care', 'institution', 'jew', 'control', 'hire', 'white', 'nurse', 'white', 'nurse', 'burn', 'work', 'side', 'side', 'brown', 'job', 'white', 'nurse', 'white', 'nurse', 'time', 'find', 'job', 'treat', 'dirt', 'white', 'brown', 'treat', 'chosen', 'individual', 'white', 'nurse', 'free', 'work', 'free', 'work', 'break', 'lunch', 'free', 'brown', 'leave', 'break', 'lunch', 'job', 'work', 'black', 'brown', 'privilege', 'white', 'nurse', 'white', 'doctor']",0,[],0.009079341999999999
1957,0.0,"['jew', 'white_nations']",0,[],0.009079341999999999
2025,0.0,"['jew', 'anti-semitism', 'israel', 'anti-semitism', 'housing', 'cost', 'roof', 'delay', 'shekel', 'pay']",0,[],0.009079341999999999
1193,0.0,"['homeland', 'jew', 'japanese', 'homeland', 'japanese', 'brazil', 'perfect', 'nation']",0,[],0.009079341999999999
195,0.0,"['day', 'future', 'white_children', 'jew', 'conspiracy', 'genocide', 'white_children', 'life', 'struggle']",0,[],0.009079341999999999
1937,0.0,"['paint', 'nice', 'art', 'nice', 'speech', 'good', 'book', 'refuse', 'jew', 'chance', 'germany', 'start', 'war', 'kill', 'innocent_white', 'folk', 'folk', 'dead', 'incompetent', 'military', 'commander', 'time', 'open', 'door', 'world_wide', 'white_genocide', 'move', 'ruling', 'brink', 'extinction']",0,[],0.009079341999999999
397,0.0,"['jew', 'race_mixing', 'non-jew', 'child']",0,[],0.009079341999999999
104,0.0,"['jew', 'push', 'lie', 'alien', 'diversity', 'wipe', 'diversity', 'alien', 'proof', 'government', 'race']",0,[],0.009079341999999999
422,0.0,"['indian', 'travel', 'reservation', 'gather', 'tribe', 'travel', 'settlement', 'white_folks', 'shout', 'white_folks', 'white', 'reservation', 'white', 'tribe', 'sound', 'day', 'indian', 'butcher', 'white', 'settlement', 'loony_leftists', 'jewish_communists', 'join', 'indian', 'attack', 'white', 'settlement', 'north', 'dakota', 'medium', 'white', 'settlement', 'white_folks', 'buying', 'product', 'white', 'settlement', 'support', 'regular', 'white_folks', 'individual', 'drop', 'reich', 'icon', 'display', 'neighbor', 'nazi', 'display', 'indian', 'jew', 'loony', 'leftist', 'town', 'idea', 'nazi', 'neighbor', 'shoot', 'foot', 'nazi', 'costume', 'wave', 'nazi', 'flag', 'front', 'bunch', 'people', 'condition', 'birth', 'hate', 'nazi']",0,[],0.009079341999999999
150,0.0,"['string', 'garlic', 'keep', 'vampire', 'communist', 'jew', 'undesirable', 'communist', 'dupe', 'true', 'sign', 'happiness']",0,[],0.009079341999999999
1804,0.0,"['president', 'trump', 'opioid', 'drug', 'abuse', 'session', 'heroine', 'heroine', 'supply', 'partner', 'crime', 'senaloa', 'drug', 'gang', 'holder', 'fbi', 'atf', 'supply', 'firearm', 'arrest', 'mass_medium', 'abc', 'cbs', 'nbc', 'cnn', 'msnbc', 'hollywood', 'nyt', 'wapo', 'latimes', 'clearchannel', 'music', 'industry', 'heroine', 'mass_medium', 'tax', 'dodger', 'pedophile', 'drug', 'dealer', 'arrest']",0,[],0.008958091999999999
169,0.0,"['notice', 'solution', 'harm', 'pair', 'antique', 'rubber', 'grip', 'left', 'rubber', 'grip', 'soak', 'solution', 'hour', 'damage', 'rubber', 'wipe', 'solution', 'film', 'week', 'light', 'coat', 'rubber', 'grip', 'damage', 'solution', 'harm', 'plastic', 'rubber', 'synthetic', 'firearm']",0,[],0.008958091999999999
986,0.0,"['laser', 'handgun', 'advantage', 'handgun', 'training', 'training', 'laser', 'point', 'shoot', 'trigger', 'control', 'defense', 'range', 'point', 'shooter', 'place', 'fight', 'spending', 'dollar', 'ammo', 'point', 'shoot', 'laser', 'point', 'shoot', 'training', 'laser', 'turn', 'handgun', 'ready', 'pick', 'range', 'target', 'foot', 'distance', 'point', 'handgun', 'move', 'handgun', 'turn', 'laser', 'check', 'aim', 'practice', 'land', 'inch', 'spot', 'aim', 'point', 'time', 'brain', 'session', 'night', 'sleep', 'brain', 'challenge', 'organic', 'change', 'demand', 'point', 'true', 'time', 'practice', 'skill', 'point', 'shoot', 'brain', 'organic', 'change', 'limit', 'ability', 'demand', 'brain', 'ability', 'ability', 'time', 'aim', 'sight', 'perfect', 'sight', 'alignment', 'poor', 'trigger', 'control', 'firearm', 'target', 'bullet', 'find', 'mark', 'laser', 'work', 'type', 'training', 'ammo', 'high', 'dollar', 'laser', 'save', 'money', 'cost', 'shoot', 'ammo', 'trigger', 'control', 'figure', 'handgun', 'point', 'object', 'keep', 'laser', 'target', 'action', 'pull', 'worry', 'damage', 'fire', 'pin', 'action', 'snap', 'cap', 'fire', 'pin', 'keep', 'laser', 'target', 'pull', 'full', 'length', 'pull', 'dot', 'move', 'pull', 'folk', 'pull', 'handgun', 'target', 'trigger', 'pull', 'push', 'handgun', 'target', 'human', 'anatomy', 'finger', 'move', 'muscle', 'palm', 'contract', 'tendon', 'muscle', 'pull', 'push', 'handgun', 'grip', 'effect', 'palm', 'hand', 'pull', 'trigger', 'finger', 'simple', 'body', 'mechanic', 'simple', 'solution', 'grip', 'bulge', 'palm', 'push', 'handgun', 'laser', 'dot', 'movement', 'palm', 'push', 'firearm', 'practice', 'grip', 'grip', 'run', 'trigger', 'control', 'drill', 'regular', 'sight', 'laser', 'laser', 'good', 'defensive', 'tool', 'training', 'tool', 'good_luck', 'good', 'shoot']",0,[],0.008958091999999999
41,0.0,"['air', 'training', 'train', 'air', 'replica', 'carry', 'handgun', 'recoil', 'fire', 'air', 'lot', 'dry', 'fire', 'firearm', 'lighter', 'feel', 'air', 'real', 'line', 'sight', 'shot', 'hand-eye', 'coordination', 'practice', 'practice', 'stay', 'practice', 'line', 'sight', 'line', 'sight', 'hit', 'aim', 'trigger', 'control', 'trigger', 'time', 'control', 'air', 'range', 'large', 'difference', 'price', 'shoot', 'air', 'handgun', 'shoot', 'defense', 'handgun', 'train', 'grip', 'stance', 'handgun', 'photo', 'show', 'side', 'side', 'comparison', 'real', 'carry', 'pistol', 'air', 'training', 'pistol', 'favorite', 'target', 'air', 'plastic', 'pellet', 'comparison', 'relationship', 'size', 'target', 'size', 'ammo', 'hit', 'target', 'shot', 'foot', 'paper', 'target', 'shot', 'rapid', 'fire', 'foot', 'carry', 'pistol']",0,['air_soft'],0.008958091999999999
1914,0.0,"['small', 'target', 'yard', 'revolver', 'hit', 'shot', 'revolver', 'hit', 'target', 'postcount=5771']",0,[],0.008131299
929,0.0,"['sight', 'target', 'cheat', 'rear', 'peep', 'sight', 'front', 'sight', 'peep', 'sight', 'view', 'quick', 'target', 'cross', 'hair', 'target', 'dead', 'want', 'time', 'money', 'worth', 'weight', 'gold', 'sight', 'black', 'sight', 'black', 'glare', 'sight', 'give', 'view', 'sight']",0,[],0.008131299
546,0.0,"['proponent', 'white_genocide', 'stick', 'tactic', 'source', 'information', 'step', 'hearing', 'information', 'anti-white', 'racist', 'fear', 'information', 'plain', 'white_folks', 'white_folks', 'genocide', 'white_children', 'front', 'marxist', 'begin', 'power', 'source', 'information', 'tell', 'white_folks', 'information', 'information', 'fear', 'proponent', 'white_genocide', 'white_folks', 'genocide', 'white_children', 'target', 'genocide', 'marxist', 'control', 'information', 'flow', 'information', 'stop', 'reach', 'white_folks', 'step', 'source', 'information', 'receiver', 'information', 'source', 'step', 'lock', 'source', 'communication', 'jam', 'signal', 'white_folks', 'marxist', 'show', 'defeat', 'receiver', 'switch', 'fact', 'white_genocide', 'proponent', 'white_genocide', 'fear', 'free', 'speech', 'embodiment', 'fear', 'expose', 'white_genocide', 'information']",0,['world_wide_genocide'],0.008131299
1445,0.0,"['folk', 'area', 'force', 'integration', 'open', 'border', 'state', 'anti-white', 'multiculturalism', 'note', 'multiculturalism', 'target', 'white', 'homeland', 'young', 'houston', 'paradise', 'idea', 'slum', 'homeland']",0,[],0.008131299
2031,0.0,"['steel', 'challenge', 'match', 'stage', 'target', 'stage', 'fast', 'competitor', 'run', 'stage', 'time', 'add', 'stage', 'score', 'top', 'shooter', 'finish', 'stage', 'time', 'add', 'draw', 'fire', 'target', 'time', 'second', 'normal', 'human', 'shooter']",0,['steel_challenge'],0.008131299
568,0.0,"['practice', 'fire', 'practice', 'special', 'ammo', 'load', 'defensive', 'round', 'notice', 'recoil', 'snub', 'grip', 'hold', 'revolver', 'shoot', 'hand', 'place', 'hand', 'shoot', 'hand', 'hold', 'shoot', 'hand', 'pistol', 'grip', 'force', 'hand', 'jerry', 'miculek', 'pistol', 'shooter', 'guy', 'fire', 'round', 'amp', 'w', 'revolver', 'round', 'round', 'second', 'moon', 'clip', 'shoot', 'style', 'shoot', 'usa', 'fire', 'pistol', 'muzzle', 'climb', 'pistol', 'hold']",0,[],0.007326084
151,0.0,"['donation', 'writer', 'draw', 'millionaire', 'machine', 'gun', 'ton', 'ammo', 'feed', 'machine', 'gun']",0,[],0.007326084
782,0.0,"['ron', 'paul', 'president', 'republic', 'principle', 'american', 'state', 'found', 'secession']",0,[],0.0063965824
769,0.0,"['aluminum', 'nano_particles', 'cross', 'blood-brain', 'barrier', 'poor', 'richard', 'white', 'news', 'march', 'researcher', 'precaution', 'nano_particles', 'nano_particles', 'cross', 'blood-brain', 'barrier', 'bbb', 'bbb', 'body', 'defense', 'mechanism', 'brain', 'free', 'disease', 'toxin', 'nano_particles', 'defeat', 'defense', 'aluminum', 'high', 'amount', 'brain', 'alzheimer', 'patient', 'mechanism', 'transfer', 'aluminum', 'bbb', 'mystery', 'aluminum', 'reach', 'brain', 'bbb', 'researcher', 'aluminum', 'nano_particles', 'cross', 'bbb', 'mechanism', 'aluminum', 'cross', 'bbb', 'disease', 'process', 'alzheimer', 'alzheimer', 'disease', 'living', 'death', 'patient', 'great', 'patient', 'friend', 'family', 'alzheimer', 'condition', 'full', 'epidemic', 'america', 'condition', 'final', 'year', 'life', 'friend', 'family', 'constant', 'care', 'person', 'alzheimer', 'burden', 'person', 'family', 'tax', 'payer', 'medical', 'profession', 'rise', 'alzheimer', 'mystery', 'disease', 'process', 'alzheimer', 'mystery', 'ability', 'aluminum', 'cross', 'bbb', 'mystery', 'aluminum', 'nano_particles', 'cross', 'bbb', 'researcher', 'risk', 'exposure', 'aluminum', 'nano_particles', 'time', 'aluminum', 'present', 'product', 'market', 'arm', 'deodorant', 'suspect', 'source', 'aluminum', 'cross', 'bbb', 'alzheimer', 'patient', 'aluminum', 'nano_particles', 'present', 'product', 'source', 'exposure', 'suspect', 'source', 'aluminum', 'contamination', 'brain', 'alzheimer', 'patient', 'chemtrails', 'federal_agent', 'spray', 'north', 'america', 'chemtrails', 'aluminum', 'nano_particles', 'federal', 'employee', 'aluminum', 'nano_particles', 'cross', 'bbb', 'federal_agent', 'spread', 'spray', 'aluminum', 'nano_particles', 'evidence', 'federal', 'criminal', 'activity', 'evidence', 'federal', 'criminal', 'activity', 'text', 'federal', 'website', 'state', 'aluminum', 'nano_particles', 'cross', 'blood-brain', 'barrier', 'link', 'text', 'screen', 'shot', 'text']",0,[],0.0063965824
780,0.0,"['population', 'estimate', 'meas', 'citizen', 'force', 'dictate', 'majority', 'sense', 'government', 'individual', 'government', 'population', 'plan', 'individual', 'state', 'u.s', 'world', 'population', 'clock']",0,[],0.0063965824
1869,0.0,"['hillary', 'crook', 'step', 'crook', 'justice', 'lock', 'federal_government', 'prison', 'secession', 'solution', 'control', 'federal', 'mafia', 'government', 'government', 'planet', 'steal', 'tax_dollars', 'water', 'government', 'war', 'nation', 'benefit', 'international_bankers', 'citizen', 'pay', 'blood', 'tax', 'public', 'servant', 'federal_government', 'rule', 'iron', 'fist', 'state', 'batter', 'spouse', 'married', 'belligerent', 'federal_government', 'time', 'divorce', 'secession', 'freedom']",0,[],0.0063965824
783,0.0,"['federal', 'money', 'money', 'tax_dollars', 'state', 'government', 'government', 'take', 'tax_dollars', 'texan', 'mexican', 'drag', 'texas', 'nation', 'ron', 'paul', 'president', 'republic']",0,[],0.0063965824
785,0.0,"['petition', 'grant', 'state', 'state', 'america', 'government', 'nment/bmdwcp8b']",0,[],0.0063965824
828,0.0,"['state', 'income', 'tax', 'commiefornia', 'texas', 'income', 'tax', 'charge', 'franchise', 'tax']",0,[],0.0063965824
857,0.0,"['work', 'state', 'mile', 'drive', 'dallas', 'show', 'year', 'longer']",0,[],0.0063965824
1938,0.0,"['german', 'people', 'separate', 'people', 'europe', 'prof', 'germany', 'europe', 'want', 'german', 'state', 'free', 'people', 'hitler', 'part', 'europe', 'land', 'living', 'space', 'book', 'european', 'war', 'begin', 'russian', 'steppe', 'france', 'poland', 'spain', 'territory', 'land', 'murder', 'innocent', 'plan', 'good', 'war', 'bad', 'begin', 'murder', 'brown', 'shirt']",0,[],0.0063965824
1554,0.0,"['control', 'state', 'department', 'v=jhs6b9u13ay']",0,[],0.0063965824
1323,0.0,"['american', 'president', 'president', 'independent', 'nation', 'south', 'carolina', 'state', 'nation', 'state', 'union', 'fifty', 'independent_nations', 'fifty', 'independent_nations', 'nation', 'liberty', 'nation', 'federal_beast', 'fifty', 'independent_nations', 'separate', 'people', 'louisiana', 'hawaii', 'nation', 'texas', 'york', 'god', 'basic', 'difference', 'separate', 'people', 'people', 'tyranny', 'rule', 'majority', 'custom', 'belief', 'life']",0,[],0.0063965824
1295,0.0,"['begin', 'state', 'union', 'english', 'colony', 'care', 'wrong', 'america', 'root', 'washington_government', 'fertilizer', 'root', 'england', 'state']",0,[],0.0063965824
953,0.0,"['renewal', 'texas', 'state', 'law', 'renewal', 'issue', 'day', 'day', 'extra', 'department', 'employee', 'twenty', 'mexican', 'katrina', 'black', 'arm', 'texan', 'god', 'bless_texas']",0,['katrina'],0.0063965824
98,0.0,"['caliber', 'handgun', 'stoop', 'grizzly', 'ed', 'head', 'defensive', 'handgun', 'instructor', 'grizzly', 'shot', 'bear', 'snout', 'eye', 'brain', 'shoot', 'hide', 'caliber', 'small', 'stop', 'grizzly', 'ed', 'head', 'ballistics', 'data', 'amp', 'w', 'special', 'acp', 'equal', 'power', 'load', 'bullet', 'grain', 'weight', 'bear', 'maximum', 'penetration', 'fmj', 'bullet', 'handgun', 'bear', 'country']",0,[],0.006036514000000001
40,0.0,"['normal', 'muslim', 'begin', 'slaughter', 'white_folks', 'germany', 'reach', 'pocket', 'pull', 'handgun', 'shoot']",0,[],0.006036514000000001
987,0.0,"['whitey', 'young', 'black', 'male', 'defense', 'handgun', 'government', 'da', 'master', 'da', 'federal', 'plantation', 'convict', 'felon', 'ta', 'play', 'wid', 'dem', 'gun', 'dem', 'boy', 'convict', 'felon', 'interest', 'takeover', 'government', 'government', 'enemy']",0,[],0.006036514000000001
1579,0.0,"['multiculturalism', 'good', 'israel']",0,[],0.005816511
1010,0.0,"['support', 'appalachia', 'relief', 'fund', 'haiti', 'people', 'appalachia', 'loot', 'practice', 'voodoo', 'cannibalism', 'poor', 'haiti', 'throw', 'money', 'problem', 'money', 'chance', 'good', 'good', 'people', 'run', 'money', 'haiti', 'change', 'money', 'poor', 'white_children', 'appalachia', 'sound', 'investment', 'future', 'benefit', 'america', 'fold', 'white', 'child', 'build', 'tomorrow', 'page_id=632']",0,[],0.005816511
2094,0.0,"['call', 'good', 'bullet', 'fly', 'fps', 'semi_auto', 'ar-10', 'barrel', 'twist']",0,[],0.005816511
456,0.0,"['point', 'globe', 'people', 'bbq', 'texas', 'phone', 'fellow', 'texan', 'mile', 'today', 'reach', 'destination', 'stop', 'motel', 'tomorrow', 'texas', 'people', 'texas', 'today', 'walk', 'life', 'brown', 'bandit', 'invasion', 'good', 'aspect', 'life', 'brown', 'flood', 'sweep', 'texas', 'flow', 'mexican', 'sewer', 'brown', 'tide', 'economy', 'health', 'care', 'system', 'government', 'institution', 'prison', 'system', 'individual', 'safety', 'sovereignty', 'nation', 'social', 'security', 'system', 'justice', 'system', 'construction', 'industry', 'mexico', 'crime', 'disease', 'flood', 'criminal', 'alien', 'mexico', 'chief', 'export', 'texas', 'crime', 'disease', 'time', 'clean', 'texas', 'flush', 'brown', 'invader', 'mexico']",0,[],0.005816511
2032,0.0,"['black', 'today', 'chosen', 'university', 'education', 'university', 'system', 'chosen', 'high', 'pay', 'position', 'chosen', 'people', 'chosen', 'black', 'poor', 'black', 'central_africa', 'return', 'home', 'central_africa', 'poor', 'relation', 'love', 'american', 'dollar', 'poor', 'people', 'race_traitors', 'care', 'people', 'return', 'home', 'good']",0,[],0.005816511
559,0.0,"['work', 'spartan', 'trust', 'good', 'weapon', 'wear', 'body_armor', 'change']",0,[],0.005816511
925,0.0,"['bench', 'extra', 'heavy', 'duty', 'bench', 'put', 'torque', 'bench', 'pull', 'lever', 'spot', 'bench', 'extra', 'heavy', 'duty', 'bench', 'wall', 'floor', 'increase', 'stability', 'good', 'light', 'source', 'light', 'work', 'area', 'increase', 'safety', 'mistake']",0,[],0.005816511
1930,0.0,"['feel', 'good', 'taste', 'good', 'fat', 'feel', 'bad']",0,[],0.005816511
1060,0.0,"['handful', 'seed', 'soil', 'return', 'green', 'bean', 'break', 'soil', 'aug', 'harvest', 'green', 'bean', 'week', 'harvest', 'today', 'bloom', 'bean', 'come', 'mason', 'jar', 'bean', 'produce', 'test', 'garden', 'year', 'real', 'production', 'good', 'plant', 'test', 'garden', 'soil', 'year', 'plant', 'harvest', 'bean', 'pole', 'limb', 'trim', 'tree', 'yard', 'gardening', 'money', 'bug', 'hole', 'leaf', 'insecticide', 'insect', 'control', 'frog', 'lizard', 'wasp', 'ladybug', 'spider', 'garden', 'snake', 'bird', 'garden', 'visit', 'butterfly', 'bee', 'hummingbird', 'chemical', 'fertilizer', 'organic', 'grandfather', 'farm', 'soil', 'plant']",0,[],0.005816511
1188,0.0,"['white_man', 'support', 'police', 'video', 'police', 'search', 'good', 'samaritan', 'aid', 'ambush', 'cop', 'latest', 'news', 'video', 'fox', 'news']",0,[],0.005816511
1235,0.0,"['city', 'charge', 'stay', 'poor', 'country', 'poor', 'city', 'property', 'value', 'country', 'folk', 'abandon', 'city', 'smart', 'good']",0,[],0.005816511
1325,0.0,"['george', 'washington', 'southerner', 'honor', 'word', 'good', 'southerner', 'good', 'general', 'foe', 'honor', 'time', 'army', 'war', 'northern', 'army', 'surrender', 'reward', 'die', 'starvation', 'fever', 'hold', 'british', 'ship', 'die', 'land', 'washington', 'southerner', 'american', 'ideal', 'liberty', 'desperation', 'washington', 'sneak', 'attack', 'enemy', 'troop', 'field', 'order', 'troop', 'night', 'time', 'river', 'cross', 'winter', 'storm', 'river', 'men', 'begin', 'range', 'face', 'elite', 'army', 'world', 'hire', 'mercenary', 'defeat', 'adversary', 'government', 'today', 'struggle', 'independence', 'george', 'washington', 'struggle', 'foe', 'good', 'general', 'foe', 'defeat', 'victory', 'child', 'federal_beast', 'deo', 'vindice']",0,[],0.005816511
1395,0.0,"['sacrifice', 'good', 'young', 'men', 'child', 'line']",0,[],0.005816511
388,0.0,"['good', 'race_traitor', 'whore', 'black', 'baby', 'return', 'chosen', 'extinction', 'line', 'descendant', 'descendant', 'black', 'great', 'great', 'great', 'grand', 'maw', 'stupid', 'white', 'whore', 'family', 'secret', 'permanent', 'obliteration']",0,[],0.005816511
254,0.0,"['soak', 'solution', 'gun', 'part', 'dy', 'pocket', 'knife', 'magazine', 'post5962970']",0,[],0.0057235826
500,0.0,"['african', 'child', 'wait', 'school', 'bus', 'adult', 'african', 'african', 'school', 'child', 'wait', 'school', 'bus', 'cold', 'february', 'morning', 'gun', 'point', 'africa', 'driver', 'vehicle', 'african', 'child', 'shoe', 'cell', 'phone', 'hoodie', 'child', 'walk', 'home', 'cold', 'african', 'love', 'detroit', 'winter', 'detroit', 'boy', 'walk', 'home', 'detroit', 'news', 'detroitnews.com']",0,[],0.0057235826
2078,0.0,"['liberal', 'gun']",0,[],0.0057235826
1468,0.0,"['gun', 'grabber', 'gun_control', 'fight', 'youtube']",0,[],0.0057235826
1917,0.0,"['semi_auto', 'aim', 'fire', 'round', 'second', 'hit', 'sprint', 'postcount=5648']",0,[],0.0054379630000000005
92,0.0,"['fire', 'show', 'work', 'day', 'hire', 'white_man', 'place']",0,[],0.0054379630000000005
1522,0.0,"['ramzpaul', 'anthony', 'cumia', 'attack', 'fire', 'display', 'primitive', 'behavior', 'snow', 'cold', 'rain', 'wet', 'nature', 'beast', 'start', 'talk', 'african', 'return', 'party', 'homeland', 'israel', 'discus', 'source', 'problem']",0,[],0.0054379630000000005
1936,0.0,"['special', 'breed', 'coward', 'trouble', 'shot', 'set', 'fire', 'witness', 'world_wide', 'genocide', 'white_children', 'white_genocide']",0,[],0.0054379630000000005
