,topic_lda,bag_words,sa_score,events,rank
2297,0.0,"['glad', 'year', 'enjoyment', 'rifle']",1,[],0.014764693
10690,0.0,"['handgun', 'caliber', 'w', 'magnum', 'pistol_caliber', 'carbine', 'magnum', 'lever_action', 'rifle', 'cool', 'ar-15', 'manufacturer', 'olympic_arms', 'produce', 'carbine', 'w', 'glock', 'mag', 'caliber', 'carbine', 'shoot', 'velocity', 'longer', 'barrel', 'length', 'caliber', 'pistol_caliber', 'magnum']",1,[],0.014764693
11786,0.0,"['ar', 'armalite', 'rifle', 'winchester', 'god', 'eugene_stoner']",1,[],0.014764693
4880,0.0,"['kirsten', 'joy', 'wei', 'scorpion', 'target', 'pistol']",1,[],0.011019428999999999
5803,0.0,"['dude', 'perfect', 'bowling', 'trick', 'shot']",1,[],0.0074296854
7619,0.0,"['fateofdestinee', 'top', 'shot', 'champion', 'dustin', 'ellermann']",1,[],0.0074296854
