,Unnamed: 0,Term,Fq-0,Fq-1,Fq-2,Fq-3,Fq-4,Tfidf-0,Tfidf-1,Tfidf-2,Tfidf-3,Tfidf-4,Prob-0,Prob-1,Prob-2,Prob-3,Prob-4
1423,bullet,bullet,190,3,1,10,2,0.14615210389421435,0.0047065081574665935,0.0011153614449488304,0.006491207434537614,0.006756252800512121,0.015457381000000001,0.0,1.5244404e-05,5.1198575e-05,0.00027342947
9002,rifle,rifle,329,1,14,9,0,0.29921473478220245,0.0018548686839331167,0.018462022319717983,0.006907225031527504,0.0,0.014764693,0.0,9.580033000000001e-05,5.2666824000000004e-06,3.2612065e-06
8045,pistol,pistol,136,0,1,1,1,0.12368754994036332,0.0,0.0013187158799798562,0.0007674694479475004,0.003994031664597503,0.011019428999999999,0.0,0.0,2.053785e-06,0.0
3842,fire,fire,180,12,26,32,9,0.13845988789978206,0.01882603262986637,0.028999397568669587,0.02077186379052036,0.030403137602304543,0.010546804,6.634648e-05,0.0006250792,0.00032733493999999996,0.00026711178
9609,shoot,shoot,268,10,10,55,4,0.20615138865078655,0.015688360524888645,0.011153614449488305,0.03570164088995687,0.013512505601024242,0.01049208,1.5808586e-05,2.3267649999999997e-05,0.0001558137,4.037231e-06
4560,gun,gun,185,7,42,47,22,0.14230599589699822,0.010981852367422051,0.04684518068785088,0.030508674942326782,0.07431878080563332,0.0101833055,4.546711e-06,0.0011667247,0.0009933895,0.0019116246
339,ammo,ammo,223,1,8,4,0,0.2028112032110369,0.0018548686839331167,0.01054972703983885,0.0030698777917900016,0.0,0.008860121,0.0,1.8444181e-05,1.0422865999999998e-06,3.6389437999999996e-06
6231,load,load,159,3,1,1,1,0.12230623431147415,0.0047065081574665935,0.0011153614449488304,0.0006491207434537612,0.0033781264002560605,0.008058461999999999,1.8039074999999999e-06,3.0300018e-06,1.3403738000000002e-06,6.846443e-05
3843,firearm,firearm,131,5,24,15,9,0.1007680295270636,0.007844180262444322,0.026768674678771927,0.00973681115180642,0.030403137602304543,0.007736665699999999,0.0,0.00032150433999999996,1.6913496999999999e-06,0.0008615767
9630,shot,shot,203,10,9,48,2,0.1561519846869764,0.015688360524888645,0.010038253004539472,0.031157795685780545,0.006756252800512121,0.0074296854,6.20724e-05,0.0001257131,0.00015431302,3.0476438e-05
