,topic_lda,bag_words,sa_score,events
14,1.0,"['explosion', 'restaurant', 'music', 'festival', 'ansbach', 'dead', 'accident', 'muslim']",-1,[]
70,1.0,"['common', 'lie', 'media_mafia', 'hitler', 'hitler', 'criminal', 'arrest', 'formal', 'charge', 'investigation', 'evidence', 'arrest', 'hitler', 'give', 'prisoner', 'cost', 'order', 'result', 'german', 'citizen', 'shortage', 'hospital', 'bed', 'medical', 'supply', 'prisoner', 'result', 'german', 'citizen', 'medical', 'care', 'need', 'hitler', 'put', 'stop', 'german', 'gun_laws', 'return', 'gun_rights', 'german', 'citizen', 'lie', 'stand', 'cut']",-1,[]
182,1.0,"['time', 'step', 'seek', 'death_penalty', 'case', 'black_thugs', 'murder', 'innocent_white', 'folk']",-1,[]
240,1.0,"['russia', 'putin', 'hillary', 'steal', 'election', 'put', 'office', 'putin', 'put', 'position', 'order', 'strike', 'russia', 'exercise', 'election_fraud', 'stop']",-1,[]
314,1.0,"['race_mixing', 'whore', 'set', 'sugar', 'daddy', 'beating', 'robbery', 'car', 'kidnapping', 'murder', 'prison']",-1,[]
325,1.0,"['race', 'child', 'stop', 'police_officer', 'race', 'male', 'cut', 'knife', 'call', 'police', 'police_officer', 'scene', 'teen', 'suicide', 'fire', 'shot', 'rapid', 'secession', 'kill', 'teen', 'scene', 'officer', 'teen', 'lunge', 'mixed_race', 'child', 'race', 'freak', 'point', 'life', 'die', 'parent', 'fault', 'face', 'time', 'jail', 'time', 'innocent', 'child', 'virginia', 'high', 'schooler', 'suicide', 'police', 'kill', 'police', 'state', 'usa']",-1,[]
329,1.0,"['african', 'kill', 'race_mixer']",-1,[]
347,1.0,"['non-african', 'date', 'female', 'african', 'finish', 'start', 'white', 'guy', 'date', 'black', 'woman', 'hate_crime', 'youtube']",-1,[]
349,1.0,"['race_mixer', 'african', 'abuse', 'daughter', 'girl', 'zip', 'tie', 'bed', 'furniture', 'african', 'abuse', 'want', 'girl', 'injury', 'police', 'girl', 'idiot', 'spring', 'girl', 'tie', 'bed', 'mother', 'boyfriend', 'arrest', 'mail_online']",-1,[]
365,1.0,"['race_mixer', 'mother', 'pet', 'syrian', 'prison', 'murder']",-1,[]
377,1.0,"['race_mixer', 'kill', 'name', 'baby', 'white', 'cesar', 'want', 'son', 'name', 'white', 'girlfriend', 'kill', 'protection', 'order', 'stomp', 'beating', 'child', 'brown', 'behavior', 'girlfriend', 'grandmother', 'home', 'beat', 'grandmother', 'race_mixer', 'health', 'man', 'hate', 'mom', 'pick', 'baby', 'kill', 'stir']",-1,[]
504,1.0,"['africans_attempt', 'home_invasion', 'dead', 'arrest']",-1,[]
505,1.0,"['african', 'ram', 'car', 'mestizo', 'leg', 'amputation', 'injury']",-1,[]
510,1.0,"['kill', 'bombing']",-1,[]
523,1.0,"['jew', 'lead', 'gun_control', 'charge', 'jew', 'favor', 'israeli', 'jew']",-1,[]
529,1.0,"['gun', 'ban', 'shoot', 'death', 'african', 'african', 'gun_control', 'work']",-1,[]
542,1.0,"['young_white', 'mother', 'african', 'yufs']",-1,[]
605,1.0,"['hate', 'law', 'rowan', 'atkinson', 'blackadder']",-1,[]
795,1.0,['mestizo'],-1,[]
816,1.0,"['official', 'msds', 'state', 'fluoride', 'harm', 'child']",-1,[]
826,1.0,"['north_texas', 'gun', 'club', 'gun_show', 'irving', 'convention', 'center', 'irving', 'texas']",-1,[]
831,1.0,"['mexican', 'gun', 'purchaser', 'arrest', 'death', 'ice', 'agent', 'arrest', 'mexican', 'mestizo', 'brother', 'door']",-1,[]
1026,1.0,"['berlin', 'wall', 'peter', 'flechter', 'shot', 'lay', 'wire']",-1,[]
1063,1.0,"['suspect', 'marilyn', 'monroe', 'creature', 'ted', 'kennedy', 'kennedy', 'brother', 'suspect', 'murder', 'lover']",-1,[]
1092,1.0,"['norad', 'move', 'cheyenne', 'mountain', 'cold', 'war', 'location']",-1,['cold_war']
1203,1.0,"['israeli', 'weapon', 'mass_murder', 'sell', 'weapon', 'accessory', 'mass_murder']",-1,[]
1220,1.0,"['shame', 'flight', 'crew', 'bail', 'leave', 'air_force']",-1,[]
1264,1.0,"['jonbenet', 'ramsey']",-1,[]
1266,1.0,"['trump', 'pedophile', 'network', 'arrest', 'place']",-1,[]
1372,1.0,"['jew', 'muslim', 'pedophile', 'jewish_hollywood', 'movie', 'leftist', 'anti-whites', 'death']",-1,[]
1420,1.0,"['store', 'waste']",-1,[]
1421,1.0,"['san', 'onofre', 'nuclear_power', 'plant', 'estimate', 'cost', 'nuke_plant', 'mess', 'twenty', 'dollar', 'tax_payers', 'storage', 'waste', 'point', 'cost']",-1,[]
1435,1.0,"['commie', 'creature', 'leader', 'evil', 'jewish_communists']",-1,[]
1452,1.0,"['michael', 'brown', 'assault', 'robbery', 'video', 'gut', 'fair', 'fight']",-1,[]
1463,1.0,"['ar-10', 'torture', 'test']",-1,[]
1510,1.0,"['supply', 'super', 'power']",-1,[]
1549,1.0,"['race_traitors', 'evil', 'jew']",-1,[]
1570,1.0,"['tradition', 'talk', 'head', 'folk', 'talk', 'head', 'black', 'magic', 'practice', 'victim', 'head', 'body', 'head', 'place', 'darkness', 'concealment', 'invite', 'demon', 'dead', 'head', 'aid', 'evil', 'tradition', 'talk', 'head', 'murder', 'black', 'magic', 'demon', 'evil', 'tradition', 'evil']",-1,[]
1679,1.0,"['soviet', 'government', 'member', 'jew', 'government', 'murdered_millions', 'fellow', 'communist', 'white']",-1,[]
1715,1.0,"['mass_medium', 'spread', 'lie', 'anti-white', 'hate']",-1,[]
1826,1.0,"['muslim', 'terrorist', 'partner', 'ukraine']",-1,[]
1908,1.0,"['savage', 'carry', 'mag', 'ammo', 'cleaning', 'supply']",-1,[]
1995,1.0,"['american', 'zombie', 'killer', 'zombie', 'leftist']",-1,[]
2013,1.0,"['punishment', 'repercussion']",-1,[]
2118,1.0,"['timing', 'democrat', 'run', 'hillary', 'trump', 'campaign', 'trump', 'flame', 'put', 'arrest']",-1,[]
2399,1.0,"['white_kids', 'cost', 'brown', 'white_kids', 'job', 'market', 'degree']",-1,[]
2728,1.0,"['nation', 'people', 'common', 'culture', 'society', 'white_nation']",-1,[]
2746,1.0,"['pack', 'savage', 'african', 'attack', 'victim']",-1,[]
2753,1.0,"['african', 'serial_killer', 'white', 'teenager', 'murder', 'call', 'sex', 'offender', 'call', 'cover']",-1,[]
2756,1.0,"['african', 'soldier', 'rape']",-1,[]
2778,1.0,"['african', 'gangbanger', 'shot', 'innocent_white', 'woman', 'crime', 'victim', 'white', 'shoot', 'bitch', 'gang_bangers', 'miss', 'shot', 'white_woman', 'guess', 'shot', 'black', 'bitch', 'black-on-white', 'crime', 'blog', 'black', 'shooter', 'blame', 'cripple', 'white', 'female']",-1,[]
2781,1.0,"['ebola', 'treatment', 'center', 'guinea', 'black_african', 'african', 'attack', 'medical', 'treatment', 'center', 'african']",-1,[]
2785,1.0,"['african', 'gang', 'violence', 'african', 'gang', 'african', 'violence', 'african', 'gang', 'regular', 'african']",-1,[]
2855,1.0,"['african', 'punch']",-1,[]
2864,1.0,"['primitive', 'violence']",-1,[]
2871,1.0,"['african_female', 'shot_dead', 'facebook', 'post']",-1,[]
2875,1.0,"['african', 'child', 'riot', 'primate', 'primate', 'distress', 'call']",-1,[]
2892,1.0,"['shot_dead', 'wear', 'wrong', 'color']",-1,[]
2895,1.0,"['african', 'murder']",-1,[]
2905,1.0,"['african', 'start', 'crime']",-1,[]
3035,1.0,"['hammer', 'attack', 'savage', 'asian', 'canadian', 'boy', 'rafid', 'jihad', 'canadian', 'boy', 'beat', 'hammer', 'boy', 'skull', 'fracture', 'injury']",-1,[]
3041,1.0,"['african_female', 'white_woman', 'white_woman', 'shopping', 'dollar', 'store', 'female', 'african', 'rush', 'chase', 'knock', 'floor', 'hate_crime', 'white_person', 'shock', 'video', 'alabama', 'woman', 'hate_crime']",-1,[]
3064,1.0,"['african_home', 'death', 'white_woman']",-1,[]
3068,1.0,"['federal', 'african_murders', 'police_officer']",-1,[]
3118,1.0,"['african', 'rap', 'murder', 'white_girl', 'african', 'execution', 'stop', 'rap', 'kill', 'constitutional', 'constitutional', 'african', 'missouri', 'man', 'face', 'execution', 'rap', 'kill', 'yahoo', 'news']",-1,[]
3136,1.0,"['young_white', 'woman', 'savage', 'african']",-1,[]
3143,1.0,"['african', 'murder', 'white', 'teenager', 'black_lives', 'matter', 'court']",-1,[]
3144,1.0,"['white', 'community', 'african', 'attack']",-1,[]
3145,1.0,"['african', 'muslim', 'white_boy', 'blue', 'eye', 'swedish', 'boy', 'assault', 'blue', 'eye']",-1,[]
3165,1.0,"['deaths_head', 'coburg', 'post8185912']",-1,[]
3170,1.0,"['deaths_head', 'iron', 'war_machine', 'post7961815']",-1,[]
3182,1.0,"['mass', 'shooter', 'website', 'facebook', 'facebook', 'begin', 'mass', 'shooter', 'facebook', 'crime', 'history', 'jew', 'committed_mass', 'murder', 'jew', 'facebook', 'mass_murderer']",-1,[]
3200,1.0,"['rabbi', 'prison']",-1,[]
3261,1.0,"['riot', 'kick', 'charlotte']",-1,[]
3269,1.0,"['death', 'death', 'death']",-1,[]
3419,1.0,"['anti-white', 'racist', 'problem', 'solution', 'jewish_communists', 'program']",-1,[]
3426,1.0,"['fear', 'fear']",-1,[]
3446,1.0,['death'],-1,[]
3492,1.0,"['yr', 'torture', 'weld', 'torch', 'female', 'black', 'racist']",-1,[]
3592,1.0,"['small', 'town', 'people', 'murder', 'mile', 'house', 'mexican', 'hate_crimes', 'motive', 'norse', 'field', 'sword', 'group', 'white_folks', 'norse']",-1,[]
3644,1.0,"['jew', 'sell', 'black', 'market', 'gun', 'irish', 'patriot', 'gun', 'fire']",-1,[]
3977,1.0,"['trump', 'obama', 'hillary', 'soros', 'banking_families', 'israel', 'saudi_arabia', 'chemical', 'weapon', 'attack']",-1,[]
4014,1.0,"['fdr', 'launch', 'surprise', 'attack', 'japan', 'document', 'treason', 'fdr', 'communist/zionist', 'media_mafia', 'cover', 'limited', 'extent']",-1,[]
4015,1.0,"['pearl_harbor', 'attack', 'film', 'film', 'footage', 'film', 'day', 'attack']",-1,[]
4084,1.0,"['sick', 'term', 'latin', 'american', 'latino', 'mass_medium', 'issue', 'call', 'white_humans', 'brown', 'savage', 'call', 'white_folks', 'mestizo', 'white_folks', 'savage']",-1,[]
4119,1.0,"['cd', 'wait', 'release']",-1,[]
4142,1.0,"['animal', 'animal']",-1,[]
4207,1.0,"['rifle_range', 'yesterday', 'cold', 'day', 'yard', 'worst', 'group', 'show', 'reason', 'ar-10_chambered', 'winchester']",-1,[]
4292,1.0,"['mexican/indian', 'female', 'left', 'blue', 'hat', 'white', 'graphic', 'set', 'arrest']",-1,[]
4467,1.0,"['crime', 'muslim', 'burn']",-1,[]
4534,1.0,"['african', 'female', 'burn', 'woman']",-1,[]
4549,1.0,"['world', 'neighborhood', 'western_world', 'savage']",-1,[]
4586,1.0,"['black', 'serial_killer', 'capture']",-1,[]
4593,1.0,"['mestizo', 'female', 'extreme', 'child', 'abuse']",-1,[]
4594,1.0,"['dead', 'mexican', 'morgue']",-1,[]
4622,1.0,"['african_shot', 'brother', 'dead']",-1,[]
4632,1.0,"['santa', 'dun', 'de', 'kfc', 'need', 'cash', 'chicken', 'ho', 'ho', 'ho']",-1,[]
4636,1.0,"['video', 'update', 'savage', 'machete', 'attack', 'texas']",-1,[]
4650,1.0,"['african', 'arrest', 'normal', 'beating', 'arrest', 'normal']",-1,[]
4736,1.0,"['respect', 'race_traitor', 'race_traitor', 'dress', 'race_traitor', 'living', 'white_children', 'international', 'law', 'punishment', 'genocide', 'death', 'race_traitor', 'army', 'race_traitors', 'solder', 'situation', 'order', 'mass_murder', 'genocide']",-1,[]
4830,1.0,"['ralph_stanley', 'death']",-1,[]
4998,1.0,"['accidental', 'breast', 'cancer', 'cure', 'medical_mafia']",-1,[]
5010,1.0,"['adl', 'hate', 'group', 'trump']",-1,[]
5135,1.0,"['rhonda_vincent', 'rage', 'medley']",-1,[]
5230,1.0,['bank'],-1,[]
5265,1.0,"['lego_star', 'war', 'droid', 'tale', 'episode']",-1,[]
5296,1.0,['day'],-1,[]
5363,1.0,"['general', 'smedley', 'butler', 'war']",-1,[]
5423,1.0,"['lego_star', 'war', 'rebel']",-1,[]
5708,1.0,"['h.r.5344', 'law', 'ban', 'citizen', 'body_armor']",-1,[]
5838,1.0,"['ban', 'garden']",-1,[]
5844,1.0,"['road', 'devil', 'bad', 'reputation']",-1,[]
5848,1.0,"['gmo', 'ban', 'jackson', 'oregon', 'citizen', 'vote', 'ban', 'gmo', 'jackson', 'county', 'ore', 'gmo', 'ban', 'politics', 'katu.com', 'portland', 'news', 'sport', 'traffic', 'weather', 'break', 'news', 'portland', 'oregon']",-1,[]
5906,1.0,['leatham'],-1,[]
5974,1.0,"['max', 'michel', 'speed', 'kill']",-1,[]
6008,1.0,"['banker', 'suicide', 'link', 'jp', 'morgan', 'investigation', 'forex', 'manipulation']",-1,[]
6011,1.0,"['europe', 'die', 'nation', 'die', 'stop_white', 'genocide']",-1,[]
6045,1.0,"['terrorist', 'open', 'border', 'fix', 'secession']",-1,[]
6077,1.0,"['government', 'thug', 'capture', 'pay', 'terrorist', 'bomb']",-1,[]
6294,1.0,"['railgun', 'great', 'power', 'white_nations', 'white_nations']",-1,[]
6341,1.0,"['father', 'debtor', 'prison', 'child']",-1,[]
6351,1.0,"['constant', 'sorrow', 'dobro']",-1,[]
6374,1.0,"['ghost', 'ghost']",-1,[]
6445,1.0,"['michelle', 'female', 'transvestite']",-1,[]
6543,1.0,"['trap', 'shoot', 'sport', 'clay']",-1,[]
6577,1.0,"['african', 'love', 'obama', 'black', 'black']",-1,[]
6612,1.0,"['irish', 'parliment', 'speech', 'obama', 'war', 'criminal', 'law', 'war', 'criminal', 'hang']",-1,[]
6623,1.0,['weak_volume'],-1,[]
6658,1.0,"['jew', 'christian', 'jew', 'christian', 'time', 'christ', 'jew', 'christ']",-1,[]
6660,1.0,"['slavery', 'slavery', 'outlaw', 'slavery', 'mexican', 'buy', 'sell', 'black_african', 'slave', 'slavery', 'today', 'white_man', 'slavery']",-1,[]
6728,1.0,"['pentagon', 'military', 'secret', 'steal', 'communist_china', 'incompetence', 'treason']",-1,[]
6748,1.0,"['trap', 'elevator', 'corpse']",-1,[]
6990,1.0,"['communist', 'nation', 'nation']",-1,[]
7014,1.0,"['type', 'trick', 'work', 'real_life', 'fake', 'thumb', 'fool', 'biometric', 'scanner']",-1,[]
7162,1.0,"['african', 'mass_murderer', 'white', 'hostage', 'sound', 'racist']",-1,[]
7165,1.0,"['gypsy', 'meet', 'park']",-1,[]
7184,1.0,"['adl', 'white', 'america', 'adl', 'white', 'america', 'youtube']",-1,[]
7190,1.0,"['charlottesville', 'virginia', 'ban', 'drone']",-1,[]
7191,1.0,"['war', 'international_bankers']",-1,['federal_global_war']
7270,1.0,"['inventory', 'gun_ban', 'buying']",-1,[]
7331,1.0,"['usn', 'decontamination', 'incompetence']",-1,[]
7453,1.0,['terrorism'],-1,[]
7491,1.0,"['sheriff', 'deputy', 'break', 'african', 'fake', 'cop']",-1,[]
7567,1.0,"['ron_paul', 'free', 'government']",-1,[]
7604,1.0,"['occupy_wall', 'street', 'debt', 'slavery', 'hey', 'loony_leftists', 'magic', 'mulatto']",-1,[]
7639,1.0,"['jesse_ventura', 'conspiracy', 'theroy', 'season']",-1,[]
7746,1.0,"['mafia', 'issue', 'order', 'citizen', 'surrender', 'arm']",-1,[]
7773,1.0,"['mike', 'fischer', 'stone', 'cold', 'dead']",-1,[]
7876,1.0,"['april', 'patriot', 'shot', 'government', 'committed_mass', 'murder', 'child', 'waco', 'texas']",-1,[]
7942,1.0,"['bill', 'anderson', 'po', 'folk', 'christmas']",-1,[]
8174,1.0,"['bill', 'jordan', 'american_rifleman', 'television', 'magazine', 'nra', 'channel', 'rifle', 'rifleman', 'gun', 'channel', 'american_rifleman', 'television', 'magazine', 'nra', 'channel', 'rifle', 'rifleman', 'gun', 'channel']",-1,[]
8184,1.0,"['bob_munden', 'shoot']",-1,[]
8235,1.0,"['military', 'fight', 'war', 'unocal', 'company', 'pipeline', 'american-canadian', 'pipeline']",-1,[]
8242,1.0,"['irish', 'bastard', 'south', 'australia']",-1,[]
8248,1.0,"['ac', 'dc', 'war_machine']",-1,[]
8273,1.0,"['lego_star', 'war', 'harbinger']",-1,[]
8281,1.0,"['person', 'shooter', 'video', 'game', 'train', 'america', 'youth', 'white_americans']",-1,[]
8292,1.0,"['flash', 'mob', 'wal', 'mart', 'hate_crime']",-1,[]
8312,1.0,['real'],-1,[]
8606,1.0,"['israel', 'saudi_arabia', 'threat', 'iran']",-1,[]
8636,1.0,"['cancer', 'cure', 'dca', 'government', 'federal', 'regulation', 'cure', 'disease', 'cancer']",-1,[]
8654,1.0,"['attack', 'eye']",-1,[]
8704,1.0,"['ppt', 'rule', 'trading', 'derivative', 'expert', 'claim', 'ppt', 'ppt', 'government', 'mass_murder', 'american_citizens']",-1,[]
8740,1.0,"['bank', 'call', 'bank', 'america', 'display', 'greed', 'upset', 'american', 'hand', 'wealth', 'fast']",-1,[]
8770,1.0,"['cancer', 'cure', 'law']",-1,[]
8818,1.0,"['junior_brown', 'wife', 'think', 'dead']",-1,[]
8821,1.0,"['israel', 'promise', 'land', 'crime', 'crime', 'mass_murder', 'jew', 'israel', 'escape', 'justice']",-1,[]
8842,1.0,"['dead', 'mexican_drug', 'war']",-1,['mexican_drug_war']
8844,1.0,"['batfe', 'texas', 'congressman', 'ted', 'poe', 'doj', 'file', 'charge', 'crimes_committed', 'doj', 'justice', 'demand', 'special', 'prosecutor', 'independent', 'investigation', 'public', 'hearing', 'hold', 'criminal', 'criminal', 'act', 'crime']",-1,[]
8875,1.0,"['batfe', 'holder', 'senator', 'grassley']",-1,[]
8902,1.0,"['dead', 'kenyan', 'fuel', 'pipeline', 'fire', 'time', 'incident', 'report', 'burn', 'savage', 'line', 'fuel', 'leak', 'pipeline', 'article', 'mention', 'leak', 'overturn', 'tanker', 'world', 'ready', 'white_man', 'technology', 'kenyan', 'leader', 'obama', 'dead', 'kenyan', 'fuel', 'pipeline', 'fire', 'telegraph']",-1,[]
8908,1.0,"['federal_government', 'waste', 'tax_dollars', 'government', 'waste', 'money', 'youtube']",-1,[]
8910,1.0,"['rhonda_vincent', 'star', 'spangle', 'banner', 'star', 'bangled', 'banner', 'tyranny', 'loyalty', 'tyranny', 'government']",-1,[]
8914,1.0,"['alex_jones', 'july', 'sign', 'point', 'false_flag', 'terror', 'event', 'government']",-1,[]
8930,1.0,"['witness', 'target', 'building', 'witness', 'location', 'louisiana']",-1,[]
8945,1.0,"['operation', 'northwoods', 'fake', 'terror', 'false_flag', 'plot', 'government']",-1,[]
8950,1.0,"['brother', 'nathanael', 'jew', 'nato', 'rape', 'libya']",-1,"[""nato's""]"
8968,1.0,"['post', 'police', 'state', 'terror', 'cover', 'oil', 'rich', 'nation', 'false_flag', 'terror', 'attack', 'terrorism']",-1,['false_flag_terror_attacks']
8972,1.0,"['communist', 'news', 'network', 'broadcast', 'lie', 'zionism', 'corporate_wars']",-1,[]
8980,1.0,"['false_flag', 'attack', 'war', 'conquest']",-1,[]
8991,1.0,"['explosive', 'terror', 'drill', 'phoenix', 'airport', 'thief', 'training', 'public', 'location', 'real', 'explosive', 'murder', 'purpose', 'murder', 'incompetence', 'government']",-1,[]
8994,1.0,"['rand_paul', 'obama', 'failure', 'take']",-1,[]
9001,1.0,"['gaddafi', 'jfk', 'murder', 'israeli', 'weapon', 'gaddafi', 'ancient', 'white_folks', 'asian_savage', 'set_foot', 'america', 'homeland', 'leave', 'america']",-1,[]
9017,1.0,"['rhonda_vincent', 'rage', 'passing', 'train']",-1,[]
9167,1.0,"['rhonda_vincent', 'rage']",-1,[]
9213,1.0,"['anti-white_washington', 'flag', 'hat', 'symbol', 'enemy', 'mexico', 'washington', 'd.c']",-1,[]
9249,1.0,"['african', 'dead', 'african', 'matter']",-1,[]
9267,1.0,"['snowflake', 'anti-white', 'hate', 'anti-white', 'hate', 'stop_white', 'genocide']",-1,[]
9309,1.0,"['fair', 'poor', 'jew']",-1,[]
9331,1.0,"['propaganda', 'poster', 'show', 'secret', 'sneak', 'attack', 'america']",-1,[]
9348,1.0,"['behavior', 'irrational', 'loony_leftists', 'suspect']",-1,[]
9364,1.0,"['flood', 'texas', 'mexican', 'invader', 'texas', 'law', 'government', 'fight', 'federal', 'court', 'outcome', 'rig', 'texas', 'mexican', 'federal_judge', 'block', 'mexican', 'vote', 'power']",-1,[]
9487,1.0,"['merkel', 'law', 'committed_treason', 'position', 'arrest', 'put']",-1,[]
9514,1.0,"['death', 'threat', 'peace']",-1,[]
9582,1.0,"['hillary', 'supporter', 'rape', 'victim', 'story']",-1,[]
9632,1.0,"['liberal_race', 'traitor', 'black', 'niggro', 'white_male', 'female']",-1,[]
9644,1.0,"['reason', 'kill', 'family_member', 'family', 'family_member', 'kill', 'ww_ii', 'german', 'nazi', 'japanese', 'nazi', 'die', 'torture', 'starvation', 'nazi', 'asian']",-1,['ww_ii']
9685,1.0,"['prince', 'charles', 'give', 'putin', 'insult', 'compare', 'hitler', 'putin', 'wrong', 'presstv', 'putin', 'prince', 'charles', 'hitler', 'remark', 'wrong']",-1,[]
9707,1.0,"['blame', 'hitler', 'start', 'war', 'start']",-1,[]
9863,1.0,"['marxist', 'system', 'boycott', 'show', 'contempt', 'hillary', 'stole', 'nomination', 'bernie', 'great', 'reason', 'part', 'election', 'protest']",-1,[]
9943,1.0,"['immortal', 'death', 'putin', 'black', 'hood', 'robe', 'putin', 'kill']",-1,[]
9994,1.0,"['asian', 'black', 'inferior']",-1,[]
10230,1.0,"['mexican', 'black', 'people', 'mistake', 'mexican', 'africanized', 'indian', 'ability', 'contrary', 'intelligence', 'crime', 'mexican', 'watch', 'program', 'talmud', 'vision', 'dna', 'evidence', 'murder', 'victim', 'set', 'victim', 'burn', 'burn', 'dead', 'body', 'murder', 'victim', 'mexican', 'black', 'security', 'camera', 'set', 'victim', 'mexican', 'black', 'brain', 'cell', 'evil', 'criminal', 'intent', 'inferior', 'mexican', 'black', 'ability', 'hatch', 'victim']",-1,[]
10278,1.0,"['news', 'agency', 'demand', 'death', 'black', 'attacker', 'harm', 'innocent_white', 'folk']",-1,[]
10331,1.0,"['leftist', 'communism', 'hate', 'communist']",-1,[]
10345,1.0,"['white_folks', 'risk', 'life', 'african', 'whitey', 'african']",-1,[]
10447,1.0,"['china', 'stock', 'market', 'crisis']",-1,[]
10480,1.0,"['communist', 'mass_murder', 'instance', 'communist', 'control', 'control', 'commit_mass', 'murder', 'ussr', 'committed_mass', 'murder', 'innocent_white', 'child']",-1,[]
10482,1.0,"['homosexual', 'child_rape', 'suicide', 'violence', 'drug', 'abuse', 'drug', 'deal', 'alcohol', 'abuse', 'vandalism', 'arson']",-1,[]
10506,1.0,"['place', 'world_savages', 'heaven', 'hell_hole', 'fault', 'fault', 'savage']",-1,[]
10524,1.0,"['ukraine', 'anti-government', 'riot', 'riot', 'begin', 'communist']",-1,[]
10545,1.0,"['hate', 'bear', 'wolf', 'mountain', 'lion', 'shark', 'kill', 'creature', 'life', 'african', 'death', 'african', 'african']",-1,[]
10614,1.0,"['communist', 'mass_murderer', 'mass_murder', 'mass', 'graf', 'belarus']",-1,[]
10657,1.0,"['neocon', 'rule', 'engagement', 'young', 'boy', 'war', 'zone', 'fire', 'weapon', 'zog', 'tribunal', 'young', 'boy', 'murder', 'neocon', 'mass_murder', 'sentence']",-1,[]
10710,1.0,"['jew', 'white_folks', 'hate', 'jew', 'hate', 'return', 'jew', 'group']",-1,[]
10805,1.0,"['alex_jones', 'trump', 'hillary_clinton']",-1,[]
10819,1.0,"['trump', 'brussels', 'terror', 'attack', 'u.s', 'border', 'security']",-1,[]
10856,1.0,"['trump', 'insider', 'real', 'trump', 'clinton', 'bush', 'crime', 'family', 'expose']",-1,[]
11189,1.0,"['trump', 'hate_crime', 'hoax', 'expose']",-1,[]
11224,1.0,"['alex_jones', 'hitler', 'time', 'nazi', 'hate', 'guy']",-1,[]
11300,1.0,"['california', 'commie', 'call', 'report', 'crime', 'victim', 'commie', 'crime', 'victim', 'arrest']",-1,[]
11321,1.0,"['terror', 'attack', 'terrorist', 'attack', 'muslim', 'marxist', 'germany']",-1,[]
11324,1.0,"['black', 'join', 'firearm', 'white', 'firearm', 'arm', 'criminal', 'niggros']",-1,[]
11398,1.0,"['worst', 'nuclear_plant', 'disaster', 'bad']",-1,[]
11512,1.0,"['saga', 'ode', 'die', 'people']",-1,[]
11538,1.0,"['murder', 'machine', 'inch', 'war']",-1,[]
11552,1.0,"['ron_paul', 'zionists/neocons', 'begin', 'invasion']",-1,[]
11567,1.0,"['french', 'president', 'face', 'year']",-1,[]
11715,1.0,"['saudi', 'terrorist', 'seek', 'revenge', 'terrorist', 'saudi', 'iraq', 'afghanistan', 'east']",-1,[]
11767,1.0,"['mythology', 'star_wars']",-1,[]
11794,1.0,"['finnish', 'sniper', 'white', 'death', 'communist', 'kill']",-1,[]
11848,1.0,"['winter', 'war', 'fin', 'communist', 'tank']",-1,['winter_war']
11917,1.0,"['carl', 'jung', 'death']",-1,[]
11954,1.0,"['kill', 'honey', 'bee']",-1,[]
11971,1.0,"['secret', 'swedish', 'spy', 'law', 'washington_government', 'expose', 'wikileaks', 'organized_criminal', 'conspiracy']",-1,[]
11973,1.0,"['kill', 'honey', 'bee']",-1,[]
11987,1.0,"['kill', 'honey', 'bee']",-1,[]
12018,1.0,"['crime', 'scene']",-1,[]
12030,1.0,"['run', 'bull', 'bull', 'harm', 'make']",-1,[]
12050,1.0,"['sam', 'g', 'dickson', 'liberal', 'experiment', 'failure']",-1,[]
12058,1.0,"['bad', 'influence', 'local']",-1,[]
12059,1.0,"['carbon_tax', 'western_world', 'explination', 'threat']",-1,[]
12205,1.0,"['brother', 'nathanial', 'state']",-1,[]
12215,1.0,"['jesse_ventura', 'conspiracy', 'theory', 'pentagon']",-1,[]
12266,1.0,"['canadian', 'style', 'arrest', 'law_abiding', 'citizen', 'citizen', 'law', 'police', 'order', 'kick', 'mouth', 'teeth', 'man', 'crime', 'rule', 'conduct']",-1,[]
12277,1.0,"['neutron', 'death', 'star']",-1,[]
12325,1.0,"['republican', 'river', 'conspiracy', 'water']",-1,[]
12465,1.0,"['farm', 'chernobyl', 'disaster', 'zone']",-1,[]
12467,1.0,"['edward', 'burlew', 'canadian', 'gun_registry', 'waste', 'time', 'canada']",-1,[]
12479,1.0,"['australian', 'flood']",-1,[]
12483,1.0,"['multiculturalism', 'failure']",-1,[]
12524,1.0,"['woman', 'refuse', 'tsa', 'austin', 'airport']",-1,[]
12558,1.0,['race_war'],-1,[]
12569,1.0,"['operation', 'payback', 'hacker', 'matercard', 'website', 'revenge', 'julian', 'assange', 'arrest']",-1,[]
12776,1.0,"['obama', 'hate', 'america']",-1,[]
12795,1.0,"['jiggernaut', 'minute', 'silence', 'dead']",-1,[]
12811,1.0,"['barack_hussein', 'obama', 'jr', 'anti-white', 'racist', 'rant']",-1,[]
12815,1.0,"['handgun', 'registration', 'murder']",-1,[]
12914,1.0,"['plane', 'crash', 'accident']",-1,[]
12915,1.0,"['report', 'plane', 'crash', 'denial', 'plane', 'crash']",-1,[]
12934,1.0,"['border', 'violence', 'murder', 'investigator', 'murder']",-1,[]
12989,1.0,"['man', 'anti-obama', 'sign', 'obama', 'personal', 'savior']",-1,[]
13093,1.0,"['deaths_head', 'annihilation']",-1,[]
13101,1.0,"['nationalist', 'fight', 'order', 'world_wide', 'enemy', 'win', 'war', 'ally']",-1,[]
13108,1.0,"['glenn_beck', 'america']",-1,[]
13125,1.0,"['agent', 'counter-espionage', 'film', 'youtube', 'x202a', 'agent', 'counter-espionage', 'film', 'x202c', 'lrm']",-1,[]
13138,1.0,"['paul', 'joseph', 'watson', 'obama', 'zombie', 'goon', 'friend', 'homosexual', 'radical', 'marxist', 'bill', 'ayers']",-1,[]
13178,1.0,"['final_war', 'death']",-1,[]
13180,1.0,"['media_mafia', 'hate', 'john', 'wesley', 'hardin', 'hate', 'david_duke', 'john', 'wesley', 'hardin', 'kill', 'black', 'mexican', 'undesirable']",-1,[]
13246,1.0,"['austrian', 'death', 'machine']",-1,[]
13314,1.0,"['stormtroop', 'war_machine']",-1,['16_-_war_machine']
