,topic_lda,bag_words,sa_score,events
65,4.0,"['homosexual', 'liveleak.com', 'comprehensive', 'serial', 'killer', 'homosexual']",-1,[]
303,4.0,"['criminal', 'gun_control', 'count', 'gun', 'grab', 'jewish_communists', 'congress', 'idiot', 'race_traitors', 'federal_judges', 'talmudic', 'law', 'disregard', 'law']",-1,[]
356,4.0,"['race_mixers', 'african', 'hooker', 'druggie']",-1,[]
710,4.0,"['texan', 'rapist', 'act', 'rap', 'girl', 'mexican', 'child', 'rape', 'boy', 'girl', 'rape', 'mexican', 'fun']",-1,[]
1015,4.0,"['body', 'haitian', 'looter', 'step', 'haitian', 'looter', 'shot_dead', 'moment', 'haitian', 'police', 'haitian', 'looter', 'scatter', 'haitian', 'police', 'left', 'area', 'haitian', 'looter', 'loot', 'dead', 'looter', 'foot']",-1,[]
1406,4.0,"['accident', 'inevitable', 'accident', 'plan', 'technology', 'waste', 'disposal', 'plan', 'plan', 'containment', 'waste', 'containment', 'waste']",-1,[]
1413,4.0,['cancer'],-1,[]
1528,4.0,"['zionist', 'war']",-1,[]
1538,4.0,['kill'],-1,[]
1658,4.0,"['rabbi', 'give', 'death', 'threat', 'note', 'jew', 'yeshua', 'jesus']",-1,[]
1799,4.0,"['african', 'shout', 'kill', 'jew', 'stab', 'jew', 'face']",-1,[]
1971,4.0,"['real', 'terrorist', 'government', 'government', 'mossad', 'attack', 'real', 'target', 'white_house', 'congress', 'real', 'attack', 'supreme_court', 'parliament', 'international_banks']",-1,[]
2048,4.0,"['child', 'push', 'suicide']",-1,[]
2352,4.0,['white'],-1,[]
2371,4.0,"['round', 'fire', 'fight']",-1,[]
2529,4.0,"['shoot', 'street', 'stab', 'prison', 'beating', 'bus', 'stop', 'bragging', 'cousin', 'work', 'restaurant', 'put', 'rat', 'poison', 'food', 'mexican', 'restaurant', 'monkey', 'poison', 'black', 'brown', 'murder']",-1,[]
2543,4.0,"['african', 'crime_spree', 'couple', 'dead', 'asian', 'car', 'crime_spree', 'murder', 'youtube']",-1,[]
2706,4.0,"['government', 'civil_war', 'schedule', 'chaos', 'leftist', 'irony', 'leftist', 'run', 'area', 'leftist', 'control', 'area']",-1,[]
2808,4.0,"['african', 'attempt', 'armed_robbery', 'dead']",-1,[]
2809,4.0,"['african', 'beast', 'murder', 'white_man']",-1,[]
2880,4.0,"['black_african', 'kill', 'white']",-1,[]
2920,4.0,"['chad', 'dictator', 'face', 'trial', 'senegal', 'murder', 'chad', 'dictator', 'face', 'trial', 'senegal', 'murder', 'sputnik', 'international']",-1,[]
2963,4.0,"['african', 'mom', 'torture', 'murder', 'put', 'kid', 'body', 'freezer']",-1,[]
2977,4.0,"['oral', 'history', 'asian_savages', 'indian', 'america', 'savage', 'savage', 'fitting', 'non-whites', 'encounter', 'communist_propaganda', 'great', 'accomplishment', 'primitive', 'tribe', 'term', 'savage']",-1,[]
3021,4.0,"['african', 'white', 'foster', 'mother']",-1,[]
3030,4.0,"['african', 'burn', 'white', 'girl']",-1,[]
3031,4.0,"['knife', 'attack', 'neighbor', 'daughter', 'attack', 'white_family', 'attack', 'home', 'dead', 'mother', 'daughter', 'son', 'wound', 'african', 'boy', 'hiding', 'daughter', 'babysitting', 'time', 'attack', 'police', 'shot', 'african', 'die', 'hospital', 'hate_crime', 'spree', 'stab', 'madison', 'wisconsin', 'woman', 'dead', 'medium', 'censor']",-1,[]
3036,4.0,"['attack', 'girl', 'mestizo', 'anti-whites', 're-education', 'arrest', 'accessory', 'violent_crimes', 'child', 'school_system', 'white_children', 'attacker', 'show', 'brown', 'punishment', 'attack', 'white', 'student']",-1,[]
3074,4.0,"['white', 'nasa', 'scientist', 'shot_dead']",-1,[]
3075,4.0,"['african', 'murder', 'white_family']",-1,[]
3089,4.0,"['african', 'boy', 'white', 'murder', 'hateful_violent', 'african', 'white_kid', 'come', 'african']",-1,[]
3112,4.0,"['mestizo', 'serial_killer', 'put']",-1,[]
3381,4.0,"['race_traitor', 'rampage', 'black_horde', 'machete', 'attack', 'race_traitor', 'white_genocide', 'stop_white', 'genocide']",-1,[]
3486,4.0,"['die', 'day']",-1,[]
3780,4.0,"['death', 'teaching', 'holy', 'book', 'command', 'non-jihadi', 'government', 'official', 'military', 'officer', 'police', 'official', 'lifetime', 'motivation']",-1,[]
3835,4.0,"['racist', 'black', 'savage', 'beat', 'white_woman']",-1,[]
3874,4.0,"['mark', 'kilroy', 'texas', 'med', 'student', 'mexican', 'cannibal', 'oo_religio.htm', 'raid', 'suspect', 'stew', 'pot', 'full', 'human', 'body', 'part', 'dozen', 'victim', 'cannibal', 'feast', 'total', 'victim', 'total', 'murder', 'unknown', 'cuban', 'cannibal', 'part', 'murder']",-1,[]
3876,4.0,['race_war'],-1,['race_war']
3899,4.0,"['east', 'asian', 'nation', 'land', 'savage', 'european', 'american', 'raise', 'today', 'semi', 'semi', 'technology', 'today', 'nation', 'population']",-1,[]
3906,4.0,"['bicycle', 'racist', 'racist', 'black', 'boy', 'steal', 'bicycle']",-1,[]
3968,4.0,"['refuse', 'people', 'hatred', 'african', 'rap', 'murder', 'white_woman', 'murder', 'multiple', 'victim', 'serial_killer', 'kill', 'normal', 'african_behavior']",-1,[]
4040,4.0,"['folk', 'cheat', 'vote', 'hearing', 'proof', 'cheater', 'treason', 'election_fraud', 'government']",-1,[]
4047,4.0,"['law', 'trump', 'arrest', 'lie', 'commie', 'jew', 'race_traitors', 'communist', 'lie', 'mass_medium', 'year', 'lie', 'trump']",-1,[]
4154,4.0,"['individual', 'feel', 'fashion', 'industry', 'gay', 'mafia', 'racist']",-1,[]
4167,4.0,"['disparity', 'crime', 'black', 'brown', 'white', 'crime', 'statistic', 'state', 'non-whites', 'charge', 'arrest', 'white']",-1,[]
4180,4.0,"['anti-white_jewish', 'medium', 'ban']",-1,[]
4267,4.0,"['obama', 'suspect', 'murder', 'felony', 'white_male', 'white', 'count', 'black']",-1,[]
4444,4.0,"['price', 'help', 'economy', 'high', 'oil', 'price', 'kill', 'economy', 'russian', 'economy', 'natural', 'gas', 'oil', 'price', 'kill', 'economy']",-1,[]
4451,4.0,"['zionist', 'grade', 'holocaust', 'essay', 'assignment', 'examination', 'fact', 'think', 'zionist', 'cash', 'cow']",-1,['holocaust']
4479,4.0,"['smoking', 'dope', 'cheech', 'chong', 'rich', 'point', 'turn', 'retard', 'choice']",-1,[]
4519,4.0,"['abu', 'dhabi', 'murderer', 'security', 'video', 'murderer', 'contact', 'authority', 'murderer', 'abu', 'dhabi', 'age', 'race', 'gender', 'unknown', 'capture', 'security', 'video', 'mother', 'rest', 'room', 'crime', 'unknown', 'murderer', 'victim', 'victim', 'female', 'american_citizen', 'age', 'race']",-1,[]
4520,4.0,"['girl', 'rap', 'murder', 'asian']",-1,[]
4525,4.0,"['india', 'girl', 'rape', 'girl', 'brother', 'attempt', 'rape', 'sister', 'rap', 'punishment']",-1,[]
4556,4.0,"['capital', 'murder', 'indictment', 'child']",-1,[]
4601,4.0,"['african', 'shoplifter', 'murder']",-1,[]
4603,4.0,"['shooting', 'gun_control', 'city', 'chicago', 'kill', 'shoot', 'individual', 'shoot', 'fish', 'barrel']",-1,[]
4610,4.0,"['african_shot', 'african_home', 'invader', 'dead', 'shot', 'head', 'dead']",-1,[]
4613,4.0,"['african', 'twin', 'stab', 'mother']",-1,[]
4615,4.0,"['african', 'mestizo', 'african', 'video', 'arrest']",-1,[]
4633,4.0,"['african', 'rapist', 'tongue', 'victim', 'didntdonuffin', 'boy', 'sho']",-1,[]
4642,4.0,"['african_shot', 'dead', 'baby', 'sitter', 'child', 'gun', 'houston-area', 'woman', 'charge', 'boy', 'shoot', 'houston', 'chronicle']",-1,[]
4646,4.0,"['primitive', 'detroit', 'african', 'murder', 'wife', 'child', 'miss']",-1,[]
4678,4.0,"['mexican_drug', 'gang', 'shoot', 'dead', 'border', 'open']",-1,[]
4680,4.0,"['african', 'criminal', 'swallow', 'cell', 'stop', 'keep', 'african', 'colony', 'africa']",-1,[]
4697,4.0,"['african', 'murder', 'african', 'deputy']",-1,[]
5005,4.0,"['tommy', 'emmanuel', 'heartbreak', 'hotel']",-1,[]
5015,4.0,"['scotty', 'bratcher', 'band', 'worry']",-1,[]
5075,4.0,"['destroyer', 'sword']",-1,[]
5179,4.0,"['gun_control', 'kill']",-1,[]
5197,4.0,"['birth', 'condition', 'wrong', 'hate', 'hate', 'enemy', 'race_traitors', 'government', 'pentagon', 'love', 'people', 'hate', 'enemy', 'people', 'hate', 'love']",-1,[]
5371,4.0,"['police_officer', 'kill', 'shoot']",-1,[]
5437,4.0,"['devil', 'dance', 'floor', 'left', 'flag']",-1,[]
5488,4.0,"['rhead', 'stone', 'dead']",-1,[]
5526,4.0,"['preview', 'race_war']",-1,['race_war']
5579,4.0,"['fdr', 'pearl_harbor']",-1,[]
5731,4.0,"['study', 'monsanto', 'roundup', 'herbicide', 'roundup', 'damage', 'dna', 'damage', 'human', 'sperm']",-1,[]
5823,4.0,"['operation', 'choke', 'point']",-1,[]
5856,4.0,"['anti-citizen', 'training', 'facility', 'military', 'train', 'attack', 'citizen', 'preparation', 'soviet', 'style', 'mass_murder']",-1,[]
6429,4.0,"['ray', 'wylie', 'hubbard', 'conversation', 'devil']",-1,[]
6548,4.0,"['individual', 'public', 'enemy']",-1,[]
6670,4.0,['weak_volume'],-1,[]
6920,4.0,['superstar'],-1,[]
6993,4.0,['weak_volume'],-1,[]
7003,4.0,"['irish', 'bastard', 'work', 'blood']",-1,[]
7017,4.0,['weak_volume'],-1,[]
7083,4.0,"['maryland', 'raw', 'milk', 'ban']",-1,[]
7145,4.0,"['lego_star', 'war', 'quest', 'r2d2', 'video', 'lego_star', 'war', 'quest', 'r2-d2', 'starwars.com']",-1,[]
7174,4.0,"['west', 'point', 'cadet', 'patriot', 'terrorist']",-1,[]
7896,4.0,"['ndaa', 'duh', 'anti', 'american']",-1,[]
7905,4.0,"['full', 'episode', 'star_wars', 'war', 'begin', 'number', 'season', 'episode', 'theme', 'racism', 'bad', 'star_wars', 'war', 'treason', 'time', 'war', 'wrong', 'organization', 'thought', 'action', 'experience', 'situation', 'starwars.com', 'watch', 'war']",-1,['war']
8054,4.0,"['dick', 'tracy', 'snub_nose', 'tommy', 'gun']",-1,[]
8118,4.0,"['texas', 'representative', 'ted', 'poe']",-1,[]
8627,4.0,"['mexican', 'shoot', 'spree', 'incident', 'million', 'mexican']",-1,[]
8697,4.0,"['veteran', 'suicide', 'day', 'america', 'benefit', 'corporate_wars']",-1,[]
8720,4.0,"['police', 'brooklyn', 'bridge', 'protester', 'arrest']",-1,[]
8725,4.0,"['anwar', 'al', 'awlaki', 'kill', 'terrorist', 'life']",-1,[]
8769,4.0,"['arnie_gundersen', 'design', 'flaw', 'moral', 'flaw', 'nuclear_power', 'plant', 'nuclear_power', 'insanity']",-1,[]
8912,4.0,"['jim', 'reef', 'sucker']",-1,[]
8926,4.0,"['israeli_government', 'murder', 'citizen', 'war', 'israeli_government', 'fire', 'bomb', 'citizen', 'operation', 'lavon', 'affair', 'hope', 'war', 'israeli_government', 'king', 'david', 'hotel', 'murder', 'citizen', 'hop', 'war', 'israeli_government', 'attack', 'us', 'liberty', 'murder', 'citizen', 'hop', 'war', 'saudi_arabia', 'state', 'israeli_government', 'government', 'order', 'citizen', 'motive', 'war']",-1,[]
8971,4.0,"['jewish_international', 'banker', 'fault', 'steal', 'tax_dollars', 'jewish_international', 'corporation', 'monsanto', 'walmart', 'kill', 'jew', 'white_house', 'congress', 'stab', 'american_citizens', 'society', 'tell', 'american', 'gut']",-1,[]
9282,4.0,"['compare', 'african', 'retard', 'african', 'problem']",-1,[]
9310,4.0,"['ritual', 'murder', 'gentile', 'pt3']",-1,[]
9523,4.0,"['anti-whites', 're-education', 'arrest', 'accessory', 'violent_crimes', 'child', 'school_system', 'white_children', 'attacker', 'show', 'brown', 'punishment', 'attack', 'white', 'student']",-1,[]
9539,4.0,"['putin', 'hand', 'erdogan', 'kill', 'threat']",-1,[]
9546,4.0,"['evidence', 'expose', 'hitler', 'secret', 'refuge', 'world_war', 'ii']",-1,['world_war_ii']
9620,4.0,"['handgun', 'good', 'trigger', 'guard']",-1,[]
9667,4.0,"['birthplace', 'war_crime', 'memorial']",-1,['war_crimes_memorial']
9668,4.0,"['german', 'wrong', 'wrong', 'message', 'german', 'condition', 'nazi', 'guy', 'german', 'condition', 'associate', 'nazi', 'evil', 'shame', 'destruction', 'death', 'starvation']",-1,[]
9690,4.0,"['movie', 'nazi', 'terrorism', 'innocent', 'child', 'evil', 'nazi', 'watch', 'condition', 'hate', 'nazi']",-1,[]
9728,4.0,"['jewish_communist', 'radical_feminism', 'woman', 'marriage', 'family', 'white_children', 'white_genocide', 'program', 'set', 'work', 'white_children', 'white_woman', 'reject', 'feminism', 'wife', 'mother']",-1,[]
9858,4.0,['devil'],-1,[]
9869,4.0,"['gather', 'information', 'racist', 'creature', 'turkish', 'jew', 'semitic', 'jew', 'african', 'jew']",-1,[]
9896,4.0,"['gambia', 'slit', 'throat', 'homosexual', 'couple', 'leftist', 'gambia', 'march', 'throw', 'fire', 'bomb', 'homosexual', 'life', 'sentence', 'gambia', 'married', 'homosexual', 'couple', 'death', 'sentence', 'president']",-1,[]
9915,4.0,"['world_wide', 'genocide', 'white_children', 'evil', 'stop_white', 'genocide']",-1,[]
9923,4.0,"['medium', 'series', 'modern_day', 'current', 'slavery', 'asia']",-1,[]
9937,4.0,"['daily', 'tweet', 'expose', 'mafia', 'criminal', 'activity']",-1,[]
9955,4.0,"['riot', 'place', 'large', 'riot', 'riot', 'large_cities', 'police', 'stop', 'riot', 'burn', 'white_folks', 'invader', 'riot']",-1,[]
10040,4.0,"['official', 'story', 'muslim', 'suicide', 'bomb', 'backpack', 'muslim', 'head', 'music', 'festival', 'folk', 'kill', 'police', 'search', 'backpack', 'line', 'bomb', 'wine', 'bar', 'official', 'story', 'motif', 'suicide', 'bomber', 'act', 'jihad', 'islam', 'unknown']",-1,[]
10043,4.0,"['loony_leftists', 'debate', 'shout', 'communist_propaganda', 'throw', 'fire', 'bomb', 'loony_leftists', 'true', 'savage', 'loony_leftists', 'pet', 'savage']",-1,[]
10050,4.0,"['partial', 'texas', 'gun_shows', 'abilene', 'abilene', 'center', 'texas', 'gun', 'knife', 'show', 'march', 'brownwood', 'coliseum', 'march', 'houston', 'brown', 'convention', 'center', 'march', 'abilene', 'abilene', 'center', 'march', 'pharr', 'int', 'l', 'convention', 'center', 'march', 'pasadena', 'convention', 'center', 'march', 'el_paso', 'el', 'maida', 'shrine', 'provost', 'guard', 'gun_show', 'march']",-1,[]
10075,4.0,"['alex_jones', 'fbi', 'austin', 'attack', 'come']",-1,[]
10231,4.0,"['convict', 'murderer', 'texas', 'death', 'row', 'stay', 'execution', 'murder', 'victim', 'state', 'high', 'court', 'ruling', 'injection', 'n/5174185.html', 'government', 'occupation', 'soil', 'federal', 'court', 'dictatorship']",-1,[]
10276,4.0,"['objective', 'officer', 'soldier', 'resistance', 'general', 'george_washington', 'set', 'british', 'army', 'war', 'defeat', 'danger', 'command', 'disgrace', 'stop', 'fight', 'military', 'war', 'begin', 'resistance', 'tactic', 'fight', 'resistance', 'army', 'general', 'george_washington', 'defeat', 'military', 'army']",-1,['military_war']
10279,4.0,"['power', 'detroit', 'chaos', 'disorder', 'normal', 'day', 'detroit']",-1,[]
10310,4.0,"['death', 'head', 'iron', 'war_machine']",-1,[]
10313,4.0,"['survivor', 'death', 'camp', 'transfer', 'prisoner', 'death', 'camp', 'kill', 'spot', 'house', 'feed', 'give', 'medical', 'aid', 'prisoner', 'death', 'camp', 'professional', 'shyster', 'lie']",-1,[]
10374,4.0,"['arrest', 'gear', 'failure', 'usn', 'carrier']",-1,[]
10396,4.0,"['crime', 'prison', 'conspiracy', 'conspiracy', 'death', 'murder', 'leftist', 'care', 'innocent', 'people']",-1,[]
10411,4.0,"['white', 'majority', 'nation', 'black', 'minority', 'prison', 'full', 'black', 'africa', 'black', 'majority', 'nation', 'white', 'minority', 'prison', 'full', 'black', 'nation', 'black', 'white', 'crime', 'common', 'place', 'white', 'black', 'crime']",-1,[]
10443,4.0,"['china', 'empty', 'city', 'bad', 'investment', 'good', 'economy']",-1,[]
10449,4.0,"['china', 'debt', 'greek', 'debt']",-1,[]
10458,4.0,"['narrative', 'born', 'degenerate', 'freak', 'jew', 'african_behavior', 'born', 'right', 'campaign', 'african', 'rape', 'murder', 'run', 'born']",-1,[]
10459,4.0,"['confederate', 'state', 'tennessee', 'landlord', 'tenant']",-1,[]
10484,4.0,"['put', 'game', 'rifle', 'hunter', 'animal', 'charge', 'speed', 'kill']",-1,[]
10542,4.0,"['weapon', 'kill', 'dead', 'item', 'uranium', 'child', 'nuclear_power', 'plant', 'weapon', 'construct', 'large', 'population', 'center', 'intention', 'mass_murder', 'savage', 'weapon', 'innocent', 'child', 'white', 'population']",-1,[]
10574,4.0,"['cartoonist', 'dead', 'father', 'murder', 'cheat', 'son', 'insult', 'muslim']",-1,[]
10578,4.0,"['white', 'young', 'die', 'flu', 'mexican', 'die']",-1,[]
10606,4.0,['leftist'],-1,[]
10636,4.0,"['liar', 'cheat', 'swindler', 'deceiver', 'deviant', 'thief', 'pornographer', 'pedophile', 'degenerate', 'rapist', 'drug', 'dealer', 'homosexual', 'communist', 'white_genocide']",-1,[]
10779,4.0,"['fbi', 'analyst', 'clinton', 'treason']",-1,[]
10808,4.0,"['colorado', 'revolt', 'gop', 'election_fraud']",-1,[]
10811,4.0,"['cruz', 'joke', 'kill', 'trump']",-1,[]
10816,4.0,"['texas', 'voter', 'witness', 'vote_fraud', 'place', 'trump']",-1,[]
10835,4.0,"['people', 'riot', 'people', 'overthrow', 'woman', 'merkel', 'commie', 'race_traitor', 'hell']",-1,[]
10842,4.0,"['invader', 'america']",-1,[]
10854,4.0,"['obama', 'global_warming', 'fellow', 'terrorist', 'trump', 'reply', 'glen', 'beck', 'good']",-1,[]
10865,4.0,"['hillary', 'lie', 'blame', 'russia', 'hillary', 'steal', 'blame', 'russia', 'hillary', 'treason', 'blame', 'russia']",-1,[]
10901,4.0,"['medium', 'lie', 'hide', 'normal', 'attack', 'family', 'give', 'attack']",-1,[]
10907,4.0,"['son', 'kill', 'white_americans', 'issue']",-1,[]
11165,4.0,"['rt', 'turkey', 'false_flag', 'plot', 'war', 'syria', 'turkey', 'false_flag', 'plot', 'war', 'syria', 'weapon', 'mass', 'distraction', 'youtube']",-1,[]
11225,4.0,"['nazi', 'hate', 'alex_jones', 'alex_jones', 'jew', 'crime', 'jew', 'jew', 'hitler', 'jewish_leaders', 'hitler', 'round', 'jew', 'lie', 'jew', 'round', 'jew', 'crime', 'arrest', 'german', 'arrest', 'jew', 'jew', 'arrest', 'hitler', 'jew', 'sensitive', 'position', 'military', 'military', 'complex', 'hitler', 'issue', 'prisoner', 'cost', 'cause', 'german', 'citizen', 'food', 'medical', 'supply', 'short', 'supply', 'supply', 'prisoner', 'cause', 'german', 'civilian', 'general', 'patton', 'prisoner', 'bullet', 'head', 'order', 'soldier', 'prisoner', 'resource', 'alex_jones', 'jew', 'crime', 'guess', 'nazi', 'hate', 'hitler']",-1,[]
11250,4.0,"['tnb', 'final_war', 'raceland']",-1,[]
11335,4.0,"['project', 'hammer', 'crime']",-1,[]
11375,4.0,"['violence', 'destruction', 'normal', 'occurrence', 'culture', 'existence', 'violence']",-1,[]
11396,4.0,"['communist', 'riot', 'london']",-1,[]
11437,4.0,"['hawkwind', 'angel', 'light', 'angel', 'death']",-1,[]
11456,4.0,"['lego_star', 'war', 'war', 'comic']",-1,[]
11459,4.0,"['canadian', 'pilot', 'bomb', 'libyan', 'target']",-1,[]
11501,4.0,"['ron_paul', 'control', 'spending', 'dollar']",-1,[]
11576,4.0,"['death', 'texan', 'nebraska']",-1,[]
11672,4.0,"['jew', 'bernanke', 'economic_collapse', 'audit', 'fed']",-1,[]
11685,4.0,"['hawkwind', 'fable', 'race']",-1,[]
11751,4.0,"['animal', 'death', 'gulf', 'oil', 'spill', 'cold', 'winter']",-1,[]
11753,4.0,"['fire', 'bomb', 'greece']",-1,[]
11796,4.0,"['mythology', 'star_wars', 'child', 'parent', 'asian', 'idea', 'jewish_communism', 'asian', 'hebrew', 'arab', 'asian', 'separate', 'child', 'parent']",-1,[]
11817,4.0,"['sabaton', 'white', 'death']",-1,[]
11852,4.0,"['deaths_head', 'onslaught']",-1,[]
11878,4.0,"['justification', 'iraq', 'war', 'justification', 'afghan', 'war']",-1,['afghan_war']
11882,4.0,"['tom_metzger', 'skinhead', 'guy', 'set', 'couch', 'potato', 'chip', 'watch', 'niggro', 'football', 'league', 'talmud-a-vision', 'white_girl', 'gang_raped', 'savage']",-1,[]
11907,4.0,"['patriot', 'stop', 'fight', 'invader']",-1,[]
11952,4.0,"['lego_star', 'war', 'brick']",-1,[]
11969,4.0,"['willie_nelson', 'zz', 'top', 'love', 'love', 'automobile']",-1,[]
12024,4.0,"['austrian', 'death', 'machine']",-1,[]
12027,4.0,"['final_war', 'nationalist']",-1,[]
12129,4.0,"['tom_metzger', 'immigration', 'policy']",-1,[]
12132,4.0,"['tyrant', 'fear', 'information']",-1,[]
12182,4.0,"['star_wars', 'speeder', 'bike']",-1,[]
12225,4.0,"['vancouver', 'island', 'fish', 'kill']",-1,[]
12279,4.0,"['lego_star', 'war', 'war', 'comic']",-1,[]
12306,4.0,[],-1,[]
12434,4.0,"['media_mafia', 'calims', 'winger', 'insiting', 'violence', 'quote', 'barack_hussein', 'obama', 'jr', 'barry', 'soetoro', 'obama', 'follower', 'face', 'knife', 'obama', 'acorn', 'mob', 'anger', 'people', 'obama', 'mercenary', 'army', 'hit', 'obama', 'private', 'sector', 'talk', 'folk', 'as', 'kick', 'obama', 'voter', 'republican', 'victory', 'hand', 'hand', 'combat', 'obama', 'lib', 'supporter', 'time', 'obama', 'latino', 'supporter', 'enemy', 'obama', 'democrat', 'itch', 'fight']",-1,[]
12495,4.0,"['police_officer', 'border', 'town', 'mexico', 'place', 'mexican']",-1,[]
12512,4.0,"['kevin', 'trudeau', 'ban', 'book', 'trial', 'shyster', 'banker', 'shyster', 'drug', 'company']",-1,[]
12518,4.0,"['race_war', 'folk', 'race_war', 'race_war', 'begin', 'race_war', 'change', 'change', 'white_folks']",-1,"['race_war', 'race_war']"
12661,4.0,['christmas'],-1,['war_on_christmas']
12747,4.0,"['illegal_aliens', 'flock', 'mexico', 'fake', 'driver', 'license']",-1,[]
12802,4.0,"['commie', 'washington_d.c', 'hate', 'verse', 'anthem']",-1,['verse_of_the_federal_anthem']
12835,4.0,"['rabbi', 'brooklyn', 'bust', 'organ', 'traffic']",-1,[]
12992,4.0,"['chris', 'robinson', 'dream', 'detective', 'arizona', 'experiment', 'terror', 'cop', 'psychic', 'comment', 'chris', 'robinson', 'dream', 'detective', 'terror', 'attack']",-1,[]
13184,4.0,"['spy', 'factory', 'government', 'watch', 'enemy', 'citizen']",-1,[]
13224,4.0,"['drug', 'lord', 'kill', 'coronel', 'raid', 'million']",-1,[]
13448,4.0,"['raystevens', 'global_warming', 'song', 'global_warming', 'scam', 'carbon_tax', 'steal', 'tax_dollars']",-1,[]
13489,4.0,"['glenn_beck', 'american', 'power', 'act', 'cap', 'n', 'trade', 'crime']",-1,[]
