,text,doc_id,events
88,"There is a sort of tribute CD """"Landser in English"""" that you might like. Landser is great! The Occupation Government that subjects Germany to the same sort of treatment that Dixie receives from the Washington Government, threw Landser into prison for singing songs. For the sake of our Children, we must be free of the Federal Beast! Deo Vindice!",88,[]
53,She is using the government to bully a person to behave the way she wants him to behave.,53,[]
59,"Colonial Patriots fought for Freedom against a tyrannical government. The descendants of those very Patriots fought against the Federal Mafia which had grown tyrannical.  The very words of the butchers who attacked the Confederate Patriots prove this to be the case. For the Federal Mafia butchers, no deed was too low, no treachery was beyond the limits of their &#147;honor&#148;. By the blood of murdered White Children, and the blood of murdered White Women, they meant us to fear them for all time;  that has not been the result. The rape of the South did not breed fear;  it bread an eternal contempt instead. People often say that there are two sides to every issue, but in the rape of the South, there is but one side for any man of honor.  The Federal Mafia is a bloody tyrant without honor, and therefore no man of honor will ever defend that side. The Old Man of the Mountain",59,[]
86,"Arms should not be banned! An armed Society is a polite Society! The Federal Government should be banned! Secession now, Freedom forever!",86,[]
54,"A black African terrorist wants a race war in America. Finally one of them has said something that normal everyday average Americans can agree with. The odds are about 100% that a race war, communist uprising, uprising of Mexican illegals, free for all, will take place later this year. Just be prepared to survive. The survivors get to decide the future of America.",54,[]
