,x,y,id,label
0,1.8224802,-26.54393,0,1
1,-19.412306,-0.6905063,1,4
2,-12.129138,-3.483469,2,3
3,1.9772542,-26.437372,3,1
4,-8.983034,6.710871,4,2
5,2.1457448,-26.255604,5,1
6,-3.7496135,-12.727001,6,1
7,-18.743906,-0.31872517,7,4
8,-31.136885,-16.705635,8,1
9,-4.805449,-11.354861,9,1
10,7.041272,5.459518,10,0
11,-4.5386963,-11.652429,11,1
12,2.1048295,-26.317226,12,1
13,6.982832,6.4944825,13,0
14,0.027353454,-1.5935386,14,2
15,-7.2193627,-1.4830037,15,3
16,-18.649656,-0.33941892,16,4
17,2.5247142,21.83447,17,4
18,0.65692943,-1.3747731,18,2
19,-6.5478067,-0.929239,19,3
20,-11.958351,-3.366306,20,3
21,-7.43995,-1.844086,21,3
22,-30.720247,-16.285929,22,1
23,-30.990942,-16.557901,23,1
24,7.017233,5.754426,24,0
25,-31.05399,-16.620811,25,1
26,-7.1011415,-1.3661463,26,3
27,-6.8582087,-0.61069196,27,3
28,8.992858,4.1875997,28,0
29,-8.401802,6.8350897,29,2
30,-8.955777,7.1625614,31,2
31,6.885809,5.8442297,32,0
32,6.7535305,6.3699713,33,0
33,-4.8584385,-11.447863,34,1
34,-8.348595,-2.332384,35,3
35,-13.305532,-4.33168,36,3
36,-9.070595,6.889476,37,2
37,-19.089876,-0.6022606,38,4
38,9.906308,3.2816222,39,0
39,1.2801025,-0.6775533,40,2
40,9.773012,-15.19743,41,0
41,-4.262903,-12.626204,42,1
42,9.820691,3.3646214,43,0
43,2.3228993,22.035133,44,4
44,1.0708759,0.32338303,45,2
45,-4.379458,-11.910802,46,1
46,-13.049834,-4.294642,47,3
47,10.111278,-14.859189,48,0
48,0.9951119,-1.0031056,49,2
49,0.9594044,0.43853799,50,2
50,1.5328774,0.023419645,51,2
51,1.3429701,-0.124276444,52,2
52,-19.24406,-0.79435503,53,4
53,1.9801898,22.363255,54,4
54,2.4030898,21.954054,55,4
55,1.6323556,-0.3287054,56,2
56,-8.731961,-2.4044979,57,3
57,-8.513267,-2.5387135,58,3
58,-4.5439806,-11.173588,59,1
59,-18.403143,-0.3410373,60,4
60,9.702664,3.4752722,61,0
61,-3.7305596,-12.875332,62,1
62,-11.727623,-3.2232125,63,3
63,0.37304953,-1.6580408,64,2
64,-4.001857,-12.973876,65,1
65,-3.9733245,-12.510398,66,1
66,9.887166,-15.083287,68,0
67,0.8900575,0.50663966,69,2
68,-8.787165,6.975346,70,2
69,9.800384,-15.16997,71,0
70,-8.817704,-2.6192656,72,3
71,-12.694465,-4.022703,73,3
72,8.736802,4.286448,74,0
73,6.87525,5.350338,75,0
74,-12.388321,-3.6864173,76,3
75,2.286759,22.0691,77,4
76,2.3225136,-26.073677,78,1
77,-12.163094,-3.8653033,79,3
78,-7.5940547,-2.1351993,80,3
79,-8.330556,7.0881686,81,2
80,-6.7018824,-0.7896891,82,3
81,0.52484554,-1.7853394,83,2
82,6.9658318,6.371855,84,0
83,1.9929093,-26.619802,85,1
84,-4.4446106,-12.068436,86,1
85,-7.768703,-2.0163221,87,3
86,1.9320109,22.41088,88,4
87,-18.486177,-0.44263253,89,4
88,-19.05476,-0.8526455,90,4
89,-8.417171,6.827643,91,2
90,0.052925944,-1.3948268,92,2
91,9.65963,-15.310802,93,0
92,9.939142,3.2281082,94,0
93,-31.198267,-16.765373,95,1
94,2.0470986,22.295979,96,4
95,-13.265676,-4.4720364,97,3
96,-13.517904,-4.147356,98,3
97,8.821275,4.031546,99,0
