,topic_lda,bag_words,sa_score,events
2,3.0,"['hitler', 'solder', 'topic', 'document', 'book', 'texan', 'news', 'dallas', 'area', 'living']",1,[]
26,3.0,"['ar-10', 'rifle', 'today']",1,[]
74,3.0,"['custom', 'people', 'free', 'men', 'rally', 'leader', 'present', 'leader', 'rally']",1,[]
