,topic_lda,bag_words,sa_score,events,rank
76,1.0,"['army', 'tom', 'metzger', 'african', 'africa', 'mexican', 'mexico', 'asian', 'asia', 'white', 'homeland']",0,[],0.023559017106890682
11,1.0,"['bloat', 'holyco', 'industry', 'fact', 'sound', 'acceptance', 'fact', 'bear', 'scrutiny', 'math', 'science', 'logic', 'fact']",0,[],0.010038779117166996
64,1.0,"['gay', 'teen', 'activist', 'honor', 'obama', 'charge', 'sex', 'crime', 'minor']",0,[],0.009391071274876595
41,1.0,"['air', 'training', 'train', 'air', 'replica', 'carry', 'handgun', 'recoil', 'fire', 'air', 'lot', 'dry', 'fire', 'real', 'firearm', 'bit', 'lighter', 'feel', 'air', 'real', 'line', 'sight', 'shot', 'hand-eye', 'coordination', 'practice', 'practice', 'stay', 'practice', 'line', 'sight', 'line', 'sight', 'hit', 'aim', 'trigger', 'control', 'trigger', 'time', 'control', 'shoot', 'air', 'day', 'range', 'day', 'large', 'difference', 'price', 'shoot', 'air', 'handgun', 'shoot', 'defense', 'handgun', 'train', 'grip', 'stance', 'real', 'handgun', 'photo', 'show', 'side', 'side', 'comparison', 'real', 'carry', 'pistol', 'air', 'training', 'pistol', 'favorite', 'target', 'air', 'plastic', 'pellet', 'comparison', 'relationship', 'size', 'target', 'size', 'ammo', 'hit', 'target', 'shot', 'foot', 'paper', 'target', 'shot', 'rapid', 'fire', 'foot', 'carry', 'pistol']",0,['air_soft'],0.007564408238977194
93,1.0,"['interest', 'video', 'rt', 'ukrainian', 'america', 'crimea', 'mass', 'medium', 'lie', 'ukraine', 'crimea', 'russian', 'crimea', 'cry', 'joy', 'left', 'ukrainian', 'government', 'crimea', 'russian', 'passport', 'russian', 'healthcare', 'ukrainian', 'cemetery', 'crimea', 'crimea', 'hitler', 'ww', 'ii', 'diversion', 'give', 'communist', 'red', 'army', 'breathing', 'space', 'need', 'murder', 'german', 'soldier', 'camp', 'open', 'summer', 'uniform', 'russian', 'winter', 'crimea', 'land', 'hero', 'patriot', 'fool', 'attack', 'ukrainian', 'khrushchev', 'communist', 'russia', 'give', 'crimea', 'ukraine', 'gift', 'wow', 'guy', 'soviet', 'union', 'fell', 'russian', 'crimea', 'vote', 'secession', 'ukraine', 'gift', 'russian', 'crimea', 'people', 'ukrainian', 'government', 'people', 'spirit', 'history', 'heritage', 'language', 'culture', 'crimea', 'russian', 'russian', 'crimea', 'ukrainian', 'tyranny', 'good', 'luck', 'republic', 'crimea', 'ukrainian', 'ukraine']",0,['ww_ii'],0.0072059687227010736
