,topic_lda,bag_words,sa_score,events,rank
8991,2.0,"['explosive', 'terror', 'drill', 'phoenix', 'airport', 'thief', 'training', 'public', 'location', 'real', 'explosive', 'murder', 'purpose', 'murder', 'incompetence', 'government']",-1,[],0.016617458
9364,2.0,"['flood', 'texas', 'mexican', 'invader', 'texas', 'law', 'government', 'fight', 'federal', 'court', 'outcome', 'rig', 'texas', 'mexican', 'federal_judge', 'block', 'mexican', 'vote', 'power']",-1,[],0.016617458
6077,2.0,"['government', 'thug', 'capture', 'pay', 'terrorist', 'bomb']",-1,[],0.016617458
8636,2.0,"['cancer', 'cure', 'dca', 'government', 'federal', 'regulation', 'cure', 'disease', 'cancer']",-1,[],0.016617458
8908,2.0,"['federal_government', 'waste', 'tax_dollars', 'government', 'waste', 'money', 'youtube']",-1,[],0.016617458
3887,2.0,"['official', 'government', 'hoist', 'high']",-1,[],0.016617458
8910,2.0,"['rhonda_vincent', 'star', 'spangle', 'banner', 'star', 'bangled', 'banner', 'tyranny', 'loyalty', 'tyranny', 'government']",-1,[],0.016617458
8914,2.0,"['alex_jones', 'july', 'sign', 'point', 'false_flag', 'terror', 'event', 'government']",-1,[],0.016617458
3017,2.0,"['white_humans', 'burn', 'asian', 'criminal', 'asian', 'criminal', 'set', 'shop', 'case', 'insurance', 'fraud', 'call', 'lightning', 'result', 'white_humans', 'injury', 'asian', 'blast', 'murder', 'victim', 'white', 'brown', 'government', 'build', 'shop', 'adeel', 'khan', 'arrest']",-1,[],0.016617458
2706,2.0,"['government', 'civil_war', 'schedule', 'chaos', 'leftist', 'irony', 'leftist', 'run', 'area', 'leftist', 'control', 'area']",-1,[],0.016617458
8926,2.0,"['israeli_government', 'murder', 'citizen', 'war', 'israeli_government', 'fire', 'bomb', 'citizen', 'operation', 'lavon', 'affair', 'hope', 'war', 'israeli_government', 'king', 'david', 'hotel', 'murder', 'citizen', 'hop', 'war', 'israeli_government', 'attack', 'us', 'liberty', 'murder', 'citizen', 'hop', 'war', 'saudi_arabia', 'state', 'israeli_government', 'government', 'order', 'citizen', 'motive', 'war']",-1,[],0.016617458
7722,2.0,"['government', 'mass_murder', 'citizen', 'reason']",-1,[],0.016617458
7876,2.0,"['april', 'patriot', 'shot', 'government', 'committed_mass', 'murder', 'child', 'waco', 'texas']",-1,[],0.016617458
10446,2.0,"['china', 'problem', 'american', 'economy', 'washington_dc', 'china', 'chinese', 'debt', 'greek', 'debt', 'communist_chinese', 'leftist', 'leftist', 'china', 'wealth', 'stupid', 'project', 'government', 'waste', 'resource', 'water', 'cause', 'disaster', 'china']",-1,[],0.016617458
1093,2.0,"['german', 'government', 'war']",-1,['war'],0.016617458
10620,2.0,"['government', 'military', 'loot', 'ally', 'criminal', 'black', 'soldier', 'rape', 'murder', 'french', 'child', 'government', 'military', 'ally', 'enemy', 'enemy', 'nation', 'military', 'loot', 'nation', 'enemy', 'tax_dollars', 'enemy', 'nation']",-1,[],0.016617458
10772,2.0,"['bad', 'news', 'government', 'give', 'israel', 'evil', 'earth', 'f-35', 'jet']",-1,[],0.016617458
394,2.0,"['gun_control', 'work', 'government', 'pas', 'law', 'murder']",-1,[],0.016617458
11935,2.0,"['star_wars', 'false_flag', 'attack', 'shadow', 'government']",-1,[],0.016617458
8968,2.0,"['post', 'police', 'state', 'terror', 'cover', 'oil', 'rich', 'nation', 'false_flag', 'terror', 'attack', 'terrorism']",-1,['false_flag_terror_attacks'],0.010896825
816,2.0,"['official', 'msds', 'state', 'fluoride', 'harm', 'child']",-1,[],0.010896825
4552,2.0,"['grandpa', 'hassan', 'shot_dead', 'semite', 'head', 'russian', 'mafia', 'shot_dead', 'russian', 'police', 'state', 'criminal', 'shot_dead', 'range', 'dead']",-1,[],0.010896825
147,2.0,"['state', 'washington_government', 'stop', 'hate', 'separate']",-1,[],0.010896825
10730,2.0,"['mass', 'shoot', 'stop', 'dead', 'garland', 'texas', 'shoot', 'muhammad', 'contest']",-1,[],0.008025101
10816,2.0,"['texas', 'voter', 'witness', 'vote_fraud', 'place', 'trump']",-1,[],0.008025101
11181,2.0,"['madonna', 'texas', 'radio', 'station']",-1,[],0.008025101
8133,2.0,"['texas', 'congressman', 'poe', 'holder', 'african', 'defense', 'holder', 'obama', 'find', 'break', 'oath', 'office', 'constitution', 'break', 'international', 'gun', 'law', 'break', 'federal', 'gun_sales', 'regulation', 'law', 'murder', 'justice', 'mirror', 'find', 'criminal']",-1,[],0.008025101
8118,2.0,"['texas', 'representative', 'ted', 'poe']",-1,[],0.008025101
823,2.0,"['texas', 'gun_shows', 'texas', 'gun_shows', 'website', 'directory', 'gun_shows']",-1,[],0.008025101
826,2.0,"['north_texas', 'gun', 'club', 'gun_show', 'irving', 'convention', 'center', 'irving', 'texas']",-1,[],0.008025101
605,2.0,"['hate', 'law', 'rowan', 'atkinson', 'blackadder']",-1,[],0.007590159
800,2.0,"['fly', 'zone', 'mexico', 'drive', 'zone', 'area', 'mestizo', 'drug_gangs', 'drive', 'zone', 'die', 'law_abiding', 'law', 'drug_gangs', 'mestizo', 'respect', 'violence', 'threat', 'violence']",-1,[],0.007590159
4463,2.0,"['idiot', 'gun_laws', 'violence', 'gun', 'crime', 'african', 'gun', 'gun', 'crime', 'mexican', 'invader', 'gun', 'criminal', 'law']",-1,[],0.007590159
1266,2.0,"['trump', 'pedophile', 'network', 'arrest', 'place']",-1,[],0.006728864
10886,2.0,"['trump', 'cnn', 'propagandist', 'fake', 'news']",-1,[],0.006728864
10831,2.0,"['trump', 'iowa', 'voter', 'fraud']",-1,[],0.006728864
10819,2.0,"['trump', 'brussels', 'terror', 'attack', 'u.s', 'border', 'security']",-1,[],0.006728864
10805,2.0,"['alex_jones', 'trump', 'hillary_clinton']",-1,[],0.006728864
10724,2.0,"['trump', 'dig', 'coal', 'bad', 'news', 'wynne', 'canadian', 'view', 'america', 'coal', 'industry']",-1,[],0.006728864
2118,2.0,"['timing', 'democrat', 'run', 'hillary', 'trump', 'campaign', 'trump', 'flame', 'put', 'arrest']",-1,[],0.006728864
7583,2.0,"['mafia', 'pocket', 'waste', 'give', 'money']",-1,[],0.006035751
10460,2.0,"['money', 'give', 'enemy']",-1,[],0.006035751
3317,2.0,"['money', 'felon', 'scramble', 'field']",-1,[],0.006035751
13079,2.0,"['ron_paul', 'empire', 'war', 'conquest', 'american_citizens']",-1,[],0.0059514027
11552,2.0,"['ron_paul', 'zionists/neocons', 'begin', 'invasion']",-1,[],0.0059514027
11501,2.0,"['ron_paul', 'control', 'spending', 'dollar']",-1,[],0.0059514027
12300,2.0,"['food', 'crisis', 'come', 'america', 'expert', 'list', 'reason', 'america', 'food', 'crisis', 'food', 'production', 'drop', 'reason', 'bad', 'weather', 'farm', 'death', 'bee', 'gm', 'crop', 'disaster', 'shortage', 'drive', 'price', 'dollar', 'food', 'crisis', 'spark', 'revolution']",-1,['food_crisis'],0.0058118645
7184,2.0,"['adl', 'white', 'america', 'adl', 'white', 'america', 'youtube']",-1,[],0.0058118645
6641,2.0,"['obama', 'arm', 'syrian', 'rebel', 'rebel', 'committed_mass', 'murder', 'christian', 'war_crime', 'terrorist', 'obama', 'arm', 'terrorist', 'america']",-1,[],0.0058118645
5755,2.0,"['liberal', 'idiot', 'stupid', 'hypocrite', 'hate', 'america', 'america', 'internet']",-1,[],0.0058118645
8697,2.0,"['veteran', 'suicide', 'day', 'america', 'benefit', 'corporate_wars']",-1,[],0.0058118645
7728,2.0,"['larry', 'pratt', 'gun_owners', 'america', 'treaty', 'batman', 'shooter']",-1,[],0.0058118645
9001,2.0,"['gaddafi', 'jfk', 'murder', 'israeli', 'weapon', 'gaddafi', 'ancient', 'white_folks', 'asian_savage', 'set_foot', 'america', 'homeland', 'leave', 'america']",-1,[],0.0058118645
3031,2.0,"['knife', 'attack', 'neighbor', 'daughter', 'attack', 'white_family', 'attack', 'home', 'dead', 'mother', 'daughter', 'son', 'wound', 'african', 'boy', 'hiding', 'daughter', 'babysitting', 'time', 'attack', 'police', 'shot', 'african', 'die', 'hospital', 'hate_crime', 'spree', 'stab', 'madison', 'wisconsin', 'woman', 'dead', 'medium', 'censor']",-1,[],0.005793870400000001
2572,2.0,"['black', 'crime', 'arrest', 'child', 'time', 'adult', 'niggro', 'release', 'prison', 'niggro', 'spree', 'day', 'niggro', 'trial', 'trip', 'black', 'crime', 'control', 'extent']",-1,[],0.005793870400000001
2410,2.0,"['black', 'devil', 'home', 'time']",-1,[],0.005793870400000001
182,2.0,"['time', 'step', 'seek', 'death_penalty', 'case', 'black_thugs', 'murder', 'innocent_white', 'folk']",-1,[],0.005793870400000001
1065,2.0,"['hanoi', 'jane', 'north', 'vietnamese', 'communist', 'time', 'jane', 'fonda', 'idiot', 'international_jewish', 'communism', 'hearing', 'real']",-1,[],0.005793870400000001
374,2.0,"['race_mixer', 'help', 'muslim', 'boyfriend', 'murder', 'mother', 'time', 'value', 'child', 'danish', 'teen', 'lisa', 'borch', 'murder', 'mother', 'watch', 'isi', 'beheading', 'video', 'mail_online']",-1,[],0.005793870400000001
1670,2.0,"['author', 'einstein', 'fraud', 'time', 'author', 'jon', 'bjerknes', 'jeff_rense']",-1,[],0.005793870400000001
9929,2.0,"['mexican', 'citizen', 'citizen', 'mexican', 'arrest']",-1,[],0.005677233
10575,2.0,"['muslim', 'murder', 'drive', 'french', 'citizen', 'mass', 'immigration', 'blood_thirsty', 'savage', 'citizen', 'wrong']",-1,[],0.005677233
