,Unnamed: 0,Term,Fq-0,Fq-1,Fq-2,Fq-3,Fq-4,Tfidf-0,Tfidf-1,Tfidf-2,Tfidf-3,Tfidf-4,Prob-0,Prob-1,Prob-2,Prob-3,Prob-4
4351,government,government,36,149,344,72,20,0.02772550362470091,0.2393142915953804,0.3734129280503796,0.04727525532952543,0.07588332149536628,0.00012531056000000002,0.009320251,0.016617458,0.0006087933,0.0014996087
9997,state,state,14,28,192,59,3,0.010782140298494796,0.044971813185709066,0.2084165179816072,0.03873944533947223,0.01138249822430494,1.2038587e-05,0.0007821303999999999,0.010896825,0.0007727267999999999,8.380905e-05
10509,texas,texas,39,9,219,58,24,0.03003596226009265,0.01445522566683506,0.2377250908227707,0.0380828445710066,0.09105998579443952,0.0004195521,5.8639584e-05,0.008025101,0.00058433483,0.0012534874
5935,law,law,7,16,127,56,5,0.0053910701492474,0.02569817896326233,0.1378588426232506,0.03676964303407534,0.01897083037384157,1.2069653000000002e-06,0.0002246145,0.007590159,0.0014374923000000002,0.00079096924
10866,trump,trump,2,66,83,47,4,0.0015403057569278284,0.1060049882234571,0.09009672391913227,0.030860236117884656,0.015176664299073253,1.9646136e-06,0.00493108,0.006728864,0.0016728746,0.0003210132
6871,money,money,24,19,82,19,2,0.018483669083133942,0.03051658751887401,0.08901122122131143,0.012475414600846987,0.007588332149536627,0.00030470293,0.00061006495,0.006035751,8.405078000000001e-05,0.0001106424
8964,ron_paul,ron_paul,2,13,100,0,3,0.0018211367004696008,0.02468660265387385,0.12834132395916098,0.0,0.013457773020764641,0.0,1.7234664e-05,0.0059514027,0.0,0.0
321,america,america,12,85,107,131,3,0.009241834541566971,0.13652157574233112,0.11614878866683315,0.08601470066899766,0.01138249822430494,1.9938903e-05,0.0046105357000000005,0.0058118645,0.0038505425,0.00048846565
10624,time,time,162,60,127,162,12,0.12476476631115407,0.09636817111223372,0.1378588426232506,0.10636932449143223,0.04552999289721976,0.0055962745,0.0040816786,0.005793870400000001,0.0041634827,0.0019161328
1906,citizen,citizen,9,30,120,55,2,0.006931375906175228,0.04818408555611686,0.1302603237385045,0.036113042265609706,0.007588332149536627,1.4460391e-05,0.0012401801,0.005677233,0.0013364528,4.246393699999999e-05
