,topic_lda,bag_words,sa_score,events,rank
4047,4.0,"['law', 'trump', 'arrest', 'lie', 'commie', 'jew', 'race_traitors', 'communist', 'lie', 'mass_medium', 'year', 'lie', 'trump']",-1,[],0.005865925
10313,4.0,"['survivor', 'death', 'camp', 'transfer', 'prisoner', 'death', 'camp', 'kill', 'spot', 'house', 'feed', 'give', 'medical', 'aid', 'prisoner', 'death', 'camp', 'professional', 'shyster', 'lie']",-1,[],0.005865925
10865,4.0,"['hillary', 'lie', 'blame', 'russia', 'hillary', 'steal', 'blame', 'russia', 'hillary', 'treason', 'blame', 'russia']",-1,[],0.005865925
10901,4.0,"['medium', 'lie', 'hide', 'normal', 'attack', 'family', 'give', 'attack']",-1,[],0.005865925
11225,4.0,"['nazi', 'hate', 'alex_jones', 'alex_jones', 'jew', 'crime', 'jew', 'jew', 'hitler', 'jewish_leaders', 'hitler', 'round', 'jew', 'lie', 'jew', 'round', 'jew', 'crime', 'arrest', 'german', 'arrest', 'jew', 'jew', 'arrest', 'hitler', 'jew', 'sensitive', 'position', 'military', 'military', 'complex', 'hitler', 'issue', 'prisoner', 'cost', 'cause', 'german', 'citizen', 'food', 'medical', 'supply', 'short', 'supply', 'supply', 'prisoner', 'cause', 'german', 'civilian', 'general', 'patton', 'prisoner', 'bullet', 'head', 'order', 'soldier', 'prisoner', 'resource', 'alex_jones', 'jew', 'crime', 'guess', 'nazi', 'hate', 'hitler']",-1,[],0.005865925
2880,4.0,"['black_african', 'kill', 'white']",-1,[],0.005674599000000001
3899,4.0,"['east', 'asian', 'nation', 'land', 'savage', 'european', 'american', 'raise', 'today', 'semi', 'semi', 'technology', 'today', 'nation', 'population']",-1,[],0.0055584274
7896,4.0,"['ndaa', 'duh', 'anti', 'american']",-1,[],0.0055584274
8971,4.0,"['jewish_international', 'banker', 'fault', 'steal', 'tax_dollars', 'jewish_international', 'corporation', 'monsanto', 'walmart', 'kill', 'jew', 'white_house', 'congress', 'stab', 'american_citizens', 'society', 'tell', 'american', 'gut']",-1,[],0.0055584274
13489,4.0,"['glenn_beck', 'american', 'power', 'act', 'cap', 'n', 'trade', 'crime']",-1,[],0.0055584274
3874,4.0,"['mark', 'kilroy', 'texas', 'med', 'student', 'mexican', 'cannibal', 'oo_religio.htm', 'raid', 'suspect', 'stew', 'pot', 'full', 'human', 'body', 'part', 'dozen', 'victim', 'cannibal', 'feast', 'total', 'victim', 'total', 'murder', 'unknown', 'cuban', 'cannibal', 'part', 'murder']",-1,[],0.0047890553
12434,4.0,"['media_mafia', 'calims', 'winger', 'insiting', 'violence', 'quote', 'barack_hussein', 'obama', 'jr', 'barry', 'soetoro', 'obama', 'follower', 'face', 'knife', 'obama', 'acorn', 'mob', 'anger', 'people', 'obama', 'mercenary', 'army', 'hit', 'obama', 'private', 'sector', 'talk', 'folk', 'as', 'kick', 'obama', 'voter', 'republican', 'victory', 'hand', 'hand', 'combat', 'obama', 'lib', 'supporter', 'time', 'obama', 'latino', 'supporter', 'enemy', 'obama', 'democrat', 'itch', 'fight']",-1,[],0.004435486
1971,4.0,"['real', 'terrorist', 'government', 'government', 'mossad', 'attack', 'real', 'target', 'white_house', 'congress', 'real', 'attack', 'supreme_court', 'parliament', 'international_banks']",-1,[],0.004337983
9546,4.0,"['evidence', 'expose', 'hitler', 'secret', 'refuge', 'world_war', 'ii']",-1,['world_war_ii'],0.0041573113
