,x,y,id,label
0,19.701273,-18.27437,0,1
1,-6.1786723,1.9180759,1,4
2,4.3123813,6.491754,2,3
3,19.807234,-18.379803,3,1
4,3.6773515,-4.4202127,4,2
5,20.218258,-18.786655,5,1
6,-5.7624087,-22.375708,6,1
7,-6.9064813,2.6801946,7,4
8,19.609179,-7.4477553,8,1
9,-5.6595592,-20.223722,9,1
10,15.04437,5.138471,10,0
11,-5.9151125,-20.67056,11,1
12,19.630482,-18.202976,12,1
13,15.152949,6.141016,13,0
14,-2.330553,-8.065709,14,2
15,8.8043,3.337052,15,3
16,-6.7026296,2.8970695,16,4
17,10.060228,22.17239,17,4
18,-2.9637125,-8.64225,18,2
19,8.7619295,2.3373487,19,3
20,4.4255824,6.229736,20,3
21,8.677161,3.9620922,21,3
22,19.765476,-6.9420996,22,1
23,19.761866,-7.273362,23,1
24,15.017257,5.4357376,24,0
25,19.90576,-7.1506515,25,1
26,8.692284,3.2377331,26,3
27,8.872211,2.2497528,27,3
28,16.025608,4.46683,28,0
29,3.5985234,-3.980442,29,2
30,3.4353786,-4.1520085,31,2
31,14.980988,5.5100646,32,0
32,15.082763,6.0356255,33,0
33,-5.874903,-20.431248,34,1
34,8.350304,4.621944,35,3
35,4.4530315,8.088015,36,3
36,3.9485033,-4.198637,37,2
37,-6.494669,1.9277577,38,4
38,16.012556,3.2919273,39,0
39,-3.4620092,-9.245758,40,2
40,16.85607,-5.26126,41,0
41,-5.395153,-21.759995,42,1
42,16.147142,3.3611243,43,0
43,9.811796,22.387201,44,4
44,-4.52807,-10.323361,45,2
45,-5.7193503,-20.86281,46,1
46,4.2816453,7.527356,47,3
47,16.91579,-5.199482,48,0
48,-3.2172418,-8.961315,49,2
49,-4.441559,-10.236868,50,2
50,-3.9398823,-9.740979,51,2
51,-3.8374631,-9.6394615,52,2
52,-6.3985925,2.343856,53,4
53,10.553327,21.941689,54,4
54,10.248565,22.09557,55,4
55,-3.672526,-9.469932,56,2
56,8.132412,5.089188,57,3
57,8.168847,4.805817,58,3
58,-5.571993,-20.193462,59,1
59,-6.9653206,3.0986383,60,4
60,16.266846,3.5525436,61,0
61,-5.648823,-22.210226,62,1
62,4.673462,6.1601834,63,3
63,-2.514357,-8.359933,64,2
64,-5.6868434,-22.053995,65,1
65,-5.619926,-21.631798,66,1
66,16.62509,-5.4922013,68,0
67,-4.4112372,-10.206614,69,2
68,3.8389418,-4.374126,70,2
69,16.685032,-5.43102,71,0
70,8.034896,4.9410796,72,3
71,4.4606476,7.1416397,73,3
72,15.902225,4.5407014,74,0
73,15.170872,5.083782,75,0
74,4.548264,6.6533203,76,3
75,10.0617485,22.085869,77,4
76,20.353487,-18.926632,78,1
77,4.2960734,6.6936107,79,3
78,8.666689,3.7762117,80,3
79,3.4903035,-3.8213668,81,2
80,8.664334,2.439375,82,3
81,-2.672915,-8.262685,83,2
82,14.940834,6.1858134,84,0
83,19.85197,-18.424849,85,1
84,-5.9485316,-21.130066,86,1
85,8.48158,3.8180559,87,3
86,10.733839,21.767797,88,4
87,-7.132187,2.9042249,89,4
88,-6.7105403,2.306174,90,4
89,3.2782838,-4.285461,91,2
90,-2.4610095,-7.866956,92,2
91,16.71919,-5.3960195,93,0
92,16.08835,3.6700368,94,0
93,19.859264,-7.4616246,95,1
94,10.784409,21.697243,96,4
95,4.1798153,7.7954135,97,3
96,4.3587804,7.960361,98,3
97,16.155584,4.3064823,99,0
