,Unnamed: 0,Term,Fq-0,Fq-1,Fq-2,Fq-3,Fq-4,Tfidf-0,Tfidf-1,Tfidf-2,Tfidf-3,Tfidf-4,Prob-0,Prob-1,Prob-2,Prob-3,Prob-4
86,kidnapper,kidnapper,0,1,1,2,5,0.0,0.06773787239155693,0.16640776912902427,0.13350494899528376,0.2319141765238146,6.465332262450829e-05,0.007438778411597013,0.02222203463315964,0.0130059402436018,0.04171925038099289
24,commando,commando,0,0,1,1,0,0.0,0.0,0.23830475178689425,0.09559308408243672,0.0,5.719964610761963e-05,4.6298984671011574e-05,0.012053792364895344,0.0046973652206361285,0.0003375530941411853
175,talk,talk,0,0,1,0,0,0.0,0.0,0.29537259742687433,0.0,0.0,6.039297659299336e-05,4.918800186715089e-05,0.012048057280480862,4.0140028431778774e-05,3.809787449426949e-05
134,people,people,0,0,1,0,0,0.0,0.0,0.29537259742687433,0.0,0.0,6.071347524994053e-05,4.866610834142193e-05,0.012047694995999336,4.126022759010084e-05,3.728674346348271e-05
151,report,report,1,0,1,0,1,0.1048813400915112,0.0,0.19781447093222654,0.0,0.05513682488606818,0.008381013758480549,5.130336649017409e-05,0.01188355777412653,4.59666844108142e-05,0.005246049724519253
147,reaction,reaction,0,0,1,0,0,0.0,0.0,0.29537259742687433,0.0,0.0,6.577714520972222e-05,5.3649095207219943e-05,0.01186085119843483,4.393560811877251e-05,3.978153472417034e-05
13,benin,benin,3,1,0,0,0,0.3790479270772999,0.09700422613277382,0.0,0.0,0.0,0.0195295512676239,0.006593560799956322,0.011847945861518385,4.655627708416432e-05,4.203230128041469e-05
126,operation,operation,2,0,1,2,0,0.2097626801830224,0.0,0.19781447093222654,0.15870179013012045,0.0,0.017963832244277,0.00030524999601766467,0.011307507753372192,0.01236612256616354,0.0003477323625702411
36,die,die,0,0,1,0,0,0.0,0.0,0.29537259742687433,0.0,0.0,5.674185013049282e-05,4.612543125404045e-05,0.01009459514170885,3.851715882774442e-05,0.00031469258829019964
125,open,open,0,0,1,0,1,0.0,0.0,0.23830475178689425,0.0,0.0664226803371409,5.7802189985523e-05,4.701526268036105e-05,0.01004167553037405,3.908981307176873e-05,0.0061321831308305255
