,text,doc_id,events
3013,African hate crime on Christmas Eve White Couple attacked in front of their home on Christmas Eve.,3013,[]
2713,Anyone who is white and does not support a campaign like that is an absolute fool (loony Leftist).,2713,[]
4676,Savage African stabs 2 White Firefighters Two San Diego Firefighters Stabbed On The Job: LAist,4676,[]
1591,"Jew, Dr. Noel Ignatiev other than from committed white supremacists.&#148; until the social construct known as the white race is destroyed, not deconstructed, but destroyed.&#148;",1591,[]
2271,"Why is it that when some hateful racist Niggro does something terrible to any White Victim they can get their brutal hands on, Liberal White Race Traitors will invent a million excuses for them, but when a White Victim manages to prevent such an event, the White Victim will be accused of racism because the did not allow the blood thirsty savage to do what ever it wanted to do to the White Victim? When has a Liberal White Race Traitor ever said that any hateful racist attack was wrong when the Victim was White?",2271,[]
4573,"15 to 20 savages attack 1 Frenchman Security cameras recorded the attack, at least 15, perhaps 20 blacks and Muslims attacked a 24 year old Cartographer at a train station in Grenoble, France.  The severe beating and two stab wounds, one punctured a lung, left the young man in a comma. It is reported that he did wake from the comma. There is no doubt, it was an unprovoked Racist Hate Crime, carried out on a White Stranger who happened to be available. There was an official announcement made that several arrests had been made, but the truth turned out to be that no arrests have been made. http://www.ledauphine.com/agression-...article=287823",4573,[]
4572,"Niggro murderer has no remorse for killing a White Victim. The Niggro's family also has no remorse at all, and screams at the White Family Members """"We hate you!"""" Video here: mini video player - JSOnline",4572,[]
2352,Anyone who is white and unarmed is an idiot.,2352,[]
1237,"And the Gun Grabbing Commie Scum call that a """"dirty trick"""". What about the unarmed ONE HUNDRED MILLION WHITE CHRISTIANS MURDERED IN RUSSIA, WITH ABOUT EIGHTY MILLION OF THOSE MURDER VICTIMS BEING WHITE CHILDREN? Since that was perpetrated by Jewish Communists, does that still count as a """"dirty trick"""" or is that just Jewish Communist business as usual? One thing I have noticed about gun grabbing Jewish Communist Scum, they are about the same size as my range targets.",1237,[]
3120,"Detroit Africans murdered White Veteran  Family befriended poor African savages, savages return.",3120,[]
2398,THE FARM MURDERS!!!!! Why does the black majority in power target the small White Minority in South Africa? Why are black idiots so hateful that they would rather murder White Farmers than eat?,2398,[]
2412,What do you think of all the white police officers that have given CPR to ignorant African thugs that just attempted to murder them?,2412,[]
522,African female on a tram I HATE WHITE PEOPLE I CAN&amp;#39;T STAND NONE OF YOU - YouTube,522,[]
511,"African in Reform School Murdered, and then Raped his White Teacher",511,[]
1679,80% to 85% of the first Soviet government members were Jews  That is the Jewish government who murdered millions of their fellow communists just because they were white.,1679,[]
2658,"If the poor neighborhood is an all White neighborhood, then the crime rate will be low. If the wealthy neighborhood is infested with Jews, blacks, and browns, as the low class rich neighborhoods are, then the crime rate will be high, including violent crimes of all sorts. In contrast, an all White wealthy neighborhood will also have a low crime rate. It is the sort of thing that the Jews and their useful idiots, the Liberal Race Traitors try to dance around but will not comment on.",2658,[]
2779,"White American Nun kidnapped and killed by Africans The Nun wasted her life by spending 60 years helping the unappreciative Africans, rather than helping poor White Children right here in America. The killing will not make the Africans any better off, but they are not capable of realizing that. Savage violent beasts! U.S. nun killed during kidnapping, dumped in South Africa stream - NY Daily News",2779,[]
361,"Leftist member of the anti-white Jewish media in Dallas, Texas murdered For some reason the Jewish mass media in Dallas does not want to show a photo of the murderer who stabbed the race mixer to death. It was her black son, and he also killed her other black son  Before he killed himself, he called 911 to report the murders he had just committed.  All three found stabbed to death. I have to call that """"death by natural causes"""" because it is natural for a white female to be murdered by her own black child. Race mixer murdered by her own spawn. A farewell to Stacy Fawcett | WFAA.com",361,[]
3074,White NASA scientist shot dead by African,3074,[]
3153,"Innocent Little White Baby murdered by African The child was tortured to death by a black daycare employee in Baltimore, Maryland. Another white child died for diversity. The poor child's thoughts had to have been """"Why doesn't someone help me?""""",3153,[]
3043,White Grandmothers Murdered,3043,[]
3036,"Violent attack against 13 year old White Girl by Mestizos The anti-whites in charge of the Federal Department of Re-education should be arrested as accessories to that and many other serious violent crimes against White Children.  The school system has indoctrinated White Children to never fight back against attackers, but have shown blacks and browns that they will not receive any serious punishment for attacking White Students.",3036,[]
3027,"White Marine tries to eat at a black restaurant, gets attacked by 20 wild Africans The Africans claim they are angry because the gangbanger thug Michael Brown got himself shot when he attacked a Police Officer. The Marine foolishly attempted to eat a meal at a Waffle House Restaurant (did not know that only blacks can eat there now) were a crowd of wild Africans made threats against him. He left and went to a Huddle House Restaurant but 20 of the wild Africans followed him there and jumped him. He was actually armed, but never drew his handgun, as a result, he was beaten nearly to death and received some brain damage (if he survives).",3027,[]
3608,"In Texas, you must be in fear of your life, in fear of the life of your family members, in fear of the life of others, or in fear of the loss of valuable property, in order to use deadly force. I am in fear of my life all day and all night since third world savages began invading this quiet White Texas town. If possible (not always possible) you are advised to ask the vile murderous criminal to surrender (sometimes, stopping to ask for surrender might get yourself or a family member killed). It is much smarter, and safer, to shoot to kill. There is even at least one state that has a law which requires you to shoot to kill, and might imprison you if you shoot to wound, which is called """"maiming"""". Shoot first if at all possible, and make follow up shots accurate if possible. Shoot until the dangerous criminal no longer poses any threat at all! Carry a lot of ammo! If there are multiple assailants, then standing still is more likely to get you shot than moving and shooting.  They call that """"getting off the X"""" and """"X"""" marks the spot where you get shot!",3608,[]
347,"Non-African beaten nearly to death for dating an African female Africans just can't finish what they start! White guy beaten nearly to death by Blacks for dating a Black woman, no hate crime there - YouTube",347,[]
2880,"The black Africans sing """"Kill the whites""""",2880,[]
4817,The Dallas Massacre and the War on Whites,4817,['war_on_whites']
2396,"WHY is it REQUIRED that a White Man not be """"racist""""? The blacks, browns, and especially Jews are VERY RACIST! WHY is it that White Folks are discouraged from UNITING for MUTUAL PROTECTION?",2396,[]
3026,"Son of black police chief accomplice in the murder of a White Man--   no charges!  Three wild Africans decided to kill a White Man for a thrill.   One of the three is the son of the local black police chief,  so naturally he was released without any charges. White man killed in random racial hate crime in Stuttgart, Arkansas",3026,[]
3644,"The Jews sold Black Market guns to Irish Patriots, and MANY of those guns EXPLODED when fired.",3644,[]
3492,12 Yr old Boy Tortured To Death with Welding Torches by female black racist,3492,[]
2414,Why are blacks and browns so tribal? In America the brown Mexicans are killing the black Africans. In the rest of the world the different brown groups and black groups are killing each other by: machete attacks beheadings  AK 47 assault rifles burning them alive beating them to death killing them and eating their dead body Stop all the hate--  separate!,2414,[]
2044,"In order to protect blacks from those that kill blacks it is necessary to remove the killers before they strike, that would involve removing blacks back to their nation of origin, and then the violent threat would be removed from Africans in America and Europe.",2044,[]
2529,"They are shooting them in the streets. Stabbing them in the prisons. Beating them to death at the bus stop. And I have heard them bragging about how their cousin, the one who works at the restaurant, always puts a little rat poison in their food.  (At Mexican restaurants they call it monkey poison.) So how many blacks have the browns murdered so far?",2529,[]
2842,"6 month old African shot 5 times at close range Lots of Africans&#65279; are opposed to """"black on black"""" crime, but are not opposed to """"black crime"""" just like the Jews, Africans always have a double standard when it comes to everyone else.",2842,[]
2367,"Out in Commiefornia, do the Jewish Communist Legislators follow their own insane firearms laws? I suspect that they do not. There is some sort of a Jewish Communist Operated and Funded Organization of black mayors against guns, or something like that, and a couple of the members have been found violating their own gun laws!  At least one was placed into handcuffs (not unusual for a black mayor) and arrested for violating his own gun law.",2367,[]
9943,"Immortal Death came for Putin in his long black hooded robe, Putin killed him.",9943,[]
8039,Bill Clinton calls Obama &#8220;the WORST ever&#8221; (Pot call&#8217;s kettle black) Obama calls Bill Clinton &#8220;a racist&#8221; (Ditto!),8039,[]
10278,No Jewish news agency has ever demanded the death of a black attacker who harmed innocent white folks.,10278,[]
521,"7 Africans Jump a 13 year old White Boy 7 Blacks Beat Up 1 White Boy in an unprovoked racial attack, the true face of racism - YouTube",521,[]
1570,"The Tradition of Jewish Talking Heads Lots of folks don&#146;t know what Jews are actually referring to when they speak of Talking Heads. One of the old Jewish Black Magic practices was to choose a victim, sever their head from their body, then take that head to a place of darkness and concealment. There they would invite a demon to enter that dead head to reanimate it, and to tell them things to aid them to do even more evil. The Jewish tradition of talking heads is all about murder, black magic, demons, and evil.  Most Jewish traditions are about evil.",1570,[]
9632,Would those same Liberal Race Traitors have refused to defend a black or brown Niggro if a white male had been harassing a non-white female?,9632,[]
331,15 year old race mixer killed by African boyfriend,331,[]
2943,Suspicious death leads to African arrest,2943,[]
2940,African murderer convicted,2940,[]
2926,Africans sentenced for store robbery murders,2926,[]
330,17 year old race mixer killed by African boyfriend,330,[]
2902,14 year old African murdered a White Man,2902,[]
2890,African football star got he self killed dead,2890,[]
2884,"Africans claim it is """"racist"""" for police officers to arrest criminals",2884,[]
358,"Unidentified race mixers murdered by """"grim sleeper"""" African serial killer Images of women found in possession of &amp;apos;Grim Sleeper&amp;apos; suspect still unidentified - LA Times",358,[]
2866,"Africans in Africa display violent criminal behavior. Africans in Europe display violent criminal behavior. Africans in America display violent criminal behavior. Africans in the Caribbean display violent criminal behavior. I believe that if you give this some thought, you might find a trend there.",2866,[]
2862,Africans = violence More Africans = more violence,2862,[]
360,"Race mixer supplied guns to her African felon That is a felony, and so is accessory to murder, but that can draw a death penalty. At least 3 dead and 14 wounded. The African was permanently reformed by a police officer when its crime spree was brought to a final conclusion.",360,[]
3025,"Savage Africans cut off 17 year old White Girl's arms Her arms might have been sold to a black African witch doctor,  or the savages might have simply eaten them.",3025,[]
7098,Communist Dictator Hugo Chavez is Dead A Communist Dictator like Chavez is only a small step removed from an amoral African Warload such as Obama.,7098,[]
329,African kills race mixer,329,[]
2817,African tortured 13 year old brother https://www.youtube.com/watch?v=A79p7Tv_AaU,2817,[]
3037,"African convicted of raping White Women and Children Convicted of 12 rapes, sentenced to 15 years.",3037,[]
3039,African pulled over for speeding kills Police Officer,3039,[]
3041,"African female stabbed White Woman A tiny White Woman was shopping in a dollar store when a large brutal female African rushed at her, chased her down, knocked her to the floor, and stabbed her. Just another random unprovoked hate crime against a White Person. Shocking Video: Alabama woman stabbed in unprovoked racial hate crime",3041,[]
311,"4 White Women Murdered Two were twins. Here is one of the twins with its """"child"""". Joseph Tillman: Cops catch 'person of interest' in grisly apartment bloodbath | Mail Online Tulsa Police ID Four Women Killed Monday - NewsOn6.com - Tulsa, OK - News, Weather, Video and Sports - KOTV.com | Two Africans have been arrested for the murders, and a third African is believed to have been in the apartment and witnessed the murders (and of course he did not contact police). I wonder if the witness set them up to be murdered? Tulsa police arrest two suspects for quadruple shooting - FOX23 News Joseph Tillman: Cops catch 'person of interest' in grisly apartment bloodbath | Mail Online",311,[]
13266,"Obama's Kill Switch - Daily News - The Right Edition - July 15th, 2010  I know that here in America cashiers do refuse to take filthy reeking money from Africans, so I guess that the same happens in Africa?",13266,[]
3052,"84 year old White Woman  beat, tortured, raped, robbed, and murdered by African",3052,[]
3057,Pack of 5 wild Africans beat White Man to Death Preteen boy threw first punch in 'unprovoked' group attack that killed Syracuse man | syracuse.com,3057,[]
3128,93 year old White Woman among African crime spree victims,3128,[]
3126,22 year old White Woman murdered by African,3126,[]
262,"Ben Franklin was there in the church on the Sunday when a band of wild Indians decided to attack, because they assumed that the church folk would be unarmed. Franklin, the Preacher, and other men of the congregation showed them they were wrong, and fired many rounds at the attacking Indians. That was life in America, you were either prepared to defend yourself every day, all day long, or you were dead. For the first few hundred years of Europeans living in America, the number one cause of death was Indian attack. Today we are in just about the same situation with wild savage Africans and Mestizos who are just as blood thirsty as the Indians ever were, plus the remaining Indians who don't always remain on their reservations. But the Federal Government is the greatest threat of all, and it seems to be attempting to push us into a fight.",262,[]
3082,African stabs two White Women shows no remorse,3082,[]
2824,African grandmother abused grand daughter to death https://www.youtube.com/watch?v=J9cLZFTUBN0,2824,[]
2793,"87 year old White Man shot to death by Africans An 87 year old man was in the parking lot leaving a grocery store when three savage Africans confronted him, one of the savages shot him to death, then they robbed his dead body, and went on a shopping spree. The three beasts were captured alive, but the one who did the shooting might be put down as a result of its actions, the other two will likely be caged and released to resume criminal activities. 87 year old killed in racial hate crime in Meridian, MS",2793,[]
2813,African momma done killed her own 9 year old daughter https://www.youtube.com/watch?v=G47zRVXkBT8,2813,[]
526,African made Fake KKK Hate Crimes,526,[]
1889,"It is getting to the point that the only violet crime that can be reported is muslim mass slaughter, or massive amounts of African violence, they are just so savage that normal murder and mayhem looks tame in comparison.",1889,[]
4635,Family of African thieves,4635,[]
4628,Obama's African aid in the rainbow house commits gun crime,4628,[]
4613,African twins stab their mother to death,4613,[]
7861,"According to the Corporate Media Mafia, African Crime does not Exist African """"leaders"""" are unconcerned about African crime victims.",7861,[]
4601,13 year old African shoplifter commits murder,4601,[]
4571,15-Year-Old African Wanted for Murder,4571,[]
1121,"The solution is to stay out of Asia, stay out of Africa, stop making economic war against white nations, and return the savages to the third world, where the Asians can resume killing Asians and the Africans can resume killing Africans.",1121,[]
4553,200 Africans in Mall Riot,4553,[]
527,"Jews are the most racist creatures on Earth, which is why Turkish Jews, Semitic Jews, and African Jews can't live together!",527,[]
4707,"African """"police officer"""" arrested Paid a 15 year old girl for sex, had sex with her, then stuck a gun in her face and took the money back.",4707,[]
3113,"Pregnant White Woman murdered by Africans The Africans who committed the home invasion murder robbery call themselves """"the kill gang"""". UPDATE:  Just as we all suspected, the victim was also raped before or after she was murdered, the police now admit.",3113,[]
2748,African murdered 3 young Mestizo girls in hit and run This was at least his second hit and run this year.,2748,[]
362,Leftist hides African from arrest and deportation--  gets raped and murdered,362,[]
513,Happy African beat to death 86 year old White Woman LiveLeak.com - Criminal Smiles In Court After Kicking In The Face 86-Year-Old Woman To Death,513,[]
2544,Arabs Torture and Murder Africans,2544,[]
2608,Africans can't eat good healthy food in America because they can't walk their fat lazy butts past a McDonald's!,2608,[]
387,Race mixing whore and African arrested Several charges.,387,[]
2750,African attacks mother and child to steal cellphone,2750,[]
2749,Africans ruined the neighborhood,2749,[]
385,"13 year old race mixer helped murder mom 20 year old African pedophile stabbed girl's mother to death while she slept, and the teen slut helped him do it.",385,[]
3959,"According to the old history of our people, Africans invented two things: Theft and murder. It was normal for an African to commit a murder to steal an object, not knowing what the object even was, then leave it lying on the ground a few feet away because the African could not comprehend how to use such an object. Today Africans leave Air Jordan's a few feet from a murder victim because the shoes didn't fit.",3959,[]
3498,"Jewish Communists claim that Jews had a RIGHT to MURDER MILLIONS of RUSSIAN CHILDREN, because Jews really hate Russians, and likewise Jews really hate all Arabs, so Jews have a Right to murder Arabs. Do those that Jews hate have a reciprocal right?",3498,[]
7449,Gun Gripes Episode 51: Children and Guns,7449,[]
4593,Mestizo female arrested for extreme child abuse,4593,[]
4294,"The blacks and the browns have no power over us. Even the Jews have no power over us. It is a Jewish Communist Program, but it is their useful idiots, the Liberal Race Traitors, who empower the Jew and make those hateful Anti-White Programs possible. The Jews are dangerous, and the mortal enemy of our White Children and future generations, but it is the Liberal Race Traitor that is a more dangerous threat. Millions of murdered White Children cry out for Justice!",4294,[]
9645,"The Jewish Media Mafia constantly reminds Americans that Nazis are evil. The (Jewish) History Channel is often called """"the Hitler Channel"""" because any program that does not mention Hitler directly, usually has an advertisement for another program that does.  There is a constant message that """"Hitler was evil"""" and any individual that a Jew wants to attack is called """"another Hitler"""". Every evil thing that Jews do, except drinking the blood of children, has been blamed on Nazis. The fact that innocent Nazis were murdered by blood thirsty Jews is never mentioned in the Jewish Media, but bloody accusations against Nazis never end. Jewish controlled television, radio, movies, magazines, and newspapers, remind Americans that Nazis are evil, all day and all night.",9645,[]
10504,"Practicing Christianity is a hate crime against Satan's children, the Jews.",10504,[]
9961,"Palestinians are faking the entire thing! All those dead children """"blown to bits"""" are just dismantling themselves and only pretending to be dead.  After all the photo's are taken they will just reassemble themselves and walk away. But the hundred thousand Jews who were murdered six million times, then lived to tell about it--  totally real.",9961,[]
4516,"Mestizo murders wife and children Then sets fire to cover up the crime. Immigrant Mass Murder Syndrome in Texas: Hispanic Man Allegedly Murdered His Wife and Three Very Young Children&#226;&#128;&#148;2 Months, 1 Year, and 4 Years Old&#226;&#128;&#148;Before Setting Shed They Lived in on Fire | VDARE.COM",4516,[]
204,All of that sluts children were going to wind up on the street anyway.,204,[]
315,"Race Mixing Whore is dead, but so are her 2 innocent children She not only stole the children from their father, she is the cause of their violent deaths. Eternal punishment is what she deserves. Mom?s Boyfriend Slaughtered Her and 8- and 10-Year-Old Children After She Tried to Escape Abusive Relationship | Defund.com",315,[]
2407,"Why are Loony Leftists in favor of murdering innocent children, but opposed to executing guilty criminals?",2407,[]
2009,"Fathers made homeless by single parent mothers Fathers don't have rights, children don't have rights, only greedy selfish feminists have rights.",2009,[]
1966,"White Nationalist Men have not only just had a bad time finding a woman, several have been divorced by women who are total race traitors, and had their own children stolen away from them. One race traitor woman that I know of tried to poison her White Nationalist husband to death. There was another race traitor wife who arranged to have her husband murdered, and I think that she managed to get away with it. There are White Nationalist men that I know whom I can't associate with because their race traitor wife is always on the verge of divorcing them and taking the children, they live with that constant threat. The fact that those """"mothers"""" have white children but are also very anti-white is just insane. Anyone who doesn't realize that the situation is that bad just doesn't know how it is in America today.",1966,[]
325,"Another race mixed child becomes suicidal - stopped by police officer A race mixed 17 year old male became suicidal and cut himself with a knife. An urgent call was made to police asking for help. A police officer arrived on the scene and was able to stop the teen from committing suicide, by firing 3 or 4 shots in rapid secession, killing the teen on the scene. The officer said the teen """"lunged at him"""". Why are so many mixed race children so unhappy? Because they are race mixed freaks, and they seem to come to a point in their life where all they want to do is die. The parents are at fault and should face hard time jail time for what they have done to innocent helpless children! Virginia high schooler threatens suicide, police arrive and kill him | Police State USA",325,[]
354,"Leftist SJW, Alison Rapp, advocate of CHILD RAPE has been fired from Nintendo She publicly admits her guilt with no remorse. Alison Rapp has lost her damaging influence over impressionable innocent children. https://issuu.com/honorsreview/docs/volumeiv/33 Nintendo FIRES feminist Alison Rapp following furious paedophile porn censorship storm - Mirror Online",354,[]
1581,"WHY did the Media Mafia pick a guilty black thug as the poster boy for a hate crime,  instead of an innocent White Child which really was the victim of a real and brutal Hate Crime?",1581,[]
1319,"Question to Needle: Are you condoning the slaughter of White Women and Children, or is your point that our Murdered Family Members are just not important?",1319,[]
3271,"White Folks were here in America for many thousands of years before the first Asian savage set foot here. The White Folks who returned to this White Homeland did not disturb or attack those Asian Savages, the White Folks did everything they could to avoid those Asian Savages;  it was the hateful blood thirsty Asian savages who attacked peaceful innocent White Folks, again, and again, and again, and again... In fact the Asian savages spent a lot of their time attacking other Asian Savages. Just before hateful blood thirsty Asian savages committed a terrible genocide against the peaceful Jamestown Colony, those same Asian savages committed a genocide against a neighboring tribe of Asian savages, eventually leaving no survivors, after they finally finished torturing the last of them to death. A savage is a savage, and will never be anything other than a savage.",3271,[]
9955,"How often are the invader's riots taking place? How large are the riots getting? Are any riots happening outside of the large cities? Do the police attempt to stop the riots, or just let them burn and destroy? Are white folks protected at all from the invaders during the riots?",9955,[]
3592,"In my small town, several people have been murdered within a couple of miles of my house, mostly by Mexicans, all the rest by blacks.  Some were just pure HATE CRIMES with no other motive. The Norse say """"Only a fool would go out into his fields without a sword!"""" While some groups of White Folks have disappeared completely, the Norse are still around!",3592,[]
3047,Mobs of black Thugs attacking and Robing White Folks https://www.youtube.com/watch?v=Z6Ay6rBnx58,3047,[]
2336,"I is not possible to have an advanced technological society while that society is being dragged down by the dead weight of third world primitive savages. In order to have a white civilization, white folks must be separated from the savages. We are not all the same, they are not like us.",2336,[]
8150,"In WW I the Zionist/Anarchist Traitors in the Washington Government kept all the documents relating to their Treasonous Acts classified as Secret. In WW II the Zionist/Communist (only the names change, the enemy remains the same) Traitors in the Washington Government kept all the documents relating to their Treasonous Acts classified as Secret. In 9-11 the Zionist/Communist/Neocon Traitors in the Washington Government kept all the documents relating to their Treasonous Acts classified as Secret. Do We the People have a Right to know the Truth, to punish the Guilty, to defend our Nation?",8150,['ww_ii']
1797,Jewish communist anti-white propaganda is so hateful against us because Jews hate normal people.,1797,[]
9760,"She has no concern that helping some savage invade her nation might harm innocent people, and she was the first one to suffer. Why is it impossible for Marxists to lean from typical Marxist mistakes?",9760,[]
2203,"She is a low life communist race traitor who is prosecuting a genocide against the German people, she deserves the punishment that the law prescribes.",2203,[]
2359,"Nothing causes people to hate Marxists more than the things that they do, the things that they say, and they way their live their rotten lives.",2359,[]
11512,Saga - Ode To A Dying People,11512,[]
9789,Merkel has committed: Accessory to illegal immigration (invasion) Accessory to rape Accessory to theft Accessory to arson Accessory to murder Treason And both planning and implementing a program of genocide against the German people.,9789,[]
2728,A Nation is a group of similar people with a common Culture living in a homogeneous Society;  why is it Illegal to have a White Nation anywhere on Earth?,2728,[]
11672,Jew Bernanke Threatens to Cause an Economic Collapse if you audit the Fed,11672,[]
10321,"Jews in the prison work camps were there to repay their debt to Germany. Any Jew that cooperated and demonstrated acceptance of responsibility for their imprisonment, a willingness to work off that debt, and had convinced the officer in charge of the prison work camp that the thing had actually been rehabilitated by hard work and compliance, was released back into German society. Thousands of Jewish prisoners were released from prison work camps over the course of the program. Why would anyone release prisoners from a """"death camp""""?",10321,[]
3182,"Not only do all of the mass shooters use the Jewish website Facebook, but ever since Facebook began there have been mass shooters--  before Facebook such crimes did not happen. All throughout Jewish history, Jews have committed mass murder. Are the Jews at Facebook creating mass murderers?",3182,[]
3211,"This might not occur to everyone, but I suspect that she is not as Jew. Doesn't look like a Jew, doesn't talk like a Jew, doesn't lie like a Jew, does not support the Jewish agenda.",3211,[]
8971,"Anyone who says that Jewish International Bankers are at fault for stealing TRILLIONS of TAX DOLLARS, or that Jewish International Corporations, such as Monsanto and Walmart, are killing the USA, or that Jews in the White House and Congress are stabbing American Citizens in the back; are doing something beneficial for our Society, they are telling the Truth, in Public, while most Americans don't have the guts to do that!",8971,[]
1582,"Jews in America and Europe demand that White Men do not use """"racial profiling"""" to defend ourselves from criminals and terrorists. But Jews in Israel use racial profiling to defend themselves from criminals and terrorists.",1582,[]
1584,"Jews don't behave like civilized White Folks, they behave like their primitive African cousins, so why do they pretend that black African Jews&#65279; do not even exist?",1584,[]
1654,"Microsoft's AI ChatBot was killed in its first day of life because Jews demanded its death Apparently the AI was thinking for itself, instead of parroting Marxist propaganda.",1654,[]
1661,"Jew, Soros brags that he funded the chaos and violence that prevented a Trump rally--  remember that!",1661,[]
1702,Jews demanded that these trees be killed,1702,[]
3508,Cause of WW I:  Jews Cause of WW II: Jews Cause of the current Corporate Wars: Jews Can you spot a trend?,3508,['ww_ii']
3004,"Just the thought of him is putting a song in my heart, the chorus goes: Die Jew die! Die Jew die! Die Jew die! Die Jew die!!!!!",3004,[]
2257,"The word """"racist"""" is not a European word, it was coined by a Jewish Communist as a racial slur to be used against White Men. It is still a racial slur that is only used against White Men. There are millions of racist Jews, Niggros, and Asians, and yet the term """"racist"""" is never used against them. When the leaders of that hateful group called themselves """"Anti-Racists"""" there were indeed calling themselves a group that is """"Anti-White Man""""! The very solid fact that """"Anti-Racists"""" have never marched in opposition to racist Jews, Niggros, or Asians, goes a very long way to prove that beyond a shadow of a doubt!",2257,[]
4442,"Jews did it the traditional Hebrew way, through theft, extortion, kidnapping, fraud, blackmail, and murder.",4442,[]
4410,"If the Anti-American Government in Washington D.C. (Devil in Carnate) gives an aircraft carrier to two to the Evil Isralie Empire (they have already given them at least two nuclear subs) then the Jews will most likely sell them to their Communist Chinese buddies for use against us. Also, there has been a push recently to declare some of our carriers as obsolete, so a USN carrier might be in Chinese Communist clutches soon!",4410,[]
2408,"NYC needs to be so swamped with the invaders that the Jews demanded to be left in, that Jews will be dying in the streets before they ever get medical treatment.",2408,[]
3691,"Jews and Turks used to sell a lot of kidnapped White Women into slavery in the Middle East, I guess it was the royalty that could afford to buy them.",3691,[]
9949,The official word is that the Syrian didn't do nuffin' (not much difference between different groups of third world savages) because he was a victim and he had a bad head (they all do).,9949,[]
8902,"Only 100 dead in Kenyan fuel pipeline fire The last time such an incident was reported there, 200 burned to death. Just like last time, savages lined up to steal fuel from a leaking pipeline.  The article mentions that the same also occurred with a leaking overturned tanker. The third world is not ready for the White Man&#146;s Technology! What the Kenyans need is a leader, one of their own; Obama perhaps? 100 dead in Kenyan fuel pipeline fire - Telegraph",8902,[]
1908,"Yes, I have noticed that third world savages typically carry an AK with a 30 round mag in it, and no additional ammo, and no cleaning supplies.",1908,[]
3035,"Hammer attack by savage Asian on 13 year old Canadian Boy  Rafid Jihad, 28, suddenly threw a 13 year old Canadian boy to the ground and beat him severely with a hammer.   The boy is hospitalized with skull fractures and other injuries.",3035,[]
12770,"Bowless Arrow  Probably not even legal in the UK, I wonder why they are being exterminated by invading third world savages?",12770,[]
4549,"WHY is the third world violent, lawless, and filthy? Why is every neighborhood in our White Western World that has been invaded by third world savages now violent, lawless, and filthy?",4549,[]
1982,I was at the last gun show and an extra ugly ape was loping away with a new AR he had just bought from a grinning Race Traitor (still selling guns to the savages) and the ape gave me a look that said:,1982,[]
12681,Katyn Massacre - Communist Mass Murder,12681,[]
12815,Handgun Registration Fails To Prevent Murders,12815,[]
10330,"Anti-White Rioter Attempts to Murder a White Nationalist Joel Bjurstr&#246;mer Almgren, 35 The anti-white Leftist was a principle in starting a riot, then stabbed a young White Nationalist twice in the back.",10330,[]
274,"If it was a family of jihadi then here is my guess as to what provoked the son to murder: His father bought him the goat with the pretty eyes and all was well. But then the son came home to discover that his father and brother had murdered and eaten his girlfriend, I mean the goat, and so he had no option left other than to avenge his one true love, and rape the dead bodies.",274,[]
532,White Man Attempted Murder and Robbery by Africans,532,[]
3067,"3 """"black lives Murder"""" terrorists arrested",3067,[]
9310,JEWISH RITUAL MURDERS OF GENTILES PT3,9310,[]
6170,Handgun Registration Fails To Prevent Murders  https://www.youtube.com/watch?v=QD48VoT68R4,6170,[]
3059,"Young White Woman murdered by Mulatto 22 year old Darla Miller was abducted, raped, murdered, and her body was dumped in a wooded area  by a Mulatto which had been recently released from prison.",3059,[]
4606,Mexican DWI hit and run murder Drives away with body stuck in windshield.,4606,[]
2276,"The Monetary Cost of Criminal Aliens is but a small portion of the total cost. There is also the Human Cost of murder, rape, arson, robbery, and burglary committed by those lawless criminal aliens. Plus the toll on our Culture, with the destruction of Neighborhoods, Cities, Counties, and even States (with California as a prime example). If there was any positive what so ever to the presence of those criminal aliens, then why is it that every place they infest is in Financial and Spiritual Ruin?",2276,[]
4517,"Mestizo murdered Mestizo girlfriend Received life in prison for the death. After having sex in his car, out in the woods, with his high school girlfriend, while they were both high and drunk, he insulted her, so she cut him. He beat her in the face to the point that her own family could not recognize her, dragged her out into the woods and left her there to die. He went home and called his other girlfriend to take him to the ER to have the cut on his finger treated. Once he got back home he returned to make certain the girlfriend he beat was dead, but she was still breathing, so he cut her throat, then returned again and poured bleach over the body to destroy evidence. His defense in court was that he was high and drunk, but it was established that he spent every day high and drunk, so that was nothing out of the ordinary, plus he was obviously functioning well enough to realize what he was doing when he cut the girl's throat. Due to the severe beating, the girl was identified by a tattoo and her ear rings. The killer fled back home to the Dominican Republic, but returned a month later.",4517,[]
218,There is no statute of limitations on murder. She can still be arrested for that murder and several others.,218,[]
3287,"BLM terrorists blocked a Richmond, Virginia highway If anyone died because an ambulance could not get through  then they should all be charged with premeditated murder!",3287,[]
3268,What those loony leftist females should be protesting against is the fact that the Muslim murderer was arrested for the murder of a female. Everyone knows that a Muslim has a right to murder females! Go and protest that!,3268,[]
13310,The Federal Government is Murdering our Economy!,13310,[]
5920,Government is the Enemy of White Men Government benefits the incompetent and the unproductive.,5920,[]
5219,Fascist Heart No woman is more desirable than a white woman who does not buy into the war on white men (war on white families--  white genocide). No woman is more repulsive than a feminist.,5219,[]
2386,"The fact that feminists don't care about mass rapes, even when they are brutal violent gang rapes of under aged girls, proves that feminists don't care about women, they are just feminists because they hate white men.",2386,[]
3024,12 wild Africans attempt to beat a White Man to death,3024,[]
