,topic_lda,bag_words,sa_score,events
2,2.0,"['solder', 'topic', 'document', 'book', 'texan', 'news', 'dallas_area', 'living']",1,[]
4,2.0,"['leader', 'neocon', 'movement', 'turn', 'office', 'president', 'dictatorship', 'rule', 'trump', 'drone', 'anti-white', 'white_genocide', 'jew', 'george', 'soros']",1,[]
60,2.0,"['immigration', 'moral', 'save', 'europe', 'west']",1,[]
177,2.0,"['hope', 'time', 'weekend', 'area', 'nationalist', 'folk', 'change']",1,[]
480,2.0,"['ground', 'man', 'god_bless', 'god_bless', 'texas']",1,[]
486,2.0,"['world', 'firearm', 'issue', 'safety']",1,[]
537,2.0,"['white', 'great_grand', 'mother', 'african_home', 'invader']",1,['great_grand_mother']
548,2.0,"['african', 'shot', 'head', 'range', 'anti-whites', 'claim', 'planet', 'whitey']",1,[]
694,2.0,"['ferguson', 'city', 'target', 'austin', 'tx', 'dallas', 'tx', 'houston', 'tx', 'full', 'list', 'ferguson', 'protest', 'schedule', 'city', 'action', 'training', 'protester', 'daily', 'sheeple']",1,[]
726,2.0,"['crimea', 'vote', 'let', 'free', 'state', 'texas']",1,[]
784,2.0,"['ron_paul', 'farewell', 'address', 'union', 'love', 'union', 'farewell', 'god', 'bless_texas']",1,[]
830,2.0,['concealed_carry'],1,[]
848,2.0,"['texas', 'american', 'dream', 'summit', 'friday', 'july', 'pm', 'saturday', 'july', 'pm', 'austin', 'tx', 'texas', 'american', 'dream', 'summit', 'eventbrite']",1,[]
919,2.0,"['gene', 'autry', 'texas', 'christmas']",1,[]
1011,2.0,"['help', 'good', 'spotter']",1,[]
1018,2.0,"['haitian', 'dig', 'rubble', 'free', 'trap', 'haitian', 'haitian', 'dig', 'rubble', 'free', 'trap', 'valuable', 'loot']",1,[]
1022,2.0,"['general', 'sam', 'houston', 'lead', 'tyranny', 'victory', 'houston', 'mason', 'mason', 'special', 'lead', 'freedom', 'special', 'statue', 'display', 'mason', 'path', 'statue', 'arch', 'triumph', 'reflection', 'pond', 'obelisk', 'flower', 'garden', 'oak', 'tree', 'form', 'straight', 'line', 'photo', 'herman', 'park', 'texas', 'straight', 'path', 'federal_tyranny', 'liberty', 'child', 'beast', 'freedom']",1,[]
1044,2.0,"['nra', 'national', 'rifle_association', 'found', 'november', 'firearm', 'safety', 'marksmanship']",1,[]
1048,2.0,"['good', 'patriot', 'freedom', 'halloween', 'adl', 'office', 'racism', 'hate', 'god_bless', 'freedom']",1,[]
1578,2.0,"['ramzpaul', 'tell', 'tim', 'wise', 'white_nation', 'white_privilege', 'discrimination', 'privilege', 'discrimination', 'state', 'israel']",1,[]
1592,2.0,"['adl', 'splc', 'freedom', 'palooza']",1,[]
1871,2.0,"['heretic', 'great']",1,[]
2019,2.0,"['free', 'program', 'convert', 'format', 'start', 'great', 'free', 'youtube', 'downloader', 'free', 'software', 'review', 'cnet', 'download.com']",1,[]
2036,2.0,"['gun', 'problem', 'problem']",1,[]
2041,2.0,"['free', 'nation', 'texas', 'member', 'state', 'confederacy', 'gathering', 'patriot']",1,[]
2114,2.0,"['country', 'eats', 'fry', 'food', 'die', 'young', 'fry', 'food', 'bbq', 'taste', 'taste']",1,[]
2500,2.0,"['citizen', 'love']",1,[]
2762,2.0,"['african_behavior', 'white_man', 'medicine', 'black_african', 'hospital', 'patrick', 'sawyer', 'test', 'positive', 'ebola', 'reaction', 'african']",1,[]
3168,2.0,"['australian', 'band', 'fortress', 'rock', 'sound', 'song', 'white_man', 'heroic', 'battle', 'post8055153']",1,[]
3221,2.0,"['carson', 'supporter', 'trump']",1,[]
3322,2.0,"['white_human', 'compassion', 'desire', 'justice', 'favor', 'fair', 'play', 'lack']",1,[]
3399,2.0,"['care', 'african', 'normal', 'standard', 'african', 'slave', 'trader', 'african', 'africa', 'force', 'chain', 'african']",1,[]
3436,2.0,"['great', 'town']",1,[]
3481,2.0,"['save', 'youtube', 'video', 'vid', 'save', 'keepvid', 'save', 'video', 'youtube', 'dailymotion', 'metacafe', 'ifilm']",1,[]
3524,2.0,"['merkel', 'embrace', 'islam', 'people', 'embrace', 'germany']",1,[]
3568,2.0,"['amp', 'w', 'ar', 'reputation', 'hope', 'great', 'buy', 'quality', 'mag', 'mag', 'quality', 'buy', 'mag', 'hk', 'mag', 'sheet', 'metal', 'jam']",1,[]
3656,2.0,"['teddy', 'roosevelt', 'success', 'american', 'head', 'lead', 'win']",1,[]
3824,2.0,"['show', 'solidarity', 'favorite', 'muslim', 'invader', 'jump', 'ocean', 'large', 'stone', 'tie', 'neck']",1,[]
3843,2.0,"['waterboard', 'mccain', 'song', 'bird', 'disclosure', 'pow', 'camp', 'special', 'privilege', 'viet', 'cong']",1,[]
3952,2.0,"['honest_law', 'white_folks']",1,[]
4044,2.0,"['funny', 'merkel', 'rope', 'neck', 'hang', 'lamp', 'post', 'smile', 'person', 'world_wide']",1,[]
4048,2.0,"['hitler', 'putin', 'white_nationalist', 'putin', 'action', 'mideast', 'america', 'trump', 'political_movement', 'gain', 'gain']",1,[]
4064,2.0,"['minnesota', 'ren', 'faire', 'fair', 'festival', 'minneapolis', 'mn', 'family', 'entertainment', 'renaissance', 'festival']",1,[]
4117,2.0,"['jamie', 'radio', 'show', 'tonight', 'play', 'play', 'ron_paul', 'interview', 'merry_christmas', 'santa', 'victory']",1,[]
4153,2.0,"['african', 'time', 'african', 'time']",1,[]
4193,2.0,"['endurance', 'training', 'super', 'set', 'training', 'burst', 'energy', 'result', 'great', 'exertion', 'second', 'man', 'competition']",1,[]
4211,2.0,"['south', 'woulda', 'hank', 'wiliams', 'jr']",1,[]
4219,2.0,"['statement', 'paraphrase', 'john', 'browning', 'design', 'firearm', 'single', 'common', 'failure', 'ammo']",1,[]
4226,2.0,"['information', 'trump', 'russia', 'american', 'love', 'trump', 'american', 'trade', 'hillary', 'putin']",1,[]
4281,2.0,"['men', 'klan', 'uniform', 'walk', 'thug', 'black', 'ghetto', 'arm', 'teeth', 'tank', 'escort', 'air', 'support']",1,[]
4313,2.0,"['shotgun', 'video', 'ga', 'magazine', 'fed', 'shotgun']",1,[]
4421,2.0,"['system', 'mafia', 'system']",1,[]
4468,2.0,"['invasion', 'nation', 'strip', 'citizenship', 'nation', 'nation', 'nation']",1,[]
4469,2.0,"['cartoon', 'aim', 'young', 'child', 'villain', 'white', 'people', 'white', 'smart', 'people', 'brown', 'super', 'black', 'gorilla', 'hero', 'brown', 'black', 'brown', 'black', 'save', 'white', 'victim', 'brown', 'black', 'villain', 'depiction', 'real_life']",1,[]
4522,2.0,"['smile', 'muslim', 'capture', 'innocent', 'girl', 'married', 'great', 'tradition', 'family', 'homeland']",1,[]
4795,2.0,"['shoot', 'patriot', 'flintlock', 'freedom']",1,[]
4852,2.0,"['white_nationalist', 'music', 'video']",1,[]
4861,2.0,"['bluegrass', 'situation', 'heaven']",1,[]
4904,2.0,"['donald', 'trump']",1,[]
4948,2.0,"['amp', 'friend', 'song', 'love']",1,[]
5255,2.0,"['dude', 'perfect', 'tailgate', 'trick', 'shot']",1,[]
5410,2.0,"['super', 'tree', 'spade']",1,[]
5424,2.0,"['gmo', 'food', 'arctic', 'granny', 'smith', 'apple', 'arctic', 'delicious', 'apple', 'red', 'variety', 'artic', 'apple', 'j.r', 'simplot', 'company', 'supplier', 'potato', 'product', 'cut', 'french', 'fry', 'fast', 'food', 'chain', 'gmo', 'potato', 'fda', 'gmo', 'apple', 'potato', 'modern', 'farmer']",1,[]
5741,2.0,"['george', 'wallace', 'supreme_court']",1,[]
5753,2.0,"['martin', 'family', 'circus']",1,[]
5754,2.0,"['german', 'footbal', 'team', 'win', 'superior', 'technology']",1,[]
5760,2.0,"['gary', 'moore']",1,[]
5775,2.0,"['gary', 'moore', 'emerald', 'love']",1,[]
5894,2.0,"['jb', 'moonshine', 'band', 'perfect', 'girl']",1,[]
5897,2.0,"['sen', 'ed', 'markey', 'free_speech']",1,[]
5957,2.0,"['carolyn', 'wonderland']",1,[]
6188,2.0,"['super', 'mario', 'brother', 'parkour', 'v=67qqecgdc0s']",1,[]
6227,2.0,"['duck', 'dynasty', 'free_speech']",1,[]
6370,2.0,"['great', 'jack', ""o'lantern"", 'blaze']",1,[]
6484,2.0,"['south', 'woulda']",1,[]
6571,2.0,"['tate', 'stevens', 'power', 'love', 'song']",1,[]
6626,2.0,"['faith', 'scientist', 'technician', 'safety', 'gmo', 'product']",1,[]
6732,2.0,"['great', 'american', 'taxi', 'appalachian', 'soul']",1,[]
6833,2.0,"['federal_agent', 'supply', 'bomb', 'trade', 'center', 'bombing']",1,[]
6886,2.0,"['rosemary', 'memory', 'classical', 'greek', 'school', 'child', 'put', 'sprig', 'rosemary', 'ear', 'day', 'test', 'memory', 'modern_science', 'reasearch', 'sniff', 'rosemary', 'memory', 'alert', 'whiff', 'rosemary']",1,[]
6922,2.0,"['spring', 'break', 'farm', 'food', 'body']",1,[]
7028,2.0,"['pi', 'day']",1,[]
7085,2.0,"['lady', 'peace', 'lotr']",1,[]
7630,2.0,"['u.s', 'drop', 'top', 'country', 'shock', 'u.s', 'drop', 'top', 'country', 'video']",1,[]
7685,2.0,"['large', 'hand', 'large', 'hand', 'youtube']",1,[]
7759,2.0,"['truth', 'satire', 'mark', 'zuckerberg', 'award', 'cia', 'surveillance', 'medal']",1,[]
7847,2.0,"['freedom', 'fear', 'freedom', 'freedom', 'speech', 'freedom', 'religion', 'freedom', 'forced_integration', 'freedom', 'white_genocide']",1,[]
8029,2.0,"['reindeer', 'laugh', 'call', 'name']",1,[]
8041,2.0,"['christian', 'zionist', 'love', 'israel', 'jesus']",1,[]
8288,2.0,"['sarah', 'mclachlan', 'ordinary', 'miracle']",1,[]
8364,2.0,"['door', 'wintertime', 'love']",1,[]
8565,2.0,"['game', 'warden', 'nebraska']",1,[]
8637,2.0,"['good', 'weed', 'plant', 'serve', 'purpose', 'weed', 'patch', 'year', 'find', 'rich', 'topsoil', 'plant']",1,[]
8792,2.0,"['hickock45', 'way', 'pumpkin', 'halloween']",1,[]
8841,2.0,"['congressman', 'alan', 'grayson', 'laugh', 'ben', 'bernanke', 'face', 'bernanke', 'lie', 'weasel']",1,[]
8860,2.0,"['egyptian', 'citizen', 'democracy', 'israeli', 'embassy', 'government', 'egyptian', 'israeli', 'time', 'egyptian', 'freedom', 'stand', 'israeli', 'government', 'stand', 'freedom']",1,[]
8943,2.0,"['zoe', 'muth', 'trust', 'quarter']",1,[]
9138,2.0,"['steve', 'harrison', 'beer', 'heaven']",1,[]
9198,2.0,"['dude', 'perfect', 'ping', 'pong', 'trick', 'shot']",1,[]
9228,2.0,"['loony_leftists', 'superiority', 'asian', 'sort', 'asian']",1,[]
9241,2.0,"['dog', 'leash', 'primitive', 'african', 'sight', 'poor', 'dog']",1,[]
9332,2.0,"['commie', 'salute', 'goose', 'step', 'feminazis', 'commie', 'nazi']",1,[]
9340,2.0,"['jew', 'valuable', 'resource', 'catch', 'pound', 'jewfish', 'matter', 'bait']",1,[]
9436,2.0,"['report', 'white', 'world', 'future', 'conference', 'meeting', 'moscow', 'june', 'dr._duke', 'speech', 'conference', 'absolute', 'masterpiece', 'miss', 'load', 'link', 'mosspeech.mp3', 'moment', 'history', 'share', 'friend']",1,[]
9470,2.0,"['memory', 'recall', 'ease', 'love']",1,[]
9502,2.0,"['opportunity', 'hyper', 'hard_working', 'white_kid', 'white_child', 'born', 'poor', 'parent', 'non-working', 'niggro', 'chance', 'hand', 'grant', 'creature', 'wealth', 'natural', 'wealth', 'niggro', 'anti-white_washington', 'government', 'talmudic', 'pharisee', 'court', 'system']",1,[]
9533,2.0,"['coup', 'erdogan', 'coup', 'bun', 'erdogan']",1,[]
9565,2.0,"['website', 'price', 'ammo', 'web']",1,[]
9695,2.0,"['jobbik', 'nationalist', 'party']",1,[]
9709,2.0,"['good', 'police_officer', 'job']",1,[]
9710,2.0,"['modern', 'female', 'white_woman']",1,[]
9800,2.0,"['sniper', 'video', 'post', 'day', 'thread', 'start', 'medium', 'link', 'signature', 'good', 'sniper', 'video', 'post']",1,[]
9807,2.0,"['netflix', 'medium', 'outlet']",1,[]
9812,2.0,"['french', 'treat', 'race_traitors']",1,[]
9996,2.0,"['survivor', 'good', 'supply', 'food', 'survivor']",1,[]
10004,2.0,"['depiction', 'child', 'roast', 'heat', 'bronze', 'statue', 'god', 'moloch']",1,[]
10080,2.0,"['confederate_heroes', 'day', 'january', 'confederate_heroes', 'day', 'day', 'honor', 'gallant', 'fell', 'liberty', 'government', 'evil', 'description', 'date', 'january', 'chosen', 'date', 'confederate_heroes', 'day', 'birthday', 'confederacy', 'uncle', 'robert', 'general', 'robert_e', 'lee', 'god_bless', 'confederate_heroes', 'liberty', 'deo', 'vindice']",1,[]
10094,2.0,"['national', 'anthem', 'god_bless', 'texas']",1,[]
10125,2.0,"['texas', 'governor', 'rick', 'perry', 'joke', 'texas', 'leave', 'state']",1,[]
10214,2.0,"['yule', 'merry_christmas', 'invader', 'christmas']",1,[]
10222,2.0,"['vitamin', 'c', 'tablet', 'vitamin', 'c', 'water', 'chew', 'tablet', 'extra', 'vitamin', 'c']",1,[]
10366,2.0,"['good_luck', 'trip', 'book']",1,[]
10493,2.0,"['favorite', 'rifle', 'lightweight', 'dpms', 'full_length', 'free', 'float', 'handguard', 'barrel']",1,[]
10563,2.0,"['dallas', 'texas', 'fair', 'park', 'north_texas', 'irish_festival']",1,[]
10567,2.0,"['vlad', 'impaler', 'turk', 'immigration', 'policy', 'time']",1,[]
10584,2.0,"['company', 'white_folks', 'white']",1,[]
10585,2.0,"['white_neighborhood', 'white', 'neighbor', 'clean', 'quiet', 'kind', 'neighbor', 'white', 'neighbor']",1,[]
10593,2.0,"['god_bless', 'dixie', 'patriot', 'present']",1,[]
10673,2.0,"['great', 'idea']",1,[]
10712,2.0,"['true', 'statement']",1,[]
10795,2.0,"['top', 'reason', 'trump', 'american', 'lie', 'fda', 'epa', 'cdc', 'usda']",1,[]
11017,2.0,"['guy', 'handgun_ammo', 'interest']",1,[]
11040,2.0,"['barnes', 'bullet', 'bullet', 'good']",1,[]
11158,2.0,"['indian', 'free', 'home', 'white_man', 'supply', 'drink', 'free', 'beer', 'white_man', 'pay', 'white_man', 'pipeline', 'indian', 'burning', 'gasoline', 'ice', 'chest', 'beer', 'petroleum', 'product', 'cry', 'tribe', 'hippy', 'free', 'money', 'oil', 'company', 'pipe', 'line', 'gong', 'land', 'land', 'indian', 'free', 'land', 'free', 'home', 'free', 'food', 'free', 'medical', 'free', 'education', 'free', 'indian', 'asian', 'give', 'free', 'tip']",1,[]
11400,2.0,"['super', 'conduct', 'magnet']",1,[]
11511,2.0,"['luton', 'great', 'brittan', 'government', 'nation', 'anti-white']",1,[]
11530,2.0,"['feel', 'worth', 'preserve', 'keepvid', 'save', 'video', 'youtube', 'dailymotion', 'metacafe', 'ifilm', 'medium', 'player', 'flv', 'flash', 'video', 'free', 'player', 'flv', 'player', 'free', 'software', 'software', 'review', 'cnet', 'download.com', 'visit', 'interest']",1,[]
11542,2.0,"['maiden', 'iv']",1,[]
11620,2.0,['hole'],1,[]
11710,2.0,"['jack', 'lalanne', 'champion']",1,[]
11798,2.0,"['heroic', 'act', 'star_wars', 'hero', 'give', 'ruling', 'galacy', 'life', 'life', 'son', 'true', 'hero', 'star_wars']",1,[]
11940,2.0,"['yellowstone', 'super', 'volcano']",1,[]
11943,2.0,"['god_bless', 'texas']",1,[]
12108,2.0,"['kenai', 'fjord', 'blue', 'ice']",1,[]
12250,2.0,"['california', 'shooting_sports', 'fair', 'american_citizens', 'left', 'god_bless']",1,[]
12296,2.0,"['son', 'tread']",1,[]
12400,2.0,"['crosswind', 'aircraft', 'landing', 'cross', 'wind', 'land', 'aircraft', 'interest']",1,[]
12501,2.0,"['hero', 'lego', 'brick']",1,[]
12574,2.0,"['australian', 'pm', 'assange', 'blame', 'leak', 'document', 'american', 'wash', 'government', 'military', 'government']",1,[]
12652,2.0,"['austrian', 'mp', 'ewald', 'stadler', 'address', 'turkish', 'ambassador', 'tell', 'god', 'european', 'europe']",1,[]
12692,2.0,"['hallelujah', 'hallelujah']",1,[]
12827,2.0,"['rand_paul', 'win', 'kentucky', 'senate', 'seat', 'republican', 'rand_paul', 'win', 'kentucky', 'senate', 'seat', 'reuters']",1,[]
12832,2.0,"['texan', 'steak', 'ranch', 'free', 'oz', 'steak']",1,[]
12897,2.0,"['super', 'star', 'star', 'large', 'scientist', 'thought']",1,[]
13104,2.0,"['chairman', 'democratic_party', 'chairman', 'democratic_party', 'american', 'communist_party', 'candidate', 'lie', 'win', 'power', 'demoncratic', 'party', 'john', 'mccain', 'cain', 'lie', 'voter', 'win', 'election']",1,[]
13135,2.0,"['uk', 'guy', 'girl', 'visit', 'texas', 'uk', 'subject', 'citizen', 'citizen', 'right', 'subject', 'priviliges', 'grant', 'master', 'shot', 'machine_gun', 'supressed', 'pistol']",1,[]
13154,2.0,"['tea_party', 'leader', 'columbia', 'sc', 'advantage', 'nation', 'south_carolina', 'member', 'union', 'commiefornia', 'south_carolina', 'benefit', 'iron', 'heel', 'government']",1,[]
13261,2.0,"['youtube', 'video', 'keepvid', 'save', 'video', 'youtube', 'dailymotion', 'metacafe', 'ifilm']",1,[]
13330,2.0,"['super', 'human', 'elasticity']",1,[]
13475,2.0,"['wearechange', 'infowars', 'reporter', 'canada', 'freedom', 'speech', 'freedom', 'thought', 'freedom', 'press']",1,[]
