,text,doc_id
13154,"Tea Party Leaders from Columbia, SC interviewed  What is the Advantage for the Nation of South Carolina being a member to a union that includes Commiefornia and New England? How does South Carolina benefit from the Iron Heel of the Federal Government?",13154
11511,"Luton, in Formerly Great Brittan The government of every White Nation is openly Anti-White!",11511
9502,"The opportunity for a hyper intelligent hard working White Kid to succeed in America, if that White Child is born to poor parents, is about ZERO in America. But an unintelligent, non-working Niggro has an excellent Chance to be handed everything which will grant that creature wealth beyond any natural wealth that any Niggro will ever achieve on its own. All due to the Anti-White Washington Government and the Talmudic Pharisee of the Federal Court System.",9502
8860,"Egyptian citizens bringing Democracy to the Israeli Embassy Just like the Washington Government, the Egyptian Government has been controlled by Israelis for a long time. If the Egyptians are going to Stand Up for Freedom, then they must make a stand against the Israeli control of their government, and if we are going to make a Stand for Freedom, then so must we!",8860
12574,"Australian PM """"MR Assange Is Not To Blame For Leak Of US Documents The Americans Are Responsible"""" The Washing Government, their Military, the One World Government, and the Truth are responsible. The Truth will always make itself known!",12574
10080,"Happy Confederate Heroes Day!!!!! January 19, is Confederate Heroes Day! A day to honor the gallant men who fought for, and many fell for, the Cause of Liberty and Self Determination against the Washington Government which grew evil and wicked beyond description, and has not been redeemed to date. January 19th was chosen as the date for Confederate Heroes Day because it is the Birthday of our Confederacy's Uncle Robert, General Robert E. Lee. God bless our Confederate Heroes and our cause of Liberty! Deo Vindice!",10080
1578,"RAMZPAUL Tells Tim Wise The 5 Things Wouldn't a White Nation eliminate """"white privilege"""" and """"discrimination""""? Is there any Jewish privilege and discrimination in the racial state of Israel?",1578
2041,"The Free and Independent Nation known as Texas, member state of the glorious Confederacy, is an excellent example as a gathering of Patriots: https://www.stormfront.org/forum/show...12064p185.html",2041
10125,Texas Governor Rick Perry jokes about Texas leaving the United States.,10125
726,"Crimea Votes for Secession Now lets see other free and independent states, such as Texas!",726
919,Gene Autry - Merry Texas Christmas You All,919
1022,"General Sam Houston led us from Tyranny to Victory! Houston was a Mason, and the Masons in Texas wanted to do something special for the man who led us to Freedom, so they erected a special statue display as only Masons would. The path to the statue, the arch of triumph, the reflection pond, the obelisk, the flower garden, and even the oak tree, all form a straight line. Photo taken by me at Herman Park in Houston, Texas, 2000 Just as straight as the path we must take from Federal Tyranny to Liberty and Self Determination! For the sake of our Children, we must be Free of the Federal Beast! Secession now, Freedom forever!",1022
10094,Our National Anthem God bless Texas!,10094
11943,God Bless Texas!,11943
848,"Texas Defending the American Dream Summit Friday, July 02, 2010 at 1:45 PM  through Saturday, July 03, 2010 at 6:30 PM (ET) Austin, TX Texas Defending the American Dream Summit - Eventbrite http://txdream.org/",848
10563,"Dallas, Texas, Fair Park, the North Texas Irish Festival 2004.",10563
480,"You stood your ground like a man. God bless you, and God bless Texas!",480
13135,"UK Guys and Girls visit Texas  Surpisingly, these UK Subjects (not Citizens, a Citizen has RIGHTS, a Subject has only priviliges granted by their Master) had never shot a machine gun, or supressed pistol before.",13135
10795,"Top 10 reasons why Donald Trump will protect Americans from the lying FDA, EPA, CDC and USDA",10795
4,"The Jewish leaders of the Neocon movement have turned the office of the federal president into a dictatorship, with rules that make it perfectly legal for President Trump to send a drone after the anti-white proponent of white genocide, Jew George Soros, any place that he is found on Earth.",4
4904,Donald 300 Trump - Make America Great Again!,4904
4226,Here is all the information you need on Trump and Russia: Most Americans love Trump. Most Americans would gladly trade Hillary for Putin. MAKE AMERICA GREAT AGAIN!,4226
4048,"Just like Hitler, Putin is the opposite of a white nationalist, but right now we are benefitting from Putin's actions in the Mideast, just as America is benefiting from the Trump political movement. Any gain is a gain.",4048
3221,It looks like Carson supporters went over to Trump.,3221
11158,"The Indians need to just go back into their free homes that the white man supplies to them and drink their free beer that the white man pays for, and shut up about the white man's pipeline. The Indians like to drive around burning gasoline, the ice chest for their beer is made of petroleum products, but they are going to cry like a tribe of hippies while they are receiving even more free money from the oil company. I wish that pipe line was gong through my land. In fact, I wish I had some land. The Indians have free land, free homes, free food, free medical, free education, free everything, and all of that is still not enough, it will never be enough. Indians are Asians, I am certain they would be happier in Asia, and I am all in favor of giving them a free tip back home.",11158
2500,All the different third world citizens all have nothing but an undying love for each other?,2500
4117,"Jamie, this is a great radio show tonight! Wonderful play by play of the Ron Paul interview! Merry Christmas, may Santa bring us Victory!",4117
784,"Ron Paul's Farewell Address to the Federal Union We would all love to tell the Federal Union farewell, and where to go! God bless Texas!",784
4468,The individuals who are in favor of invasion of the nation must be stripped of citizenship and removed from the nation. Only those who are in favor of defending the nation can be allowed to remain within the nation!,4468
