,topic_lda,bag_words,sa_score,events,rank
88,4.0,"['sort', 'tribute', 'cd', 'landser', 'english', 'landser', 'great', 'occupation', 'government', 'subject', 'germany', 'sort', 'treatment', 'dixie', 'washington', 'government', 'landser', 'prison', 'song', 'sake', 'child', 'free', 'federal', 'beast', 'deo', 'vindice']",0,[],0.008823188953101635
53,4.0,"['government', 'person']",0,[],0.0073534040711820126
59,4.0,"['colonial', 'patriot', 'freedom', 'government', 'descendant', 'patriot', 'federal', 'mafia', 'word', 'butcher', 'attack', 'confederate', 'patriot', 'case', 'federal', 'mafia', 'butcher', 'deed', 'treachery', 'limit', 'honor', 'blood', 'murder', 'white', 'child', 'blood', 'murder', 'white', 'woman', 'fear', 'time', 'result', 'rape', 'south', 'breed', 'fear', 'bread', 'contempt', 'people', 'side', 'issue', 'rape', 'south', 'side', 'man', 'honor', 'federal', 'mafia', 'tyrant', 'honor', 'man', 'honor', 'side', 'man', 'mountain']",0,[],0.0073534040711820126
86,4.0,"['arm', 'ban', 'arm', 'society', 'society', 'federal', 'government', 'ban', 'secession', 'freedom']",0,[],0.0073534040711820126
54,4.0,"['black', 'african', 'terrorist', 'race', 'war', 'america', 'normal', 'average', 'american', 'odds', 'race', 'war', 'communist', 'mexican', 'illegals', 'free', 'place', 'year', 'survivor', 'future', 'america']",0,[],0.006003284826874733
