,topic_lda,bag_words,sa_score,events,rank
394,2.0,"['gun_control', 'work', 'government', 'pas', 'law', 'murder']",-1,[],0.016870204
11801,2.0,"['government', 'bee', 'kill', 'pesticide']",-1,[],0.016870204
11791,2.0,"['government', 'hate', 'white_children']",-1,[],0.016870204
10772,2.0,"['bad', 'news', 'government', 'give', 'israel', 'evil', 'earth', 'f-35', 'jet']",-1,[],0.016870204
1028,2.0,"['berlin', 'wall', 'die', 'government', 'nation', 'communist_mass', 'murderer']",-1,[],0.016870204
10620,2.0,"['government', 'military', 'loot', 'ally', 'criminal', 'black', 'soldier', 'rape', 'murder', 'french', 'child', 'government', 'military', 'ally', 'enemy', 'enemy', 'nation', 'military', 'loot', 'nation', 'enemy', 'tax_dollars', 'enemy', 'nation']",-1,[],0.016870204
1093,2.0,"['german', 'government', 'war']",-1,['war'],0.016870204
8648,2.0,"['protest', 'session', 'super', 'congress', 'fix', 'government', 'dissolve', 'federal_government']",-1,[],0.016870204
7770,2.0,"['government', 'funding']",-1,[],0.016870204
7057,2.0,"['gun', 'manufacturer', 'refuse', 'government', 'sale', 'protest']",-1,[],0.016870204
6713,2.0,"['give', 'al_ciada', 'sarin', 'gas', 'federal_agent', 'order', 'government', 'murder', 'trail', 'arm', 'deal', 'supply', 'al_ciada', 'al_ciada', 'sarin', 'gas', 'government', 'blame', 'government', 'syria', 'attack', 'agent', 'al_ciada', 'al_ciada', 'sarin', 'gas', 'possession', 'government', 'blame', 'government', 'syria', 'attack']",-1,[],0.016870204
3887,2.0,"['official', 'government', 'hoist', 'high']",-1,[],0.016870204
3910,2.0,"['terrorist', 'government']",-1,[],0.016870204
4410,2.0,"['anti-american', 'government', 'washington_d.c', 'devil', 'carnate', 'aircraft', 'carrier', 'isralie_empire', 'sub', 'jew', 'sell', 'communist_chinese', 'buddy', 'push', 'carrier', 'usn', 'carrier', 'chinese_communist', 'clutch']",-1,[],0.016870204
5931,2.0,"['gun', 'registration', 'ny', 'state']",-1,[],0.010611546000000001
7888,2.0,"['jew', 'rally', 'protest', 'police', 'violence', 'state', 'israel', 'police', 'counter-protested', 'beating', 'protester']",-1,[],0.010611546000000001
8133,2.0,"['texas', 'congressman', 'poe', 'holder', 'african', 'defense', 'holder', 'obama', 'find', 'break', 'oath', 'office', 'constitution', 'break', 'international', 'gun', 'law', 'break', 'federal', 'gun_sales', 'regulation', 'law', 'murder', 'justice', 'mirror', 'find', 'criminal']",-1,[],0.007988023
3875,2.0,"['public', 'school', 'teacher', 'todd', 'henry', 'murder', 'black', 'student', 'murder', 'safe', 'clean', 'white', 'school', 'tyler', 'texas', 'degenerate', 'mess', 'savage', 'black', 'beast', 'resume', 'crime_spree', 'release']",-1,[],0.007988023
3699,2.0,"['texas', 'fight', 'election_fraud', 'stop', 'election_fraud', 'hang', 'law', 'demand', 'rope', 'election_fraud']",-1,[],0.007988023
823,2.0,"['texas', 'gun_shows', 'texas', 'gun_shows', 'website', 'directory', 'gun_shows']",-1,[],0.007988023
2744,2.0,"['african', 'capital', 'murder', 'paris', 'texas', 'town', 'black', 'suspect', 'capital', 'murder', 'black']",-1,[],0.007988023
914,2.0,"['federal_government', 'texas']",-1,[],0.007988023
11436,2.0,"['diversity', 'rise', 'cop', 'killing', 'police_officer', 'diversity', 'anti-white', 'law', 'police_officer', 'white', 'civil_right', 'killing']",-1,[],0.0076426924
2444,2.0,"['federal', 'law', 'prison']",-1,[],0.0076426924
10886,2.0,"['trump', 'cnn', 'propagandist', 'fake', 'news']",-1,[],0.006402954000000001
10880,2.0,['trump'],-1,[],0.006402954000000001
10796,2.0,"['trump', 'hater', 'expose']",-1,[],0.006402954000000001
10791,2.0,"['communist', 'coward', 'attack', 'trump', 'supporter']",-1,[],0.006402954000000001
10724,2.0,"['trump', 'dig', 'coal', 'bad', 'news', 'wynne', 'canadian', 'view', 'america', 'coal', 'industry']",-1,[],0.006402954000000001
4707,2.0,"['african', 'police_officer', 'arrest', 'girl', 'sex', 'face', 'money']",-1,[],0.006188946
12809,2.0,"['ron_paul', 'bernanke', 'krugman', 'dollar', 'money', 'black', 'magic', 'debt', 'tax_payers', 'real', 'money', 'american_citizens', 'work', 'labor']",-1,[],0.006188946
13266,2.0,"['kill', 'switch', 'daily', 'news', 'edition', 'july', 'america', 'cashier', 'reek', 'money', 'african']",-1,[],0.006188946
3364,2.0,"['hollywood', 'movie', 'attendance', 'time', 'jewish_hollywood', 'produce', 'anti-white_propaganda', 'stand', 'pay', 'money']",-1,[],0.006188946
7222,2.0,"['citizen', 'die']",-1,[],0.0059656915
9839,2.0,"['ukraine', 'citizen', 'devil', 'follower']",-1,[],0.0059656915
13079,2.0,"['ron_paul', 'empire', 'war', 'conquest', 'american_citizens']",-1,[],0.0058806953000000006
7808,2.0,"['ron_paul', 'supporter', 'suspect', 'terrorist']",-1,[],0.0058806953000000006
10256,2.0,"['criminal', 'farmer', 'branch', 'nation', 'apartment', 'mean', 'jail', 'criminal', 'dollar', 'property', 'damage', 'property', 'theft', 'mention', 'human', 'violent_crimes', 'horde', 'illegal_alien', 'criminal', 'crime', 'rape', 'murder', 'ton', 'drug', 'thug', 'criminal_aliens', 'time', 'apartment', 'build', 'house', 'law_abiding', 'tax', 'pay', 'human', 'lock', 'kick']",-1,[],0.0056686415
10341,2.0,"['black', 'nation', 'brown', 'nation', 'place', 'white_nation', 'place', 'brown', 'white_nation']",-1,[],0.0056686415
1029,2.0,"['berlin', 'wall', 'dead', 'murder', 'escape', 'communism', 'communist', 'nation', 'nation', 'fence', 'citizen/slaves', 'escape']",-1,[],0.0056686415
8962,2.0,"['house', 'traitor', 'threat', 'suicide', 'nation', 'attack']",-1,[],0.0056686415
8917,2.0,"['nigel_farage', 'obama', 'nation', 'crisis', 'tyranny', 'libya', 'china', 'russia', 'fly', 'zone', 'rain', 'democracy', 'washington_dc']",-1,[],0.0056686415
10026,2.0,"['history', 'jew', 'nation', 'people', 'nation', 'feel', 'outrage', 'jew', 'demand']",-1,[],0.0056686415
575,2.0,"['anti-white', 'agenda', 'anti-whites', 'control', 'population', 'damage', 'world', 'target', 'civilized_white', 'nation', 'destruction']",-1,[],0.0056686415
672,2.0,"['real', 'situation', 'africa', 'secret', 'farm', 'murder', 'black', 'white', 'violence', 'black', 'invasion', 'discrimination', 'folk', 'nation']",-1,[],0.0056686415
8892,2.0,"['communist', 'revolution', 'work', 'revolution', 'communist', 'revolution', 'mass_murder', 'victim', 'idiot', 'offer', 'resistance', 'wise', 'turn', 'revolution', 'sheep', 'put', 'sleep', 'lie', 'distraction', 'potential', 'oligarch', 'worst', 'nightmare']",-1,[],0.0055709174
12570,2.0,"['fbi', 'arrest', 'man', 'sell', 'bomb', 'recruitment', 'center', 'fbi', 'victim', 'victim', 'recruit', 'victim', 'sell', 'victim', 'bomb', 'arrest', 'victim', 'tax_dollars', 'work']",-1,[],0.0055709174
9829,2.0,"['stockton', 'california', 'mystery', 'hole', 'cloud', 'california', 'expert', 'baffle', 'conspiracy', 'theorist', 'claim', 'work', 'alien']",-1,[],0.0055709174
10321,2.0,"['jew', 'prison', 'work', 'camp', 'debt', 'germany', 'jew', 'acceptance', 'responsibility', 'imprisonment', 'willingness', 'debt', 'officer', 'prison', 'work', 'camp', 'work', 'compliance', 'release', 'german', 'society', 'prisoner', 'release', 'prison', 'work', 'camp', 'program', 'release', 'prisoner', 'death', 'camp']",-1,[],0.0055709174
