,topic_lda,bag_words,sa_score,rank
31,2.0,"['people', 'talk']",0,0.012048057280480862
18,2.0,"['raid', 'special', 'force', 'cover', 'open', 'ground', 'shelter', 'hostage', 'spot', 'guard']",0,0.01004167553037405
