,Unnamed: 0,Term,Fq-0,Fq-1,Fq-2,Fq-3,Fq-4,Tfidf-0,Tfidf-1,Tfidf-2,Tfidf-3,Tfidf-4,Prob-0,Prob-1,Prob-2,Prob-3,Prob-4
647,white,white,2,1,9,5,0,0.06458651103196109,0.04418577083663742,0.3056421737683524,0.20629493519199896,0.0,0.01600273698568344,0.004982694052159786,0.0147430170327425,0.015415829606354238,0.0004462783690541983
25,america,america,2,1,4,0,1,0.06458651103196109,0.04418577083663742,0.13584096611926774,0.0,0.05318668314769555,0.005196584388613701,0.002179513685405255,0.013544677756726742,0.00017658194701652974,0.006003284826874733
613,trump,trump,0,0,5,1,0,0.0,0.0,0.2431643357381704,0.05908505784691544,0.0,0.0008941951091401279,0.00022578195785172286,0.011270016431808472,0.004060013685375452,0.000327376154018566
575,supply,supply,0,0,2,1,0,0.0,0.0,0.09726573429526818,0.05908505784691544,0.0,0.000430482585215941,0.00022462049673777076,0.00922678504139185,0.002502889838069677,2.5045790607691746e-05
315,jones,jones,1,0,2,0,0,0.04624565475761943,0.0,0.09726573429526818,0.0,0.0,0.001360930735245347,4.226201417623088e-05,0.009109132923185824,1.3755880900134796e-05,1.8137237930204723e-05
624,usa,usa,0,0,1,0,0,0.0,0.0,0.06027918529530048,0.0,0.0,1.0352337994845584e-05,1.435616741218837e-05,0.009103891439735891,1.2515499292931055e-05,1.8196367818745784e-05
365,message,message,0,0,1,0,0,0.0,0.0,0.06027918529530048,0.0,0.0,1.0036643288913183e-05,0.0006665639230050148,0.00803784653544426,1.2140170838392805e-05,1.789337875379715e-05
257,great,great,2,0,2,0,3,0.07677614197952386,0.0,0.08073934583838686,0.0,0.1896743579203414,0.0036204594653099775,0.0002993208181578666,0.008033865131437778,0.00024056631082203242,0.008823188953101635
33,arm,arm,1,1,1,0,0,0.03838807098976193,0.05252510100057301,0.04036967291919343,0.0,0.0,0.0021781204268336296,0.0046577174216508865,0.007954111322760582,1.2536464055301622e-05,0.0001045718599925749
282,hitler,hitler,2,0,2,1,0,0.07677614197952386,0.0,0.08073934583838686,0.04904593538461855,0.0,0.004430833738297224,0.0026256928686052556,0.007894323207437992,0.005654856562614441,4.447996980161406e-05
