,text,doc_id
40,"When some normal everyday muslim begins slaughtering white folks, why doesn't anyone in Germany reach in their pocket, pull out a handgun and just shoot the jihadi?",40
72,"The MIGHTY JEW is afraid of a tiny little white girl, just because she is not afraid to tell the truth in public. Let the Jew quake and let the truth be known!",72
73,"Okay, is she is from Canada then I guess that is why she talks that way. Anyone going to make better videos than hers then get on it. Evalion thanks for the videos, keep it white! My suggestion is that it is better to promote White Nationalism than National Socialism, but they are your vids.",73
92,"Please fire everyone who does not show up for work on that day, and hire a white man in their place.",92
97,"Yes, it is time for the White Man to stop being the world's slave and working to support every third world savage on Earth! Let the savages live in the homes they build, eat the food they grow, and drive the cars they build. From now on the White Man benefits from his own hard labor.",97
13,My first handgun reloads were for my snub nose.,13
