,topic_lda,bag_words,sa_score
4,3.0,"['leader', 'neocon', 'movement', 'turn', 'office', 'president', 'dictatorship', 'rule', 'trump', 'drone', 'anti-white', 'white_genocide', 'jew', 'george', 'soros']",1
12,3.0,"['shin', 'activist', 'dr._david', 'duke', 'ability']",1
16,3.0,"['grand', 'palace', 'great', 'negus', 'project']",1
74,3.0,"['custom', 'people', 'free', 'men', 'rally', 'leader', 'present', 'leader', 'rally']",1
193,3.0,"['social', 'justice', 'warrior', 'frisbee', 'highway', 'life']",1
227,3.0,"['hitler', 'start', 'innocent_white', 'folk', 'cause', 'germany', 'war']",1
489,3.0,"['woman', 'love', 'trump']",1
507,3.0,"['love', 'loony_leftist']",1
515,3.0,['love'],1
517,3.0,"['ann', 'coulter', 'problem', 'demographic', 'problem']",1
534,3.0,"['anti-white', 'christmas', 'story']",1
548,3.0,"['african', 'shot', 'head', 'range', 'anti-whites', 'claim', 'planet', 'whitey']",1
761,3.0,"['texas', 'bbq']",1
919,3.0,"['gene', 'autry', 'texas', 'christmas']",1
938,3.0,"['church', 'kek', 'music', 'video', 'sound', 'social', 'justice']",1
1009,3.0,"['citizen', 'great', 'white', 'land', 'australia', 'display', 'great', 'white', 'pride']",1
1125,3.0,"['reach', 'harmonic', 'vibration', 'reducer']",1
1127,3.0,"['bird', 'hand', 'pacifier']",1
1167,3.0,"['good_luck', 'sti', 'give', 'range', 'report']",1
1231,3.0,"['loony_leftists', 'free', 'election', 'free_speech']",1
1253,3.0,"['spread', 'county', 'orchard', 'tree', 'plant', 'orange', 'climate', ""a'hinge"", 'life']",1
1281,3.0,"['rockefeller', 'crime_family', 'secret', 'cabal', 'work', 'state', 'internationalist', 'structure', 'charge', 'stand']",1
1285,3.0,"['christmas', 'gift', 'freedom', 'free', 'december', 'issue', 'freedom']",1
1287,3.0,"['question', 'yankee', 'war', 'win']",1
1313,3.0,"['government', 'claim', 'slave', 'government', 'slave', 'free', 'peace', 'slave', 'america', 'class', 'slave', 'class', 'government', 'salve', 'excuse', 'refuse', 'free', 'citizen', 'confederacy', 'government', 'freedom', 'goal', 'freedom', 'way', 'point', 'yankee', 'communist', 'government']",1
1750,3.0,"['homosexual', 'pride', 'san', 'francisco', 'jew', 'wear', 'israeli', 'flag', 'homosexual', 'pride', 'parade', 'san', 'francisco']",1
1855,3.0,"['jew', 'mean', 'statement', 'america', 'slip', 'america', 'people', 'america', 'escape', 'clutch', 'america', 'law', 'rule', 'law']",1
1871,3.0,"['heretic', 'great']",1
1901,3.0,"['m110', 'field', 'sniper', 'tv', 'program', 'american', 'guardian', 'segment', 'timeline', 'happed', 'm110', 'record', 'watch', 'knight', 'armament', 'sas', 'military', 'trial', 'september', 'm110', 'field', 'sniper', 'field', 'sniper', 'year']",1
1979,3.0,"['rescue', 'jessica', 'buchanan']",1
2050,3.0,"['good', 'goose', 'good', 'gander', 'jew']",1
2252,3.0,"['federal', 'hst', 'hst', 'bullet', 'market']",1
2280,3.0,"['single', 'mom', 'stop', 'brave', 'cool']",1
2297,3.0,"['glad', 'year', 'enjoyment', 'rifle']",1
2312,3.0,"['day', 'range', 'work', 'marksmanship']",1
2361,3.0,"['camera', 'show', 'door', 'safe', 'room', 'good', 'safe', 'room', 'open', 'door', 'trouble']",1
2500,3.0,"['citizen', 'love']",1
2542,3.0,"['wutz', 'dis', 'brn', 'lady', 'wontz', 'ta', 'ax', 'yu', 'sumpin', 'utopia', 'nyc', 'true', 'brave', 'muslim', 'woman', 'youtube']",1
2845,3.0,"['african', 'grand', 'mother', 'hire', 'grand', 'son', 'grand', 'father']",1
3069,3.0,"['african_home', 'invasion', 'white', 'grand', 'mother', 'grand', 'daughter', 'shot']",1
3168,3.0,"['australian', 'band', 'fortress', 'rock', 'sound', 'song', 'white_man', 'heroic', 'battle', 'post8055153']",1
3456,3.0,"['treat', 'nazi', 'auschwitz', 'retirement', 'home', 'time']",1
3481,3.0,"['save', 'youtube', 'video', 'vid', 'save', 'keepvid', 'save', 'video', 'youtube', 'dailymotion', 'metacafe', 'ifilm']",1
3524,3.0,"['merkel', 'embrace', 'islam', 'people', 'embrace', 'germany']",1
3554,3.0,"['time', 'favorite', 'tull', 'tune', 'song', 'wood', 'jack', 'green', 'celtic', 'heritage']",1
3634,3.0,"['congressman', 'trey', 'gowdy', 'hillary_clinton', 'jail', 'free', 'card']",1
3656,3.0,"['teddy', 'roosevelt', 'success', 'head', 'lead', 'win']",1
3864,3.0,"['type', 'real', 'news', 'site', 'stormfront', 'result']",1
3868,3.0,"['fragment', 'society', 'success', 'history', 'multiculturalism', 'great', 'empire']",1
4266,3.0,"['poster', 'communist', 'jew', 'henry', 'kissinger']",1
4345,3.0,"['trash', 'white_folks', 'watch', 'jewish_controlled', 'tv', 'solution', 'jew', 'america']",1
4474,3.0,"['girl', 'smoking', 'dope', 'cool', 'kid']",1
4500,3.0,"['peace', 'spathiphyllum', 'folk', 'county', 'call', 'jack', 'pulpit']",1
4559,3.0,"['white_girl', 'black', 'mob', 'hate_crime']",1
4653,3.0,"['arab', 'australian', 'bus']",1
4677,3.0,"['isi', 'attack', 'tell', 'peace', 'multiculturalism', 'peace', 'prosperity', 'israeli', 'palestinian']",1
4787,3.0,"['kenny', 'vaughan', 'walk', 'marty_stuart', 'superlative']",1
4852,3.0,"['white_nationalist', 'music', 'video']",1
4861,3.0,"['bluegrass', 'situation', 'heaven']",1
4945,3.0,"['amp', 'friend', 'greg', 'duane', 'allman', 'amp', 'bramlett', 'amp', 'amp', 'b', 'amp', 'friend', 'delaney', 'amp', 'home', 'amp', 'bramlett', 'duane', 'allman', 'amp', 'friend', 'eric', 'clapton', 'amp', 'friend']",1
4995,3.0,"['mahones', 'night']",1
5105,3.0,"['gabriella', 'quevedo', 'merry_christmas']",1
5238,3.0,"['greece', 'border', 'european', 'nation', 'hungarian', 'prime', 'minister', 'viktor', 'orban']",1
5271,3.0,"['olga', 'kuzkova', 'strip', 'beauty', 'title']",1
5359,3.0,"['white_boy', 'dy', 'fire', 'rescue', 'kid']",1
5501,3.0,"['bound', 'glory', 'beer', 'bottle', 'hockey', 'stick']",1
5515,3.0,"['doro', 'lemmy', 'love']",1
5518,3.0,"['redhead', 'express']",1
5621,3.0,"['super', 'dupers', 'captain', 'marvel', 'jones']",1
5754,3.0,"['german', 'footbal', 'team', 'win', 'superior', 'technology']",1
5760,3.0,"['gary', 'moore']",1
5787,3.0,"['isi', 'gain', 'ground']",1
5803,3.0,"['dude', 'perfect', 'bowling', 'trick', 'shot']",1
5897,3.0,"['sen', 'ed', 'markey', 'free_speech']",1
5997,3.0,"['jerry_miculek', 'glock', 'amp', 'p', 'xd']",1
6359,3.0,"['mar', 'mystery']",1
6370,3.0,"['great', 'jack', ""o'lantern"", 'blaze']",1
6438,3.0,"['perfection', 'violin']",1
6476,3.0,"['friend', 'friend', 'birdshot', 'home_defense']",1
6554,3.0,"['mike', 'lee', 'free', 'people']",1
6626,3.0,"['faith', 'scientist', 'technician', 'safety', 'gmo', 'product']",1
6833,3.0,"['federal_agent', 'supply', 'bomb', 'trade', 'center', 'bombing']",1
6864,3.0,"['hand', 'feed', 'hummingbird', 'animal', 'trust', 'white_humans', 'trust', 'savage', 'african', 'mestizo']",1
6939,3.0,"['baby', 'elephant', 'rescue']",1
6950,3.0,"['ash', 'easter', 'egg', 'hunt']",1
6991,3.0,"['information', 'shadow']",1
7028,3.0,"['pi', 'day']",1
7037,3.0,"['amp', 'p', 'win']",1
7103,3.0,"['bill', 'concealed_carry', 'collage', 'campus', 'arkansas', 'god_bless', 'dixie']",1
7258,3.0,"['wise', 'roy', 'clark', 'orange', 'blossum', 'special', 'wise', 'roy', 'clark', 'youtube']",1
7311,3.0,"['free', 'float', 'hand', 'guard', 'upper']",1
7379,3.0,"['cold', 'country', 'love', 'christmas']",1
7388,3.0,['santa'],1
7436,3.0,"['ramzpaul', 'jamie', 'foxx', 'killin', 'white_folks', 'great']",1
7438,3.0,"['jingle_bells', 'goat', 'pen', 'giggle', 'goat', 'jingle_bells', 'holiday', 'performance', 'youtube']",1
7733,3.0,"['dance', 'love']",1
7741,3.0,"['yal', 'pac', 'endorsement', 'young', 'american', 'liberty']",1
7798,3.0,"['humanity', 'secret', 'dream']",1
7847,3.0,"['freedom', 'fear', 'freedom', 'freedom', 'speech', 'freedom', 'religion', 'freedom', 'forced_integration', 'freedom', 'white_genocide']",1
7920,3.0,"['brian', 'setzer', 'orchestra', 'sex', 'sex']",1
7972,3.0,"['elton', 'britt', 'beaver', 'valley', 'sweetheart', 'texas', 'christmas']",1
8036,3.0,"['macarthur', 'award', 'youth', 'winner']",1
8038,3.0,['west'],1
8372,3.0,"['ron_paul', 'elect', 'winner', 'iowa', 'straw', 'poll', 'voter']",1
8392,3.0,"['military', 'band', 'order', 'amusement', 'red', 'square', 'crowd', 'loony_leftists', 'band', 'brown', 'face', 'communist', 'uniform', 'song', 'marxist', 'utopia']",1
8423,3.0,"['dr', 'ron_paul', 'elect', 'winner', 'illinois', 'straw', 'poll', 'media_mafia', 'coverage']",1
8666,3.0,"['lynyrd_skynyrd', 'free', 'bird']",1
8686,3.0,"['farm', 'land', 'europe', 'farm', 'land', 'growing_season', 'world', 'world', 'feed']",1
8813,3.0,"['jew', 'congress', 'white_house', 'support', 'american_citizens', 'jew', 'support', 'israeli', 'citizen']",1
8824,3.0,"['cousin', 'kenny', 'vaughan', 'superlative', 'flat', 'wound', 'string']",1
9533,3.0,"['coup', 'erdogan', 'coup', 'bun', 'erdogan']",1
9590,3.0,"['putin', 'stamp', 'white', 'pride']",1
9905,3.0,"['dem', 'black', 'fok', 'dey', 'shoe']",1
9922,3.0,"['model', 'amp', 'w', 'model', 'good', 'knife', 'blade', 'hold', 'edge', 'good', 'texture', 'handle', 'arthritis', 'open', 'regular', 'fold', 'knife']",1
10185,3.0,"['houston', 'area', 'phone', 'service', 'work', 'today', 'friend', 'family', 'hope', 'board', 'member', 'north', 'houston', 'gathering', 'october', 'hope', 'people']",1
10214,3.0,"['yule', 'merry_christmas', 'invader', 'christmas']",1
10222,3.0,"['vitamin', 'c', 'tablet', 'vitamin', 'c', 'water', 'chew', 'tablet', 'extra', 'vitamin', 'c']",1
10303,3.0,"['war', 'christian', 'muslim', 'war', 'traitor', 'jew', 'power', 'citizen', 'muslim', 'tool', 'traitor', 'jew', 'win', 'traitor', 'win', 'jew', 'muslim', 'simple', 'rain']",1
10352,3.0,"['color', 'color', 'color', 'invention', 'discovery', 'moon', 'mar', 'venus', 'mercury', 'nation', 'men', 'woman', 'produce', 'music', 'art', 'literature', 'website']",1
10388,3.0,"['great', 'people']",1
10418,3.0,"['special', 'privilege', 'special', 'group', 'equal']",1
10429,3.0,"['marxist', 'tell', 'african', 'great', 'tradition', 'rich', 'culture', 'food', 'culture', 'time', 'african']",1
10473,3.0,['chinese'],1
10560,3.0,"['corn', 'tassel', 'corn', 'silk', 'flower', 'add', 'beauty', 'enjoyment', 'garden', 'bee', 'butterfly', 'come', 'garden']",1
10563,3.0,"['dallas', 'texas', 'fair', 'park', 'north_texas', 'irish_festival']",1
10567,3.0,"['vlad', 'impaler', 'turk', 'immigration', 'policy', 'time']",1
10673,3.0,"['great', 'idea']",1
10757,3.0,"['fight', 'somali', 'import', 'america', 'free', 'tax_dollars', 'handout']",1
10814,3.0,"['g', 'edward', 'griffin', 'trump', 'phenomenon']",1
10839,3.0,"['trump', 'hit']",1
10876,3.0,"['putin', 'hail', 'trump', 'drone', 'merkel', 'day', 'hemp', 'hemp', 'hooray']",1
11159,3.0,"['obama', 'homosexual', 'druggie', 'african', 'muslim', 'respect', 'trump', 'white', 'american', 'man', 'command', 'respect']",1
11223,3.0,"['classic', 'anti-race', 'mix', 'symbol', 'video', 'tocharian', 'civilization', 'bearer', 'chinese', 'part', 'post5649402', 'way', 'way']",1
11292,3.0,"['halloween', 'candy', 'ready', 'white_kids', 'knock', 'door', 'hollerin', 'trick', 'treat', 'halloween']",1
11348,3.0,['birthday'],1
11530,3.0,"['feel', 'worth', 'preserve', 'keepvid', 'save', 'video', 'youtube', 'dailymotion', 'metacafe', 'ifilm', 'medium', 'player', 'flv', 'flash', 'video', 'free', 'player', 'flv', 'player', 'free', 'software', 'software', 'review', 'cnet', 'download.com', 'visit', 'interest']",1
11542,3.0,"['maiden', 'iv']",1
11680,3.0,"['super', 'nova', 'star', 'explosion']",1
11710,3.0,"['jack', 'lalanne', 'champion']",1
11918,3.0,"['strap', 'young', 'lad', 'love']",1
12069,3.0,"['jack', 'lalanne', 'feel']",1
12388,3.0,"['purple', 'hazel', 'green', 'dragon', 'lullaby', 'love', 'song', 'night', 'sky']",1
12400,3.0,"['crosswind', 'aircraft', 'landing', 'cross', 'wind', 'land', 'aircraft', 'interest']",1
12493,3.0,"['ex-jew', 'brother', 'nathanial', 'god_bless', 'ex-jews']",1
12542,3.0,"['santa', 'fairy', 'snow', 'queen', 'christmas', 'magic', 'fun', 'family']",1
12552,3.0,"['cone', 'sister', 'texas', 'christmas']",1
12619,3.0,"['tony_rice', 'ricky_skaggs', 'girl']",1
12634,3.0,"['god_bless', 'pasadena', 'texas']",1
12652,3.0,"['austrian', 'mp', 'ewald', 'stadler', 'address', 'turkish', 'ambassador', 'tell', 'god', 'european', 'europe']",1
12660,3.0,"['indiana', 'county', 'merry_christmas']",1
12692,3.0,"['hallelujah', 'hallelujah']",1
12715,3.0,"['roy', 'rogers', 'dale', 'evans', 'trail']",1
12767,3.0,"['doll', 'bob_wills']",1
12789,3.0,"['andrew_napolitano', 'fff', 'conference', 'freedom', 'foundation']",1
12826,3.0,"['liberty', 'movie', 'preview']",1
12827,3.0,"['rand_paul', 'win', 'kentucky', 'senate', 'seat', 'republican', 'rand_paul', 'win', 'kentucky', 'senate', 'seat', 'reuters']",1
12832,3.0,"['texan', 'steak', 'ranch', 'free', 'oz', 'steak']",1
12892,3.0,"['hatebreed', 'die']",1
13075,3.0,"['cia', 'analyst', 'david', 'macmichael', 'main', 'intelligence', 'community', 'disinformation']",1
13080,3.0,"['israeli', 'media_mafia', 'senate', 'investigation', 'senate', 'justice']",1
13104,3.0,"['chairman', 'democratic_party', 'chairman', 'democratic_party', 'american', 'communist_party', 'candidate', 'lie', 'win', 'power', 'demoncratic', 'party', 'john', 'mccain', 'cain', 'lie', 'voter', 'win', 'election']",1
13175,3.0,"['ray_stevens', 'god', 'save', 'arizona', 'government', 'god_bless', 'ray_stevens', 'god', 'arizona', 'god', 'washington_d.c']",1
13182,3.0,"['bfg', 'bound', 'glory', 'michael', 'wittman']",1
13261,3.0,"['youtube', 'video', 'keepvid', 'save', 'video', 'youtube', 'dailymotion', 'metacafe', 'ifilm']",1
13330,3.0,"['super', 'human', 'elasticity']",1
