,text,doc_id
20,"Troops did not expect to find the US and South Korean hostages because there had been no information that the kidnappers were holding anyone else, French Armed Forces Minister Florence Parly said.",20
21,"Ms Parly said the kidnappers' identity was not yet known but there were two main militant groups operating near where the French tourists were taken, one linked to al-Qaeda and the other to the Islamic State group.",21
3,Image copyrightAFP,3
4,Image caption,4
24,View image on Twitter,24
23,Skip Twitter post by @MarineNationale,23
