captainkirk,Info/eBooks/Politics,Transnational Threats: Smuggling and Trafficking in Arms  Drugs  and Human Life,This collection of essays demonstrates how the security of Americans is potentially threatened by individuals and governments who are engaged in the illicit trade in arms  drugs  and human beings in  ...,0.004037858904761905 BTC,Internet,Everywhere,4.980/5,
captainkirk,Info/eBooks/Politics,The Coke Machine: The Dirty Truth Behind the World's Favorite Soft Drink,The Coke Machine: The Dirty Truth Behind the World's Favorite Soft Drink  The Coke Machine takes readers deep inside the Coca-Cola Company and its international franchisees to reveal how they becam ...,0.003544220114285713 BTC,Internet,Everywhere,4.980/5,
Aracay,Info/eBooks/Politics,EU Citizenship Complete Information,High Quality Guide (2 Page PDF File) Current information on EU Dual Citizenship Allowance (all EU countries) and how long it will take you to get citizenship in each of them.,0.06996254446808516 BTC,Torland,,4.97/5,
captainkirk,Info/eBooks/Politics,The Deliberate Dumbing Down of America,"Welcome to the ""little edition"" of the ""big book""--the deliberate dumbing down of america: A Chronological Paper Trail. Since the original publication of the 743-page  8-1/2""x11"" tome  readers have r ...",0.004077449159663864 BTC,Internet,Everywhere,4.980/5,
captainkirk,Info/eBooks/Politics,Conjuring Hitler,Nazism is usually depicted as the outcome of political blunders and unique economic factors: we are told that it could not be prevented  and that it will never be repeated. In this explosive book  Gu ...,0.004084270458715592 BTC,Internet,Everywhere,4.980/5,
captainkirk,Info/eBooks/Politics,Hells Angels: A Strange and Terrible Saga,"Hell's Angels: A Strange and Terrible Saga  ""California  Labor Day weekend . . . early  with ocean fog still in the streets  outlaw motorcyclists wearing chains  shades and greasy Levis roll out fr ...",0.003995630526315791 BTC,Internet,Everywhere,4.980/5,
Aracay,Info/eBooks/Politics,Leadership – How To Become A Better Leader,High Quality eBook (22 Page PDF File)  eBook Contents      Legal Disclaimers & Notices.....1     Contents.....3     Introduction to Leadership.....4     Understanding the Dark Side.....6      ...,0.034954734574468106 BTC,Torland,,4.97/5,
captainkirk,Info/eBooks/Politics,When the World Will Be As One: The Coming New World Order,"This book will no doubt infuriate the ""politically correct"" lobby but then the truth always hurts! Mr Brooke states how today's antilife  antifamily trends are  together with the popularity of variou ...",0.004047402415458939 BTC,Internet,Everywhere,4.980/5,
captainkirk,Info/eBooks/Politics,The Mafia Encyclopedia,"The Mafia Encyclopedia  Organized crime is the greatest criminal phenomenon of our time. From Al Capone  who boldly claimed his bootlegging activities were a public service  to John Gotti  the ""Tef ...",0.0035938286826347294 BTC,Internet,Everywhere,4.980/5,
dionysos,Info/eBooks/Politics,You are beeing lied to,You are beeing lied to - The disinformation guide to media distortion  historical whitewashes and cultural myths (Russ Kick)  format: pdf  size: 402 pages  2.2 MB    CONTENTS About Disinform ...,0.008095000384615381 BTC,Internet,,~5/5,
dionysos,Info/eBooks/Politics,conspiracy theories - there are the facts and then there is the truth,conspiracy theories - there are the facts and then there is the truth (Kate Tuckett)  Contents Introduction . . . . . . . . . . . . . . . . . . . . . . . . . . . .  9/11 . . . . . . . . . . . . . ...,0.008020441111111103 BTC,Internet,,~5/5,
Optumis,Info/eBooks/Politics,ThinkandGrowRich ebook,ThinkandGrowRich ebook,0.004098642222222222 BTC,,WorldWide,4.96/5,
happyday,Info/eBooks/Politics,Become an American Citizen,Become an American Citizen without all the hassle and wait. Whether you're already on American Soil or not  we have the solution for you. For only $1000USD  I will reveal a secret to you that will ...,3.466455007966101 BTC,,,3.97/5,Average price may be skewed outliar > .5 BTC found
Optumis,Info/eBooks/Politics,End the Fed,Most people think of the Fed as an indispensable institution without which the country's economy could not properly function. But in END THE FED  Ron Paul draws on American history  economics  and fa ...,0.004098507272727273 BTC,,,4.96/5,
happyday,Info/eBooks/Politics,How to Obtain a Royal Title,"This ""how-to"" manual  teaches you how to officially obtain a royal title: Such as: Lord / Lady Baron / Baroness Earl / Count / Countess Viscount / Viscountess Marquis / Marchioness Duke / Duch ...",0.0851494377777778 BTC,,,3.97/5,
happyday,Info/eBooks/Politics,How to Get Out of ANY Traffic Ticket,This is a guide on how to get out of ANY traffic ticket without EVER having to step foot into a courtroom. Upon purchase of this program  you agreeing to not-compete and not share this information w ...,0.40290755852941174 BTC,,,3.97/5,
bluerave,Info/eBooks/Politics,REMOTE DETONATION,Digital ebook. This field manual is designed to provide Special Forces (SF) engineers and unconventional warfare personeel with several expedient methods of remote control (RC) detonation of explosiv ...,0.0027826086956521745 BTC,Torland,Worldwide,5.00/5,
Thrills,Info/eBooks/Politics,Dictionary Of Military And Associated Terms,Agency of the Department of Defense / US Government Printing Office | April 2010 | ISBN: n/a | 699 pages | File type: PDF | 3 mb  This publication supplements standard English-language dictionaries ...,0.0037164195454545456 BTC,,,4.988/5,
bluerave,Info/eBooks/Politics,HOMEMADE DETONATORS,Digital ebook. Finally  Ragnar presents the missing piece of the improvised-explosives process - how to make homemade blasting caps! This simple 3-step method requires only 3 drugstore chemicals  a h ...,0.0027826086956521745 BTC,Torland,Worldwide,5.00/5,
Optumis,Info/eBooks/Politics,Smart Thinking Skills For Critical Understanding And Writing,Smart Thinking Skills For Critical Understanding And Writing,0.004467183262411352 BTC,,,4.97/5,
Optumis,Info/eBooks/Politics,The Hallucinogens by Humphrey Osmond,The Hallucinogens Rating : rating Author(s) : Abram Hoffer   Humphrey Osmond Pages : 626 Pub Date : 1967 1969 Edition(s) at Erowid : 1969(hb 1st ed 3rd pr vg+/n) Publisher : Academic Pr ...,0.005281634833333332 BTC,,,4.97/5,
Optumis,Info/eBooks/Politics,The Electric Kool-Aid Acid Test,The Electric Kool-Aid Acid Test,0.004513431458333331 BTC,,,4.97/5,
captainkirk,Info/eBooks/Politics,Silencers From the Home Workshop,Bill Holmes is perhaps the best maker of firearms andaccessories from the ground up. Don't be intimidated by the machinery shown in this work. in his two other works he shows improvisations and alter ...,0.004092193454545454 BTC,Internet,Everywhere,4.977/5,
Thrills,Info/eBooks/Politics,Stuffed and Starved: The Hidden Battle for the World Food System,"Revised and Expanded Edition  ""For anyone attempting to make sense of the world food crisis  or understand the links between U.S. farm policy and the ability of the world's poor to feed themselves  ...",0.003775105999999999 BTC,,,4.874/5,
Thrills,Info/eBooks/Politics,What Every BODY is Saying: An Ex-FBI Agent's Guide to Speed-Reading People,"Read this book and send your nonverbal intelligence soaring. Joe Navarro  a former FBI counterintelligence officer and a recognized expert on nonverbal behavior  explains how to ""speed-read"" people:  ...",0.003775037000000001 BTC,,,4.874/5,
Optumis,Info/eBooks/Politics,custom,2,0.007783065 BTC,,,4.94/5,
