,text,doc_id,events
2297,I am glad to hear it. Hope you have years of enjoyment out of you rifle!,2297,[]
10690,"There are a few handgun calibers that are known to be very effective, such as .357 Magnum, .40 S&amp;W, .45 ACP, .500 Magnum, and others, and pistol caliber carbines are available in all of them. A .500 Magnum lever action rifle would be really cool! AR-15 manufacturers, such as Olympic Arms, produce carbines for .40 S&amp;W that will accept 30 round Glock mags. If a handgun caliber is effective in a handgun, then it will be a little more effective in a carbine--  easier to shoot accurately, and a little bit more velocity due to the longer barrel length. Still, a rifle caliber is more powerful than a pistol caliber (Except for .500 Magnum which is pretty powerful!)",10690,[]
11786,"The original AR (Armalite Rifle)  Chambered in .308 Winchester, the way God and Eugene Stoner intended.",11786,[]
4880,Kirsten Joy Weiss - Scorpion .22 LR Target Pistol,4880,[]
5803,Dude Perfect - Bowling Trick Shots,5803,[]
7619,FateofDestinee - Top Shot Champion Dustin Ellermann,7619,[]
