,Unnamed: 0,Term,Fq-0,Fq-1,Fq-2,Fq-3,Fq-4,Tfidf-0,Tfidf-1,Tfidf-2,Tfidf-3,Tfidf-4,Prob-0,Prob-1,Prob-2,Prob-3,Prob-4
7461,obama,obama,4,121,21,36,4,0.0030768863977729344,0.1898291623511526,0.02342259034392544,0.02336834676433541,0.013512505601024242,4.0814057e-06,0.014021736000000002,0.00017736675,9.4140756e-05,2.6535949000000002e-05
7138,muslim,muslim,1,76,6,48,1,0.0007692215994432336,0.1192315399891537,0.006692168669692982,0.031157795685780545,0.0033781264002560605,1.3730643999999999e-06,0.013089547,1.9526975e-05,1.6320237e-05,5.0698095e-06
5572,jew,jew,4,183,29,271,23,0.0030768863977729344,0.2870969976054622,0.032345481903516084,0.17591172147596934,0.07769690720588937,4.913143599999999e-06,0.012789425,0.0002846581,0.008629364,0.0013085209
2167,communist,communist,9,124,32,55,6,0.006922994394989102,0.1945356705086192,0.035691566238362574,0.03570164088995687,0.02026875840153636,2.015831e-06,0.011600982,0.0005659164,0.0009811610000000001,0.00033035027000000004
11443,war,war,7,96,29,38,22,0.0053845511961026354,0.150608261038931,0.032345481903516084,0.02466658825124293,0.07431878080563332,3.952711700000001e-06,0.0102591915,0.0004146272,0.000554531,0.0017979282000000001
4412,government,government,34,154,334,77,19,0.026153534381069942,0.24160075208328516,0.3725307226129093,0.049982297245939625,0.06418440160486515,0.00011840891000000002,0.008749347,0.016870204,0.00043493704000000004,0.0013666534
5437,isi,isi,0,46,4,7,2,0.0,0.08532395946092337,0.005274863519919425,0.005372286135632502,0.007988063329195006,0.0,0.0076255435,1.4103912e-06,6.381715e-05,0.0
9777,slave,slave,1,29,11,28,1,0.0007692215994432336,0.04549624552217707,0.012268975894437132,0.01817538081670532,0.0033781264002560605,0.0,0.0071616119999999995,0.00021089132999999998,0.0005356998,1.0483052e-05
11309,video,video,63,65,32,33,7,0.04846096076492371,0.1019743434117762,0.035691566238362574,0.02142098453397413,0.023646884801792424,0.002911537,0.006588482,0.0008530683699999999,7.221575e-05,4.3663412999999995e-06
620,attack,attack,7,89,26,163,3,0.0053845511961026354,0.13962640867150894,0.028999397568669587,0.1058066811829631,0.01013437920076818,1.9245974e-05,0.0061414274,0.0008228360000000001,0.0050746836,0.00062196807
