,topic_lda,bag_words,sa_score,events,rank
542,1.0,"['young', 'white', 'mother', 'murder', 'african', 'yufs']",-1,[],0.013798051499999998
1507,1.0,"['black', 'mass', 'murderer', 'cover', 'medium', 'african', 'employee', 'suspect', 'drug', 'theft', 'transfer', 'fire', 'steal', 'cash', 'fire', 'take', 'revenge', 'mass_murder', 'entire', 'airliner', 'fill', 'white_folks', 'kill', 'jew', 'mass_murder', 'black', 'story', 'white_folks', 'die', 'place', 'primitive', 'african', 'white', 'civilization', 'murder-suicide', 'airplane', 'kill']",-1,[],0.013798051499999998
1591,1.0,"['jew', 'dr', 'noel', 'ignatiev', 'white', 'supremacist', 'social', 'construct', 'white', 'race']",-1,[],0.013798051499999998
1679,1.0,"['soviet', 'government', 'member', 'jew', 'government', 'murder', 'fellow', 'communist', 'white']",-1,[],0.013798051499999998
1551,1.0,"['jew', 'scam', 'dollar', 'v=ffn7_0x5m6o']",-1,[],0.010799196
1627,1.0,"['art', 'war', 'islam', 'religion', 'religion', 'fake', 'religion', 'islam', 'islam', 'ideology', 'enemy', 'holy', 'book', 'theory', 'war', 'crush', 'enemy', 'chinese', 'art', 'war', 'blood_thirsty', 'god', 'islam', 'allah', 'plan', 'lie', 'murder', 'loot', 'rape', 'conquest', 'plan', 'plan', 'action', 'difference', 'jew', 'black_african']",-1,[],0.010799196
1635,1.0,"['mot', 'rhead', 'jew', 'young', 'boy', 'die', 'woman', 'europe', 'rap', 'black_african']",-1,[],0.010799196
1658,1.0,"['rabbi', 'give', 'death', 'threat', 'note', 'jew', 'yeshua', 'jesus']",-1,[],0.010799196
1717,1.0,"['muslim', 'terrorist', 'jew', 'radical', 'muslim', 'terrorist', 'murder', 'hundred', 'anniversary', 'jew']",-1,[],0.010799196
1732,1.0,"['jew', 'michael', 'savage', 'nationalism', 'thee', 'jew', 'demand', 'make', 'demand', 'jew', 'demand', 'israel', 'public', 'statement', 'white_nations']",-1,[],0.010799196
1797,1.0,"['jewish_communist', 'anti-white', 'propaganda', 'jew', 'hate', 'normal', 'people']",-1,[],0.010799196
131,1.0,"['white_folks', 'discus', 'white_genocide', 'public', 'proof', 'bad', 'situation']",-1,[],0.010055436999999999
182,1.0,"['time', 'step', 'seek', 'death', 'penalty', 'case', 'black', 'thug', 'murder', 'innocent_white', 'folk']",-1,[],0.008668535
1406,1.0,"['accident', 'inevitable', 'accident', 'plan', 'technology', 'waste', 'disposal', 'plan', 'plan', 'containment', 'waste', 'year', 'containment', 'plan', 'waste']",-1,[],0.0076085418
374,1.0,"['race_mixer', 'help', 'muslim', 'boyfriend', 'murder', 'mother', 'time', 'value', 'child', 'danish', 'teen', 'lisa', 'borch', 'murder', 'mother', 'watch', 'isi', 'beheading', 'video', 'daily', 'mail']",-1,[],0.006777766
1824,1.0,"['people', 'kill', 'start', 'ukraine', 'crisis']",-1,[],0.006672676999999999
