,text,doc_id
31,"3,579 people are talking about this",31
18,"During the raid itself, special forces covered 200m of open ground and got to within 10m of the shelter where the hostages were being held before being spotted by a guard.",18
