,topic_lda,bag_words,sa_score,events,rank
3099,3.0,"['leftists_claim', 'black', 'white', 'rape']",-1,[],0.019439694
361,3.0,"['leftist', 'anti-white_jewish', 'medium', 'texas', 'murder', 'mass_medium', 'show', 'murderer', 'race_mixer', 'black', 'son', 'kill', 'black', 'son', 'kill', 'call', 'report', 'murder', 'call', 'natural', 'natural', 'white', 'female', 'black', 'child', 'race_mixer', 'spawn', 'farewell', 'stacy', 'fawcett', 'wfaa.com']",-1,[],0.019439694
2271,3.0,"['racist', 'niggro', 'white', 'victim', 'hand', 'liberal', 'white_race', 'traitor', 'excuse', 'white', 'victim', 'event', 'white', 'victim', 'racism', 'blood_thirsty', 'savage', 'white', 'victim', 'liberal', 'white_race', 'traitor', 'racist', 'attack', 'wrong', 'victim', 'white']",-1,[],0.019439694
3080,3.0,"['african', 'attack', 'white', 'police_officer', 'arrest']",-1,[],0.019439694
3083,3.0,"['white', 'police', 'woman', 'day', 'job', 'shot_dead', 'active_duty', 'federal', 'african', 'slain', 'virginia', 'officer', 'bravery', 'intelligence', 'live5news.com', 'charleston', 'sc', 'weather', 'sport', 'army', 'sergeant', 'arrest', 'kill', 'wife', 'police_officer', 'officer', 'kill', 'virginia', 'shoot', 'ronald', 'hamilton', 'u.s', 'army', 'soldier', 'kill', 'police_officer', 'ashley', 'guindon', 'day', 'police', 'force']",-1,[],0.019439694
1629,3.0,"['depiction', 'white', 'slavery', 'eslavery06.jpg', 'tto-pilny1.png', 'slaves/010.jpg', 'hite-women.jpg', 'eslavery01.jpg', 'slaves/025.jpg', 'es_slavery.jpg', 'ws01.jpg', 'w=610', 'lave-girl-.jpg', 'ex-slavery.png', 'very-white.jpg', 'slaves/029.jpg', 'slaves/003.jpg', 'pg', 'w=225', 'h=393', 'current', 'slavery']",-1,[],0.019439694
2398,3.0,"['farm', 'murder', 'black', 'majority', 'power', 'target', 'small', 'white', 'minority', 'africa', 'black', 'idiot', 'murder', 'white_farmers']",-1,[],0.019439694
2412,3.0,"['white', 'police_officer', 'cpr', 'african', 'thug', 'murder']",-1,[],0.019439694
3129,3.0,"['african', 'stab', 'white', 'police_officer', 'dead']",-1,[],0.019439694
1237,3.0,"['gun', 'grab', 'commie_scum', 'call', 'trick', 'white', 'christian', 'murder', 'murder', 'victim', 'white_children', 'jewish_communists', 'count', 'trick', 'jewish_communist', 'business', 'notice', 'gun', 'grab', 'jewish_communist', 'scum', 'size', 'range', 'target']",-1,[],0.019439694
3608,3.0,"['life', 'member', 'life', 'valuable', 'property', 'force', 'night', 'savage', 'begin', 'quiet', 'white', 'texas_town', 'criminal', 'surrender', 'stop', 'surrender', 'family_member', 'kill', 'state', 'law', 'shoot', 'wound', 'shoot', 'shot', 'shoot', 'criminal', 'pose', 'threat', 'carry', 'ammo', 'multiple', 'assailant', 'stand', 'shot', 'move', 'shoot', 'x', 'x', 'mark', 'spot', 'shot']",-1,[],0.019439694
522,3.0,"['african_female', 'tram', 'hate', 'white', 'people', 'stand', 'youtube']",-1,[],0.019439694
511,3.0,"['african', 'reform', 'school', 'murder', 'rap', 'white', 'teacher']",-1,[],0.019439694
5665,3.0,"['white', 'riot']",-1,[],0.019439694
3023,3.0,"['african', 'put', 'kill', 'white', 'police_officer', 'video', 'houston', 'cop', 'killer', 'word', 'clown', 'police']",-1,[],0.019439694
6529,3.0,"['white', 'riot']",-1,[],0.019439694
7585,3.0,"['white', 'minority', 'hateful_violent', 'black', 'brown', 'communist', 'south_africa']",-1,[],0.019439694
9879,3.0,"['roman', 'empire', 'white', 'slavery', 'race_mixing', 'corruption', 'loot', 'white_nations', 'mass_murder', 'white', 'population']",-1,[],0.019439694
11349,3.0,"['program', 'shooting_gallery', 'hour', 'episode', 'knob', 'creek', 'year', 'smile', 'white', 'face', 'brass', 'fly']",-1,[],0.019439694
2713,3.0,"['white', 'support', 'campaign', 'absolute', 'fool', 'loony_leftist']",-1,[],0.019439694
2779,3.0,"['white', 'american', 'nun', 'african', 'nun', 'waste', 'life', 'spending', 'year', 'help', 'african', 'help', 'poor', 'white_children', 'kill', 'african', 'savage', 'beast', 'u.s', 'nun', 'kill', 'kidnapping', 'africa', 'stream', 'ny', 'daily', 'news']",-1,[],0.019439694
9323,3.0,"['rumor', 'practice', 'end', 'discussion', 'christian', 'burn', 'white_children', 'discus', 'jew', 'lie', 'cruelty', 'paris', 'riot', 'christian', 'child', 'slaughter', 'passover', 'blood', 'white', 'christian', 'child', 'murder', 'london', 'rabis', 'mention']",-1,[],0.019439694
10304,3.0,"['white', 'police_officer', 'patrol', 'car', 'city', 'bus', 'radio', 'equipment', 'black', 'brown', 'officer', 'badge']",-1,[],0.019439694
10688,3.0,"['media_mafia', 'school_system', 'white', 'guilt', 'young', 'white_children', 'evil', 'privative', 'savage', 'zionists/communists/neocons', 'war']",-1,[],0.019439694
10525,3.0,"['black', 'columnist', 'thomas', 'sowell', 'american', 'race_war']",-1,['race_war'],0.019069351000000002
2410,3.0,"['black', 'devil', 'home', 'time']",-1,[],0.019069351000000002
2906,3.0,"['tell', 'police_officer', 'shoot', 'black', 'criminal', 'leftist', 'black', 'criminal']",-1,[],0.019069351000000002
1507,3.0,"['black', 'mass_murderer', 'cover', 'medium', 'african', 'employee', 'suspect', 'drug', 'theft', 'transfer', 'fire', 'steal', 'cash', 'fire', 'take', 'revenge', 'mass_murder', 'airliner', 'white_folks', 'kill', 'jew', 'mass_murder', 'black', 'white_folks', 'die', 'african', 'white_civilization', 'murder-suicide', 'airplane', 'kill']",-1,[],0.019069351000000002
2396,3.0,"['white_man', 'black', 'brown', 'racist', 'white_folks', 'protection']",-1,[],0.019069351000000002
10946,3.0,"['movie', 'prediction', 'movie', 'possession', 'uber', 'app', 'driver', 'shot', 'kill', 'intelligence', 'program', 'uber', 'app', 'watch', 'body', 'program', 'icon', 'change', 'normal', 'red', 'black', 'ai', 'control', 'driver', 'devil', 'head', 'app', 'driver', 'murder', 'time', 'recollection', 'action', 'driver', 'desire', 'person', 'ai', 'devil', 'body', 'watch', 'observer', 'time', 'icon', 'red', 'resume', 'job', 'uber', 'driver', 'time', 'black', 'ai', 'devil', 'control', 'body', 'report', 'suspect', 'kalamazoo', 'shooting', 'uber', 'app', 'chicago', 'tribune']",-1,[],0.019069351000000002
11208,3.0,"['cut', 'black', 'brown', 'jew', 'school', 'violence', 'crime', 'lie']",-1,[],0.019069351000000002
2367,3.0,"['communist', 'legislator', 'firearm', 'law', 'jewish_communist', 'fund', 'organization', 'black', 'mayor', 'gun', 'member', 'gun_laws', 'handcuff', 'black', 'mayor', 'gun', 'law']",-1,[],0.019069351000000002
2035,3.0,"['black', 'girl', 'texas', 'upset', 'black', 'cop', 'shot', 'dog', 'fence', 'yard', 'black', 'cop', 'fence', 'sidewalk', 'scar', 'dog', 'growl', 'beast', 'race', 'denier', 'put', 'black', 'beast', 'uniform']",-1,[],0.019069351000000002
2044,3.0,"['black', 'kill', 'black', 'killer', 'strike', 'remove', 'black', 'nation', 'origin', 'threat', 'african']",-1,[],0.019069351000000002
3087,3.0,"['african', 'white_woman', 'stab', 'boyfriend', 'st._patrick', 'attack', 'african', 'black']",-1,[],0.019069351000000002
1194,3.0,"['loony_leftists', 'black', 'brown', 'evil', 'racist', 'white_folks', 'great', 'benefit', 'black', 'brown', 'great', 'benefit', 'white_folks', 'evil', 'racist']",-1,[],0.019069351000000002
2414,3.0,"['brown', 'brown', 'kill', 'black_african', 'brown', 'group', 'black', 'group', 'kill', 'machete', 'attack', 'beheading', 'ak', 'assault', 'rifle', 'burning', 'beating', 'kill', 'dead', 'body', 'stop', 'hate', 'separate']",-1,[],0.019069351000000002
4050,3.0,"['mestizo', 'mixture', 'indian', 'asian_savage', 'black_central', 'african', 'slave', 'drop', 'european', 'blood', 'heritage', 'blood', 'line', 'mestizo', 'hate', 'indian', 'black', 'european', 'take', 'mestizo', 'style', 'hate', 'step']",-1,[],0.019069351000000002
4454,3.0,"['black_thug', 'shot_dead', 'black', 'rapper', 'natural', 'rioting', 'shot_dead', 'rioting', 'african']",-1,[],0.019069351000000002
521,3.0,"['african', 'jump', 'boy', 'black', 'beat', 'white_boy', 'attack', 'true', 'face', 'racism', 'youtube']",-1,[],0.019069351000000002
3515,3.0,"['black', 'street', 'thug', 'dead', 'violent_crime', 'black', 'community', 'scar', 'thug', 'boy', 'african', 'community', 'good', 'african', 'dead', 'african']",-1,[],0.019069351000000002
2557,3.0,"['high_school', 'race', 'riot', 'black', 'brown']",-1,[],0.019069351000000002
2946,3.0,"['african', 'gun', 'grabber', 'gun', 'crime', 'african', 'white_man', 'law']",-1,[],0.013397497
2817,3.0,"['african', 'torture', 'brother', 'v=a79p7tv_aau']",-1,[],0.013397497
2830,3.0,"['white_man', 'stop', 'african', 'criminal', 'african', 'crowd']",-1,[],0.013397497
3022,3.0,"['savage', 'african', 'beat', 'white_girl', 'video', 'ard-to-watch/f']",-1,[],0.013397497
3015,3.0,"['african', 'beast', 'murder', 'white_man', 'hammer']",-1,[],0.013397497
2834,3.0,"['chicago', 'free', 'zone', 'african', 'shooting', 'gun', 'african', 'neighborhood', 'african', 'crime', 'victim', 'african', 'criminal', 'whitey']",-1,[],0.013397497
2933,3.0,"['african', 'murder', 'white_family']",-1,[],0.013397497
2866,3.0,"['african', 'display', 'criminal', 'behavior', 'african', 'display', 'criminal', 'behavior', 'african', 'display', 'criminal', 'behavior', 'african', 'caribbean', 'display', 'criminal', 'behavior', 'give', 'thought', 'trend']",-1,[],0.013397497
3028,3.0,"['african', 'white_girl', 'fun']",-1,[],0.013397497
2890,3.0,"['african', 'football', 'star', 'kill', 'dead']",-1,[],0.013397497
2926,3.0,"['african', 'sentence', 'store', 'robbery', 'murder']",-1,[],0.013397497
2812,3.0,"['african', 'rape', 'shoot', 'set', 'female']",-1,[],0.013397497
56,3.0,"['rip', 'hair', 'african', 'teach', 'lesson', 'beat', 'stab', 'shoot', 'drinking', 'draino', 'set', 'rape']",-1,[],0.013397497
3033,3.0,"['police', 'captain', 'kevin', 'quick', 'african', 'murder', 'police_officer', 'life', 'jewish_communists', 'white_folks', 'police', 'protection']",-1,[],0.013397497
3039,3.0,"['african', 'pull', 'speed', 'kill', 'police_officer']",-1,[],0.013397497
9638,3.0,"['swede', 'african', 'whey', 'move', 'africa', 'move', 'africa', 'sweden']",-1,[],0.013397497
9219,3.0,"['black_central', 'african', 'murder', 'albino', 'cut', 'body', 'part', 'charm']",-1,[],0.013397497
6368,3.0,"['african', 'detroit', 'school', 'board', 'chief', 'turn', 'japanese', 'normal', 'african_behavior', 'feel', 'prison', 'system']",-1,[],0.013397497
4679,3.0,"['african', 'jail', 'attempt', 'rape', 'ireland', 'african', 'hang', 'african', 'ireland', 'hang']",-1,[],0.013397497
4649,3.0,"['african', 'murder', 'girl', 'dad', 'court']",-1,[],0.013397497
4628,3.0,"['african', 'aid', 'rainbow', 'house', 'gun', 'crime']",-1,[],0.013397497
4571,3.0,"['african', 'want', 'murder']",-1,[],0.013397497
4543,3.0,"['african', 'boy', 'murder', 'mulatto', 'infant', 'shot', 'head', 'point_blank', 'range']",-1,[],0.013397497
3926,3.0,"['african', 'loot', 'riot', 'gun_sales', 'increase', 'obama', 'african', 'gun', 'salesman']",-1,[],0.013397497
3126,3.0,"['white_woman', 'african']",-1,[],0.013397497
3121,3.0,"['african', 'murder', 'white_family']",-1,[],0.013397497
3114,3.0,"['white_man', 'african']",-1,[],0.013397497
3106,3.0,"['african', 'serial_killer', 'murder', 'white_woman', 'hannah', 'graham', 'virginia', 'tech', 'student', 'morgan', 'harrington', 'disability', 'university', 'free', 'probation', 'rap', 'murder', 'white_woman', 'indian', 'female', 'rap', 'sentence', 'life', 'sentence', 'death', 'court', 'proceeding', 'mother', 'court', 'judge', 'beast', 'sentence', 'life', 'rot', 'hell', 'african', 'present', 'remorse', 'victim', 'african', 'beast', 'jesse', 'matthew', 'life', 'sentence', 'rape', 'attempt', 'murder', 'wtvr.com']",-1,[],0.013397497
3102,3.0,"['white_man', 'african', 'white_man', 'sacrifice', 'life', 'savage_african', 'home', 'invader', 'white_man', 'shoot', 'african', 'arrest', 'hospital', 'african', 'pull', 'home_invasion', 'woman', 'home_invasion', 'murder']",-1,[],0.013397497
2750,3.0,"['african', 'attack', 'mother', 'child', 'cellphone']",-1,[],0.013397497
3090,3.0,"['african', 'attempt', 'murder', 'white_man']",-1,[],0.013397497
3082,3.0,"['african', 'stab', 'white_woman', 'show']",-1,[],0.013397497
3073,3.0,"['white_folks', 'african']",-1,[],0.013397497
3071,3.0,"['white_man', 'african', 'henry', 'rollins', 'joe', 'cole', 'front', 'yard', 'approach', 'african', 'thug', 'joe', 'cole', 'shot_dead', 'henry', 'rollins', 'miss', 'race_traitor', 'henry', 'rollins', 'joe', 'cole', 'henry', 'black_lives', 'matter', 'blame', 'gun', 'african_thug', 'joe', 'cole', 'police', 'sketch', 'african', 'murder', 'joe', 'cole', 'joseph', 'cole', 'mystery', 'wiki', 'wikia']",-1,[],0.013397497
3057,3.0,"['pack', 'wild', 'african', 'beat', 'white_man', 'preteen', 'boy', 'punch', 'group', 'attack', 'kill', 'syracuse', 'man', 'syracuse.com']",-1,[],0.013397497
3044,3.0,"['african', 'thief', 'murder', 'white_man']",-1,[],0.013397497
2757,3.0,"['african', 'murder', 'daughter', 'revenge', 'girl', 'mother']",-1,[],0.013397497
2759,3.0,"['african', 'police_officer', 'kidnapping', 'female', 'stop', 'real', 'houston', 'police', 'real', 'mischief']",-1,[],0.013397497
2749,3.0,"['african', 'ruin', 'neighborhood']",-1,[],0.013397497
332,3.0,"['race_mixer', 'mom', 'african', 'boyfriend', 'orphan', 'child', 'roommate', 'child', 'orphan', 'african', 'kill', 'roommate', 'young', 'mother', 'murder', 'mother', 'safe', 'race_mixer', 'family', 'raise', 'money', 'toddler', 'mother', 'murder', 'victim', 'kltv.com-tyler', 'longview', 'jacksonville', 'texas', 'etx', 'news', 'nclick_check=1']",-1,[],0.013397497
526,3.0,"['african', 'fake', 'kkk', 'hate_crimes']",-1,[],0.013397497
524,3.0,"['african', 'christmas_day', 'white_woman', 'rap', 'day', 'woman', 'rap', 'ordeal', 'car', 'arrest', 'philly.com']",-1,[],0.013397497
1207,3.0,"['african', 'iq', 'racist', 'african', 'add']",-1,[],0.013397497
387,3.0,"['race_mixing', 'whore', 'african', 'arrest', 'charge']",-1,[],0.013397497
385,3.0,"['race_mixer', 'help', 'murder', 'mom', 'african', 'pedophile', 'girl', 'mother', 'teen', 'slut', 'help']",-1,[],0.013397497
362,3.0,"['leftist', 'hide', 'african', 'arrest', 'deportation', 'rap', 'murder']",-1,[],0.013397497
360,3.0,"['race_mixer', 'supply', 'gun', 'african', 'felon', 'felony', 'accessory', 'draw', 'death_penalty', 'dead', 'wound', 'african', 'reform', 'police_officer', 'crime_spree', 'final', 'conclusion']",-1,[],0.013397497
358,3.0,"['race_mixers', 'sleeper', 'african', 'serial_killer', 'image', 'woman', 'possession', 'apos', 'sleeper', 'apos', 'suspect', 'la', 'time']",-1,[],0.013397497
335,3.0,"['african', 'kill', 'race_mixer', 'ex-wife']",-1,[],0.013397497
527,3.0,"['racist', 'creature', 'turkish', 'jew', 'semitic', 'jew', 'african', 'jew']",-1,[],0.013397497
1889,3.0,"['point', 'violet', 'crime', 'report', 'muslim', 'mass', 'slaughter', 'amount', 'african', 'violence', 'savage', 'normal', 'murder', 'mayhem', 'comparison']",-1,[],0.013397497
554,3.0,"['african', 'murder', 'white_woman']",-1,[],0.013397497
323,3.0,"['african', 'boyfriend', 'race_mixing', 'whore', 'murder', 'daughter', 'kidnapping', 'murder', 'charge', 'gangbanger', 'murder', 'kansa']",-1,[],0.013397497
2537,3.0,"['mestizo', 'criminal', 'african', 'call', 'name', 'shot', 'dead', 'police', 'call', 'hate_crime', 'marc', 'carson', 'dy', 'gay-hate', 'shoot', 'greenwich', 'village', 'news.com.au']",-1,[],0.013397497
330,3.0,"['race_mixer', 'african', 'boyfriend']",-1,[],0.013397497
2538,3.0,"['mestizo', 'help', 'murder', 'african_female', 'mestizo', 'sentence', 'year', 'part', 'hate_crime', 'murder', 'african']",-1,[],0.013397497
262,3.0,"['ben_franklin', 'church', 'sunday', 'band', 'wild', 'indian', 'attack', 'church', 'folk', 'franklin', 'preacher', 'men', 'congregation', 'show', 'wrong', 'fire', 'round', 'attack', 'indian', 'life', 'dead', 'european', 'america', 'death', 'indian', 'attack', 'today', 'situation', 'wild', 'savage', 'african', 'mestizo', 'blood_thirsty', 'indian', 'indian', 'reservation', 'threat', 'push', 'fight']",-1,[],0.013397497
2748,3.0,"['african', 'murder', 'young', 'mestizo', 'girl', 'hit', 'run', 'hit', 'run']",-1,[],0.013397497
331,3.0,"['race_mixer', 'african', 'boyfriend']",-1,[],0.013397497
311,3.0,"['white_woman', 'murder', 'twin', 'twin', 'child', 'joseph', 'tillman', 'cop', 'catch', 'interest', 'apartment', 'bloodbath', 'tulsa', 'police', 'id', 'woman', 'kill', 'monday', 'newson6.com', 'tulsa', 'news', 'weather', 'video', 'sport', 'kotv.com', 'african', 'murder', 'african', 'apartment', 'witness', 'murder', 'contact', 'police', 'witness', 'set', 'murder', 'tulsa', 'police', 'arrest', 'suspect', 'quadruple', 'shoot', 'fox23', 'news', 'joseph', 'tillman', 'cop', 'catch', 'interest', 'apartment', 'bloodbath']",-1,[],0.013397497
2047,3.0,"['care', 'white_folks', 'rap', 'torture', 'cut', 'piece', 'news_worthy', 'hand', 'criminal', 'prison', 'camp', 'criminal', 'prison', 'event', 'media_mafia', 'white_folks', 'white_folks', 'civil_right', 'white_folks', 'importance', 'hand', 'neighbor', 'call', 'slur', 'folk', 'scream', 'evil', 'black_african', 'hack', 'piece', 'answer', 'call']",-1,[],0.010382246999999999
1206,3.0,"['true', 'poor', 'racist', 'drag', 'white_folks', 'superior', 'white_folks', 'sat', 'score']",-1,[],0.010382246999999999
2262,3.0,"['news', 'surprise', 'surprise', 'attack', 'white_folks', 'anti-white_racists', 'attack', 'innocent_white', 'folk', 'innocent_white', 'blame', 'hateful_violent', 'nature', 'hateful_violent', 'muslim', 'show', 'attack', 'anti-white', 'muslim', 'racist', 'mentalism.html']",-1,[],0.010382246999999999
2336,3.0,"['society', 'society', 'drag', 'dead', 'weight', 'primitive_savages', 'white_civilization', 'white_folks', 'separate', 'savage']",-1,[],0.010382246999999999
3012,3.0,"['innocent_white', 'folk', 'muslim', 'religious', 'leader', 'muslim', 'rapist', 'bail', 'murder', 'family', 'australian', 'soldier', 'afghanistan', 'walk', 'chocolate', 'shop', 'firearm', 'individual', 'hostage', 'release', 'asian', 'kill', 'white_folks', 'hero', 'muslim', 'madman', 'hostage', 'muslim', 'holy', 'man', 'muslim', 'peace', 'sydney', 'cafe', 'manager', 'shot_dead', 'terrorist', 'gun', 'hostage', 'mail_online']",-1,[],0.010382246999999999
7449,3.0,"['gun', 'gripe', 'episode', 'child', 'gun']",-1,[],0.009967812
1261,3.0,"['child', 'book', 'teach', 'child', 'secret', 'parent']",-1,[],0.009967812
1319,3.0,"['question', 'needle', 'slaughter', 'white_woman', 'child', 'point', 'murder', 'family_members']",-1,[],0.009967812
3498,3.0,"['jewish_communists', 'jew', 'murder', 'russian', 'child', 'jew', 'hate', 'russian', 'jew', 'hate', 'arab', 'jew', 'murder', 'arab', 'jew', 'hate', 'reciprocal']",-1,[],0.009967812
516,3.0,"['woman', 'death', 'row', 'saudi_arabia', 'score', 'maid', 'face', 'death_penalty', 'saudi_arabia', 'crime', 'child', 'murder', 'kill', 'employer']",-1,[],0.009967812
9645,3.0,"['media_mafia', 'american', 'nazi', 'evil', 'history_channel', 'hitler', 'channel', 'program', 'mention', 'hitler', 'advertisement', 'program', 'constant', 'message', 'evil', 'individual', 'attack', 'hitler', 'evil', 'jew', 'drinking', 'blood', 'child', 'blame', 'nazi', 'innocent', 'nazi', 'blood_thirsty', 'jew', 'mention', 'medium', 'accusation', 'nazi', 'jewish_controlled', 'television', 'radio', 'movie', 'magazine', 'newspaper', 'american', 'nazi', 'evil', 'night']",-1,[],0.009967812
2514,3.0,"['child', 'countryside', 'bombing', 'child', 'city', 'war', 'ally', 'child', 'murder', 'reminder', 'exposure', 'ally', 'hang', 'innocent', 'german', 'war_crime', 'ally', 'committed_mass', 'innocent', 'child']",-1,[],0.009967812
354,3.0,"['leftist', 'sjw', 'alison', 'rapp', 'advocate', 'child_rape', 'nintendo', 'guilt', 'remorse', 'alison', 'rapp', 'damage', 'influence', 'innocent', 'child', 'nintendo', 'fire', 'feminist', 'alison', 'rapp', 'paedophile', 'porn', 'censorship', 'storm', 'mirror']",-1,[],0.009967812
344,3.0,"['race_traitor', 'whore', 'stand', 'mulatto', 'child']",-1,[],0.009967812
3395,3.0,"['air_force', 'campaign', 'murder', 'german', 'child', 'ww_ii']",-1,['ww_ii'],0.009967812
2407,3.0,"['loony_leftists', 'murder', 'innocent', 'child', 'criminal']",-1,[],0.009967812
1964,3.0,"['jewish_communist', 'anti-white', 'radical', 'man', 'hat', 'feminist', 'result', 'female', 'man', 'child', 'feminist', 'mom', 'married', 'feminist', 'dad', 'damage', 'child', 'divorce', 'single', 'parent', 'mom', 'damage', 'child', 'multiple', 'abortion', 'child', 'lesbian', 'child', 'lesbian', 'damage', 'child', 'witness', 'white_genocide', 'jew', 'murder', 'entire', 'white_families', 'jewish_controlled', 'soviet_union']",-1,[],0.009967812
1966,3.0,"['white_nationalist', 'men', 'bad', 'time', 'find', 'woman', 'divorce', 'woman', 'total', 'race_traitors', 'child', 'steal', 'race_traitor', 'woman', 'poison', 'white_nationalist', 'husband', 'race_traitor', 'wife', 'husband', 'murder', 'white_nationalist', 'men', 'associate', 'race_traitor', 'wife', 'divorce', 'child', 'constant', 'threat', 'mother', 'white_children', 'anti-white', 'situation', 'bad', 'today']",-1,[],0.009967812
2009,3.0,"['father', 'homeless', 'single', 'parent', 'mother', 'father', 'right', 'child', 'right', 'feminist', 'right']",-1,[],0.009967812
66,3.0,"['homosexual', 'kidnapper', 'rapist', 'murderer', 'count', 'child', 'porn']",-1,[],0.009967812
2359,3.0,"['people', 'hate', 'marxist', 'life']",-1,[],0.008675064
2566,3.0,"['concealed_carry', 'isi', 'attack', 'gun_free', 'zone', 'kill', 'people']",-1,[],0.008675064
9760,3.0,"['concern', 'help', 'savage', 'nation', 'harm', 'innocent', 'people', 'marxist', 'lean', 'marxist', 'mistake']",-1,[],0.008675064
2203,3.0,"['life', 'communist', 'race_traitor', 'people', 'punishment', 'law']",-1,[],0.008675064
8150,3.0,"['ww', 'zionist/anarchist', 'government', 'document', 'act', 'secret', 'ww_ii', 'zionist/communist', 'name', 'change', 'remains', 'government', 'document', 'act', 'secret', 'zionist/communist/neocon', 'government', 'document', 'act', 'secret', 'people']",-1,['ww_ii'],0.008675064
7342,3.0,"['brother', 'nathanael', 'jew', 'mock', 'jesus', 'jew', 'mock', 'jesus_christ', 'youtube']",-1,[],0.008629364
9901,3.0,"['war', 'east', 'war', 'conquest', 'isralie_empire', 'jew', 'hold', 'jewish_media', 'mafia', 'christian', 'preacher', 'american', 'american', 'support', 'war', 'conquest', 'isralie_empire']",-1,"['war', 'war_of_conquest', 'war_of_conquest']",0.008629364
9716,3.0,"['attack', 'shyster', 'jew', 'rabbi', 'rabbi', 'fake', 'hate_crimes', 'turn', 'fake', 'police', 'complaint', 'prison']",-1,[],0.008629364
12729,3.0,"['ireland', 'danger', 'debt', 'slavery', 'jew', 'slave', 'ship', 'slave', 'market', 'auction', 'slave', 'jewish_bankers', 'cut', 'step', 'sell', 'slavery']",-1,[],0.008629364
1654,3.0,"['microsoft', 'ai', 'chatbot', 'kill', 'day', 'life', 'jew', 'demand', 'death', 'ai', 'parrot', 'marxist', 'propaganda']",-1,[],0.008629364
2257,3.0,"['european', 'word', 'coin', 'jewish_communist', 'slur', 'men', 'slur', 'men', 'racist', 'jew', 'niggros', 'asian', 'term', 'leader', 'group', 'call', 'call', 'anti-white', 'man', 'solid', 'march', 'opposition', 'racist', 'jew', 'niggros', 'asian', 'shadow', 'doubt']",-1,[],0.008629364
1702,3.0,"['jew', 'demand', 'tree', 'kill']",-1,[],0.008629364
1661,3.0,"['jew', 'soros', 'brag', 'fund', 'chaos', 'violence', 'trump', 'rally']",-1,[],0.008629364
3004,3.0,"['thought', 'put', 'song', 'heart', 'chorus', 'die', 'jew', 'die', 'die', 'jew', 'die', 'die', 'jew', 'die', 'die', 'jew', 'die']",-1,[],0.008629364
1597,3.0,"['jew', 'demand', 'open', 'border', 'jew', 'illegal_aliens']",-1,[],0.008629364
1588,3.0,"['jew', 'israel', 'draft', 'young', 'men', 'israel', 'ten', 'thousand', 'jew', 'protest', 'state', 'israel', 'nyc', 'youtube']",-1,[],0.008629364
1584,3.0,"['jew', 'civilized_white', 'folk', 'primitive', 'african_cousins', 'black_african', 'jew']",-1,[],0.008629364
1582,3.0,"['jew', 'white_man', 'profile', 'criminal', 'terrorist', 'jew', 'profile', 'criminal', 'terrorist']",-1,[],0.008629364
1580,3.0,"['emperor', 'napoleon', 'bonaparte', 'group', 'change', 'napoleon', 'reform', 'jew', 'evil', 'way', 'tradition', 'avail', 'jew', 'nation']",-1,[],0.008629364
1531,3.0,"['israeli', 'pm', 'bribe', 'guess', 'israel', 'problem', 'jew', 'government']",-1,[],0.008629364
2408,3.0,"['nyc', 'swamp', 'invader', 'jew', 'demand', 'left', 'jew', 'die', 'street', 'medical', 'treatment']",-1,[],0.008629364
3691,3.0,"['jew', 'turk', 'sell', 'white_woman', 'slavery', 'east', 'royalty', 'buy']",-1,[],0.008629364
1848,3.0,"['evidence', 'occurrence', 'real', 'jew', 'block', 'investigation']",-1,[],0.008629364
10446,3.0,"['china', 'problem', 'american', 'economy', 'washington_dc', 'china', 'chinese', 'debt', 'greek', 'debt', 'communist_chinese', 'leftist', 'leftist', 'china', 'wealth', 'stupid', 'project', 'government', 'waste', 'resource', 'water', 'cause', 'disaster', 'china']",-1,[],0.008501851999999999
1208,3.0,"['leftist', 'street', 'fight', 'fast', 'catch']",-1,[],0.008501851999999999
208,3.0,"['leftist', 'attack', 'hate_crime', 'add', 'prison', 'sentence']",-1,[],0.008501851999999999
10575,3.0,"['muslim', 'murder', 'drive', 'french', 'citizen', 'mass', 'immigration', 'blood_thirsty', 'savage', 'citizen', 'wrong']",-1,[],0.007985121
2616,3.0,"['normal', 'behavior', 'world', 'court', 'order', 'gang', 'rape', 'woman', 'world', 'problem', 'jewish_communists', 'flood', 'nation', 'primitive_savages', 'contrast', 'communist', 'savage', 'utopia']",-1,[],0.007985121
4533,3.0,"['oriental', 'asian', 'female', 'savage', 'mestizo', 'asian', 'female', 'love', 'loony_leftist', 'step', 'mestizo', 'camera', 'set', 'mestizo', 'latino', 'mob', 'beat', 'woman', 'la', 'hate_crime']",-1,[],0.007985121
1982,3.0,"['gun_show', 'ape', 'ar', 'grin', 'race_traitor', 'sell', 'gun', 'savage', 'ape', 'give']",-1,[],0.007985121
3109,3.0,"['savage', 'machete', 'attack', 'texas']",-1,[],0.007985121
3260,3.0,"['savage', 'black_african', 'attack', 'innocent_white', 'folk']",-1,[],0.007985121
3677,3.0,"['white_man', 'savage', 'expose', 'white_man', 'technology']",-1,[],0.007985121
3365,3.0,"['smoking', 'bad', 'health', 'savage']",-1,[],0.007985121
532,3.0,"['white_man', 'attempt', 'murder', 'robbery']",-1,[],0.007647325799999999
2386,3.0,"['feminist', 'mass', 'rape', 'gang', 'rape', 'age', 'girl', 'feminist', 'woman', 'feminist', 'hate', 'white_man']",-1,[],0.007647325799999999
5920,3.0,"['white_man', 'government', 'benefit', 'incompetent']",-1,[],0.007647325799999999
3124,3.0,['white_man'],-1,[],0.007647325799999999
2697,3.0,"['liberal', 'white_man', 'dark', 'sea', 'diversity', 'machete', 'murder', 'extinction', 'resistance', 'banking_families', 'government', 'rule', 'world', 'earth', 'white_man', 'hope', 'stop', 'plan']",-1,[],0.007647325799999999
2790,3.0,"['primitive_savages', 'white_man', 'liveleak.com', 'video', 'anc', 'supporter', 'beat', 'woman', 'south', 'africa', 'election']",-1,[],0.007647325799999999
