,Unnamed: 0,Term,Fq-0,Fq-1,Fq-2,Fq-3,Fq-4,Tfidf-0,Tfidf-1,Tfidf-2,Tfidf-3,Tfidf-4,Prob-0,Prob-1,Prob-2,Prob-3,Prob-4
647,white,white,2,1,9,5,0,0.0645865110319611,0.04418577083663745,0.30564217376835234,0.20629493519199904,0.0,0.016001997515559196,0.004981924314051866,0.014742630533874038,0.015415322035551071,0.00044590889592655
25,america,america,2,1,4,0,1,0.0645865110319611,0.04418577083663745,0.13584096611926771,0.0,0.05318668314769561,0.005196316633373499,0.0021789660677313805,0.013544251210987568,0.00017650432710070163,0.00600284431129694
613,trump,trump,0,0,5,1,0,0.0,0.0,0.2431643357381704,0.05908505784691547,0.0,0.0008939934778027236,0.00022560481738764795,0.011269898153841496,0.004059748724102974,0.0003272949834354222
575,supply,supply,0,0,2,1,0,0.0,0.0,0.09726573429526816,0.05908505784691547,0.0,0.00043035781709477305,0.0002245973591925576,0.009226705878973007,0.002502725226804614,2.5034687496372502e-05
315,jones,jones,1,0,2,0,0,0.04624565475761944,0.0,0.09726573429526816,0.0,0.0,0.0013608307344838975,4.222897769068368e-05,0.009108777157962322,1.3753047824138775e-05,1.813889866753016e-05
624,usa,usa,0,0,1,0,0,0.0,0.0,0.060279185295300464,0.0,0.0,1.0353423931519501e-05,1.4357728105096612e-05,0.00910349655896425,1.2516752576630095e-05,1.81980176421348e-05
365,message,message,0,0,1,0,0,0.0,0.0,0.060279185295300464,0.0,0.0,1.0037706488219555e-05,0.0006660650833509862,0.008038125932216644,1.2141375009377953e-05,1.7895015844260342e-05
257,great,great,2,0,2,0,3,0.07677614197952387,0.0,0.08073934583838685,0.0,0.1896743579203416,0.00362023338675499,0.0002990791399497539,0.008033470250666142,0.0002404899278189987,0.008822094649076462
33,arm,arm,1,1,1,0,0,0.038388070989761935,0.05252510100057305,0.04036967291919343,0.0,0.0,0.0021780540701001887,0.00465723779052496,0.007953515276312828,1.2537683687696699e-05,0.00010443104110891
282,hitler,hitler,2,0,2,1,0,0.07677614197952387,0.0,0.08073934583838685,0.04904593538461857,0.0,0.004430744796991347,0.0026252546813338995,0.007894052192568779,0.0056546274572610855,4.442282443051226e-05
