,Unnamed: 0,Term,Fq-0,Fq-1,Fq-2,Fq-3,Fq-4,Tfidf-0,Tfidf-1,Tfidf-2,Tfidf-3,Tfidf-4,Prob-0,Prob-1,Prob-2,Prob-3,Prob-4
647,white,white,2,1,9,5,0,0.0645865110319611,0.04418577083663745,0.30564217376835234,0.20629493519199904,0.0,0.016001997515559196,0.004981924314051866,0.014742630533874038,0.015415322035551071,0.00044590889592655
493,rifle,rifle,1,0,1,3,0,0.038388070989761935,0.0,0.04036967291919343,0.14713780615385572,0.0,0.0017705165082588794,1.5180149603111205e-05,0.0036557307466864586,0.011073677800595759,8.626804628875108e-05
166,document,document,0,0,0,2,0,0.0,0.0,0.0,0.1464688125142147,0.0,1.0092755474033764e-05,1.3936785762780344e-05,1.2678313396463635e-05,0.007598991505801678,0.0009936667047441006
564,stop,stop,0,0,1,2,0,0.0,0.0,0.04863286714763408,0.11817011569383094,0.0,7.322556484723465e-05,0.0001709001953713596,0.0003844862221740186,0.0072754560969769955,2.417944233457092e-05
264,hack,hack,0,0,0,1,0,0.0,0.0,0.0,0.07323440625710735,0.0,9.973345186153892e-06,1.3924443919677289e-05,1.2611578313226344e-05,0.007125865668058395,0.0016058721812441945
207,federal,federal,0,2,1,1,2,0.0,0.08837154167327489,0.03396024152981693,0.041258987038399815,0.10637336629539122,0.0010520464275032284,0.009581838734447956,0.001455251476727426,0.007078136317431927,0.0035429839044809346
267,handgun,handgun,2,0,1,1,0,0.07677614197952387,0.0,0.04036967291919343,0.04904593538461857,0.0,0.007124000228941441,0.00013628600572701544,0.002410535467788577,0.0069601344875991344,0.0008574568782933056
312,jew,jew,0,0,3,2,0,0.0,0.0,0.14589860144290226,0.11817011569383094,0.0,0.0005894465721212327,0.00012120533938286826,0.005165101494640112,0.0063224337063729754,2.1841286070412025e-05
259,grizzly,grizzly,0,0,0,1,0,0.0,0.0,0.0,0.07323440625710735,0.0,2.791827864712104e-05,2.0468503862502985e-05,1.2497715943027288e-05,0.006248489022254944,1.771864299371373e-05
53,bear,bear,0,1,0,1,0,0.0,0.06327636748482153,0.0,0.05908505784691547,0.0,2.7420986953075047e-05,0.002073759911581874,1.264071852347115e-05,0.006247785873711109,1.7834159734775312e-05
