,topic_lda,bag_words,sa_score,events
56,2.0,"['rip', 'hair', 'african', 'teach', 'lesson', 'beat', 'stab', 'shoot', 'drinking', 'draino', 'set', 'rape']",-1,[]
65,2.0,"['homosexual', 'liveleak.com', 'comprehensive', 'serial', 'killer', 'homosexual']",-1,[]
66,2.0,"['homosexual', 'kidnapper', 'rapist', 'murderer', 'count', 'child', 'porn']",-1,[]
147,2.0,"['state', 'washington_government', 'stop', 'hate', 'separate']",-1,[]
182,2.0,"['time', 'step', 'seek', 'death_penalty', 'case', 'black_thugs', 'murder', 'innocent_white', 'folk']",-1,[]
220,2.0,"['coverup', 'vince', 'foster', 'murder']",-1,[]
240,2.0,"['russia', 'putin', 'hillary', 'steal', 'election', 'put', 'office', 'putin', 'put', 'position', 'order', 'strike', 'russia', 'exercise', 'election_fraud', 'stop']",-1,[]
314,2.0,"['race_mixing', 'whore', 'set', 'sugar', 'daddy', 'beating', 'robbery', 'car', 'kidnapping', 'murder', 'prison']",-1,[]
320,2.0,"['professional', 'whore', 'take', 'beating', 'pet', 'mulatto']",-1,[]
342,2.0,"['white_male', 'race_mixer', 'point']",-1,[]
357,2.0,"['american', 'race_mixing', 'child', 'molester', 'murder', 'austria', 'black', 'boyfriend', 'cheat', 'arab', 'boy', 'kill', 'country', 'arrest', 'switzerland']",-1,[]
368,2.0,"['race_mixer', 'help', 'african', 'white_man', 'white_man', 'attack', 'tie', 'burn', 'african', 'whore', 'stupidity', 'nuttall', 'murder', 'christopher', 'rossing', 'bringmethenews.com']",-1,[]
371,2.0,"['race_mixer', 'drove', 'car', 'drive', 'shoot', 'murder', 'jail']",-1,[]
374,2.0,"['race_mixer', 'help', 'muslim', 'boyfriend', 'murder', 'mother', 'time', 'value', 'child', 'danish', 'teen', 'lisa', 'borch', 'murder', 'mother', 'watch', 'isi', 'beheading', 'video', 'mail_online']",-1,[]
394,2.0,"['gun_control', 'work', 'government', 'pas', 'law', 'murder']",-1,[]
421,2.0,"['stampede', 'goyum', 'cattle', 'panic', 'gold', 'buy']",-1,[]
523,2.0,"['jew', 'lead', 'gun_control', 'charge', 'jew', 'favor', 'israeli', 'jew']",-1,[]
554,2.0,"['african', 'murder', 'white_woman']",-1,[]
574,2.0,"['religious', 'term', 'leftist_atheists', 'born', 'communist', 'pc', 'religion']",-1,[]
575,2.0,"['anti-white', 'agenda', 'anti-whites', 'control', 'population', 'damage', 'world', 'target', 'civilized_white', 'nation', 'destruction']",-1,[]
605,2.0,"['hate', 'law', 'rowan', 'atkinson', 'blackadder']",-1,[]
616,2.0,"['washington_dc', 'fear', 'power', 'station', 'fear']",-1,[]
622,2.0,"['level', 'helmet', 'ach', 'mich', 'cut', 'bulletproofme.com', 'body_armor', 'gunfighter', 'combat', 'helmet', 'ach', 'mich', 'cut']",-1,[]
665,2.0,"['nelson', 'mandela', 'communist_mass', 'murderer', 'marxist', 'utopia', 'communism']",-1,[]
698,2.0,"['african', 'attack', 'kill', 'month', 'son', 'african', 'attack', 'month', 'son', 'glove', 'boy', 'death', 'attack', 'african', 'kill', 'dog', 'weapon', 'houston', 'police_officer', 'arrest', 'african', 'african', 'victim', 'hpd', 'toddler', 'man', 'arrest', 'sw', 'houston', 'home', 'home']",-1,[]
708,2.0,"['houston', 'paramedic', 'fire', 'fighter', 'daniel', 'groover', 'house', 'fire', 'burning', 'house', 'search', 'trap', 'person', 'white_man', 'white', 'houston', 'fire', 'department', 'rookie', 'risk', 'left', 'widow', 'child', 'city', 'houston', 'hire', 'white_man', 'white_man', 'dy', 'city', 'houston', 'fire', 'department', 'firefighter', 'dy', 'injury', 'kingwood', 'house', 'fire', 'abc13.com']",-1,[]
710,2.0,"['texan', 'rapist', 'act', 'rap', 'girl', 'mexican', 'child', 'rape', 'boy', 'girl', 'rape', 'mexican', 'fun']",-1,[]
800,2.0,"['fly', 'zone', 'mexico', 'drive', 'zone', 'area', 'mestizo', 'drug_gangs', 'drive', 'zone', 'die', 'law_abiding', 'law', 'drug_gangs', 'mestizo', 'respect', 'violence', 'threat', 'violence']",-1,[]
807,2.0,"['cattle', 'accident', 'nuclear_power', 'insanity']",-1,[]
816,2.0,"['official', 'msds', 'state', 'fluoride', 'harm', 'child']",-1,[]
823,2.0,"['texas', 'gun_shows', 'texas', 'gun_shows', 'website', 'directory', 'gun_shows']",-1,[]
826,2.0,"['north_texas', 'gun', 'club', 'gun_show', 'irving', 'convention', 'center', 'irving', 'texas']",-1,[]
933,2.0,"['name', 'high_school', 'pedophile', 'wrong', 'boy', 'high_school', 'age']",-1,[]
1015,2.0,"['body', 'haitian', 'looter', 'step', 'haitian', 'looter', 'shot_dead', 'moment', 'haitian', 'police', 'haitian', 'looter', 'scatter', 'haitian', 'police', 'left', 'area', 'haitian', 'looter', 'loot', 'dead', 'looter', 'foot']",-1,[]
1029,2.0,"['berlin', 'wall', 'dead', 'murder', 'escape', 'communism', 'communist', 'nation', 'nation', 'fence', 'citizen/slaves', 'escape']",-1,[]
1050,2.0,"['communist', 'idiot', 'race_traitors', 'counter', 'attack']",-1,[]
1063,2.0,"['suspect', 'marilyn', 'monroe', 'creature', 'ted', 'kennedy', 'kennedy', 'brother', 'suspect', 'murder', 'lover']",-1,[]
1065,2.0,"['hanoi', 'jane', 'north', 'vietnamese', 'communist', 'time', 'jane', 'fonda', 'idiot', 'international_jewish', 'communism', 'hearing', 'real']",-1,[]
1087,2.0,"['putin', 'russia', 'attack', 'nato', 'person', 'dream']",-1,[]
1093,2.0,"['german', 'government', 'war']",-1,['war']
1104,2.0,"['communist_chinese', 'focus', 'training', 'war']",-1,[]
1105,2.0,"['general', 'start', 'kill', 'russian']",-1,[]
1192,2.0,"['judge', 'arab']",-1,[]
1220,2.0,"['shame', 'flight', 'crew', 'bail', 'leave', 'air_force']",-1,[]
1266,2.0,"['trump', 'pedophile', 'network', 'arrest', 'place']",-1,[]
1396,2.0,"['disaster', 'chernobyl', 'disaster', 'part', 'youtube']",-1,[]
1404,2.0,"['nuclear_power', 'insanity', 'stop', 'insanity']",-1,[]
1433,2.0,['globalist'],-1,[]
1452,2.0,"['michael', 'brown', 'assault', 'robbery', 'video', 'gut', 'fair', 'fight']",-1,[]
1507,2.0,"['black', 'mass_murderer', 'cover', 'medium', 'african', 'employee', 'suspect', 'drug', 'theft', 'transfer', 'fire', 'steal', 'cash', 'fire', 'take', 'revenge', 'mass_murder', 'airliner', 'white_folks', 'kill', 'jew', 'mass_murder', 'black', 'white_folks', 'die', 'african', 'white_civilization', 'murder-suicide', 'airplane', 'kill']",-1,[]
1538,2.0,['kill'],-1,[]
1546,2.0,"['genocide', 'death', 'stop_white', 'genocide']",-1,[]
1549,2.0,"['race_traitors', 'evil', 'jew']",-1,[]
1597,2.0,"['jew', 'demand', 'open', 'border', 'jew', 'illegal_aliens']",-1,[]
1615,2.0,"['expose', 'zionist', 'christian', 'shyster', 'judeo-christianity', 'scam']",-1,[]
1643,2.0,"['john', 'cusack', 'hollywood', 'whorehouse', 'crazy', 'people']",-1,[]
1651,2.0,"['europe', 'traitor', 'take', 'advice', 'europe', 'enemy']",-1,[]
1670,2.0,"['author', 'einstein', 'fraud', 'time', 'author', 'jon', 'bjerknes', 'jeff_rense']",-1,[]
1693,2.0,"['genocide', 'death']",-1,[]
1732,2.0,"['jew', 'michael', 'savage', 'nationalism', 'thee', 'jew', 'demand', 'make', 'demand', 'jew', 'israel', 'public', 'statement', 'white_nations']",-1,[]
1858,2.0,['white_man'],-1,[]
1870,2.0,"['merkel', 'mohammedan', 'murder', 'european']",-1,[]
1942,2.0,"['line', 'incompetent', 'statesman', 'military', 'commander', 'war']",-1,[]
1946,2.0,"['death', 'paul_revere', 'die', 'idaho']",-1,[]
1981,2.0,"['preview', 'race_war']",-1,['race_war']
2088,2.0,"['diversity', 'work', 'nation']",-1,[]
2118,2.0,"['timing', 'democrat', 'run', 'hillary', 'trump', 'campaign', 'trump', 'flame', 'put', 'arrest']",-1,[]
2410,2.0,"['black', 'devil', 'home', 'time']",-1,[]
2461,2.0,"['paul', 'joseph', 'watson', 'terror', 'attack']",-1,[]
2514,2.0,"['child', 'countryside', 'bombing', 'child', 'city', 'war', 'ally', 'child', 'murder', 'reminder', 'exposure', 'ally', 'hang', 'innocent', 'german', 'war_crime', 'ally', 'committed_mass', 'innocent', 'child']",-1,[]
2552,2.0,"['individual', 'situation', 'fact', 'existence', 'people', 'shaka', 'shaka', 'standard', 'reply', 'whitey', 'fault', 'surprise', 'racist', 'hate', 'white_man']",-1,[]
2566,2.0,"['concealed_carry', 'isi', 'attack', 'gun_free', 'zone', 'kill', 'people']",-1,[]
2572,2.0,"['black', 'crime', 'arrest', 'child', 'time', 'adult', 'niggro', 'release', 'prison', 'niggro', 'spree', 'day', 'niggro', 'trial', 'trip', 'black', 'crime', 'control', 'extent']",-1,[]
2619,2.0,"['loony_leftists', 'indian', 'reservation', 'indian', 'white_folks', 'community', 'white_folks']",-1,[]
2654,2.0,['leftist'],-1,[]
2666,2.0,"['african', 'lean', 'liberal', 'progressive', 'anti-whites', 'start', 'make', 'excuse', 'typical_african', 'behavior', 'pretend', 'pretend', 'savage', 'primitive', 'african_behavior']",-1,[]
2671,2.0,"['race_mixing', 'genocide', 'genocide']",-1,[]
2706,2.0,"['government', 'civil_war', 'schedule', 'chaos', 'leftist', 'irony', 'leftist', 'run', 'area', 'leftist', 'control', 'area']",-1,[]
2736,2.0,"['nation', 'black', 'majority', 'white', 'minority', 'criminal', 'black']",-1,[]
2759,2.0,"['african', 'police_officer', 'kidnapping', 'female', 'stop', 'real', 'houston', 'police', 'real', 'mischief']",-1,[]
2764,2.0,"['africans_commit', 'child_rape', 'video', 'attack', 'show', 'video', 'arrest', 'elmwood', 'park', 'teen', 'assault', 'drunk', 'girl', 'film', 'incident', 'prosecutor', 'nj.com']",-1,[]
2809,2.0,"['african', 'beast', 'murder', 'white_man']",-1,[]
2855,2.0,"['african', 'punch']",-1,[]
2864,2.0,"['primitive', 'violence']",-1,[]
2868,2.0,"['african', 'serial', 'kill', 'female', 'victim', 'african', 'count', 'kidnapping', 'rape', 'murder', 'rap', 'dead', 'body', 'africans_commit', 'african_behavior', 'court', 'michael', 'madison', 'jury', 'murder', 'woman', 'newsnet5.com', 'cleveland']",-1,[]
2871,2.0,"['african_female', 'shot_dead', 'facebook', 'post']",-1,[]
2883,2.0,"['african', 'jail', 'murder', 'take', 'oath', 'office']",-1,[]
2936,2.0,"['rapper', 'kill']",-1,[]
3016,2.0,"['abu', 'dhabi', 'murderer', 'security', 'video', 'murderer', 'contact', 'authority', 'murderer', 'abu', 'dhabi', 'age', 'race', 'gender', 'unknown', 'capture', 'security', 'video', 'mother', 'rest', 'room', 'crime', 'unknown', 'murderer', 'victim', 'victim', 'female', 'american_citizen', 'age', 'race', 'update', 'victim', 'white_woman', 'murderer', 'female', 'arab', 'terrorist']",-1,[]
3017,2.0,"['white_humans', 'burn', 'asian', 'criminal', 'asian', 'criminal', 'set', 'shop', 'case', 'insurance', 'fraud', 'call', 'lightning', 'result', 'white_humans', 'injury', 'asian', 'blast', 'murder', 'victim', 'white', 'brown', 'government', 'build', 'shop', 'adeel', 'khan', 'arrest']",-1,[]
3021,2.0,"['african', 'white', 'foster', 'mother']",-1,[]
3030,2.0,"['african', 'burn', 'white', 'girl']",-1,[]
3031,2.0,"['knife', 'attack', 'neighbor', 'daughter', 'attack', 'white_family', 'attack', 'home', 'dead', 'mother', 'daughter', 'son', 'wound', 'african', 'boy', 'hiding', 'daughter', 'babysitting', 'time', 'attack', 'police', 'shot', 'african', 'die', 'hospital', 'hate_crime', 'spree', 'stab', 'madison', 'wisconsin', 'woman', 'dead', 'medium', 'censor']",-1,[]
3044,2.0,"['african', 'thief', 'murder', 'white_man']",-1,[]
3114,2.0,"['white_man', 'african']",-1,[]
3118,2.0,"['african', 'rap', 'murder', 'white_girl', 'african', 'execution', 'stop', 'rap', 'kill', 'constitutional', 'constitutional', 'african', 'missouri', 'man', 'face', 'execution', 'rap', 'kill', 'yahoo', 'news']",-1,[]
3119,2.0,"['african', 'murder', 'white', 'police_officer']",-1,[]
3129,2.0,"['african', 'stab', 'white', 'police_officer', 'dead']",-1,[]
3134,2.0,"['savage_african', 'stab', 'white', 'firefighter', 'ters_san_d.php']",-1,[]
3135,2.0,"['white', 'girl', 'savage', 'african', 'o-beating-case']",-1,[]
3170,2.0,"['deaths_head', 'iron', 'war_machine', 'post7961815']",-1,[]
3171,2.0,['deutschland'],-1,[]
3197,2.0,"['sick', 'individual', 'spin', 'doctor']",-1,[]
3261,2.0,"['riot', 'kick', 'charlotte']",-1,[]
3317,2.0,"['money', 'felon', 'scramble', 'field']",-1,[]
3371,2.0,"['young_white', 'girl', 'sex', 'slavery', 'muslim']",-1,[]
3419,2.0,"['anti-white', 'racist', 'problem', 'solution', 'jewish_communists', 'program']",-1,[]
3827,2.0,"['buying', 'thousand', 'rifle', 'warehouse', 'full']",-1,[]
3837,2.0,['nuthin'],-1,[]
3887,2.0,"['official', 'government', 'hoist', 'high']",-1,[]
4084,2.0,"['sick', 'term', 'latin', 'american', 'latino', 'mass_medium', 'issue', 'call', 'white_humans', 'brown', 'savage', 'call', 'white_folks', 'mestizo', 'white_folks', 'savage']",-1,[]
4142,2.0,"['animal', 'animal']",-1,[]
4180,2.0,"['anti-white_jewish', 'medium', 'ban']",-1,[]
4267,2.0,"['obama', 'suspect', 'murder', 'felony', 'white_male', 'white', 'count', 'black']",-1,[]
4284,2.0,"['sniper', 'motto', 'run', 'die', 'tire']",-1,[]
4292,2.0,"['mexican/indian', 'female', 'left', 'blue', 'hat', 'white', 'graphic', 'set', 'arrest']",-1,[]
4451,2.0,"['zionist', 'grade', 'holocaust', 'essay', 'assignment', 'examination', 'fact', 'think', 'zionist', 'cash', 'cow']",-1,['holocaust']
4454,2.0,"['black_thug', 'shot_dead', 'black', 'rapper', 'natural', 'rioting', 'shot_dead', 'rioting', 'african']",-1,[]
4463,2.0,"['idiot', 'gun_laws', 'violence', 'gun', 'crime', 'african', 'gun', 'gun', 'crime', 'mexican', 'invader', 'gun', 'criminal', 'law']",-1,[]
4464,2.0,"['serial', 'killer', 'marxism']",-1,[]
4467,2.0,"['crime', 'muslim', 'burn']",-1,[]
4524,2.0,"['african', 'lesbian', 'rape', 'girl']",-1,[]
4533,2.0,"['oriental', 'asian', 'female', 'savage', 'mestizo', 'asian', 'female', 'love', 'loony_leftist', 'step', 'mestizo', 'camera', 'set', 'mestizo', 'latino', 'mob', 'beat', 'woman', 'la', 'hate_crime']",-1,[]
4535,2.0,"['mia', 'pope', 'death', 'barack', 'obama']",-1,[]
4543,2.0,"['african', 'boy', 'murder', 'mulatto', 'infant', 'shot', 'head', 'point_blank', 'range']",-1,[]
4552,2.0,"['grandpa', 'hassan', 'shot_dead', 'semite', 'head', 'russian', 'mafia', 'shot_dead', 'russian', 'police', 'state', 'criminal', 'shot_dead', 'range', 'dead']",-1,[]
4555,2.0,"['african', 'food', 'stamp', 'fraud', 'assault', 'theft', 'ipads']",-1,[]
4556,2.0,"['capital', 'murder', 'indictment', 'child']",-1,[]
4568,2.0,"['african', 'police_officer', 'murder', 'girlfren']",-1,[]
4576,2.0,"['andrew', 'graham', 'cu', 'engineering', 'graduate', 'student', 'racist', 'attack', 'black', 'beating', 'white', 'victim', 'downtown', 'area', 'downtown', 'beating', 'twenty', 'black', 'white', 'victim', 'police', 'issue', 'alert', 'white', 'community', 'conspiracy', 'silence', 'expose', 'news', 'agency', 'black', 'white', 'racist', 'attack', 'month', 'police', 'collusion', 'police', 'detail', 'andrew', 'graham', 'murder']",-1,[]
4594,2.0,"['dead', 'mexican', 'morgue']",-1,[]
4609,2.0,"['st', 'louis', 'african_shot', 'month', 'son', 'dead', 'child', 'mother', 'arm', 'mom', 'want', 'parole', 'violation', 'father', 'kill', 'son', 'surrender', 'police', 'q13', 'fox', 'news']",-1,[]
4622,2.0,"['african_shot', 'brother', 'dead']",-1,[]
4627,2.0,"['increase', 'african', 'gun', 'crime', 'ring', 'bang']",-1,[]
4634,2.0,"['african_shot', 'african', 'cop', 'dead']",-1,[]
4655,2.0,"['mexican', 'attempt', 'armed_robbery', 'shotgun', 'mexican', 'dead']",-1,[]
4657,2.0,"['muslim', 'thief', 'punishment', 'steal']",-1,[]
4664,2.0,"['criminal_aliens', 'murder']",-1,[]
4665,2.0,"['isi', 'murder', 'hold', 'sex', 'slave', 'feminist']",-1,[]
4671,2.0,"['guru', 'charge', 'rape', 'witness', 'murder']",-1,[]
4674,2.0,"['mayor', 'shot_dead']",-1,[]
4767,2.0,"['rhead', 'choke', 'scream']",-1,[]
4802,2.0,"['brexit', 'anti', 'eu', 'protest']",-1,[]
5005,2.0,"['tommy', 'emmanuel', 'heartbreak', 'hotel']",-1,[]
5218,2.0,"['megan', 'elisabeth', 'sin', 'ad', 'mccarthy', 'european', 'woman', 'leftist', 'lie']",-1,[]
5340,2.0,"['die', 'twinnies']",-1,[]
5361,2.0,"['cut', 'throat', 'grip', 'fear']",-1,[]
5366,2.0,"['henry', 'rollins', 'liar']",-1,[]
5394,2.0,"['federal', 'agent', 'organized_criminal', 'conspiracy']",-1,[]
5638,2.0,['death'],-1,[]
5724,2.0,['evil'],-1,[]
5755,2.0,"['liberal', 'idiot', 'stupid', 'hypocrite', 'hate', 'america', 'america', 'internet']",-1,[]
5823,2.0,"['operation', 'choke', 'point']",-1,[]
5845,2.0,"['operation', 'choke', 'point', 'federal', 'program', 'firearm', 'ownership']",-1,[]
5965,2.0,"['utah', 'nsa', 'spy']",-1,[]
6013,2.0,"['disillusion', 'anarchist', 'burning', 'homeboy', 't-shirt', 'evil']",-1,[]
6045,2.0,"['terrorist', 'open', 'border', 'fix', 'secession']",-1,[]
6077,2.0,"['government', 'thug', 'capture', 'pay', 'terrorist', 'bomb']",-1,[]
6147,2.0,"['anti', 'racist', 'codeword', 'anti', 'white', 'v=xrbqlr2jnyo']",-1,[]
6197,2.0,"['real', 'drug', 'v=dr52wkq51mo']",-1,['real_war_on_drugs']
6209,2.0,"['austrian', 'death', 'machine', 'jingle']",-1,[]
6341,2.0,"['father', 'debtor', 'prison', 'child']",-1,[]
6368,2.0,"['african', 'detroit', 'school', 'board', 'chief', 'turn', 'japanese', 'normal', 'african_behavior', 'feel', 'prison', 'system']",-1,[]
6374,2.0,"['ghost', 'ghost']",-1,[]
6513,2.0,"['death', 'hack']",-1,[]
6529,2.0,"['white', 'riot']",-1,[]
6543,2.0,"['trap', 'shoot', 'sport', 'clay']",-1,[]
6577,2.0,"['african', 'love', 'obama', 'black', 'black']",-1,[]
6623,2.0,['weak_volume'],-1,[]
6641,2.0,"['obama', 'arm', 'syrian', 'rebel', 'rebel', 'committed_mass', 'murder', 'christian', 'war_crime', 'terrorist', 'obama', 'arm', 'terrorist', 'america']",-1,[]
6660,2.0,"['slavery', 'slavery', 'outlaw', 'slavery', 'mexican', 'buy', 'sell', 'black_african', 'slave', 'slavery', 'today', 'white_man', 'slavery']",-1,[]
6726,2.0,"['friday', 'saturday', 'night', 'account', 'riot']",-1,[]
6748,2.0,"['trap', 'elevator', 'corpse']",-1,[]
6806,2.0,"['europe', 'ban', 'bee', 'kill', 'pesticide', 'federal_agent', 'monsanto', 'profit', 'bee', 'food', 'europe', 'ban', 'bee-harming', 'pesticide', 'spray', 'mother', 'jones']",-1,[]
6843,2.0,"['halo', 'reach', 'weak_volume']",-1,[]
6920,2.0,['superstar'],-1,[]
6921,2.0,['weak_volume'],-1,[]
7014,2.0,"['type', 'trick', 'work', 'real_life', 'fake', 'thumb', 'fool', 'biometric', 'scanner']",-1,[]
7125,2.0,"['doj', 'memo', 'ban', 'firearm']",-1,[]
7142,2.0,['weak_volume'],-1,[]
7146,2.0,"['iraq', 'war', 'protest']",-1,['iraq_war_protests_around_the_world']
7184,2.0,"['adl', 'white', 'america', 'adl', 'white', 'america', 'youtube']",-1,[]
7233,2.0,"['penny', 'cure', 'winter', 'depression']",-1,[]
7255,2.0,"['toy', 'china', 'doll', 'ban', 'chemical', 'import', 'union', 'phthalates', 'death', 'deformity', 'cancer', 'infertility', 'chinese_communist', 'accident', 'toy', 'telegraph']",-1,[]
7581,2.0,"['kill', 'twinkie']",-1,[]
7583,2.0,"['mafia', 'pocket', 'waste', 'give', 'money']",-1,[]
7584,2.0,['fraud'],-1,[]
7604,2.0,"['occupy_wall', 'street', 'debt', 'slavery', 'hey', 'loony_leftists', 'magic', 'mulatto']",-1,[]
7631,2.0,"['san', 'juan', 'county', 'washington', 'vote', 'ban', 'gmo']",-1,[]
7645,2.0,"['white_man', 'ko', 'savage', 'crook', 'clerk', 'knock', 'arm', 'robber', 'youtube']",-1,[]
7656,2.0,"['reason', 'obama', 'term', 'failure']",-1,[]
7722,2.0,"['government', 'mass_murder', 'citizen', 'reason']",-1,[]
7724,2.0,"['dr', 'michael', 'hill', 'aid']",-1,[]
7728,2.0,"['larry', 'pratt', 'gun_owners', 'america', 'treaty', 'batman', 'shooter']",-1,[]
7827,2.0,"['hedge', 'fund', 'fraud']",-1,[]
7855,2.0,"['white_woman', 'bumpski', 'bump', 'fire', 'stock', 'lady', 'shoot', 'bumpski', 'defendar-15', 'aa2', 'bump', 'fire', 'stock', 'youtube']",-1,[]
7867,2.0,"['pollution', 'pollution', 'race_mixing', 'result', 'pollution', 'genocide']",-1,[]
7876,2.0,"['april', 'patriot', 'shot', 'government', 'committed_mass', 'murder', 'child', 'waco', 'texas']",-1,[]
7900,2.0,"['dirt', 'brother', 'hotty', 'toddy', 'dirt', 'brother', 'hotty', 'toddy', 'youtube']",-1,[]
8118,2.0,"['texas', 'representative', 'ted', 'poe']",-1,[]
8133,2.0,"['texas', 'congressman', 'poe', 'holder', 'african', 'defense', 'holder', 'obama', 'find', 'break', 'oath', 'office', 'constitution', 'break', 'international', 'gun', 'law', 'break', 'federal', 'gun_sales', 'regulation', 'law', 'murder', 'justice', 'mirror', 'find', 'criminal']",-1,[]
8157,2.0,"['zionist', 'pre-traumatic', 'stress', 'disorder', 'zptsd', 'treatable', 'social', 'disease', 'december', 'horse237']",-1,[]
8170,2.0,"['hickok45', 'ak', 'rapid_fire', 'ak', 'rapid_fire', 'youtube']",-1,[]
8404,2.0,"['homeland_security', 'video', 'youth', 'savage', 'white_folks', 'home', 'world', 'protection']",-1,[]
8444,2.0,"['irish', 'bastard', 'irish', 'washer', 'woman']",-1,[]
8480,2.0,"['disaster', 'coverup']",-1,[]
8605,2.0,"['chinese_communist', 'army', 'tool', 'kill', 'american', 'soldier', 'video', 'game', 'real']",-1,[]
8606,2.0,"['israel', 'saudi_arabia', 'threat', 'iran']",-1,[]
8627,2.0,"['mexican', 'shoot', 'spree', 'incident', 'million', 'mexican']",-1,[]
8636,2.0,"['cancer', 'cure', 'dca', 'government', 'federal', 'regulation', 'cure', 'disease', 'cancer']",-1,[]
8654,2.0,"['attack', 'eye']",-1,[]
8697,2.0,"['veteran', 'suicide', 'day', 'america', 'benefit', 'corporate_wars']",-1,[]
8725,2.0,"['anwar', 'al', 'awlaki', 'kill', 'terrorist', 'life']",-1,[]
8734,2.0,"['m60', 'gun', 'test', 'fire']",-1,[]
8821,2.0,"['israel', 'promise', 'land', 'crime', 'crime', 'mass_murder', 'jew', 'israel', 'escape', 'justice']",-1,[]
8843,2.0,"['arnie_gundersen', 'talk', 'chain', 'reaction', 'april', 'nuclear_power', 'insanity']",-1,[]
8892,2.0,"['communist', 'revolution', 'work', 'revolution', 'communist', 'revolution', 'mass_murder', 'victim', 'idiot', 'offer', 'resistance', 'wise', 'turn', 'revolution', 'sheep', 'put', 'sleep', 'lie', 'distraction', 'potential', 'oligarch', 'worst', 'nightmare']",-1,[]
8908,2.0,"['federal_government', 'waste', 'tax_dollars', 'government', 'waste', 'money', 'youtube']",-1,[]
8910,2.0,"['rhonda_vincent', 'star', 'spangle', 'banner', 'star', 'bangled', 'banner', 'tyranny', 'loyalty', 'tyranny', 'government']",-1,[]
8912,2.0,"['jim', 'reef', 'sucker']",-1,[]
8914,2.0,"['alex_jones', 'july', 'sign', 'point', 'false_flag', 'terror', 'event', 'government']",-1,[]
8926,2.0,"['israeli_government', 'murder', 'citizen', 'war', 'israeli_government', 'fire', 'bomb', 'citizen', 'operation', 'lavon', 'affair', 'hope', 'war', 'israeli_government', 'king', 'david', 'hotel', 'murder', 'citizen', 'hop', 'war', 'israeli_government', 'attack', 'us', 'liberty', 'murder', 'citizen', 'hop', 'war', 'saudi_arabia', 'state', 'israeli_government', 'government', 'order', 'citizen', 'motive', 'war']",-1,[]
8930,2.0,"['witness', 'target', 'building', 'witness', 'location', 'louisiana']",-1,[]
8964,2.0,"['israeli', 'war', 'monger', 'pnac', 'cabal']",-1,[]
8968,2.0,"['post', 'police', 'state', 'terror', 'cover', 'oil', 'rich', 'nation', 'false_flag', 'terror', 'attack', 'terrorism']",-1,['false_flag_terror_attacks']
8991,2.0,"['explosive', 'terror', 'drill', 'phoenix', 'airport', 'thief', 'training', 'public', 'location', 'real', 'explosive', 'murder', 'purpose', 'murder', 'incompetence', 'government']",-1,[]
8993,2.0,"['tolerance', 'suicide']",-1,[]
9001,2.0,"['gaddafi', 'jfk', 'murder', 'israeli', 'weapon', 'gaddafi', 'ancient', 'white_folks', 'asian_savage', 'set_foot', 'america', 'homeland', 'leave', 'america']",-1,[]
9017,2.0,"['rhonda_vincent', 'rage', 'passing', 'train']",-1,[]
9046,2.0,['liberal'],-1,[]
9140,2.0,"['dick', 'tombstone', 'mile']",-1,[]
9192,2.0,"['rhonda_vincent', 'rage', 'eighth', 'january']",-1,[]
9204,2.0,"['damage', 'jhp', 'shoot']",-1,[]
9219,2.0,"['black_central', 'african', 'murder', 'albino', 'cut', 'body', 'part', 'charm']",-1,[]
9309,2.0,"['fair', 'poor', 'jew']",-1,[]
9311,2.0,"['girl', 'grandfather', 'step-father']",-1,[]
9327,2.0,"['kim', 'jong-un', 'masterplan', 'leave', 'dead']",-1,[]
9348,2.0,"['behavior', 'irrational', 'loony_leftists', 'suspect']",-1,[]
9364,2.0,"['flood', 'texas', 'mexican', 'invader', 'texas', 'law', 'government', 'fight', 'federal', 'court', 'outcome', 'rig', 'texas', 'mexican', 'federal_judge', 'block', 'mexican', 'vote', 'power']",-1,[]
9380,2.0,"['anti-white', 'federal_government', 'care', 'savage', 'niggros', 'white_woman', 'gang_raped', 'torture', 'pore', 'corrosive', 'chemical', 'cut', 'set', 'cut', 'stuff', 'trash', 'sneeze', 'pet', 'niggros']",-1,[]
9411,2.0,"['garland', 'day', 'labor', 'center', 'minuteman', 'defense', 'corp', 'criminal_alien', 'bandit', 'ture_full.html']",-1,[]
9505,2.0,"['police_officer', 'range', 'aim', 'shoot', 'problem', 'police_officer', 'shot', 'dog', 'fire', 'bad', 'shot', 'dog', 'worse', 'shoot', 'human', 'incompetence', 'good', 'job', 'african', 'criminal', 'hit']",-1,[]
9514,2.0,"['death', 'threat', 'peace']",-1,[]
9546,2.0,"['evidence', 'expose', 'hitler', 'secret', 'refuge', 'world_war', 'ii']",-1,['world_war_ii']
9644,2.0,"['reason', 'kill', 'family_member', 'family', 'family_member', 'kill', 'ww_ii', 'german', 'nazi', 'japanese', 'nazi', 'die', 'torture', 'starvation', 'nazi', 'asian']",-1,['ww_ii']
9661,2.0,"['hockey', 'coach', 'fire', 'evil', 'nazi', 'message', 'clear', 'nazi', 'ctv', 'vancouver', 'nazi', 'sympathizer', 'fire', 'ctv', 'news']",-1,[]
9664,2.0,"['italy', 'top', 'court', 'rule', 'victim', 'sue', 'germany', 'nazi', 'war_crime', 'nazi', 'guilt', 'nazi', 'child', 'grand', 'child', 'great_grand', 'child', 'italy', 'top', 'court', 'rule', 'victim', 'sue', 'germany', 'nazi', 'war_crime', 'ria', 'novosti']",-1,[]
9667,2.0,"['birthplace', 'war_crime', 'memorial']",-1,['war_crimes_memorial']
9670,2.0,"['tragedy', 'man', 'english', 'trailer']",-1,[]
9683,2.0,"['nazi', 'publication', 'bound']",-1,[]
9745,2.0,"['prison', 'cell']",-1,[]
9748,2.0,"['appropriation', 'imperative', 'african', 'africa']",-1,[]
9762,2.0,"['issue', 'wrong']",-1,[]
9863,2.0,"['marxist', 'system', 'boycott', 'show', 'contempt', 'hillary', 'stole', 'nomination', 'bernie', 'great', 'reason', 'part', 'election', 'protest']",-1,[]
9879,2.0,"['roman', 'empire', 'white', 'slavery', 'race_mixing', 'corruption', 'loot', 'white_nations', 'mass_murder', 'white', 'population']",-1,[]
9892,2.0,"['lesbian', 'kidnapping', 'arm', 'assault', 'rape', 'walk', 'free']",-1,[]
9901,2.0,"['war', 'east', 'war', 'conquest', 'isralie_empire', 'jew', 'hold', 'jewish_media', 'mafia', 'christian', 'preacher', 'american', 'american', 'support', 'war', 'conquest', 'isralie_empire']",-1,"['war', 'war_of_conquest', 'war_of_conquest']"
9915,2.0,"['world_wide', 'genocide', 'white_children', 'evil', 'stop_white', 'genocide']",-1,[]
9929,2.0,"['mexican', 'citizen', 'citizen', 'mexican', 'arrest']",-1,[]
10039,2.0,"['police', 'gather', 'evidence', 'crime', 'scene', 'merkel', 'bomber']",-1,[]
10040,2.0,"['official', 'story', 'muslim', 'suicide', 'bomb', 'backpack', 'muslim', 'head', 'music', 'festival', 'folk', 'kill', 'police', 'search', 'backpack', 'line', 'bomb', 'wine', 'bar', 'official', 'story', 'motif', 'suicide', 'bomber', 'act', 'jihad', 'islam', 'unknown']",-1,[]
10043,2.0,"['loony_leftists', 'debate', 'shout', 'communist_propaganda', 'throw', 'fire', 'bomb', 'loony_leftists', 'true', 'savage', 'loony_leftists', 'pet', 'savage']",-1,[]
10075,2.0,"['alex_jones', 'fbi', 'austin', 'attack', 'come']",-1,[]
10196,2.0,"['houston', 'police', 'kill', 'cia', 'agent', 'v=x5st3kqaf-q']",-1,[]
10310,2.0,"['death', 'head', 'iron', 'war_machine']",-1,[]
10313,2.0,"['survivor', 'death', 'camp', 'transfer', 'prisoner', 'death', 'camp', 'kill', 'spot', 'house', 'feed', 'give', 'medical', 'aid', 'prisoner', 'death', 'camp', 'professional', 'shyster', 'lie']",-1,[]
10338,2.0,"['islam', 'african', 'slavery']",-1,[]
10341,2.0,"['black', 'nation', 'brown', 'nation', 'place', 'white_nation', 'place', 'brown', 'white_nation']",-1,[]
10345,2.0,"['white_folks', 'risk', 'life', 'african', 'whitey', 'african']",-1,[]
10395,2.0,"['terrorist', 'arrest', 'los', 'angeles', 'photo', 'display', 'save', 'host', 'site', 'display']",-1,[]
10411,2.0,"['white', 'majority', 'nation', 'black', 'minority', 'prison', 'full', 'black', 'africa', 'black', 'majority', 'nation', 'white', 'minority', 'prison', 'full', 'black', 'nation', 'black', 'white', 'crime', 'common', 'place', 'white', 'black', 'crime']",-1,[]
10446,2.0,"['china', 'problem', 'american', 'economy', 'washington_dc', 'china', 'chinese', 'debt', 'greek', 'debt', 'communist_chinese', 'leftist', 'leftist', 'china', 'wealth', 'stupid', 'project', 'government', 'waste', 'resource', 'water', 'cause', 'disaster', 'china']",-1,[]
10460,2.0,"['money', 'give', 'enemy']",-1,[]
10525,2.0,"['black', 'columnist', 'thomas', 'sowell', 'american', 'race_war']",-1,['race_war']
10544,2.0,"['weapon', 'mass', 'destruction', 'thought', 'weapon', 'mass', 'genocide', 'history', 'monsanto', 'chemical', 'weapon', 'monsanto', 'pesticide', 'corn', 'bee', 'population', 'bee', 'corn', 'plant', 'produce', 'ear', 'corn', 'corn', 'gmo', 'product', 'put', 'market', 'fda', 'test', 'product', 'pas', 'test', 'product', 'organ', 'failure', 'sterilization', 'intent', 'world', 'population', 'number']",-1,[]
10545,2.0,"['hate', 'bear', 'wolf', 'mountain', 'lion', 'shark', 'kill', 'creature', 'life', 'african', 'death', 'african', 'african']",-1,[]
10575,2.0,"['muslim', 'murder', 'drive', 'french', 'citizen', 'mass', 'immigration', 'blood_thirsty', 'savage', 'citizen', 'wrong']",-1,[]
10606,2.0,['leftist'],-1,[]
10610,2.0,"['isralies', 'forest', 'fire', 'isralies']",-1,[]
10611,2.0,"['tsa', 'grope', 'young', 'lady', 'bikini', 'paw', 'personal', 'property']",-1,[]
10620,2.0,"['government', 'military', 'loot', 'ally', 'criminal', 'black', 'soldier', 'rape', 'murder', 'french', 'child', 'government', 'military', 'ally', 'enemy', 'enemy', 'nation', 'military', 'loot', 'nation', 'enemy', 'tax_dollars', 'enemy', 'nation']",-1,[]
10656,2.0,"['irony', 'soviet_empire', 'weapon', 'tactic', 'spray', 'army', 'manual', 'range', 'exception', 'short_range', 'ar', 'distance']",-1,[]
10724,2.0,"['trump', 'dig', 'coal', 'bad', 'news', 'wynne', 'canadian', 'view', 'america', 'coal', 'industry']",-1,[]
10730,2.0,"['mass', 'shoot', 'stop', 'dead', 'garland', 'texas', 'shoot', 'muhammad', 'contest']",-1,[]
10772,2.0,"['bad', 'news', 'government', 'give', 'israel', 'evil', 'earth', 'f-35', 'jet']",-1,[]
10778,2.0,"['assange/wikileaks', 'seth', 'rich', 'murder', 'dnc', 'email', 'leak']",-1,[]
10805,2.0,"['alex_jones', 'trump', 'hillary_clinton']",-1,[]
10808,2.0,"['colorado', 'revolt', 'gop', 'election_fraud']",-1,[]
10816,2.0,"['texas', 'voter', 'witness', 'vote_fraud', 'place', 'trump']",-1,[]
10819,2.0,"['trump', 'brussels', 'terror', 'attack', 'u.s', 'border', 'security']",-1,[]
10831,2.0,"['trump', 'iowa', 'voter', 'fraud']",-1,[]
10886,2.0,"['trump', 'cnn', 'propagandist', 'fake', 'news']",-1,[]
10918,2.0,['prison'],-1,[]
11165,2.0,"['rt', 'turkey', 'false_flag', 'plot', 'war', 'syria', 'turkey', 'false_flag', 'plot', 'war', 'syria', 'weapon', 'mass', 'distraction', 'youtube']",-1,[]
11179,2.0,"['woman', 'march']",-1,[]
11181,2.0,"['madonna', 'texas', 'radio', 'station']",-1,[]
11250,2.0,"['tnb', 'final_war', 'raceland']",-1,[]
11298,2.0,"['alien', 'kill', 'halloween', 'white', 'tradition', 'civilization', 'savage']",-1,[]
11300,2.0,"['california', 'commie', 'call', 'report', 'crime', 'victim', 'commie', 'crime', 'victim', 'arrest']",-1,[]
11321,2.0,"['terror', 'attack', 'terrorist', 'attack', 'muslim', 'marxist', 'germany']",-1,[]
11398,2.0,"['worst', 'nuclear_plant', 'disaster', 'bad']",-1,[]
11489,2.0,"['lego_star', 'war', 'war', 'comic']",-1,[]
11501,2.0,"['ron_paul', 'control', 'spending', 'dollar']",-1,[]
11538,2.0,"['murder', 'machine', 'inch', 'war']",-1,[]
11552,2.0,"['ron_paul', 'zionists/neocons', 'begin', 'invasion']",-1,[]
11576,2.0,"['death', 'texan', 'nebraska']",-1,[]
11697,2.0,"['kill', 'baby', 'dolphin']",-1,[]
11775,2.0,"['dollar', 'plumet', 'dead', 'mid_east', 'unrest', 'plan']",-1,[]
11794,2.0,"['finnish', 'sniper', 'white', 'death', 'communist', 'kill']",-1,[]
11796,2.0,"['mythology', 'star_wars', 'child', 'parent', 'asian', 'idea', 'jewish_communism', 'asian', 'hebrew', 'arab', 'asian', 'separate', 'child', 'parent']",-1,[]
11817,2.0,"['sabaton', 'white', 'death']",-1,[]
11832,2.0,"['mythology', 'star_wars']",-1,[]
11903,2.0,"['lego_star', 'war', 'war', 'comic']",-1,[]
11907,2.0,"['patriot', 'stop', 'fight', 'invader']",-1,[]
11935,2.0,"['star_wars', 'false_flag', 'attack', 'shadow', 'government']",-1,[]
11991,2.0,"['nationalism', 'leftist', 'congressman', 'african', 'racist', 'take', 'standard', 'communist', 'tactic', 'attack', 'messenger', 'debate', 'message', 'attack']",-1,[]
12024,2.0,"['austrian', 'death', 'machine']",-1,[]
12044,2.0,"['jesse_ventura', 'conspiracy', 'theory', 'brother']",-1,[]
12132,2.0,"['tyrant', 'fear', 'information']",-1,[]
12182,2.0,"['star_wars', 'speeder', 'bike']",-1,[]
12215,2.0,"['jesse_ventura', 'conspiracy', 'theory', 'pentagon']",-1,[]
12256,2.0,"['debt', 'drag', 'union']",-1,[]
12259,2.0,"['garden', 'miami', 'florida', 'miami', 'clean', 'modern', 'city', 'savage', 'move', 'city', 'soil']",-1,[]
12300,2.0,"['food', 'crisis', 'come', 'america', 'expert', 'list', 'reason', 'america', 'food', 'crisis', 'food', 'production', 'drop', 'reason', 'bad', 'weather', 'farm', 'death', 'bee', 'gm', 'crop', 'disaster', 'shortage', 'drive', 'price', 'dollar', 'food', 'crisis', 'spark', 'revolution']",-1,['food_crisis']
12459,2.0,"['dead', 'bird', 'mystery', 'spread', 'sweden']",-1,[]
12479,2.0,"['australian', 'flood']",-1,[]
12482,2.0,"['troll', 'jew', 'europe', 'hell_hole']",-1,[]
12512,2.0,"['kevin', 'trudeau', 'ban', 'book', 'trial', 'shyster', 'banker', 'shyster', 'drug', 'company']",-1,[]
12729,2.0,"['ireland', 'danger', 'debt', 'slavery', 'jew', 'slave', 'ship', 'slave', 'market', 'auction', 'slave', 'jewish_bankers', 'cut', 'step', 'sell', 'slavery']",-1,[]
12795,2.0,"['jiggernaut', 'minute', 'silence', 'dead']",-1,[]
12910,2.0,"['james', 'buck', 'case', 'search', 'seizure', 'firearm']",-1,[]
12914,2.0,"['plane', 'crash', 'accident']",-1,[]
12915,2.0,"['report', 'plane', 'crash', 'denial', 'plane', 'crash']",-1,[]
12946,2.0,"['sligo', 'rag', 'devil', 'dublin']",-1,[]
12964,2.0,"['gun', 'registration', 'poll', 'grain', 'farmer', 'crook', 'wild', 'bear', 'property', 'obama', 'cuba']",-1,[]
12989,2.0,"['man', 'anti-obama', 'sign', 'obama', 'personal', 'savior']",-1,[]
13035,2.0,"['michael', 'shaw', 'agenda', 'update', 'collective', 'thought', 'marxist', 'ideology', 'demand', 'collective', 'consensus', 'free', 'thought', 'free', 'thinker', 'collective', 'consensus', 'murder']",-1,[]
13079,2.0,"['ron_paul', 'empire', 'war', 'conquest', 'american_citizens']",-1,[]
13125,2.0,"['agent', 'counter-espionage', 'film', 'youtube', 'x202a', 'agent', 'counter-espionage', 'film', 'x202c', 'lrm']",-1,[]
13180,2.0,"['media_mafia', 'hate', 'john', 'wesley', 'hardin', 'hate', 'david_duke', 'john', 'wesley', 'hardin', 'kill', 'black', 'mexican', 'undesirable']",-1,[]
13224,2.0,"['drug', 'lord', 'kill', 'coronel', 'raid', 'million']",-1,[]
13293,2.0,"['expose', 'senator', 'schumer', 'israeli', 'terrorism']",-1,[]
