,topic_lda,bag_words,sa_score,events
62,4.0,"['police', 'death', 'person', 'clinton', 'death', 'inevitable']",-1,[]
356,4.0,"['race_mixers', 'african', 'hooker', 'druggie']",-1,[]
516,4.0,"['woman', 'death', 'row', 'saudi_arabia', 'score', 'maid', 'face', 'death_penalty', 'saudi_arabia', 'crime', 'child', 'murder', 'kill', 'employer']",-1,[]
530,4.0,"['veteran', 'feed', 'stray', 'animal', 'shot_dead']",-1,[]
542,4.0,"['young_white', 'mother', 'african', 'yufs']",-1,[]
906,4.0,"['open_carry', 'police', 'harassment', 'claim', 'concealed_carry', 'handgun', 'printing']",-1,[]
1194,4.0,"['loony_leftists', 'black', 'brown', 'evil', 'racist', 'white_folks', 'great', 'benefit', 'black', 'brown', 'great', 'benefit', 'white_folks', 'evil', 'racist']",-1,[]
1391,4.0,"['disaster', 'chernobyl', 'disaster', 'part', 'youtube']",-1,[]
1412,4.0,"['loony_leftists', 'obama', 'step', 'claim', 'japanese', 'produce', 'spoke', 'begin', 'mean']",-1,[]
1532,4.0,"['white_folks', 'black_african', 'crime', 'medium', 'find', 'news_worthy']",-1,[]
2047,4.0,"['care', 'white_folks', 'rap', 'torture', 'cut', 'piece', 'news_worthy', 'hand', 'criminal', 'prison', 'camp', 'criminal', 'prison', 'event', 'media_mafia', 'white_folks', 'white_folks', 'civil_right', 'white_folks', 'importance', 'hand', 'neighbor', 'call', 'slur', 'folk', 'scream', 'evil', 'black_african', 'hack', 'piece', 'answer', 'call']",-1,[]
2117,4.0,"['hillary', 'hire', 'american', 'document', 'destruction']",-1,[]
2198,4.0,"['mock', 'christian', 'christ', 'christianity']",-1,[]
2585,4.0,"['steve_lee', 'knob', 'creek', 'machine_gun', 'shoot']",-1,[]
2597,4.0,"['anti-white_jewish', 'medium', 'white_genocide', 'log', 'hate_crime', 'white_genocide', 'hate_crime', 'stop_white', 'genocide']",-1,[]
2758,4.0,"['blood', 'gang', 'member', 'michael', 'brown', 'attack', 'police_officer', 'shot']",-1,[]
2830,4.0,"['white_man', 'stop', 'african', 'criminal', 'african', 'crowd']",-1,[]
2933,4.0,"['african', 'murder', 'white_family']",-1,[]
2977,4.0,"['oral', 'history', 'asian_savages', 'indian', 'america', 'savage', 'savage', 'fitting', 'non-whites', 'encounter', 'communist_propaganda', 'great', 'accomplishment', 'primitive', 'tribe', 'term', 'savage']",-1,[]
2987,4.0,"['innocent', 'french', 'murder', 'pull', 'hand', 'gun', 'stop', 'time', 'murder']",-1,[]
3028,4.0,"['african', 'white_girl', 'fun']",-1,[]
3145,4.0,"['african', 'muslim', 'white_boy', 'blue', 'eye', 'swedish', 'boy', 'assault', 'blue', 'eye']",-1,[]
3694,4.0,"['arrest', 'vote_fraud']",-1,[]
3700,4.0,"['democrat', 'election_fraud']",-1,[]
3720,4.0,"['gun_confiscation', 'arrest', 'congress']",-1,[]
3758,4.0,"['think', 'brick', 'fine', 'cqc', 'close_quarters', 'combat', 'stoved', 'criminal', 'head', 'brick', 'kill', 'black', 'criminal', 'neighborhood', 'pistol', 'hit', 'chest', 'time', 'point_blank', 'criminal', 'kill', 'mexican']",-1,[]
3777,4.0,"['criminal', 'invasion']",-1,[]
3780,4.0,"['death', 'teaching', 'holy', 'book', 'command', 'non-jihadi', 'government', 'official', 'military', 'officer', 'police', 'official', 'lifetime', 'motivation']",-1,[]
3862,4.0,"['hippie', 'movement', 'found', 'jew']",-1,[]
3875,4.0,"['public', 'school', 'teacher', 'todd', 'henry', 'murder', 'black', 'student', 'murder', 'safe', 'clean', 'white', 'school', 'tyler', 'texas', 'degenerate', 'mess', 'savage', 'black', 'beast', 'resume', 'crime_spree', 'release']",-1,[]
3910,4.0,"['terrorist', 'government']",-1,[]
4001,4.0,"['serial_killer', 'serial', 'killer', 'jewish_mass', 'murderer', 'mention', 'mass_medium']",-1,[]
4040,4.0,"['folk', 'cheat', 'vote', 'hearing', 'proof', 'cheater', 'treason', 'election_fraud', 'government']",-1,[]
4055,4.0,"['texan', 'hop', 'illegals', 'fight', 'death']",-1,[]
4086,4.0,"['leftist', 'jewish_communist', 'master', 'hate', 'wrong']",-1,[]
4154,4.0,"['individual', 'feel', 'fashion', 'industry', 'gay', 'mafia', 'racist']",-1,[]
4167,4.0,"['disparity', 'crime', 'black', 'brown', 'white', 'crime', 'statistic', 'state', 'non-whites', 'charge', 'arrest', 'white']",-1,[]
4184,4.0,"['patient', 'die', 'hospital', 'die', 'black_african', 'nurse', 'mood', 'wash', 'hand', 'stick', 'patient', 'iv', 'med', 'read', 'doctor', 'medical', 'order', 'check', 'patient', 'wristband', 'give', 'med', 'patient', 'medical', 'alert', 'alarm']",-1,[]
4207,4.0,"['rifle_range', 'yesterday', 'cold', 'day', 'yard', 'worst', 'group', 'show', 'reason', 'ar-10_chambered', 'winchester']",-1,[]
4212,4.0,"['most-worsened', 'nation', 'usa', 'state', 'index', 'influx', 'savage', 'nation']",-1,[]
4256,4.0,"['plan', 'incinerator']",-1,[]
4353,4.0,"['anytime', 'race_mixing', 'whore', 'pop', 'head', 'hole', 'encounter', 'real_world']",-1,[]
4479,4.0,"['smoking', 'dope', 'cheech', 'chong', 'rich', 'point', 'turn', 'retard', 'choice']",-1,[]
4526,4.0,"['mestizo', 'honduras', 'murder', 'mestizo', 'girlfriend', 'mestizo', 'capture', 'release', 'border', 'murder', 'louisiana', 'capture', 'murder', 'kidnapping', 'mestizo', 'child', 'primitive', 'creature', 'act', 'primitive', 'manner', 'white_nation', 'exclusive', 'release', 'alien', 'border', 'crisis', 'murder', 'kidnapping']",-1,[]
4529,4.0,"['lesbian', 'lure', 'male', 'sex', 'trap', 'murder', 'exchange', 'text', 'message', 'beat', 'dead', 'body', 'stole', 'car', 'car', 'abandon', 'shift', 'blame', 'crime', 'relative', 'sentence', 'year', 'month', 'couple', 'kill', 'man', 'lure', 'beach', 'sex']",-1,[]
4539,4.0,"['chinaman', 'steal', 'car', 'murder', 'chinese', 'infant']",-1,[]
4540,4.0,"['african', 'rap', 'murder', 'white_woman', 'murder', 'multiple', 'victim', 'serial_killer', 'kill', 'normal', 'african_behavior']",-1,[]
4546,4.0,"['african', 'release', 'jail', 'murder', 'white_woman', 'hate_crime', 'youth', 'murder', 'woman', 'hour', 'release', 'jail', 'youtube']",-1,[]
4605,4.0,"['mestizo', 'serial_killer']",-1,[]
4607,4.0,"['mestizo', 'shoot', 'police_officer', 'officer', 'list', 'condition', 'gerald', 'marcus', 'villabrille', 'san', 'jose', 'california', 'mestizo', 'criminal', 'history', 'pull', 'simple', 'traffic', 'stop', 'stop', 'mestizo', 'back', 'police', 'car', 'shot', 'officer', 'spot', 'minute', 'shoot', 'situation', 'shot', 'police_officer', 'house', 'attempt', 'police_officer', 'set', 'house', 'tear', 'gas', 'canister', 'burning', 'house', 'kill', 'homeowner', 'dog', 'mestizo', 'body', 'scene', 'unknown', 'burn', 'fire', 'die', 'gunshot', 'wound', 'house', 'set', 'suspect', 'shoot', 'fremont', 'officer', 'dy', 'ktvu', 'fremont', 'police', 'dead', 'suspect', 'patch']",-1,[]
4610,4.0,"['african_shot', 'african_home', 'invader', 'dead', 'shot', 'head', 'dead']",-1,[]
4616,4.0,"['african', 'scar', 'racist', 'threat', 'racist', 'criminal']",-1,[]
4624,4.0,"['u.s', 'black', 'black', 'year', 'stats', 'count', 'white', 'black', 'crime', 'brown', 'mestizo', 'white', 'drive', 'white', 'crime', 'number']",-1,[]
4632,4.0,"['santa', 'dun', 'de', 'kfc', 'need', 'cash', 'chicken', 'ho', 'ho', 'ho']",-1,[]
4649,4.0,"['african', 'murder', 'girl', 'dad', 'court']",-1,[]
4736,4.0,"['respect', 'race_traitor', 'race_traitor', 'dress', 'race_traitor', 'living', 'white_children', 'international', 'law', 'punishment', 'genocide', 'death', 'race_traitor', 'army', 'race_traitors', 'solder', 'situation', 'order', 'mass_murder', 'genocide']",-1,[]
4775,4.0,"['rhead', 'die']",-1,[]
4830,4.0,"['ralph_stanley', 'death']",-1,[]
4974,4.0,"['clancy', 'brother', 'tommy', 'makem', 'whiskey', 'devil']",-1,[]
5067,4.0,"['marine', 'le_pen', 'force', 'evil']",-1,[]
5135,4.0,"['rhonda_vincent', 'rage', 'medley']",-1,[]
5182,4.0,"['tweet', 'day', 'paris', 'attack', 'hour', 'paris', 'attack', 'twitter', 'account', 'post', 'death', 'injury', 'toll', 'paris', 'terror', 'attack']",-1,['paris_terror_attack']
5343,4.0,"['reign', 'terror', 'rhapsody', 'fire', 'christopher', 'lee']",-1,[]
5423,4.0,"['lego_star', 'war', 'rebel']",-1,[]
5584,4.0,"['brick', 'shooter', 'destruction', 'motion']",-1,[]
5675,4.0,"['high', 'threat', 'volcano', 'area', 'pacific', 'photo', 'description', 'america', 'volcano', 'business', 'insider']",-1,[]
5711,4.0,"['bob_whitaker', 'real', 'american', 'indian', 'history', 'savage', 'share']",-1,[]
5971,4.0,"['mercyful', 'fate', 'metalica', 'curse', 'pharos', 'year']",-1,[]
6060,4.0,"['captain', 'america', 'winter', 'soldier', 'alex_jones', 'plot', 'movie', 'fight', 'phony', 'terror', 'government', 'jew', 'nick', 'fury', 'african', 'boycott', 'series', 'alex_jones', 'video', 'nick', 'fury', 'captain', 'america', 'evil', 'nazi', 'real_life']",-1,['war']
6199,4.0,"['teutonicwarriorchick', 'multiculturalism', 'teutonicwarriorchick', 'multiculturalism', 'youtube']",-1,[]
6351,4.0,"['constant', 'sorrow', 'dobro']",-1,[]
6386,4.0,"['ghost', 'ghost']",-1,[]
6517,4.0,"['thepianoguys', 'cello', 'war', 'lightsaber', 'duel']",-1,[]
6545,4.0,"['ennio', 'morricone', 'good', 'bad']",-1,[]
6740,4.0,"['loony_leftists', 'attack', 'gathering', 'normal', 'folk', 'gather', 'anti-white', 'loony_leftist', 'attack', 'loony_leftists', 'hateful_violent', 'thug', 'normal', 'natural', 'surround', 'freak', 'jewish_communists']",-1,[]
6953,4.0,"['rhonda_vincent', 'rage', 'bluegrass', 'boy', 'rage', 'rhonda_vincent', 'rage', 'youtube']",-1,[]
7219,4.0,['weak_volume'],-1,[]
7293,4.0,"['bank', 'america', 'american', 'gun_sales', 'jewish_owned', 'international_banks', 'bank', 'america', 'gun_sales']",-1,[]
7342,4.0,"['brother', 'nathanael', 'jew', 'mock', 'jesus', 'jew', 'mock', 'jesus_christ', 'youtube']",-1,[]
7585,4.0,"['white', 'minority', 'hateful_violent', 'black', 'brown', 'communist', 'south_africa']",-1,[]
7591,4.0,"['wolf', 'bad', 'grandmother', 'mind', 'grandma', 'ax']",-1,[]
7595,4.0,"['general', 'petraeus', 'leak', 'secret', 'benghazi', 'attack', 'mistress', 'cia', 'activity']",-1,[]
7746,4.0,"['mafia', 'issue', 'order', 'citizen', 'surrender', 'arm']",-1,[]
7747,4.0,"['worst', 'u.s', 'drought']",-1,[]
7794,4.0,"['ge', 'nuclear_power', 'plant', 'ge', 'nuclear_power', 'plant', 'union']",-1,[]
7797,4.0,"['sledge', 'hammer', 'tv', 'series', 'dvd', 'shoot', 'stuff', 'blowing', 'stuff', 'refuse', 'pretend', 'pc', 'dorie']",-1,[]
7863,4.0,['operation'],-1,[]
8440,4.0,"['holder', 'operation', 'gun', 'runner', 'deputy', 'attorney', 'general', 'david', 'ogden', 'obama', 'holder', 'criminal', 'activity', 'statement', 'batfe', 'agent', 'operation', 'gun', 'runner', 'holder', 'obama', 'murder', 'treason', 'carry', 'death_penalty', 'court', 'law']",-1,[]
8508,4.0,"['sligo', 'rag', 'devil', 'dead']",-1,[]
8628,4.0,"['zionist', 'attack', 'rabbi', 'arab', 'shot_dead', 'throw', 'stone', 'zionist', 'zionist', 'shot_dead', 'throw', 'stone', 'rabbi']",-1,[]
8690,4.0,"['sheriff', 'richard', 'mack', 'federal', 'crime', 'love', 'obama', 'banker', 'give', 'tax_dollars', 'corporation', 'tax', 'free', 'earnings', 'communist', 'criminal_alien', 'invader', 'black', 'racist']",-1,[]
8721,4.0,"['batfe', 'buying', 'sell', 'firearm', 'mexican', 'criminal', 'tax_dollars']",-1,[]
8740,4.0,"['bank', 'call', 'bank', 'america', 'display', 'greed', 'upset', 'american', 'hand', 'wealth', 'fast']",-1,[]
8742,4.0,"['chernobyl', 'accident', 'accident', 'nuclear_power', 'plant', 'nuclear_power', 'insanity']",-1,[]
8818,4.0,"['junior_brown', 'wife', 'think', 'dead']",-1,[]
8875,4.0,"['batfe', 'holder', 'senator', 'grassley']",-1,[]
8921,4.0,"['south_carolina', 'string_band', 'kill', 'yankee', 'soldier']",-1,[]
8955,4.0,"['mossad', 'agent', 'wolf', 'blitzer', 'attack', 'american_citizens', 'total', 'death', 'anthrax', 'attack', 'government', 'planning', 'mass_murder', 'american_citizens', 'american_citizens', 'remove', 'government', 'remove']",-1,[]
9167,4.0,"['rhonda_vincent', 'rage']",-1,[]
9316,4.0,"['mob', 'bos', 'murder', 'mob', 'rival']",-1,[]
9372,4.0,"['planning', 'road', 'trip', 'stop', 'stress']",-1,[]
9539,4.0,"['putin', 'hand', 'erdogan', 'kill', 'threat']",-1,[]
9582,4.0,"['hillary', 'supporter', 'rape', 'victim', 'story']",-1,[]
9665,4.0,"['job', 'kill', 'nazi']",-1,[]
9668,4.0,"['german', 'wrong', 'wrong', 'message', 'german', 'condition', 'nazi', 'guy', 'german', 'condition', 'associate', 'nazi', 'evil', 'shame', 'destruction', 'death', 'starvation']",-1,[]
9685,4.0,"['prince', 'charles', 'give', 'putin', 'insult', 'compare', 'hitler', 'putin', 'wrong', 'presstv', 'putin', 'prince', 'charles', 'hitler', 'remark', 'wrong']",-1,[]
9690,4.0,"['movie', 'nazi', 'terrorism', 'innocent', 'child', 'evil', 'nazi', 'watch', 'condition', 'hate', 'nazi']",-1,[]
9714,4.0,"['acp', 'kill', 'bad_guy', 'kill', 'work']",-1,[]
9716,4.0,"['attack', 'shyster', 'jew', 'rabbi', 'rabbi', 'fake', 'hate_crimes', 'turn', 'fake', 'police', 'complaint', 'prison']",-1,[]
9839,4.0,"['ukraine', 'citizen', 'devil', 'follower']",-1,[]
9858,4.0,['devil'],-1,[]
9869,4.0,"['gather', 'information', 'racist', 'creature', 'turkish', 'jew', 'semitic', 'jew', 'african', 'jew']",-1,[]
10230,4.0,"['mexican', 'black', 'people', 'mistake', 'mexican', 'africanized', 'indian', 'ability', 'contrary', 'intelligence', 'crime', 'mexican', 'watch', 'program', 'talmud', 'vision', 'dna', 'evidence', 'murder', 'victim', 'set', 'victim', 'burn', 'burn', 'dead', 'body', 'murder', 'victim', 'mexican', 'black', 'security', 'camera', 'set', 'victim', 'mexican', 'black', 'brain', 'cell', 'evil', 'criminal', 'intent', 'inferior', 'mexican', 'black', 'ability', 'hatch', 'victim']",-1,[]
10231,4.0,"['convict', 'murderer', 'texas', 'death', 'row', 'stay', 'execution', 'murder', 'victim', 'state', 'high', 'court', 'ruling', 'injection', 'n/5174185.html', 'government', 'occupation', 'soil', 'federal', 'court', 'dictatorship']",-1,[]
10256,4.0,"['criminal', 'farmer', 'branch', 'nation', 'apartment', 'mean', 'jail', 'criminal', 'dollar', 'property', 'damage', 'property', 'theft', 'mention', 'human', 'violent_crimes', 'horde', 'illegal_alien', 'criminal', 'crime', 'rape', 'murder', 'ton', 'drug', 'thug', 'criminal_aliens', 'time', 'apartment', 'build', 'house', 'law_abiding', 'tax', 'pay', 'human', 'lock', 'kick']",-1,[]
10279,4.0,"['power', 'detroit', 'chaos', 'disorder', 'normal', 'day', 'detroit']",-1,[]
10331,4.0,"['leftist', 'communism', 'hate', 'communist']",-1,[]
10365,4.0,"['tarahumara', 'kill', 'aztec']",-1,[]
10443,4.0,"['china', 'empty', 'city', 'bad', 'investment', 'good', 'economy']",-1,[]
10458,4.0,"['narrative', 'born', 'degenerate', 'freak', 'jew', 'african_behavior', 'born', 'right', 'campaign', 'african', 'rape', 'murder', 'run', 'born']",-1,[]
10484,4.0,"['put', 'game', 'rifle', 'hunter', 'animal', 'charge', 'speed', 'kill']",-1,[]
10506,4.0,"['place', 'world_savages', 'heaven', 'hell_hole', 'fault', 'fault', 'savage']",-1,[]
10542,4.0,"['weapon', 'kill', 'dead', 'item', 'uranium', 'child', 'nuclear_power', 'plant', 'weapon', 'construct', 'large', 'population', 'center', 'intention', 'mass_murder', 'savage', 'weapon', 'innocent', 'child', 'white', 'population']",-1,[]
10636,4.0,"['liar', 'cheat', 'swindler', 'deceiver', 'deviant', 'thief', 'pornographer', 'pedophile', 'degenerate', 'rapist', 'drug', 'dealer', 'homosexual', 'communist', 'white_genocide']",-1,[]
10655,4.0,"['african', 'kill', 'jordan', 'shoe', 'left', 'scene', 'wrong', 'size', 'dead', 'african']",-1,[]
10710,4.0,"['jew', 'white_folks', 'hate', 'jew', 'hate', 'return', 'jew', 'group']",-1,[]
10736,4.0,"['channel', 'gun', 'ammo', 'classic', 'weapon', 'shooting_sports', 'product', 'review', 'american_rifleman', 'history', 'weapon', 'product', 'cowboy', 'shooter', 'rifle', 'shotgun', 'cowboy', 'action', 'shoot', 'western', 'shooting_gallery', 'technique', 'shooting_sports', 'tv', 'shoot', 'instruction', 'defensive', 'info', 'dog', 'bird', 'dog', 'bird', 'hunt', 'history_channel', 'wild', 'west', 'tech', 'real', 'event', 'person', 'jewish_communist', 'anti-white_propaganda', 'record', 'house', 'slander']",-1,[]
10737,4.0,"['crime', 'primitive', 'african', 'savage', 'mexican', 'invader', 'america', 'safe', 'place', 'asian', 'respect', 'asian', 'asia', 'good']",-1,[]
10798,4.0,"['america', 'union', 'warp', 'rainbow', 'flag', 'cry', 'mascara', 'face']",-1,[]
10811,4.0,"['cruz', 'joke', 'kill', 'trump']",-1,[]
10856,4.0,"['trump', 'insider', 'real', 'trump', 'clinton', 'bush', 'crime', 'family', 'expose']",-1,[]
10901,4.0,"['medium', 'lie', 'hide', 'normal', 'attack', 'family', 'give', 'attack']",-1,[]
10907,4.0,"['son', 'kill', 'white_americans', 'issue']",-1,[]
10946,4.0,"['movie', 'prediction', 'movie', 'possession', 'uber', 'app', 'driver', 'shot', 'kill', 'intelligence', 'program', 'uber', 'app', 'watch', 'body', 'program', 'icon', 'change', 'normal', 'red', 'black', 'ai', 'control', 'driver', 'devil', 'head', 'app', 'driver', 'murder', 'time', 'recollection', 'action', 'driver', 'desire', 'person', 'ai', 'devil', 'body', 'watch', 'observer', 'time', 'icon', 'red', 'resume', 'job', 'uber', 'driver', 'time', 'black', 'ai', 'devil', 'control', 'body', 'report', 'suspect', 'kalamazoo', 'shooting', 'uber', 'app', 'chicago', 'tribune']",-1,[]
11113,4.0,"['winchester', 'stopping_power', 'weight=all', 'remington', 'stopping_power', 'weight=all']",-1,[]
11164,4.0,"['jewish_media', 'mafia', 'blackout', 'plan', 'false_flag', 'attack', 'medium', 'cover', 'turk', 'planning', 'false_flag', 'syria', 'war', 'youtube']",-1,['syria_war_-_youtube']
11204,4.0,"['attack', 'innocent', 'harm', 'play', 'victim']",-1,[]
11225,4.0,"['nazi', 'hate', 'alex_jones', 'alex_jones', 'jew', 'crime', 'jew', 'jew', 'hitler', 'jewish_leaders', 'hitler', 'round', 'jew', 'lie', 'jew', 'round', 'jew', 'crime', 'arrest', 'german', 'arrest', 'jew', 'jew', 'arrest', 'hitler', 'jew', 'sensitive', 'position', 'military', 'military', 'complex', 'hitler', 'issue', 'prisoner', 'cost', 'cause', 'german', 'citizen', 'food', 'medical', 'supply', 'short', 'supply', 'supply', 'prisoner', 'cause', 'german', 'civilian', 'general', 'patton', 'prisoner', 'bullet', 'head', 'order', 'soldier', 'prisoner', 'resource', 'alex_jones', 'jew', 'crime', 'guess', 'nazi', 'hate', 'hitler']",-1,[]
11248,4.0,"['brown', 'race', 'factor', 'mestizo', 'murder', 'african', 'murder', 'mestizo', 'reply']",-1,[]
11437,4.0,"['hawkwind', 'angel', 'light', 'angel', 'death']",-1,[]
11534,4.0,"['fish', 'kill', 'redondo', 'beach', 'marina', 'fish', 'float', 'water', 'layer', 'foot', 'thick', 'report', 'dead', 'fish', 'redondo', 'beach', 'dead', 'fish', 'redondo', 'beach', 'ktla.com']",-1,[]
11661,4.0,"['state', 'rep', 'grodon', 'hintz', 'death', 'threat', 'state', 'house', 'loony_leftists', 'resort', 'threat', 'violence', 'violence', 'truth', 'logic', 'side']",-1,[]
11736,4.0,"['christchurch', 'earthquake', 'dead', 'building']",-1,[]
11751,4.0,"['animal', 'death', 'gulf', 'oil', 'spill', 'cold', 'winter']",-1,[]
11779,4.0,"['communist', 'program', 'family']",-1,[]
11858,4.0,"['imperial', 'military', 'war']",-1,['eternal_war']
11882,4.0,"['tom_metzger', 'skinhead', 'guy', 'set', 'couch', 'potato', 'chip', 'watch', 'niggro', 'football', 'league', 'talmud-a-vision', 'white_girl', 'gang_raped', 'savage']",-1,[]
11899,4.0,"['wikileaks', 'expose', 'tax', 'cheat']",-1,[]
11954,4.0,"['kill', 'honey', 'bee']",-1,[]
11958,4.0,"['fund', 'transfer', 'attack', 'criminal', 'attack', 'accessory', 'mass_murder', 'criminal', 'german', 'technology', 'expose', 'zionist', 'crime', 'bush', 'family', 'crime', 'organization']",-1,[]
11987,4.0,"['kill', 'honey', 'bee']",-1,[]
12018,4.0,"['crime', 'scene']",-1,[]
12059,4.0,"['carbon_tax', 'western_world', 'explination', 'threat']",-1,[]
12126,4.0,"['ian', 'stuart', 'red', 'threat']",-1,[]
12129,4.0,"['tom_metzger', 'immigration', 'policy']",-1,[]
12279,4.0,"['lego_star', 'war', 'war', 'comic']",-1,[]
12392,4.0,"['obama', 'fraud']",-1,[]
12499,4.0,"['bill', 'cooper', 'hoax', 'alien', 'invasion', 'plan', 'nwo', 'bill', 'cooper', 'murder', 'program']",-1,[]
12500,4.0,"['nasa', 'fake', 'ufo', 'crash']",-1,[]
13093,4.0,"['deaths_head', 'annihilation']",-1,[]
13164,4.0,"['walk', 'dead', 'zombie', 'economy']",-1,[]
13258,4.0,"['yankee', 'allen', 'olson', 'call', 'patriot', 'racist', 'hate', 'group', 'yankee']",-1,[]
13292,4.0,"['bp', 'terrorist', 'release', 'exchange', 'libyan', 'oil']",-1,[]
