,topic_lda,bag_words,sa_score,events,rank
1920,0.0,"['spray', 'bullet', 'foliage', 'building', 'drop', 'ammo', 'burn', 'stay', 'pen', 'air', 'support', 'show', 'dollar', 'wort', 'napalm', 'explosive', 'work', 'day', 'backup', 'rifle', 'hit']",1,[],0.015753925
26,0.0,"['ar-10', 'rifle', 'today']",1,[],0.015077971
4880,0.0,"['kirsten', 'joy', 'wei', 'scorpion', 'target', 'pistol']",1,[],0.011245505
2036,0.0,"['gun', 'problem', 'problem']",1,[],0.011026515
7252,0.0,"['gun', 'rich']",1,[],0.011026515
9115,0.0,"['russian', 'fun', 'gun', 'review', 'fun']",1,[],0.011026515
4795,0.0,"['shoot', 'patriot', 'flintlock', 'freedom']",1,[],0.010738055
9565,0.0,"['website', 'price', 'ammo', 'web']",1,[],0.009040636999999999
548,0.0,"['african', 'shot', 'head', 'range', 'anti-whites', 'claim', 'planet', 'whitey']",1,[],0.007620883
5255,0.0,"['dude', 'perfect', 'tailgate', 'trick', 'shot']",1,[],0.007620883
12421,0.0,"['sheriff', 'richard', 'mack', 'judge', 'shot', 'sheriff', 'richard', 'mack', 'kind', 'word', 'judge', 'congress', 'woman']",1,[],0.007620883
